%!PS-Adobe-3.0 EPSF-3.0
%%Title: Sequence Logo : 
%%Creator: 
%%CreationDate: 
%%BoundingBox:   0  0  1.8e+03 1.8e+03
%%Pages: 0
%%DocumentFonts: 
%%EndComments

 % THIS FILE IS DERIVED FROM THE WEBLOGO PACKAGE
 % http://weblogo.berkeley.edu/
 %
 % WebLogo License
 %
 % Copyright (c) 2002 Regents of the University of California
 %
 % Permission is hereby granted, free of charge, to
 % any person obtaining a copy of this software and
 % associated documentation files (the 'Software'),
 % to deal in the Software without restriction,
 % including without limitation the rights to use,
 % copy, modify, merge, publish, distribute,
 % sublicense, and/or sell copies of the Software,
 % and to permit persons to whom the Software is
 % furnished to do so, subject to the following
 % conditions:
 %
 % The above copyright notice and this permission
 % notice shall be included in all copies or
 % substantial portions of the Software.
 %
 % THE SOFTWARE IS PROVIDED 'AS IS', WITHOUT
 % WARRANTY OF ANY KIND, EXPRESS OR IMPLIED,
 % INCLUDING BUT NOT LIMITED TO THE WARRANTIES OF
 % MERCHANTABILITY, FITNESS FOR A PARTICULAR
 % PURPOSE AND NONINFRINGEMENT. IN NO EVENT SHALL
 % THE AUTHORS OR COPYRIGHT HOLDERS BE LIABLE FOR
 % ANY CLAIM, DAMAGES OR OTHER LIABILITY, WHETHER
 % IN AN ACTION OF CONTRACT, TORT OR OTHERWISE,
 % ARISING FROM, OUT OF OR IN CONNECTION WITH THE
 % SOFTWARE OR THE USE OR OTHER DEALINGS IN THE
 % SOFTWARE.
 %
 % (This is the MIT Open Source License,
 % http://www.opensource.org/licenses/mit-license.html)
 
 % ---- CONSTANTS ----
 /cmfactor 72 2.54 div def % defines points -> cm conversion
 /cm {cmfactor mul} bind def % defines centimeters
 /cm2p {1 cmfactor div} bind def % reverse conversion cm -> points
 
 % ---- VARIABLES ----
 
 /black [0 0 0] def
 /red [0.8 0 0] def
 /green [0 0.8 0] def
 /blue [0 0 0.8] def
 /yellow [1 0.7 1.0] def
 /purple [0.8 0 0.8] def
 /orange [1 0.7 0] def
 
 
 
 /logoHeight 5 cm def
 /logoTitle () def
 
 /vGapSize 4 cm def
 
 /xPos 0 def
 
 /yaxis true def
 /yaxisLabel (bits) def
 /yaxisBits  2 def % bits
 /yaxisTicBits 1 def
 
 /Constraints (xyz) def
 /GapLength {5 cm} bind def
 /GapMiddle {GapLength 2 div} bind def
 
 /xaxis true def
 /xaxisLabel () def
 /showEnds (-) def % d: DNA, p: PROTEIN, -: none
 
 /showFineprint false def
 /fineprint (aln2pattern) def
 
 /logoLines 1 def
 
 /showingBox (n) def    %n s f
 /shrinking false def
 /shrink  0.5 def
 /outline false def
 
 /IbeamFraction  1 def
 /IbeamGray      0.50 def
 /IbeamLineWidth 0.5 def
 
 /fontsize       12 def
 /titleFontsize  14 def
 /smallFontsize   8 def
 
 /defaultColor black def
 
 % Standard DNA/RNA color scheme
 /colorDict <<
 (G)  orange
 (T)  red
 (C)  blue
 (A)  green
 (U)  red
 
 >> def
 
 % Standard DNA/RNA color scheme
 % /colorDict <<
 %   (G)  orange
 %   (T)  red
 %   (C)  blue
 %   (A)  green
 %   (U)  red
 % >> def
 
 % Standard Amino Acid colors
 %/colorDict <<
 %  (G)  green
 %  (S)  green
 %  (T)  green
 %  (Y)  green
 %  (C)  green
 %  (N)  purple
 %  (Q)  purple
 %  (K)  blue
 %  (R)  blue
 %  (H)  blue
 %  (D)  red
 %  (E)  red
 %  (P)  black
 %  (A)  black
 %  (W)  black
 %  (F)  black
 %  (L)  black
 %  (I)  black
 %  (M)  black
 %  (V)  black
 %>> def
 
 
 
 % ---- DERIVED PARAMETERS ----
 
 /leftMargin
 .25 cm
 %  fontsize 3.5 mul
 def
 
 /bottomMargin
 fontsize 0.75 mul
 
 % Add extra room for axis
 xaxis {fontsize 1.75 mul add } if
 xaxisLabel () eq {} {fontsize 0.75 mul add} ifelse
 def
 
 
 /topMargin
 logoTitle () eq { 10 }{titleFontsize 4 add} ifelse
 def
 
 /rightMargin
 %Add extra room if showing ends
 .25 cm
 def
 
 
 /yaxisHeight
 logoHeight
 bottomMargin sub
 topMargin sub
 def
 
 /ticWidth fontsize 2 div def
 
 /pointsPerBit yaxisHeight yaxisBits div  def
 
 /isBoxed
 showingBox (s) eq
 showingBox (f) eq or {
 true
 } {
 false
 } ifelse
 def
 
 /stackMargin 1 def
 
 % Do not add space aroung characters if characters are boxed
 %/charRightMargin
 %  isBoxed { 0.0 } {stackMargin} ifelse
 %def
 
 /charTopMargin
 isBoxed { 0.0 } {stackMargin} ifelse
 def
 
 %/charWidth
 %  logoWidth
 %  leftMargin sub
 %  rightMargin sub
 %  charRightMargin sub
 %def
 
 /charWidth
 1.5 cm
 def
 
 /charRightMargin
 0 cm
 def
 
 /charWidth4 charWidth 4 div def
 /charWidth2 charWidth 2 div def
 
 /stackWidth
 charWidth charRightMargin add
 def
 
 /numOfCols
 1
 def
 
 /logoWidth
 numOfCols stackWidth mul
 def
 
 /numberFontsize
 fontsize charWidth lt {fontsize 2 mul}{charWidth} ifelse
 def
 
 % movements to place 5'/N and 3'/C symbols
 /leftEndDeltaX  fontsize neg         def
 /leftEndDeltaY  fontsize 1.5 mul neg def
 /rightEndDeltaX fontsize 0.25 mul     def
 /rightEndDeltaY leftEndDeltaY        def
 
 % Outline width is proporional to charWidth,
 % but no less that 1 point
 /outlinewidth
 charWidth 32 div dup 1 gt  {}{pop 1} ifelse
 def
 
 
 % ---- PROCEDURES ----
 
 /StartLogo {
 % Save state
 save
 gsave
 
 % Print Logo Title, top center
 %gsave
 %  SetTitleFont
 
 %  logoWidth 2 div
 %  logoTitle
 %  stringwidth pop 2 div sub
 %  logoHeight logoLines mul
 %  titleFontsize sub
 %  moveto
 
 %  logoTitle
 %  show
 %grestore
 
 % Print X-axis label, bottom center
 %gsave
 %  SetStringFont
 
 %  logoWidth 2 div
 %  xaxisLabel stringwidth pop 2 div sub
 %  fontsize 3 div
 %  moveto
 
 %  xaxisLabel
 %  show
 %grestore
 
 % Show Fine Print
 %showFineprint {
 %  gsave
 %    SetSmallFont
 %    logoWidth
 %      fineprint stringwidth pop sub
 %      smallFontsize sub
 %        smallFontsize 3 div
 %    moveto
 
 %    fineprint show
 %  grestore
 %} if
 
 % Move to lower left corner of last line, first stack
 leftMargin bottomMargin translate
 
 % Move above first line ready for StartLine
 0 logoLines logoHeight mul translate
 
 SetLogoFont
 } def
 
 /EndLogo {
 grestore
 restore
 } def
 
 
 /StartLine{
 % move down to the bottom of the line:
 0 logoHeight neg translate
 
 gsave
 yaxis { MakeYaxis } if
 xaxis { ShowLeftEnd } if
 } def
 
 /EndLine{
 xaxis { ShowRightEnd } if
 grestore
 } def
 
 
 /MakeYaxis {
 gsave
 stackMargin 60 add neg 0 translate
 ShowYaxisBar
 ShowYaxisLabel
 grestore
 } def
 
 
 /ShowYaxisBar {
 gsave
 SetStringFont
 
 /str 10 string def % string to hold number
 /smallgap stackMargin 2 div def
 
 % Draw first tic and bar
 gsave
 ticWidth neg 0 moveto
 ticWidth 0 rlineto
 0 yaxisHeight rlineto
 stroke
 grestore
 
 
 % Draw the tics
 % initial increment limit proc for
 0 yaxisTicBits yaxisBits abs %cvi
 {/loopnumber exch def
 
 % convert the number coming from the loop to a string
 % and find its width
 loopnumber 10 str cvrs
 /stringnumber exch def % string representing the number
 
 stringnumber stringwidth pop
 /numberwidth exch def % width of number to show
 
 /halfnumberheight
 stringnumber CharBoxHeight 2 div
 def
 
 numberwidth % move back width of number
 neg loopnumber pointsPerBit mul % shift on y axis
 halfnumberheight sub % down half the digit
 
 moveto % move back the width of the string
 
 ticWidth neg smallgap sub % Move back a bit more
 0 rmoveto % move back the width of the tic
 
 stringnumber show
 smallgap 0 rmoveto % Make a small gap
 
 % now show the tic mark
 0 halfnumberheight rmoveto % shift up again
 ticWidth 0 rlineto
 stroke
 } for
 grestore
 } def
 
 /ShowYaxisLabel {
 gsave
 SetStringFont
 
 % How far we move left depends on the size of
 % the tic labels.
 /str 10 string def % string to hold number
 yaxisBits yaxisTicBits div cvi yaxisTicBits mul
 str cvs stringwidth pop
 ticWidth 1.5 mul  add neg
 
 
 yaxisHeight
 yaxisLabel stringwidth pop
 sub 2 div
 
 translate
 90 rotate
 0 0 moveto
 yaxisLabel show
 grestore
 } def
 
 
 /StartStack {  % <stackNumber> startstack
 xaxis {MakeNumber}{pop} ifelse
 gsave
 } def
 
 /EndStack {
 grestore
 stackWidth 0 translate
 } def
 
 
 % Draw a character whose height is proportional to symbol bits
 /MakeSymbol{ % charbits character MakeSymbol
 gsave
 /char exch def
 /bits exch def
 
 /bitsHeight
 bits pointsPerBit mul
 def
 
 /charHeight
 bitsHeight charTopMargin sub
 dup
 0.0 gt {}{pop 0.0} ifelse % if neg replace with zero
 def
 
 charHeight 0.0 gt {
 char SetColor
 charWidth charHeight char ShowChar
 
 showingBox (s) eq { % Unfilled box
 0 0 charWidth charHeight false ShowBox
 } if
 
 showingBox (f) eq { % Filled box
 0 0 charWidth charHeight true ShowBox
 } if
 
 } if
 
 grestore
 
 0 bitsHeight translate
 } def
 
 
 /ShowChar { % <width> <height> <char> ShowChar
 gsave
 /tc exch def    % The character
 /ysize exch def % the y size of the character
 /xsize exch def % the x size of the character
 
 /xmulfactor 1 def
 /ymulfactor 1 def
 
 
 % if ysize is negative, make everything upside down!
 ysize 0 lt {
 % put ysize normal in this orientation
 /ysize ysize abs def
 xsize ysize translate
 180 rotate
 } if
 
 shrinking {
 xsize 1 shrink sub 2 div mul
 ysize 1 shrink sub 2 div mul translate
 
 shrink shrink scale
 } if
 
 % Calculate the font scaling factors
 % Loop twice to catch small correction due to first scaling
 2 {
 gsave
 xmulfactor ymulfactor scale
 
 ysize % desired size of character in points
 tc CharBoxHeight
 dup 0.0 ne {
 div % factor by which to scale up the character
 /ymulfactor exch def
 } % end if
 {pop pop}
 ifelse
 
 xsize % desired size of character in points
 tc CharBoxWidth
 dup 0.0 ne {
 div % factor by which to scale up the character
 /xmulfactor exch def
 } % end if
 {pop pop}
 ifelse
 grestore
 } repeat
 
 % Adjust horizontal position if the symbol is an I
 tc (I) eq {
 charWidth 2 div % half of requested character width
 tc CharBoxWidth 2 div % half of the actual character
 sub 0 translate
 % Avoid x scaling for I
 /xmulfactor 1 def
 } if
 
 
 % ---- Finally, draw the character
 
 newpath
 xmulfactor ymulfactor scale
 
 % Move lower left corner of character to start point
 tc CharBox pop pop % llx lly : Lower left corner
 exch neg exch neg
 moveto
 
 outline {  % outline characters:
 outlinewidth setlinewidth
 tc true charpath
 gsave 1 setgray fill grestore
 clip stroke
 } { % regular characters
 tc show
 } ifelse
 
 grestore
 } def
 
 
 /ShowBox { % x1 y1 x2 y2 filled ShowBox
 gsave
 /filled exch def
 /y2 exch def
 /x2 exch def
 /y1 exch def
 /x1 exch def
 newpath
 x1 y1 moveto
 x2 y1 lineto
 x2 y2 lineto
 x1 y2 lineto
 closepath
 
 clip
 
 filled {
 fill
 }{
 0 setgray stroke
 } ifelse
 
 grestore
 } def
 
 
 /MakeNumber { % number MakeNumber
 gsave
 SetNumberFont
 stackWidth 0 translate
 90 rotate % rotate so the number fits
 dup stringwidth pop % find the length of the number
 neg % prepare for move
 stackMargin sub % Move back a bit
 charWidth (0) CharBoxHeight % height of numbers
 sub 2 div %
 moveto % move back to provide space
 show
 grestore
 } def
 
 
 /Ibeam{ % heightInBits Ibeam
 gsave
 % Make an Ibeam of twice the given height in bits
 /height exch  pointsPerBit mul def
 /heightDRAW height IbeamFraction mul def
 
 IbeamLineWidth setlinewidth
 IbeamGray setgray
 
 charWidth2 height neg translate
 ShowIbar
 newpath
 0 0 moveto
 0 heightDRAW rlineto
 stroke
 newpath
 0 height moveto
 0 height rmoveto
 currentpoint translate
 ShowIbar
 newpath
 0 0 moveto
 0 heightDRAW neg rlineto
 currentpoint translate
 stroke
 grestore
 } def
 
 
 /ShowIbar { % make a horizontal bar
 gsave
 newpath
 charWidth4 neg 0 moveto
 charWidth4 0 lineto
 stroke
 grestore
 } def
 
 
 /ShowLeftEnd {
 gsave
 SetStringFont
 leftEndDeltaX leftEndDeltaY moveto
 showEnds (d) eq {(5) show ShowPrime} if
 showEnds (p) eq {(N) show} if
 grestore
 } def
 
 
 /ShowRightEnd {
 gsave
 SetStringFont
 rightEndDeltaX rightEndDeltaY moveto
 showEnds (d) eq {(3) show ShowPrime} if
 showEnds (p) eq {(C) show} if
 grestore
 } def
 
 
 /ShowPrime {
 gsave
 SetPrimeFont
 (242) show
 grestore
 } def
 
 
 /SetColor{ % <char> SetColor
 dup colorDict exch known {
 colorDict exch get aload pop setrgbcolor
 } {
 pop
 defaultColor aload pop setrgbcolor
 } ifelse
 } def
 
 % define fonts
 /SetTitleFont {/Times-Bold findfont titleFontsize scalefont setfont} bind def
 /SetLogoFont  {/Helvetica-Narrow-Bold findfont charWidth  scalefont setfont} bind def
 /SetStringFont{/Helvetica findfont fontsize 2 mul scalefont setfont} bind def
 /SetConstraintsFont{/Times-Italic findfont fontsize 3 mul scalefont setfont} bind def
 /SetPrimeFont {/Symbol findfont fontsize scalefont setfont} bind def
 /SetSmallFont {/Helvetica findfont smallFontsize scalefont setfont} bind def
 
 /SetNumberFont {
 /Helvetica findfont
 numberFontsize
 scalefont
 setfont
 } bind def
 
 %Take a single character and return the bounding box
 /CharBox { % <char> CharBox <lx> <ly> <ux> <uy>
 gsave
 newpath
 0 0 moveto
 % take the character off the stack and use it here:
 true charpath
 flattenpath
 pathbbox % compute bounding box of 1 pt. char => lx ly ux uy
 % the path is here, but toss it away ...
 grestore
 } bind def
 
 
 % The height of a characters bounding box
 /CharBoxHeight { % <char> CharBoxHeight <num>
 CharBox
 exch pop sub neg exch pop
 } bind def
 
 
 % The width of a characters bounding box
 /CharBoxWidth { % <char> CharBoxHeight <num>
 CharBox
 pop exch pop sub neg
 } bind def
 
 /DrawBox { % <string> DrawBox
 newpath
 0 cm 0 cm moveto
 logoWidth 0 cm rlineto
 0 cm logoHeight rlineto
 logoWidth neg 0 cm rlineto
 0 logoHeight neg rlineto
 stroke
 newpath
 SetConstraintsFont
 dup stringwidth pop neg
 logoWidth add 2 div logoHeight .3 cm add moveto
 show
 } def
 
 /DrawGap { % <string> DrawGap
 yaxis false def
 logoWidth logoHeight 2 div translate
 newpath
 0 0 moveto
 GapLength 0 rlineto
 stroke
 newpath
 SetConstraintsFont
 dup
 stringwidth pop 2 div
 neg GapMiddle add .3 cm moveto
 show
 GapLength logoHeight 2 div neg translate
 } def
 
 /DrawBreakGap { % <num> <string> DrawGap
 yaxis false def
 logoWidth logoHeight 2 div translate
 gsave
 newpath
 SetConstraintsFont
 dup
 stringwidth pop 2 div
 neg GapMiddle add .3 cm moveto
 show
 grestore
 newpath
 0 0 moveto
 GapLength 0 rlineto
 0 logoHeight vGapSize add 2 div neg rlineto
 dup neg 0 rlineto
 0 logoHeight vGapSize add 2 div neg rlineto
 GapLength 2 div 0 rlineto
 stroke
 neg GapLength 3 mul 2 div add logoHeight vGapSize add
 logoHeight 2 div add neg translate
 } def
 
 % Deprecated names
 /startstack {StartStack} bind def
 /endstack {EndStack}     bind def
 /makenumber {MakeNumber} bind def
 /numchar { MakeSymbol }  bind def
 
 
 /M0 {
/numOfCols 9 def
/logoWidth 14 cm def
(0.81 / 2)
DrawBox
StartLogo
StartLine % line number 1
(0) startstack
0.018  (T) numchar
0.036  (A) numchar
0.072  (G) numchar
0.09  (C) numchar
endstack
(1) startstack
0.018  (C) numchar
0.036  (A) numchar
0.072  (T) numchar
0.09  (G) numchar
endstack
(2) startstack
0.018  (T) numchar
0.036  (C) numchar
0.072  (G) numchar
0.09  (A) numchar
endstack
(3) startstack
0.018  (A) numchar
0.036  (T) numchar
0.072  (G) numchar
0.09  (C) numchar
endstack
(4) startstack
0.018  (A) numchar
0.036  (G) numchar
0.072  (C) numchar
0.09  (T) numchar
endstack
(5) startstack
2  (T) numchar
endstack
(6) startstack
0.018  (G) numchar
0.036  (C) numchar
0.072  (T) numchar
0.09  (A) numchar
endstack
(7) startstack
0.26  (T) numchar
1  (A) numchar
endstack
(8) startstack
0.36  (A) numchar
0.72  (T) numchar
endstack
EndLine
EndLogo
} def

/M1 {
/numOfCols 9 def
/logoWidth 14 cm def
(0.56 / 1)
DrawBox
StartLogo
StartLine % line number 1
(0) startstack
0.1  (T) numchar
0.15  (G) numchar
0.36  (A) numchar
endstack
(1) startstack
0.056  (A) numchar
0.28  (G) numchar
0.34  (T) numchar
endstack
(2) startstack
0.037  (A) numchar
0.037  (C) numchar
0.11  (G) numchar
0.26  (T) numchar
endstack
(3) startstack
0.068  (T) numchar
0.2  (C) numchar
0.54  (G) numchar
endstack
(4) startstack
0.018  (T) numchar
0.036  (G) numchar
0.072  (A) numchar
0.09  (C) numchar
endstack
(5) startstack
0.012  (T) numchar
0.036  (C) numchar
0.048  (A) numchar
0.048  (G) numchar
endstack
(6) startstack
0.09  (T) numchar
0.18  (G) numchar
0.27  (C) numchar
endstack
(7) startstack
0.11  (T) numchar
0.16  (C) numchar
0.16  (G) numchar
endstack
(8) startstack
0.023  (A) numchar
0.045  (G) numchar
0.068  (C) numchar
0.14  (T) numchar
endstack
EndLine
EndLogo
} def

/M2 {
/numOfCols 3 def
/logoWidth 5.5 cm def
(0 / 3)
DrawBox
StartLogo
StartLine % line number 1
(0) startstack
0.092  (T) numchar
0.18  (G) numchar
0.23  (A) numchar
endstack
(1) startstack
0.092  (A) numchar
0.18  (G) numchar
0.23  (T) numchar
endstack
(2) startstack
0.089  (C) numchar
0.18  (T) numchar
0.35  (A) numchar
endstack
EndLine
EndLogo
} def

/M3 {
/numOfCols 3 def
/logoWidth 5.5 cm def
(0 / 3)
DrawBox
StartLogo
StartLine % line number 1
(0) startstack
0.016  (A) numchar
0.032  (C) numchar
0.064  (G) numchar
0.064  (T) numchar
endstack
(1) startstack
0.1  (A) numchar
0.15  (C) numchar
0.31  (T) numchar
endstack
(2) startstack
0.059  (G) numchar
0.3  (A) numchar
0.3  (T) numchar
endstack
EndLine
EndLogo
} def

/M4 {
/numOfCols 5 def
/logoWidth 8.5 cm def
(0.56 / 0)
DrawBox
StartLogo
StartLine % line number 1
(0) startstack
0.032  (T) numchar
0.064  (C) numchar
0.064  (G) numchar
0.23  (A) numchar
endstack
(1) startstack
0.031  (C) numchar
0.031  (G) numchar
0.12  (T) numchar
0.19  (A) numchar
endstack
(2) startstack
0.43  (T) numchar
0.6  (C) numchar
endstack
(3) startstack
0.1  (C) numchar
0.15  (G) numchar
0.36  (T) numchar
endstack
(4) startstack
0.36  (T) numchar
0.72  (G) numchar
endstack
EndLine
EndLogo
} def

/M5 {
/numOfCols 2 def
/logoWidth 4 cm def
(0.36 / 0)
DrawBox
StartLogo
StartLine % line number 1
(0) startstack
0.3  (T) numchar
0.89  (C) numchar
endstack
(1) startstack
0.1  (T) numchar
0.15  (G) numchar
0.36  (A) numchar
endstack
EndLine
EndLogo
} def

/M6 {
/numOfCols 2 def
/logoWidth 4 cm def
(0.1 / 0)
DrawBox
StartLogo
StartLine % line number 1
(0) startstack
0.13  (A) numchar
1.5  (T) numchar
endstack
(1) startstack
0.06  (A) numchar
0.24  (C) numchar
0.42  (G) numchar
endstack
EndLine
EndLogo
} def

/M7 {
/numOfCols 4 def
/logoWidth 7 cm def
(0.82 / 0)
DrawBox
StartLogo
StartLine % line number 1
(0) startstack
0.36  (A) numchar
0.72  (C) numchar
endstack
(1) startstack
0.068  (T) numchar
0.2  (A) numchar
0.54  (G) numchar
endstack
(2) startstack
0.056  (T) numchar
0.28  (A) numchar
0.34  (G) numchar
endstack
(3) startstack
2  (G) numchar
endstack
EndLine
EndLogo
} def

/M8 {
/numOfCols 6 def
/logoWidth 10 cm def
(0.42 / 1)
DrawBox
StartLogo
StartLine % line number 1
(0) startstack
0.016  (A) numchar
0.016  (G) numchar
0.016  (T) numchar
0.031  (C) numchar
endstack
(1) startstack
0.018  (A) numchar
0.036  (T) numchar
0.072  (G) numchar
0.09  (C) numchar
endstack
(2) startstack
0.22  (G) numchar
1.1  (C) numchar
endstack
(3) startstack
0.086  (G) numchar
0.22  (C) numchar
0.22  (T) numchar
endstack
(4) startstack
0.06  (C) numchar
0.24  (A) numchar
0.42  (T) numchar
endstack
(5) startstack
0.023  (T) numchar
0.045  (C) numchar
0.068  (G) numchar
0.14  (A) numchar
endstack
EndLine
EndLogo
} def

/M9 {
/numOfCols 6 def
/logoWidth 10 cm def
(0.46 / 0)
DrawBox
StartLogo
StartLine % line number 1
(0) startstack
0.018  (C) numchar
0.036  (G) numchar
0.072  (T) numchar
0.09  (A) numchar
endstack
(1) startstack
0.015  (C) numchar
0.044  (A) numchar
0.044  (G) numchar
0.073  (T) numchar
endstack
(2) startstack
0.018  (C) numchar
0.036  (A) numchar
0.072  (T) numchar
0.09  (G) numchar
endstack
(3) startstack
0.22  (C) numchar
1.1  (G) numchar
endstack
(4) startstack
0.018  (T) numchar
0.036  (A) numchar
0.072  (C) numchar
0.09  (G) numchar
endstack
(5) startstack
0.5  (C) numchar
0.5  (T) numchar
endstack
EndLine
EndLogo
} def

/M10 {
/numOfCols 2 def
/logoWidth 4 cm def
(0.37 / 0)
DrawBox
StartLogo
StartLine % line number 1
(0) startstack
0.43  (C) numchar
0.6  (T) numchar
endstack
(1) startstack
0.22  (T) numchar
1.1  (C) numchar
endstack
EndLine
EndLogo
} def

/M11 {
/numOfCols 6 def
/logoWidth 10 cm def
(0.72 / 0)
DrawBox
StartLogo
StartLine % line number 1
(0) startstack
0.068  (A) numchar
0.2  (T) numchar
0.54  (C) numchar
endstack
(1) startstack
0.36  (T) numchar
0.72  (G) numchar
endstack
(2) startstack
0.06  (T) numchar
0.24  (G) numchar
0.42  (C) numchar
endstack
(3) startstack
0.13  (T) numchar
1.5  (A) numchar
endstack
(4) startstack
2  (G) numchar
endstack
(5) startstack
0.13  (G) numchar
1.5  (C) numchar
endstack
EndLine
EndLogo
} def

/M12 {
/numOfCols 4 def
/logoWidth 7 cm def
(0.25 / 0)
DrawBox
StartLogo
StartLine % line number 1
(0) startstack
0.056  (T) numchar
0.28  (G) numchar
0.34  (A) numchar
endstack
(1) startstack
0.13  (C) numchar
1.5  (T) numchar
endstack
(2) startstack
0.08  (A) numchar
0.16  (T) numchar
0.72  (C) numchar
endstack
(3) startstack
0.068  (A) numchar
0.2  (T) numchar
0.54  (C) numchar
endstack
EndLine
EndLogo
} def

/M13 {
/numOfCols 7 def
/logoWidth 12 cm def
(0.48 / 5)
DrawBox
StartLogo
StartLine % line number 1
(0) startstack
0.11  (G) numchar
0.15  (A) numchar
0.19  (T) numchar
endstack
(1) startstack
0.086  (C) numchar
0.22  (A) numchar
0.22  (T) numchar
endstack
(2) startstack
0.46  (T) numchar
0.55  (C) numchar
endstack
(3) startstack
0.0035  (C) numchar
0.0052  (A) numchar
0.0052  (G) numchar
0.0052  (T) numchar
endstack
(4) startstack
0.1  (T) numchar
0.16  (G) numchar
0.21  (A) numchar
endstack
(5) startstack
0.1  (C) numchar
0.16  (A) numchar
0.21  (T) numchar
endstack
(6) startstack
0.12  (C) numchar
0.12  (T) numchar
0.25  (A) numchar
endstack
EndLine
EndLogo
} def

/M14 {
/numOfCols 7 def
/logoWidth 12 cm def
(0 / 7)
DrawBox
StartLogo
StartLine % line number 1
(0) startstack
2  (T) numchar
endstack
(1) startstack
0.36  (A) numchar
0.72  (T) numchar
endstack
(2) startstack
0.089  (T) numchar
0.18  (G) numchar
0.35  (A) numchar
endstack
(3) startstack
0.12  (A) numchar
0.12  (G) numchar
0.25  (T) numchar
endstack
(4) startstack
0.13  (G) numchar
0.13  (T) numchar
0.38  (A) numchar
endstack
(5) startstack
0.059  (T) numchar
0.3  (A) numchar
0.3  (G) numchar
endstack
(6) startstack
0.035  (C) numchar
0.035  (G) numchar
0.1  (T) numchar
0.21  (A) numchar
endstack
EndLine
EndLogo
} def

/M15 {
/numOfCols 4 def
/logoWidth 7 cm def
(0.52 / 0)
DrawBox
StartLogo
StartLine % line number 1
(0) startstack
0.11  (G) numchar
0.15  (A) numchar
0.19  (T) numchar
endstack
(1) startstack
0.36  (A) numchar
0.72  (G) numchar
endstack
(2) startstack
0.11  (T) numchar
0.15  (G) numchar
0.19  (A) numchar
endstack
(3) startstack
0.1  (G) numchar
0.15  (T) numchar
0.36  (A) numchar
endstack
EndLine
EndLogo
} def

/M16 {
/numOfCols 2 def
/logoWidth 4 cm def
(0.13 / 0)
DrawBox
StartLogo
StartLine % line number 1
(0) startstack
0.13  (C) numchar
1.5  (G) numchar
endstack
(1) startstack
0.22  (C) numchar
1.1  (T) numchar
endstack
EndLine
EndLogo
} def

/M17 {
/numOfCols 1 def
/logoWidth 2.5 cm def
(0.6 / 0)
DrawBox
StartLogo
StartLine % line number 1
(0) startstack
0.11  (C) numchar
0.15  (G) numchar
0.19  (A) numchar
endstack
EndLine
EndLogo
} def

/M18 {
/numOfCols 5 def
/logoWidth 8.5 cm def
(0.65 / 0)
DrawBox
StartLogo
StartLine % line number 1
(0) startstack
2  (G) numchar
endstack
(1) startstack
0.13  (G) numchar
1.5  (A) numchar
endstack
(2) startstack
2  (C) numchar
endstack
(3) startstack
0.13  (C) numchar
1.5  (T) numchar
endstack
(4) startstack
0.36  (C) numchar
0.72  (A) numchar
endstack
EndLine
EndLogo
} def

/M19 {
/numOfCols 2 def
/logoWidth 4 cm def
(0.87 / 0)
DrawBox
StartLogo
StartLine % line number 1
(0) startstack
0.056  (A) numchar
0.28  (C) numchar
0.34  (T) numchar
endstack
(1) startstack
2  (G) numchar
endstack
EndLine
EndLogo
} def

/M20 {
/numOfCols 5 def
/logoWidth 8.5 cm def
(0.58 / 0)
DrawBox
StartLogo
StartLine % line number 1
(0) startstack
0.36  (A) numchar
0.72  (C) numchar
endstack
(1) startstack
0.12  (C) numchar
0.12  (G) numchar
0.25  (A) numchar
endstack
(2) startstack
0.36  (A) numchar
0.72  (G) numchar
endstack
(3) startstack
0.012  (G) numchar
0.036  (T) numchar
0.048  (A) numchar
0.048  (C) numchar
endstack
(4) startstack
0.06  (G) numchar
0.24  (T) numchar
0.42  (C) numchar
endstack
EndLine
EndLogo
} def

/M21 {
/numOfCols 9 def
/logoWidth 14 cm def
(0.61 / 2)
DrawBox
StartLogo
StartLine % line number 1
(0) startstack
0.015  (C) numchar
0.044  (A) numchar
0.044  (G) numchar
0.073  (T) numchar
endstack
(1) startstack
0.09  (G) numchar
0.18  (T) numchar
0.27  (C) numchar
endstack
(2) startstack
0.018  (A) numchar
0.036  (G) numchar
0.072  (T) numchar
0.09  (C) numchar
endstack
(3) startstack
0.068  (C) numchar
0.2  (A) numchar
0.54  (T) numchar
endstack
(4) startstack
0.048  (C) numchar
0.048  (G) numchar
0.097  (T) numchar
0.39  (A) numchar
endstack
(5) startstack
0.023  (C) numchar
0.045  (T) numchar
0.068  (G) numchar
0.14  (A) numchar
endstack
(6) startstack
0.014  (G) numchar
0.014  (T) numchar
0.027  (A) numchar
0.027  (C) numchar
endstack
(7) startstack
0.13  (G) numchar
0.13  (T) numchar
0.44  (A) numchar
endstack
(8) startstack
0.092  (G) numchar
0.18  (T) numchar
0.23  (A) numchar
endstack
EndLine
EndLogo
} def

/M22 {
/numOfCols 9 def
/logoWidth 14 cm def
(0.5 / 5)
DrawBox
StartLogo
StartLine % line number 1
(0) startstack
0.1  (G) numchar
0.15  (T) numchar
0.26  (A) numchar
endstack
(1) startstack
0.1  (T) numchar
0.15  (A) numchar
0.31  (G) numchar
endstack
(2) startstack
0.029  (C) numchar
0.029  (G) numchar
0.12  (T) numchar
0.15  (A) numchar
endstack
(3) startstack
0.066  (A) numchar
0.066  (G) numchar
0.066  (T) numchar
0.53  (C) numchar
endstack
(4) startstack
0.092  (C) numchar
0.18  (T) numchar
0.23  (G) numchar
endstack
(5) startstack
0.08  (G) numchar
0.16  (T) numchar
0.72  (A) numchar
endstack
(6) startstack
0.018  (T) numchar
0.036  (C) numchar
0.072  (A) numchar
0.09  (G) numchar
endstack
(7) startstack
0.12  (A) numchar
0.12  (T) numchar
0.5  (G) numchar
endstack
(8) startstack
0.015  (G) numchar
0.044  (C) numchar
0.044  (T) numchar
0.073  (A) numchar
endstack
EndLine
EndLogo
} def

/M23 {
/numOfCols 6 def
/logoWidth 10 cm def
(0.83 / 0)
DrawBox
StartLogo
StartLine % line number 1
(0) startstack
0.36  (G) numchar
0.72  (T) numchar
endstack
(1) startstack
0.13  (G) numchar
1.5  (A) numchar
endstack
(2) startstack
2  (G) numchar
endstack
(3) startstack
2  (T) numchar
endstack
(4) startstack
2  (C) numchar
endstack
(5) startstack
0.11  (G) numchar
0.15  (C) numchar
0.19  (T) numchar
endstack
EndLine
EndLogo
} def

/M24 {
/numOfCols 5 def
/logoWidth 8.5 cm def
(0.33 / 0)
DrawBox
StartLogo
StartLine % line number 1
(0) startstack
0.015  (A) numchar
0.044  (C) numchar
0.044  (G) numchar
0.073  (T) numchar
endstack
(1) startstack
0.09  (C) numchar
0.18  (A) numchar
0.27  (T) numchar
endstack
(2) startstack
0.06  (G) numchar
0.24  (A) numchar
0.42  (C) numchar
endstack
(3) startstack
0.09  (C) numchar
0.18  (T) numchar
0.27  (A) numchar
endstack
(4) startstack
0.015  (C) numchar
0.044  (A) numchar
0.044  (G) numchar
0.073  (T) numchar
endstack
EndLine
EndLogo
} def

/M25 {
/numOfCols 5 def
/logoWidth 8.5 cm def
(0.47 / 0)
DrawBox
StartLogo
StartLine % line number 1
(0) startstack
0.0068  (T) numchar
0.01  (A) numchar
0.01  (G) numchar
0.014  (C) numchar
endstack
(1) startstack
0.09  (G) numchar
0.18  (A) numchar
0.27  (T) numchar
endstack
(2) startstack
0.015  (C) numchar
0.044  (A) numchar
0.044  (G) numchar
0.073  (T) numchar
endstack
(3) startstack
0.023  (T) numchar
0.045  (G) numchar
0.068  (C) numchar
0.14  (A) numchar
endstack
(4) startstack
0.015  (A) numchar
0.044  (G) numchar
0.044  (T) numchar
0.073  (C) numchar
endstack
EndLine
EndLogo
} def



GapLength 56 cm translate
M0
/yaxis false def

(3..28)
DrawGap
M1
(2..3)
DrawGap
M2
52 cm
(0..48)
DrawBreakGap
M3
(1..103)
DrawGap
M4
(1..1)
DrawGap
M5
(2..3)
DrawGap
M6
(0..1)
DrawGap
M7
56 cm
(3..3)
DrawBreakGap
M8
(1..113)
DrawGap
M9
(2..2)
DrawGap
M10
(0..1)
DrawGap
M11
56 cm
(3..3)
DrawBreakGap
M12
(3..4)
DrawGap
M13
(0..27)
DrawGap
M14
(2..3)
DrawGap
M15
60 cm
(3..3)
DrawBreakGap
M16
(3..3)
DrawGap
M17
(1..1)
DrawGap
M18
(2..41)
DrawGap
M19
(1..1)
DrawGap
M20
55 cm
(1..1)
DrawBreakGap
M21
(0..262)
DrawGap
M22
(8..8)
DrawGap
M23
56 cm
(5..5)
DrawBreakGap
M24
(4..4)
DrawGap
M25
showpage

%%EOF

