%!PS-Adobe-3.0 EPSF-3.0
%%Creator: PS_dot.c,v 1.38 2007/02/02 15:18:13 ivo Exp $, ViennaRNA-2.0.7
%%CreationDate: Tue Sep 25 12:28:35 2012
%%Title: RNA Secondary Structure Plot
%%BoundingBox: 66 210 518 662
%%DocumentFonts: Helvetica
%%Pages: 1
%%EndComments

%Options: -d2 
% to switch off outline pairs of sequence comment or
% delete the appropriate line near the end of the file

%%BeginProlog
/RNAplot 100 dict def
RNAplot begin
/fsize  14 def
/outlinecolor {0.2 setgray} bind def
/paircolor    {0.2 setgray} bind def
/seqcolor     {0   setgray} bind def
/cshow  { dup stringwidth pop -2 div fsize -3 div rmoveto show} bind def
/min { 2 copy gt { exch } if pop } bind def
/max { 2 copy lt { exch } if pop } bind def
/arccoords { % i j arccoords
  % puts optimal x1 y1 x2 y2 coordinates used in bezier curves from i to j
  % onto the stack
  dup 3 -1 roll dup 4 -1 roll lt dup dup 5 2 roll {exch} if
  dup 3 -1 roll dup 3 -1 roll exch sub 1 sub dup
  4 -2 roll 5 -1 roll {exch} if 4 2 roll
  sequence length dup 2 div exch 3 1 roll lt 
  {exch 5 -1 roll pop 4 -2 roll exch 4 2 roll}
  { 4 2 roll 5 -1 roll dup 6 1 roll {exch} if
    4 -2 roll exch pop dup 3 -1 roll dup 4 1 roll
    exch add 4 -1 roll dup 5 1 roll sub 1 sub
    5 -1 roll not {4 -2 roll exch 4 2 roll} if
  }ifelse
   % compute the scalingfactor and prepare (1-sf) and sf*r
  2 mul exch cpr 3 1 roll div dup
  3 -1 roll mul exch 1 exch sub exch
   % compute the coordinates
  3 -1 roll 1 sub coor exch get aload pop % get coord for i
  4 -1 roll dup 5 1 roll mul 3 -1 roll dup 4 1 roll add exch % calculate y1
  4 -1 roll dup 5 1 roll mul 3 -1 roll dup 4 1 roll add exch % calculate x1
  5 -1 roll 1 sub coor exch get aload pop % get coord for j
  % duplicate j coord
  dup 3 -1 roll dup 4 1 roll exch 8 2 roll
  6 -1 roll dup 7 1 roll mul 5 -1 roll dup 6 1 roll add exch % calculate y2
  6 -1 roll mul 5 -1 roll add exch % calculate x2
  6 -2 roll % reorder
} bind def
/drawoutline {
  gsave outlinecolor newpath
  coor 0 get aload pop 0.8 0 360 arc % draw 5' circle of 1st sequence
  currentdict /cutpoint known        % check if cutpoint is defined
  {coor 0 cutpoint getinterval
   {aload pop lineto} forall         % draw outline of 1st sequence
   coor cutpoint 1 add get aload pop
   2 copy moveto 0.8 0 360 arc       % draw 5' circle of 2nd sequence
   coor cutpoint 1 add coor length cutpoint 1 add sub getinterval
   {aload pop lineto} forall}        % draw outline of 2nd sequence
  {coor {aload pop lineto} forall}   % draw outline as a whole
  ifelse
  stroke grestore
} bind def
/drawpairs {
  paircolor
  0.7 setlinewidth
  [9 3.01] 9 setdash
  newpath
  pairs {aload pop
      currentdict (cpr) known
      { exch dup
        coor  exch 1 sub get aload pop moveto
        exch arccoords curveto
      }
      { coor exch 1 sub get aload pop moveto
        coor exch 1 sub get aload pop lineto
      }ifelse
  } forall
  stroke
} bind def
% draw bases
/drawbases {
  [] 0 setdash
  seqcolor
  0
  coor {
    aload pop moveto
    dup sequence exch 1 getinterval cshow
    1 add
  } forall
  pop
} bind def

/init {
  /Helvetica findfont fsize scalefont setfont
  1 setlinejoin
  1 setlinecap
  0.8 setlinewidth
  72 216 translate
  % find the coordinate range
  /xmax -1000 def /xmin 10000 def
  /ymax -1000 def /ymin 10000 def
  coor {
      aload pop
      dup ymin lt {dup /ymin exch def} if
      dup ymax gt {/ymax exch def} {pop} ifelse
      dup xmin lt {dup /xmin exch def} if
      dup xmax gt {/xmax exch def} {pop} ifelse
  } forall
  /size {xmax xmin sub ymax ymin sub max} bind def
  72 6 mul size div dup scale
  size xmin sub xmax sub 2 div size ymin sub ymax sub 2 div
  translate
} bind def
end
%%EndProlog
RNAplot begin
% data start here
/sequence (\
cuAcgugcuUaauaUauauuGagcgcauaauaGAAAcuuuaUAAGUGAAauCuGuCaAAUUGCGgGAAAcCcuagaauaAaAAuugGgcAAUcCGCAGCCAAauCcuauGauuauuAAAcAAaauaauAaugGaaaAgGUUCAaaGACUAAAuGgCaGacAuCcUaacauAuuGAuuUAaaaacguUcaAaaaaauAucuuugauuuauAAuuUaAUaAUaagacuAgGaUgAAGAUAUAGUCuaAUcUguaagG\
AAAcuuacaG\
) def
/coor [
[109.71973419 170.62898254]
[103.15830231 157.14016724]
[104.22035217 142.17781067]
[105.28240967 127.21545410]
[97.80123138 126.68442535]
[92.43122864 140.69024658]
[87.06121826 154.69607544]
[81.69121552 168.70188904]
[76.32121277 182.70771790]
[70.95120239 196.71353149]
[65.58119965 210.71936035]
[60.21119308 224.72517395]
[54.84118652 238.73100281]
[57.94594574 254.83355713]
[45.37757492 265.36770630]
[30.06534004 259.49679565]
[27.76115417 243.26034546]
[40.83536530 233.36099243]
[46.20537186 219.35517883]
[51.57537842 205.34934998]
[56.94538498 191.34353638]
[62.31538773 177.33770752]
[67.68539429 163.33187866]
[73.05539703 149.32606506]
[78.42540741 135.32023621]
[83.79541016 121.31442261]
[77.59031677 117.10173035]
[64.08875275 123.63685608]
[65.18013000 108.67633820]
[58.97503281 104.46364594]
[47.93917465 114.62286377]
[36.90331268 124.78208923]
[34.80636215 140.68751526]
[20.98978806 148.84115601]
[6.05248642 142.98823547]
[1.45307672 127.61862183]
[10.71983242 114.52256775]
[26.74409103 113.74623108]
[37.77994919 103.58700562]
[48.81580734 93.42778778]
[34.26033783 97.05246735]
[20.97941208 104.02505493]
[6.10039234 102.12379456]
[-5.00049257 92.03565979]
[-8.31217003 77.40579987]
[-2.63803315 63.52040863]
[9.97168541 55.39667892]
[24.96072578 55.96995163]
[36.91349411 65.03363037]
[50.67384338 71.00463104]
[41.46065140 59.16752625]
[32.24746323 47.33041763]
[23.03427124 35.49331284]
[13.82108021 23.65620422]
[-0.76097798 17.51827621]
[-2.47241306 2.72232270]
[-11.68560410 -9.11478519]
[-34.21038818 -3.87624836]
[-56.51477051 -12.09070110]
[-71.02703857 -31.72078705]
[-72.41332245 -56.73750687]
[-86.76420593 -61.10237122]
[-101.11509705 -65.46723938]
[-115.46598053 -69.83209991]
[-129.81686401 -74.19696808]
[-144.16775513 -78.56182861]
[-156.53594971 -69.37848663]
[-171.76206970 -69.24041748]
[-184.00506592 -77.99101257]
[-188.69166565 -92.10390472]
[-203.04254150 -96.46877289]
[-217.39343262 -100.83363342]
[-231.74432373 -105.19850159]
[-246.09519958 -109.56336212]
[-257.78466797 -99.49559021]
[-273.06466675 -97.36846161]
[-287.05944824 -103.86074829]
[-295.30331421 -116.90077972]
[-295.16564941 -132.32752991]
[-286.69042969 -145.21836853]
[-272.58203125 -151.45989990]
[-257.34240723 -149.06045532]
[-245.83445740 -138.78569031]
[-241.73034668 -123.91425323]
[-227.37945557 -119.54938507]
[-213.02856445 -115.18452454]
[-198.67768860 -110.81965637]
[-184.32679749 -106.45479584]
[-172.57586670 -115.56816864]
[-157.53392029 -116.01996613]
[-144.96325684 -107.42742920]
[-139.80288696 -92.91271973]
[-125.45200348 -88.54785156]
[-111.10112000 -84.18299103]
[-96.75022888 -79.81812286]
[-82.39934540 -75.45326233]
[-68.04845428 -71.08839417]
[-57.63141251 -81.88122559]
[-62.50190735 -96.06848907]
[-77.19030762 -100.71144104]
[-86.22275543 -112.96984100]
[-86.30409241 -128.01834106]
[-77.61270142 -140.08473206]
[-82.48319244 -154.27198792]
[-87.35368347 -168.45924377]
[-92.22417450 -182.64649963]
[-105.64830017 -185.68939209]
[-115.74171448 -194.88851929]
[-119.94626617 -207.76799011]
[-117.26781464 -220.93867493]
[-108.50887299 -230.98986816]
[-113.21147156 -245.23365784]
[-117.91407013 -259.47744751]
[-122.61666870 -273.72125244]
[-127.31926727 -287.96502686]
[-142.13981628 -292.56185913]
[-151.40097046 -305.01217651]
[-151.54161072 -320.52862549]
[-142.50765991 -333.14477539]
[-127.77285767 -338.00949097]
[-113.00304413 -333.25216675]
[-103.87750244 -320.70208740]
[-103.90519714 -305.18505859]
[-113.07547760 -292.66763306]
[-108.37287903 -278.42385864]
[-103.67028046 -264.18005371]
[-98.96768188 -249.93626404]
[-94.26508331 -235.69247437]
[-78.46409607 -231.18572998]
[-68.37145996 -218.00935364]
[-68.13127136 -201.24710083]
[-78.03691864 -187.51699829]
[-73.16642761 -173.32974243]
[-68.29593658 -159.14247131]
[-63.42544174 -144.95521545]
[-49.15538406 -140.77151489]
[-39.97658920 -128.84616089]
[-39.57519913 -113.62472534]
[-48.31464767 -100.93898010]
[-43.44415665 -86.75171661]
[-34.74229431 -88.28157043]
[-25.97925758 -88.04859161]
[-17.50580406 -86.08965302]
[-9.65561962 -82.51013947]
[-2.73218799 -77.47870636]
[3.00293326 -71.21945190]
[7.33995819 -64.00209808]
[10.12847900 -56.13038635]
[11.28256226 -47.92934036]
[10.78315926 -39.73186874]
[8.67778683 -31.86523438]
[5.07752657 -24.63801384]
[0.15150386 -18.32797623]
[9.36469460 -6.49086809]
[23.28776360 -1.19961035]
[25.65818787 14.44301319]
[34.87137985 26.28012085]
[44.08456802 38.11722946]
[53.29776001 49.95433426]
[62.51095200 61.79144287]
[115.91597748 45.30350494]
[158.83061218 86.31407928]
[173.77937317 85.07538605]
[188.72814941 83.83670044]
[203.67691040 82.59800720]
[218.62568665 81.35931396]
[233.57444763 80.12062836]
[248.52320862 78.88193512]
[263.47198486 77.64324951]
[278.42074585 76.40455627]
[278.95840454 61.39631653]
[281.26742554 46.55701447]
[285.31533813 32.09497070]
[291.04534912 18.21321297]
[298.37704468 5.10661697]
[307.20745850 -7.04082108]
[317.41262817 -18.05857086]
[328.84930420 -27.79195786]
[341.35690308 -36.10434341]
[354.75988770 -42.87903214]
[368.87008667 -48.02091980]
[383.48937988 -51.45782089]
[398.41256714 -53.14149094]
[413.43014526 -53.04828644]
[428.33129883 -51.17951965]
[442.90682983 -47.56142807]
[456.95208740 -42.24480057]
[470.26995850 -35.30427170]
[482.67343140 -26.83728218]
[493.98843384 -16.96269035]
[504.05606079 -5.81912327]
[512.73498535 6.43698311]
[519.90344238 19.63357162]
[525.46069336 33.58538055]
[529.32885742 48.09655380]
[531.45349121 62.96337128]
[531.80480957 77.97712708]
[530.37792969 92.92705536]
[527.19281006 107.60327911]
[522.29425049 121.79976654]
[515.75097656 135.31723022]
[507.65478516 147.96589661]
[498.11944580 159.56819153]
[487.27874756 169.96124268]
[475.28488159 178.99916077]
[462.30627441 186.55505371]
[448.52505493 192.52285767]
[434.13473511 196.81878662]
[419.33731079 199.38252258]
[404.34054565 200.17810059]
[389.35491943 199.19432068]
[374.59085083 196.44502258]
[360.25558472 191.96879578]
[346.55038452 185.82846069]
[333.66763306 178.11024475]
[321.78817749 168.92248535]
[311.07879639 158.39414978]
[301.68984985 146.67306519]
[293.75311279 133.92376709]
[287.38003540 120.32524109]
[282.66003418 106.06837463]
[279.65945435 91.35332489]
[264.71066284 92.59201050]
[249.76190186 93.83070374]
[234.81314087 95.06939697]
[219.86436462 96.30808258]
[204.91560364 97.54677582]
[189.96684265 98.78546143]
[175.01806641 100.02415466]
[160.06930542 101.26284790]
[155.63943481 107.31481171]
[169.35208130 113.39458466]
[183.06471252 119.47434998]
[196.77735901 125.55411530]
[210.48999023 131.63388062]
[225.48864746 131.83406067]
[238.65339661 139.02359009]
[246.92918396 151.53405762]
[248.39547729 166.46221924]
[242.71202087 180.34379578]
[231.19773865 189.95739746]
[216.52467346 193.07203674]
[202.09790039 188.96493530]
[191.26535034 178.58920288]
[186.54086304 164.35260010]
[176.60058594 153.11914062]
[166.66029358 141.88568115]
[156.72000122 130.65222168]
[146.77972412 119.41875458]
[142.34985352 125.47072601]
[145.68766785 140.09465027]
[149.02548218 154.71856689]
[152.36329651 169.34248352]
[155.70111084 183.96640015]
[167.24594116 195.61325073]
[162.67141724 211.36145020]
[146.68344116 215.01060486]
[135.72904968 202.80677795]
[141.07719421 187.30421448]
[137.73937988 172.68029785]
[134.40156555 158.05638123]
[131.06375122 143.43244934]
[127.72594452 128.80853271]
[120.24476624 128.27751160]
[119.18270874 143.23986816]
] def
/pairs [
[5 26]
[6 25]
[7 24]
[8 23]
[9 22]
[10 21]
[11 20]
[12 19]
[13 18]
[30 40]
[31 39]
[32 38]
[50 160]
[51 159]
[52 158]
[53 157]
[54 156]
[56 154]
[57 153]
[61 97]
[62 96]
[63 95]
[64 94]
[65 93]
[66 92]
[70 88]
[71 87]
[72 86]
[73 85]
[74 84]
[98 140]
[99 139]
[103 135]
[104 134]
[105 133]
[106 132]
[111 128]
[112 127]
[113 126]
[114 125]
[115 124]
[162 230]
[163 229]
[164 228]
[165 227]
[166 226]
[167 225]
[168 224]
[169 223]
[170 222]
[250 263]
[251 262]
[252 261]
[253 260]
[254 259]
] def

init

% switch off outline pairs or bases by removing these lines
drawoutline
drawpairs
drawbases
% show it
showpage
end
%%EOF
