%!PS-Adobe-3.0 EPSF-3.0
%%Creator: PS_dot.c,v 1.38 2007/02/02 15:18:13 ivo Exp $, ViennaRNA-2.0.7
%%CreationDate: Sun Nov  4 18:31:51 2012
%%Title: RNA Secondary Structure Plot
%%BoundingBox: 66 210 518 662
%%DocumentFonts: Helvetica
%%Pages: 1
%%EndComments

%Options: -d2 
% to switch off outline pairs of sequence comment or
% delete the appropriate line near the end of the file

%%BeginProlog
/RNAplot 100 dict def
RNAplot begin
/fsize  14 def
/outlinecolor {0.2 setgray} bind def
/paircolor    {0.2 setgray} bind def
/seqcolor     {0   setgray} bind def
/cshow  { dup stringwidth pop -2 div fsize -3 div rmoveto show} bind def
/min { 2 copy gt { exch } if pop } bind def
/max { 2 copy lt { exch } if pop } bind def
/arccoords { % i j arccoords
  % puts optimal x1 y1 x2 y2 coordinates used in bezier curves from i to j
  % onto the stack
  dup 3 -1 roll dup 4 -1 roll lt dup dup 5 2 roll {exch} if
  dup 3 -1 roll dup 3 -1 roll exch sub 1 sub dup
  4 -2 roll 5 -1 roll {exch} if 4 2 roll
  sequence length dup 2 div exch 3 1 roll lt 
  {exch 5 -1 roll pop 4 -2 roll exch 4 2 roll}
  { 4 2 roll 5 -1 roll dup 6 1 roll {exch} if
    4 -2 roll exch pop dup 3 -1 roll dup 4 1 roll
    exch add 4 -1 roll dup 5 1 roll sub 1 sub
    5 -1 roll not {4 -2 roll exch 4 2 roll} if
  }ifelse
   % compute the scalingfactor and prepare (1-sf) and sf*r
  2 mul exch cpr 3 1 roll div dup
  3 -1 roll mul exch 1 exch sub exch
   % compute the coordinates
  3 -1 roll 1 sub coor exch get aload pop % get coord for i
  4 -1 roll dup 5 1 roll mul 3 -1 roll dup 4 1 roll add exch % calculate y1
  4 -1 roll dup 5 1 roll mul 3 -1 roll dup 4 1 roll add exch % calculate x1
  5 -1 roll 1 sub coor exch get aload pop % get coord for j
  % duplicate j coord
  dup 3 -1 roll dup 4 1 roll exch 8 2 roll
  6 -1 roll dup 7 1 roll mul 5 -1 roll dup 6 1 roll add exch % calculate y2
  6 -1 roll mul 5 -1 roll add exch % calculate x2
  6 -2 roll % reorder
} bind def
/drawoutline {
  gsave outlinecolor newpath
  coor 0 get aload pop 0.8 0 360 arc % draw 5' circle of 1st sequence
  currentdict /cutpoint known        % check if cutpoint is defined
  {coor 0 cutpoint getinterval
   {aload pop lineto} forall         % draw outline of 1st sequence
   coor cutpoint 1 add get aload pop
   2 copy moveto 0.8 0 360 arc       % draw 5' circle of 2nd sequence
   coor cutpoint 1 add coor length cutpoint 1 add sub getinterval
   {aload pop lineto} forall}        % draw outline of 2nd sequence
  {coor {aload pop lineto} forall}   % draw outline as a whole
  ifelse
  stroke grestore
} bind def
/drawpairs {
  paircolor
  0.7 setlinewidth
  [9 3.01] 9 setdash
  newpath
  pairs {aload pop
      currentdict (cpr) known
      { exch dup
        coor  exch 1 sub get aload pop moveto
        exch arccoords curveto
      }
      { coor exch 1 sub get aload pop moveto
        coor exch 1 sub get aload pop lineto
      }ifelse
  } forall
  stroke
} bind def
% draw bases
/drawbases {
  [] 0 setdash
  seqcolor
  0
  coor {
    aload pop moveto
    dup sequence exch 1 getinterval cshow
    1 add
  } forall
  pop
} bind def

/init {
  /Helvetica findfont fsize scalefont setfont
  1 setlinejoin
  1 setlinecap
  0.8 setlinewidth
  72 216 translate
  % find the coordinate range
  /xmax -1000 def /xmin 10000 def
  /ymax -1000 def /ymin 10000 def
  coor {
      aload pop
      dup ymin lt {dup /ymin exch def} if
      dup ymax gt {/ymax exch def} {pop} ifelse
      dup xmin lt {dup /xmin exch def} if
      dup xmax gt {/xmax exch def} {pop} ifelse
  } forall
  /size {xmax xmin sub ymax ymin sub max} bind def
  72 6 mul size div dup scale
  size xmin sub xmax sub 2 div size ymin sub ymax sub 2 div
  translate
} bind def
end
%%EndProlog
RNAplot begin
% data start here
/sequence (\
11111111111111111122222233333334444444444444444444444445555555555555555555555555566666633333337777777777777777776666668888888888\
) def
/coor [
[94.83385468 127.15827179]
[88.13816071 140.58093262]
[81.44247437 154.00358582]
[74.74678040 167.42623901]
[68.05108643 180.84889221]
[61.35539627 194.27156067]
[54.65970612 207.69421387]
[47.96401215 221.11686707]
[41.26832199 234.53952026]
[27.84566498 227.84384155]
[34.54135895 214.42117310]
[41.23704910 200.99851990]
[47.93273926 187.57586670]
[54.62843323 174.15321350]
[61.32412338 160.73054504]
[68.01981354 147.30789185]
[74.71550751 133.88523865]
[81.41119385 120.46257782]
[70.48667908 110.18372345]
[57.49629593 117.68372345]
[44.50591278 125.18372345]
[37.00591278 112.19334412]
[49.99629593 104.69334412]
[62.98667526 97.19334412]
[63.07799911 89.69390106]
[48.08217621 90.04785156]
[33.62909698 94.06140137]
[25.08848190 81.73022461]
[33.92779541 69.61137390]
[48.27788544 73.97600555]
[63.26064301 74.69501495]
[63.35196686 67.19557190]
[50.54807281 59.38146591]
[37.74417496 51.56735992]
[24.94027901 43.75325394]
[12.13638210 35.93914795]
[-0.66751391 28.12504387]
[-13.47140980 20.31093979]
[-26.27530670 12.49683475]
[-39.07920456 4.68272924]
[-51.88309860 -3.13137579]
[-64.68699646 -10.94548130]
[-77.49089050 -18.75958633]
[-69.67678833 -31.56348228]
[-56.87289047 -23.74937820]
[-44.06899261 -15.93527222]
[-31.26509857 -8.12116718]
[-18.46120071 -0.30706194]
[-5.65730524 7.50704336]
[7.14659119 15.32114792]
[19.95048714 23.13525391]
[32.75438309 30.94935799]
[45.55828094 38.76346207]
[58.36217499 46.57756805]
[71.16607666 54.39167404]
[84.89881134 48.35744095]
[87.80276489 33.64122391]
[90.70672607 18.92500687]
[93.61068726 4.20879126]
[96.51464081 -10.50742531]
[99.41860199 -25.22364235]
[102.32256317 -39.93985748]
[105.22651672 -54.65607452]
[108.13047791 -69.37229156]
[111.03443909 -84.08850861]
[113.93839264 -98.80472565]
[116.84235382 -113.52094269]
[119.74631500 -128.23715210]
[134.46252441 -125.33319855]
[131.55857849 -110.61698151]
[128.65461731 -95.90076447]
[125.75065613 -81.18454742]
[122.84669495 -66.46833038]
[119.94273376 -51.75211716]
[117.03878021 -37.03590012]
[114.13481903 -22.31968307]
[111.23085785 -7.60346651]
[108.32690430 7.11275005]
[105.42294312 21.82896614]
[102.51898193 36.54518127]
[99.61502838 51.26139832]
[151.53094482 100.12159729]
[166.34339905 102.48615265]
[181.15585327 104.85070801]
[195.96832275 107.21526337]
[210.78077698 109.57981873]
[225.59323120 111.94437408]
[217.35534668 99.40892792]
[218.89909363 84.48857880]
[229.52896118 73.90528870]
[244.45594788 72.42707825]
[256.95510864 80.71992493]
[261.39526367 95.04769135]
[255.77601624 108.95539856]
[242.62925720 116.17724609]
[256.82586670 121.02045441]
[271.02246094 125.86366272]
[285.21905518 130.70686340]
[299.41564941 135.55006409]
[313.61224365 140.39328003]
[327.80883789 145.23648071]
[342.00543213 150.07969666]
[356.20202637 154.92289734]
[351.35882568 169.11949158]
[337.16223145 164.27629089]
[322.96563721 159.43307495]
[308.76904297 154.58987427]
[294.57244873 149.74667358]
[280.37585449 144.90345764]
[266.17922974 140.06025696]
[251.98265076 135.21705627]
[237.78605652 130.37384033]
[223.22866821 126.75682831]
[208.41621399 124.39227295]
[193.60375977 122.02771759]
[178.79130554 119.66316223]
[163.97885132 117.29860687]
[149.16638184 114.93405151]
[139.15660095 126.10563660]
[143.12702942 140.57061768]
[147.09745789 155.03559875]
[151.06788635 169.50057983]
[155.03831482 183.96556091]
[140.57333374 187.93598938]
[136.60290527 173.47100830]
[132.63247681 159.00602722]
[128.66204834 144.54104614]
[124.69162750 130.07606506]
] def
/pairs [
[1 18]
[2 17]
[3 16]
[4 15]
[5 14]
[6 13]
[7 12]
[8 11]
[9 10]
[19 24]
[20 23]
[21 22]
[32 55]
[33 54]
[34 53]
[35 52]
[36 51]
[37 50]
[38 49]
[39 48]
[40 47]
[41 46]
[42 45]
[43 44]
[56 81]
[57 80]
[58 79]
[59 78]
[60 77]
[61 76]
[62 75]
[63 74]
[64 73]
[65 72]
[66 71]
[67 70]
[68 69]
[82 118]
[83 117]
[84 116]
[85 115]
[86 114]
[87 113]
[95 112]
[96 111]
[97 110]
[98 109]
[99 108]
[100 107]
[101 106]
[102 105]
[103 104]
[119 128]
[120 127]
[121 126]
[122 125]
[123 124]
] def

init

% switch off outline pairs or bases by removing these lines
drawoutline
drawpairs
drawbases
% show it
showpage
end
%%EOF
