%!PS-Adobe-3.0 EPSF-3.0
%%Creator: PS_dot.c,v 1.38 2007/02/02 15:18:13 ivo Exp $, ViennaRNA-2.0.7
%%CreationDate: Sun Nov  4 18:31:51 2012
%%Title: RNA Secondary Structure Plot
%%BoundingBox: 66 210 518 662
%%DocumentFonts: Helvetica
%%Pages: 1
%%EndComments

%Options: -d2 
% to switch off outline pairs of sequence comment or
% delete the appropriate line near the end of the file

%%BeginProlog
/RNAplot 100 dict def
RNAplot begin
/fsize  14 def
/outlinecolor {0.2 setgray} bind def
/paircolor    {0.2 setgray} bind def
/seqcolor     {0   setgray} bind def
/cshow  { dup stringwidth pop -2 div fsize -3 div rmoveto show} bind def
/min { 2 copy gt { exch } if pop } bind def
/max { 2 copy lt { exch } if pop } bind def
/arccoords { % i j arccoords
  % puts optimal x1 y1 x2 y2 coordinates used in bezier curves from i to j
  % onto the stack
  dup 3 -1 roll dup 4 -1 roll lt dup dup 5 2 roll {exch} if
  dup 3 -1 roll dup 3 -1 roll exch sub 1 sub dup
  4 -2 roll 5 -1 roll {exch} if 4 2 roll
  sequence length dup 2 div exch 3 1 roll lt 
  {exch 5 -1 roll pop 4 -2 roll exch 4 2 roll}
  { 4 2 roll 5 -1 roll dup 6 1 roll {exch} if
    4 -2 roll exch pop dup 3 -1 roll dup 4 1 roll
    exch add 4 -1 roll dup 5 1 roll sub 1 sub
    5 -1 roll not {4 -2 roll exch 4 2 roll} if
  }ifelse
   % compute the scalingfactor and prepare (1-sf) and sf*r
  2 mul exch cpr 3 1 roll div dup
  3 -1 roll mul exch 1 exch sub exch
   % compute the coordinates
  3 -1 roll 1 sub coor exch get aload pop % get coord for i
  4 -1 roll dup 5 1 roll mul 3 -1 roll dup 4 1 roll add exch % calculate y1
  4 -1 roll dup 5 1 roll mul 3 -1 roll dup 4 1 roll add exch % calculate x1
  5 -1 roll 1 sub coor exch get aload pop % get coord for j
  % duplicate j coord
  dup 3 -1 roll dup 4 1 roll exch 8 2 roll
  6 -1 roll dup 7 1 roll mul 5 -1 roll dup 6 1 roll add exch % calculate y2
  6 -1 roll mul 5 -1 roll add exch % calculate x2
  6 -2 roll % reorder
} bind def
/drawoutline {
  gsave outlinecolor newpath
  coor 0 get aload pop 0.8 0 360 arc % draw 5' circle of 1st sequence
  currentdict /cutpoint known        % check if cutpoint is defined
  {coor 0 cutpoint getinterval
   {aload pop lineto} forall         % draw outline of 1st sequence
   coor cutpoint 1 add get aload pop
   2 copy moveto 0.8 0 360 arc       % draw 5' circle of 2nd sequence
   coor cutpoint 1 add coor length cutpoint 1 add sub getinterval
   {aload pop lineto} forall}        % draw outline of 2nd sequence
  {coor {aload pop lineto} forall}   % draw outline as a whole
  ifelse
  stroke grestore
} bind def
/drawpairs {
  paircolor
  0.7 setlinewidth
  [9 3.01] 9 setdash
  newpath
  pairs {aload pop
      currentdict (cpr) known
      { exch dup
        coor  exch 1 sub get aload pop moveto
        exch arccoords curveto
      }
      { coor exch 1 sub get aload pop moveto
        coor exch 1 sub get aload pop lineto
      }ifelse
  } forall
  stroke
} bind def
% draw bases
/drawbases {
  [] 0 setdash
  seqcolor
  0
  coor {
    aload pop moveto
    dup sequence exch 1 getinterval cshow
    1 add
  } forall
  pop
} bind def

/init {
  /Helvetica findfont fsize scalefont setfont
  1 setlinejoin
  1 setlinecap
  0.8 setlinewidth
  72 216 translate
  % find the coordinate range
  /xmax -1000 def /xmin 10000 def
  /ymax -1000 def /ymin 10000 def
  coor {
      aload pop
      dup ymin lt {dup /ymin exch def} if
      dup ymax gt {/ymax exch def} {pop} ifelse
      dup xmin lt {dup /xmin exch def} if
      dup xmax gt {/xmax exch def} {pop} ifelse
  } forall
  /size {xmax xmin sub ymax ymin sub max} bind def
  72 6 mul size div dup scale
  size xmin sub xmax sub 2 div size ymin sub ymax sub 2 div
  translate
} bind def
end
%%EndProlog
RNAplot begin
% data start here
/sequence (\
11111111111111111122222233333334444444444444444444444445555555555555555555555555566666633333337777777777777777776666668888888888\
) def
/coor [
[98.77063751 119.26631165]
[92.07494354 132.68896484]
[85.37925720 146.11163330]
[78.68356323 159.53428650]
[71.98786926 172.95693970]
[65.29218292 186.37959290]
[58.59648895 199.80226135]
[51.90079880 213.22491455]
[45.20510864 226.64756775]
[31.78244972 219.95187378]
[38.47814178 206.52922058]
[45.17383194 193.10656738]
[51.86952591 179.68391418]
[58.56521606 166.26124573]
[65.26091003 152.83859253]
[71.95659637 139.41593933]
[78.65229034 125.99327850]
[85.34798431 112.57062531]
[74.42346191 102.29177094]
[61.43307877 109.79177094]
[48.44269943 117.29177094]
[40.94269943 104.30139160]
[53.93307877 96.80139160]
[66.92346191 89.30139160]
[72.79003143 75.49619293]
[69.17301941 60.93881989]
[65.55600739 46.38144302]
[61.93899536 31.82406425]
[58.32198334 17.26668739]
[54.70497131 2.70931125]
[51.08795929 -11.84806538]
[42.21217728 -23.94023323]
[29.40827942 -31.75433731]
[16.60438347 -39.56844330]
[3.80048776 -47.38254929]
[-9.00340843 -55.19665527]
[-21.80730438 -63.01075745]
[-34.61120224 -70.82486725]
[-47.41509628 -78.63896942]
[-60.21899414 -86.45307159]
[-73.02288818 -94.26718140]
[-85.82678986 -102.08128357]
[-98.63068390 -109.89538574]
[-90.81658173 -122.69928741]
[-78.01268005 -114.88517761]
[-65.20878601 -107.07107544]
[-52.40488815 -99.25697327]
[-39.60099411 -91.44286346]
[-26.79709625 -83.62876129]
[-13.99320030 -75.81465149]
[-1.18930352 -68.00054932]
[11.61459255 -60.18644333]
[24.41848946 -52.37234116]
[37.22238541 -44.55823517]
[50.02628326 -36.74412918]
[63.75901794 -42.77836227]
[66.66297913 -57.49457932]
[69.56693268 -72.21079254]
[72.47089386 -86.92700958]
[75.37485504 -101.64322662]
[78.27880859 -116.35944366]
[81.18276978 -131.07566833]
[84.08673096 -145.79187012]
[86.99068451 -160.50808716]
[89.89464569 -175.22430420]
[92.79860687 -189.94052124]
[95.70256042 -204.65673828]
[98.60652161 -219.37295532]
[113.32273865 -216.46899414]
[110.41877747 -201.75277710]
[107.51482391 -187.03656006]
[104.61086273 -172.32035828]
[101.70690155 -157.60414124]
[98.80294800 -142.88792419]
[95.89898682 -128.17170715]
[92.99502563 -113.45548248]
[90.09107208 -98.73927307]
[87.18711090 -84.02305603]
[84.28314972 -69.30683899]
[81.37919617 -54.59062195]
[78.47523499 -39.87440491]
[93.45535278 -40.64639282]
[105.39133453 -31.56165504]
[108.63761139 -16.91714478]
[101.65874481 -3.63951588]
[87.75564575 1.99109590]
[73.50428009 -2.68851209]
[65.64533234 -15.46507835]
[69.26234436 -0.90770102]
[72.87935638 13.64967632]
[76.49636841 28.20705223]
[80.11338043 42.76443100]
[83.73039246 57.32180786]
[87.34740448 71.87918091]
[169.78564453 83.45937347]
[183.98223877 88.30258179]
[198.17883301 93.14579010]
[212.37542725 97.98899078]
[226.57202148 102.83219910]
[240.76863098 107.67540741]
[254.96522522 112.51861572]
[269.16180420 117.36181641]
[283.35842896 122.20502472]
[278.51519775 136.40162659]
[264.31860352 131.55841064]
[250.12200928 126.71520996]
[235.92541504 121.87200165]
[221.72882080 117.02879333]
[207.53222656 112.18559265]
[193.33563232 107.34238434]
[179.13903809 102.49917603]
[164.94242859 97.65597534]
[159.48017883 102.79540253]
[169.75903320 113.71991730]
[180.03771973 124.64459991]
[169.11286926 134.92311096]
[158.83450317 123.99877167]
[148.55564880 113.07424927]
[143.09339905 118.21367645]
[147.06381226 132.67866516]
[151.03424072 147.14364624]
[155.00466919 161.60862732]
[158.97509766 176.07360840]
[144.51011658 180.04403687]
[140.53968811 165.57905579]
[136.56925964 151.11407471]
[132.59883118 136.64909363]
[128.62840271 122.18410492]
] def
/pairs [
[1 18]
[2 17]
[3 16]
[4 15]
[5 14]
[6 13]
[7 12]
[8 11]
[9 10]
[19 24]
[20 23]
[21 22]
[25 94]
[26 93]
[27 92]
[28 91]
[29 90]
[30 89]
[31 88]
[32 55]
[33 54]
[34 53]
[35 52]
[36 51]
[37 50]
[38 49]
[39 48]
[40 47]
[41 46]
[42 45]
[43 44]
[56 81]
[57 80]
[58 79]
[59 78]
[60 77]
[61 76]
[62 75]
[63 74]
[64 73]
[65 72]
[66 71]
[67 70]
[68 69]
[95 112]
[96 111]
[97 110]
[98 109]
[99 108]
[100 107]
[101 106]
[102 105]
[103 104]
[119 128]
[120 127]
[121 126]
[122 125]
[123 124]
] def

init

% switch off outline pairs or bases by removing these lines
drawoutline
drawpairs
drawbases
% show it
showpage
end
%%EOF
