%!PS-Adobe-3.0
%%DocumentNeededResources: font Helvetica
%%+ font Helvetica-Bold
%%+ font Helvetica-Oblique
%%+ font Helvetica-BoldOblique
%%+ font Symbol
%%DocumentMedia: special 540 720 0 () ()
%%Title: R Graphics Output
%%Creator: R Software
%%Pages: (atend)
%%BoundingBox: 0 0 540 720
%%EndComments
%%BeginProlog
/bp  { gs sRGB 540.00 0 translate 90 rotate gs } def
% begin .ps.prolog
/gs  { gsave } bind def
/gr  { grestore } bind def
/ep  { showpage gr gr } bind def
/m   { moveto } bind def
/l  { rlineto } bind def
/np  { newpath } bind def
/cp  { closepath } bind def
/f   { fill } bind def
/o   { stroke } bind def
/c   { newpath 0 360 arc } bind def
/r   { 4 2 roll moveto 1 copy 3 -1 roll exch 0 exch rlineto 0 rlineto -1 mul 0 exch rlineto closepath } bind def
/p1  { stroke } bind def
/p2  { gsave bg fill grestore newpath } bind def
/p3  { gsave bg fill grestore stroke } bind def
/p6  { gsave bg eofill grestore newpath } bind def
/p7  { gsave bg eofill grestore stroke } bind def
/t   { 5 -2 roll moveto gsave rotate
       1 index stringwidth pop
       mul neg 0 rmoveto show grestore } bind def
/ta  { 4 -2 roll moveto gsave rotate show } bind def
/tb  { 2 -1 roll 0 rmoveto show } bind def
/cl  { grestore gsave newpath 3 index 3 index moveto 1 index
       4 -1 roll lineto  exch 1 index lineto lineto
       closepath clip newpath } bind def
/rgb { setrgbcolor } bind def
/s   { scalefont setfont } bind def
% end   .ps.prolog
/sRGB { [ /CIEBasedABC
          << /DecodeLMN
               [ { dup 0.03928 le
                        {12.92321 div}
                        {0.055 add 1.055 div 2.4 exp }
                     ifelse
                 } bind dup dup
               ]
             /MatrixLMN [0.412457 0.212673 0.019334
                         0.357576 0.715152 0.119192
                         0.180437 0.072175 0.950301]
             /WhitePoint [0.9505 1.0 1.0890]
           >>
         ] setcolorspace } bind def
/srgb { setcolor } bind def
%%IncludeResource: font Helvetica
/Helvetica findfont
dup length dict begin
  {1 index /FID ne {def} {pop pop} ifelse} forall
  /Encoding ISOLatin1Encoding def
  currentdict
  end
/Font1 exch definefont pop
%%IncludeResource: font Helvetica-Bold
/Helvetica-Bold findfont
dup length dict begin
  {1 index /FID ne {def} {pop pop} ifelse} forall
  /Encoding ISOLatin1Encoding def
  currentdict
  end
/Font2 exch definefont pop
%%IncludeResource: font Helvetica-Oblique
/Helvetica-Oblique findfont
dup length dict begin
  {1 index /FID ne {def} {pop pop} ifelse} forall
  /Encoding ISOLatin1Encoding def
  currentdict
  end
/Font3 exch definefont pop
%%IncludeResource: font Helvetica-BoldOblique
/Helvetica-BoldOblique findfont
dup length dict begin
  {1 index /FID ne {def} {pop pop} ifelse} forall
  /Encoding ISOLatin1Encoding def
  currentdict
  end
/Font4 exch definefont pop
%%IncludeResource: font Symbol
/Symbol findfont
dup length dict begin
  {1 index /FID ne {def} {pop pop} ifelse} forall
  currentdict
  end
/Font5 exch definefont pop
%%EndProlog
%%Page: 1 1
bp
0.00 360.00 720.00 540.00 cl
/Font1 findfont 12 s
0 0 0 srgb
359.26 326.88 (r) 0 ta
-0.120 (ange\(x\)) tb gr
22.32 450.00 (subCM '!') .5 90 t
54.00 367.20 709.20 532.80 cl
/bg { 0 0.8000 1 srgb } def
0 0.8000 1 srgb
0.75 setlinewidth
[] 0 setdash
1 setlinecap
1 setlinejoin
10.00 setmiterlimit
np
 350.44 526.67 m
0.27 0 l
0.27 0 l
0.27 0 l
0.28 0 l
0.27 0 l
0.27 0 l
0.27 0 l
0.27 0 l
0.28 0 l
0.27 0 l
0.27 0 l
0.27 0 l
0.27 0 l
0.28 0 l
0.27 0 l
0.27 0 l
0.27 0 l
0 -306.67 l
-4.62 0 l
0 306.67 l
cp p3
/bg { 0.6392 1 0.3608 srgb } def
0.6392 1 0.3608 srgb
np
 375.48 526.67 m
0.27 0 l
0.27 0 l
0.27 0 l
0.27 0 l
0.28 0 l
0.27 0 l
0.27 0 l
0.27 0 l
0.28 0 l
0.27 0 l
0.27 0 l
0.27 0 l
0.27 0 l
0.28 0 l
0.27 0 l
0.27 0 l
0.27 0 l
0.28 0 l
0.27 0 l
0.27 0 l
0.27 0 l
0.27 0 l
0.28 0 l
0.27 0 l
0.27 0 l
0.27 0 l
0.27 0 l
0.28 0 l
0.27 0 l
0.27 0 l
0.27 0 l
0.28 0 l
0.27 0 l
0.27 0 l
0.27 0 l
0.27 0 l
0.28 0 l
0.27 0 l
0.27 0 l
0.27 0 l
0.28 0 l
0.27 0 l
0.27 0 l
0.27 0 l
0.27 0 l
0.28 0 l
0.27 0 l
0.27 0 l
0.27 0 l
0.27 0 l
0.28 0 l
0.27 0 l
0.27 0 l
0.27 0 l
0.28 0 l
0.27 0 l
0.27 0 l
0.27 0 l
0.27 0 l
0.28 0 l
0.27 0 l
0.27 0 l
0.27 0 l
0.28 0 l
0.27 0 l
0.27 0 l
0.27 0 l
0.27 0 l
0.28 0 l
0.27 0 l
0.27 0 l
0.27 0 l
0.27 0 l
0.28 0 l
0.27 0 l
0.27 0 l
0.27 0 l
0.28 0 l
0.27 0 l
0.27 0 l
0.27 0 l
0.27 0 l
0.28 0 l
0.27 0 l
0.27 0 l
0.27 0 l
0.27 0 l
0.28 0 l
0.27 0 l
0.27 0 l
0.27 0 l
0.28 0 l
0.27 0 l
0.27 0 l
0.27 0 l
0.27 0 l
0.28 0 l
0.27 0 l
0.27 0 l
402.69 526.67 lineto
0.28 0 l
0.27 0 l
0.27 0 l
0.27 0 l
0.27 0 l
0.28 0 l
0.27 0 l
0.27 0 l
0.27 0 l
0.27 0 l
0.28 0 l
0.27 0 l
0.27 0 l
0.27 0 l
0.28 0 l
0.27 0 l
0.27 0 l
0.27 0 l
0.27 0 l
0.28 0 l
0.27 0 l
0.27 0 l
0.27 0 l
0.28 0 l
0.27 0 l
0.27 0 l
0.27 0 l
0.27 0 l
0.28 0 l
0.27 0 l
0.27 0 l
0.27 0 l
0.27 0 l
0.28 0 l
0.27 0 l
0.27 0 l
0.27 0 l
0 -306.67 l
-37.28 0 l
0 306.67 l
cp p3
0.00 0.00 720.00 540.00 cl
0 0 0 srgb
0.75 setlinewidth
[] 0 setdash
1 setlinecap
1 setlinejoin
10.00 setmiterlimit
np
54.00 367.20 m
655.20 0 l
o
np
72.28 367.20 m
0 -7.20 l
o
np
208.36 367.20 m
0 -7.20 l
o
np
344.45 367.20 m
0 -7.20 l
o
np
480.53 367.20 m
0 -7.20 l
o
np
616.62 367.20 m
0 -7.20 l
o
/Font1 findfont 12 s
72.28 348.48 (1235000) .5 0 t
208.36 348.48 (1235500) .5 0 t
344.45 348.48 (1236000) .5 0 t
480.53 348.48 (1236500) .5 0 t
616.62 348.48 (1237000) .5 0 t
np
54.00 373.33 m
0 153.34 l
o
np
54.00 373.33 m
-7.20 0 l
o
np
54.00 404.00 m
-7.20 0 l
o
np
54.00 434.67 m
-7.20 0 l
o
np
54.00 465.33 m
-7.20 0 l
o
np
54.00 496.00 m
-7.20 0 l
o
np
54.00 526.67 m
-7.20 0 l
o
43.92 373.33 (0.0) .5 90 t
43.92 404.00 (0.2) .5 90 t
43.92 434.67 (0.4) .5 90 t
43.92 465.33 (0.6) .5 90 t
43.92 496.00 (0.8) .5 90 t
43.92 526.67 (1.0) .5 90 t
54.00 367.20 709.20 532.80 cl
0 0 0 srgb
0.75 setlinewidth
[ 2.25 3.75] 0 setdash
1 setlinecap
1 setlinejoin
10.00 setmiterlimit
np
350.44 367.20 m
0 165.60 l
o
np
412.76 367.20 m
0 165.60 l
o
54.00 187.20 709.20 352.80 cl
0.00 180.00 720.00 360.00 cl
/Font1 findfont 12 s
0 0 0 srgb
359.26 146.88 (r) 0 ta
-0.120 (ange\(x\)) tb gr
22.32 270.00 (subCM '?') .5 90 t
54.00 187.20 709.20 352.80 cl
/bg { 0 0 0.8000 srgb } def
0 0 0.8000 srgb
0.75 setlinewidth
[] 0 setdash
1 setlinecap
1 setlinejoin
10.00 setmiterlimit
np
 569.26 270.00 m
0.27 0 l
0.28 0 l
0.27 0 l
0.27 0 l
0.27 0 l
0.27 0 l
0.28 0 l
0.27 0 l
0.27 0 l
0.27 0 l
0.28 0 l
0.27 0 l
0.27 0 l
0.27 0 l
0.27 0 l
0.28 0 l
0.27 0 l
0.27 0 l
0.27 0 l
0.27 0 l
0.28 0 l
0 -153.33 l
-5.72 0 l
0 153.33 l
cp p3
/bg { 0 0 0.9490 srgb } def
0 0 0.9490 srgb
np
 169.44 270.00 m
0.28 0 l
0.27 0 l
0.27 0 l
0.27 0 l
0.27 0 l
0.28 0 l
0.27 0 l
0.27 0 l
0.27 0 l
0.28 0 l
0.27 0 l
0.27 0 l
0.27 0 l
0.27 0 l
0.28 0 l
0.27 0 l
0.27 0 l
0.27 0 l
0.27 0 l
0.28 0 l
0.27 0 l
0.27 0 l
0.27 0 l
0.28 0 l
0.27 0 l
0.27 0 l
0.27 0 l
0.27 0 l
0.28 0 l
0.27 0 l
0.27 0 l
0.27 0 l
0.28 0 l
0.27 0 l
0.27 0 l
0.27 0 l
0.27 0 l
0.28 0 l
0.27 0 l
0.27 0 l
0.27 0 l
0 -153.33 l
-11.16 0 l
0 153.33 l
cp p3
/bg { 0 0.5020 1 srgb } def
0 0.5020 1 srgb
np
 339.28 270.00 m
0.27 0 l
0.27 0 l
0.27 0 l
0.28 0 l
0.27 0 l
0.27 0 l
0.27 0 l
0.27 0 l
0.28 0 l
0.27 0 l
0.27 0 l
0.27 0 l
0.28 0 l
0.27 76.67 l
0.27 0 l
0.27 0 l
0.27 0 l
0.28 0 l
0.27 0 l
0.27 0 l
0.27 0 l
0.28 0 l
0.27 0 l
0.27 0 l
0.27 0 l
0.27 0 l
0.28 0 l
0.27 0 l
0.27 0 l
0.27 0 l
0.27 0 l
0.28 0 l
0.27 0 l
0.27 0 l
0.27 0 l
0.28 0 l
0.27 0 l
0.27 0 l
0.27 0 l
0.27 0 l
0.28 0 l
0.27 0 l
0.27 0 l
0.27 0 l
0.28 0 l
0.27 0 l
0.27 0 l
0.27 0 l
0.27 0 l
0.28 0 l
0.27 0 l
0.27 0 l
0.27 0 l
0.27 0 l
0.28 0 l
0.27 0 l
0.27 0 l
0.27 0 l
0.28 0 l
0.27 0 l
0.27 0 l
0.27 0 l
0.27 0 l
0.28 0 l
0.27 0 l
0.27 0 l
0.27 0 l
0.28 0 l
0.27 -76.67 l
0.27 0 l
0.27 0 l
0.27 0 l
0 -153.33 l
-19.59 0 l
0 153.33 l
cp p3
/bg { 0.3608 1 0.6392 srgb } def
0.3608 1 0.6392 srgb
np
 382.82 270.00 m
0.28 0 l
0.27 0 l
0.27 0 l
0.27 0 l
0.28 0 l
0.27 0 l
0.27 0 l
0.27 0 l
0.27 0 l
0.28 0 l
0.27 0 l
0.27 0 l
0.27 0 l
0.28 0 l
0.27 0 l
0.27 0 l
0.27 0 l
0.27 0 l
0.28 0 l
0.27 0 l
0.27 0 l
0.27 0 l
0.27 0 l
0.28 0 l
0.27 0 l
0.27 0 l
0.27 0 l
0.28 0 l
0.27 0 l
0.27 0 l
0.27 0 l
0.27 0 l
0.28 0 l
0.27 0 l
0.27 0 l
0.27 0 l
0.28 0 l
0.27 0 l
0.27 0 l
0.27 0 l
0.27 0 l
0.28 0 l
0.27 0 l
0.27 0 l
0.27 0 l
0.27 0 l
0.28 0 l
0.27 0 l
0.27 0 l
0.27 0 l
0.28 0 l
0.27 0 l
0.27 0 l
0.27 0 l
0.27 0 l
0.28 0 l
0.27 0 l
0.27 0 l
0.27 0 l
0.27 0 l
0.28 0 l
0.27 0 l
0.27 0 l
0.27 0 l
0.28 0 l
0.27 0 l
0.27 0 l
0.27 0 l
0.27 0 l
0.28 0 l
0.27 0 l
0.27 0 l
0.27 0 l
0.28 0 l
0.27 0 l
0.27 0 l
0.27 0 l
0.27 0 l
0.28 0 l
0.27 0 l
0.27 0 l
0.27 0 l
0.27 0 l
0.28 0 l
0.27 0 l
0.27 0 l
0.27 0 l
0.28 0 l
0.27 0 l
0.27 0 l
0.27 0 l
0.27 0 l
0.28 0 l
0.27 0 l
0.27 0 l
0.27 0 l
0.28 0 l
0.27 0 l
0.27 0 l
410.04 270.00 lineto
0.27 0 l
0.28 0 l
0.27 0 l
0 -153.33 l
-28.04 0 l
0 153.33 l
cp p3
/bg { 0.5137 1 0.4863 srgb } def
0.5137 1 0.4863 srgb
np
 185.77 270.00 m
0.28 0 l
0.27 0 l
0.27 0 l
0.27 0 l
0.27 0 l
0.28 0 l
0.27 0 l
0.27 0 l
0.27 0 l
0.28 0 l
0.27 0 l
0.27 0 l
0.27 0 l
0.27 0 l
0.28 0 l
0.27 0 l
0.27 0 l
0.27 0 l
0.27 0 l
0.28 0 l
0.27 0 l
0.27 0 l
0.27 0 l
0.28 0 l
0.27 0 l
0.27 0 l
0.27 0 l
0.27 0 l
0.28 0 l
0.27 0 l
0.27 0 l
0.27 0 l
0.28 0 l
0.27 0 l
0.27 0 l
0.27 0 l
0.27 0 l
0.28 0 l
0.27 0 l
0.27 0 l
0.27 0 l
0.27 0 l
0.28 0 l
0.27 0 l
0.27 0 l
0.27 0 l
0.28 0 l
0.27 0 l
0.27 0 l
0.27 0 l
0.27 0 l
0.28 0 l
0.27 0 l
0.27 0 l
0.27 0 l
0.28 0 l
0.27 0 l
0.27 0 l
0.27 0 l
0.27 0 l
0 -153.33 l
-16.33 0 l
0 153.33 l
cp p3
np
 375.48 270.00 m
0.27 0 l
0.27 0 l
0.27 0 l
0.27 0 l
0.28 0 l
0.27 0 l
0.27 0 l
0.27 0 l
0.28 0 l
0.27 0 l
0.27 0 l
0.27 0 l
0.27 0 l
0.28 0 l
0.27 0 l
0.27 0 l
0.27 0 l
0.28 0 l
0.27 0 l
0.27 0 l
0.27 0 l
0.27 0 l
0.28 0 l
0.27 0 l
0.27 0 l
0.27 0 l
0.27 0 l
0.28 0 l
0.27 0 l
0.27 0 l
0.27 0 l
0.28 0 l
0.27 0 l
0.27 0 l
0.27 0 l
0.27 0 l
0.28 0 l
0.27 0 l
0.27 0 l
0.27 0 l
0.28 0 l
0.27 0 l
0.27 0 l
0.27 0 l
0.27 0 l
0.28 0 l
0.27 0 l
0.27 0 l
0.27 0 l
0.27 0 l
0.28 0 l
0.27 0 l
0.27 0 l
0.27 0 l
0.28 0 l
0.27 0 l
0.27 0 l
0.27 0 l
0.27 0 l
0.28 0 l
0.27 0 l
0.27 0 l
0.27 0 l
0.28 0 l
0.27 0 l
0.27 0 l
0.27 0 l
0.27 0 l
0.28 0 l
0.27 0 l
0.27 0 l
0.27 0 l
0.27 0 l
0.28 0 l
0.27 0 l
0.27 0 l
0.27 0 l
0.28 0 l
0.27 0 l
0.27 0 l
0.27 0 l
0.27 0 l
0.28 0 l
0.27 0 l
0.27 0 l
0.27 0 l
0.27 0 l
0.28 0 l
0.27 0 l
0.27 0 l
0.27 0 l
0.28 0 l
0.27 0 l
0.27 0 l
0.27 0 l
0.27 0 l
0.28 0 l
0.27 0 l
0.27 0 l
402.69 270.00 lineto
0.28 0 l
0.27 0 l
0.27 0 l
0.27 0 l
0.27 0 l
0.28 0 l
0 -153.33 l
-28.85 0 l
0 153.33 l
cp p3
/bg { 0.5647 1 0.4353 srgb } def
0.5647 1 0.4353 srgb
np
 98.41 270.00 m
0.27 0 l
0.27 0 l
0.27 0 l
0.28 0 l
0.27 0 l
0.27 0 l
0.27 0 l
0.27 0 l
0.28 0 l
0.27 0 l
0.27 0 l
0.27 0 l
0.28 0 l
0.27 0 l
0.27 0 l
0.27 0 l
0.27 0 l
0.28 0 l
0.27 0 l
0.27 0 l
0.27 0 l
0.27 0 l
0.28 0 l
0.27 0 l
0.27 0 l
0.27 0 l
0.28 0 l
0.27 0 l
0.27 0 l
0.27 0 l
0.27 0 l
0.28 0 l
0.27 0 l
0.27 0 l
0.27 0 l
0.28 0 l
0.27 0 l
0.27 0 l
0.27 0 l
0.27 0 l
0.28 0 l
0.27 0 l
0.27 0 l
0.27 0 l
0 -153.33 l
-11.97 0 l
0 153.33 l
cp p3
0.00 0.00 720.00 540.00 cl
0 0 0 srgb
0.75 setlinewidth
[] 0 setdash
1 setlinecap
1 setlinejoin
10.00 setmiterlimit
np
54.00 187.20 m
655.20 0 l
o
np
72.28 187.20 m
0 -7.20 l
o
np
208.36 187.20 m
0 -7.20 l
o
np
344.45 187.20 m
0 -7.20 l
o
np
480.53 187.20 m
0 -7.20 l
o
np
616.62 187.20 m
0 -7.20 l
o
/Font1 findfont 12 s
72.28 168.48 (1235000) .5 0 t
208.36 168.48 (1235500) .5 0 t
344.45 168.48 (1236000) .5 0 t
480.53 168.48 (1236500) .5 0 t
616.62 168.48 (1237000) .5 0 t
np
54.00 193.33 m
0 153.34 l
o
np
54.00 193.33 m
-7.20 0 l
o
np
54.00 231.67 m
-7.20 0 l
o
np
54.00 270.00 m
-7.20 0 l
o
np
54.00 308.33 m
-7.20 0 l
o
np
54.00 346.67 m
-7.20 0 l
o
43.92 193.33 (0.0) .5 90 t
43.92 231.67 (0.5) .5 90 t
43.92 270.00 (1.0) .5 90 t
43.92 308.33 (1.5) .5 90 t
43.92 346.67 (2.0) .5 90 t
54.00 187.20 709.20 352.80 cl
0 0 0 srgb
0.75 setlinewidth
[ 2.25 3.75] 0 setdash
1 setlinecap
1 setlinejoin
10.00 setmiterlimit
np
350.44 187.20 m
0 165.60 l
o
np
412.76 187.20 m
0 165.60 l
o
54.00 0.00 709.20 180.00 cl
0.00 0.00 720.00 180.00 cl
/Font1 findfont 12 s
0 0 0 srgb
22.32 90.00 (full CM) .5 90 t
0.00 0.00 720.00 540.00 cl
0 0 0 srgb
0.75 setlinewidth
[] 0 setdash
1 setlinecap
1 setlinejoin
10.00 setmiterlimit
np
68.40 30.48 m
0 128.96 l
o
np
68.40 30.48 m
4.32 0 l
o
np
68.40 40.40 m
4.32 0 l
o
np
68.40 50.32 m
4.32 0 l
o
np
68.40 60.24 m
4.32 0 l
o
np
68.40 70.16 m
4.32 0 l
o
np
68.40 80.08 m
4.32 0 l
o
np
68.40 90.00 m
4.32 0 l
o
np
68.40 99.92 m
4.32 0 l
o
np
68.40 109.84 m
4.32 0 l
o
np
68.40 119.76 m
4.32 0 l
o
np
68.40 129.68 m
4.32 0 l
o
np
68.40 139.60 m
4.32 0 l
o
np
68.40 149.52 m
4.32 0 l
o
np
68.40 159.44 m
4.32 0 l
o
/Font1 findfont 12 s
61.20 26.17 (Intron_gpI) 1 0 t
61.20 36.09 (IE3) 1 0 t
61.20 46.01 (IE2) 1 0 t
61.20 55.93 (IE1) 1 0 t
61.20 65.85 (IC3) 1 0 t
61.20 75.77 (IC2) 1 0 t
61.20 85.69 (IC1) 1 0 t
61.20 95.61 (IB4) 1 0 t
61.20 105.53 (IB3) 1 0 t
61.20 115.45 (IB2) 1 0 t
61.20 125.37 (IB1) 1 0 t
61.20 135.30 (IA3) 1 0 t
61.20 145.22 (IA2) 1 0 t
61.20 155.14 (IA1) 1 0 t
54.00 0.00 709.20 180.00 cl
0 0 0 srgb
0.75 setlinewidth
[ 2.25 3.75] 0 setdash
1 setlinecap
1 setlinejoin
10.00 setmiterlimit
np
350.44 0.00 m
0 180.00 l
o
np
412.76 0.00 m
0 180.00 l
o
ep
%%Trailer
%%Pages: 1
%%EOF
