%!PS-Adobe-3.0
%%DocumentNeededResources: font Helvetica
%%+ font Helvetica-Bold
%%+ font Helvetica-Oblique
%%+ font Helvetica-BoldOblique
%%+ font Symbol
%%DocumentMedia: special 540 720 0 () ()
%%Title: R Graphics Output
%%Creator: R Software
%%Pages: (atend)
%%BoundingBox: 0 0 540 720
%%EndComments
%%BeginProlog
/bp  { gs sRGB 540.00 0 translate 90 rotate gs } def
% begin .ps.prolog
/gs  { gsave } bind def
/gr  { grestore } bind def
/ep  { showpage gr gr } bind def
/m   { moveto } bind def
/l  { rlineto } bind def
/np  { newpath } bind def
/cp  { closepath } bind def
/f   { fill } bind def
/o   { stroke } bind def
/c   { newpath 0 360 arc } bind def
/r   { 4 2 roll moveto 1 copy 3 -1 roll exch 0 exch rlineto 0 rlineto -1 mul 0 exch rlineto closepath } bind def
/p1  { stroke } bind def
/p2  { gsave bg fill grestore newpath } bind def
/p3  { gsave bg fill grestore stroke } bind def
/p6  { gsave bg eofill grestore newpath } bind def
/p7  { gsave bg eofill grestore stroke } bind def
/t   { 5 -2 roll moveto gsave rotate
       1 index stringwidth pop
       mul neg 0 rmoveto show grestore } bind def
/ta  { 4 -2 roll moveto gsave rotate show } bind def
/tb  { 2 -1 roll 0 rmoveto show } bind def
/cl  { grestore gsave newpath 3 index 3 index moveto 1 index
       4 -1 roll lineto  exch 1 index lineto lineto
       closepath clip newpath } bind def
/rgb { setrgbcolor } bind def
/s   { scalefont setfont } bind def
% end   .ps.prolog
/sRGB { [ /CIEBasedABC
          << /DecodeLMN
               [ { dup 0.03928 le
                        {12.92321 div}
                        {0.055 add 1.055 div 2.4 exp }
                     ifelse
                 } bind dup dup
               ]
             /MatrixLMN [0.412457 0.212673 0.019334
                         0.357576 0.715152 0.119192
                         0.180437 0.072175 0.950301]
             /WhitePoint [0.9505 1.0 1.0890]
           >>
         ] setcolorspace } bind def
/srgb { setcolor } bind def
%%IncludeResource: font Helvetica
/Helvetica findfont
dup length dict begin
  {1 index /FID ne {def} {pop pop} ifelse} forall
  /Encoding ISOLatin1Encoding def
  currentdict
  end
/Font1 exch definefont pop
%%IncludeResource: font Helvetica-Bold
/Helvetica-Bold findfont
dup length dict begin
  {1 index /FID ne {def} {pop pop} ifelse} forall
  /Encoding ISOLatin1Encoding def
  currentdict
  end
/Font2 exch definefont pop
%%IncludeResource: font Helvetica-Oblique
/Helvetica-Oblique findfont
dup length dict begin
  {1 index /FID ne {def} {pop pop} ifelse} forall
  /Encoding ISOLatin1Encoding def
  currentdict
  end
/Font3 exch definefont pop
%%IncludeResource: font Helvetica-BoldOblique
/Helvetica-BoldOblique findfont
dup length dict begin
  {1 index /FID ne {def} {pop pop} ifelse} forall
  /Encoding ISOLatin1Encoding def
  currentdict
  end
/Font4 exch definefont pop
%%IncludeResource: font Symbol
/Symbol findfont
dup length dict begin
  {1 index /FID ne {def} {pop pop} ifelse} forall
  currentdict
  end
/Font5 exch definefont pop
%%EndProlog
%%Page: 1 1
bp
0.00 360.00 720.00 540.00 cl
/Font1 findfont 12 s
0 0 0 srgb
22.32 450.00 (subCM '!') .5 90 t
54.00 367.20 709.20 532.80 cl
54.00 187.20 709.20 352.80 cl
0.00 180.00 720.00 360.00 cl
/Font1 findfont 12 s
0 0 0 srgb
359.26 146.88 (r) 0 ta
-0.120 (ange\(x\)) tb gr
22.32 270.00 (subCM '?') .5 90 t
54.00 187.20 709.20 352.80 cl
/bg { 0 0 0.8000 srgb } def
0 0 0.8000 srgb
0.75 setlinewidth
[] 0 setdash
1 setlinecap
1 setlinejoin
10.00 setmiterlimit
np
 305.55 346.67 m
0.29 0 l
0.29 0 l
0.29 0 l
0.29 0 l
0.29 0 l
0.28 0 l
0.29 0 l
0.29 0 l
0.29 0 l
0.29 0 l
0.29 0 l
0.29 0 l
0.29 0 l
0.29 0 l
0.29 0 l
0.29 0 l
0.29 0 l
0.28 0 l
0.29 0 l
0.29 0 l
0.29 0 l
0.29 0 l
0.29 0 l
0.29 0 l
0.29 0 l
0.29 0 l
0.29 0 l
0.29 0 l
0.29 0 l
0.28 0 l
0.29 0 l
0.29 0 l
0.29 0 l
0.29 0 l
0.29 0 l
0.29 0 l
0.29 0 l
0.29 0 l
0.29 0 l
0.29 0 l
0 -306.67 l
-11.57 0 l
0 306.67 l
cp p3
/bg { 0.2549 1 0.7451 srgb } def
0.2549 1 0.7451 srgb
np
 679.15 346.67 m
0.29 0 l
0.29 0 l
0.29 0 l
0.29 0 l
0.29 0 l
0.29 0 l
0.28 0 l
0.29 0 l
0.29 0 l
0.29 0 l
0.29 0 l
0.29 0 l
0.29 0 l
0.29 0 l
0.29 0 l
0.29 0 l
0.29 0 l
0.29 0 l
0.28 0 l
0.29 0 l
0 -306.67 l
-5.78 0 l
0 306.67 l
cp p3
/bg { 0.3608 1 0.6392 srgb } def
0.3608 1 0.6392 srgb
np
 682.91 346.67 m
0.29 0 l
0.29 0 l
0.29 0 l
0.29 0 l
0.29 0 l
0.28 0 l
0.29 0 l
0 -306.67 l
-2.02 0 l
0 306.67 l
cp p3
/bg { 0.5647 1 0.4353 srgb } def
0.5647 1 0.4353 srgb
np
 625.08 346.67 m
0.29 0 l
0.28 0 l
0.29 0 l
0.29 0 l
0.29 0 l
0.29 0 l
0.29 0 l
0.29 0 l
0.29 0 l
0.29 0 l
0.29 0 l
0.29 0 l
0.29 0 l
0.28 0 l
0.29 0 l
0.29 0 l
0.29 0 l
0.29 0 l
0.29 0 l
0.29 0 l
0.29 0 l
0.29 0 l
0.29 0 l
0.29 0 l
0.29 0 l
0.28 0 l
0.29 0 l
0.29 0 l
0.29 0 l
0.29 0 l
0.29 0 l
0.29 0 l
0.29 0 l
0.29 0 l
0.29 0 l
0.29 0 l
0.29 0 l
0.28 0 l
0.29 0 l
0.29 0 l
0.29 0 l
0.29 0 l
0 -306.67 l
-12.14 0 l
0 306.67 l
cp p3
/bg { 1 0.6980 0 srgb } def
1 0.6980 0 srgb
np
 383.62 346.67 m
0.29 0 l
0.29 0 l
0.29 0 l
0.29 0 l
0.29 0 l
0.29 0 l
0.29 0 l
0.29 0 l
0.29 0 l
0.29 0 l
0.28 0 l
0.29 0 l
0.29 0 l
0.29 0 l
0.29 0 l
0.29 0 l
0.29 0 l
0.29 0 l
0.29 0 l
0.29 0 l
0.29 0 l
0.29 0 l
0.28 0 l
0.29 0 l
0.29 0 l
0.29 0 l
0.29 0 l
0.29 0 l
0.29 0 l
0.29 0 l
0.29 0 l
0.29 0 l
0.29 0 l
0 -306.67 l
-9.55 0 l
0 306.67 l
cp p3
/bg { 1 0.6510 0 srgb } def
1 0.6510 0 srgb
np
 383.62 346.67 m
0.29 0 l
0.29 0 l
0.29 0 l
0.29 0 l
0.29 0 l
0.29 0 l
0.29 0 l
0.29 0 l
0.29 0 l
0.29 0 l
0.28 0 l
0.29 0 l
0.29 0 l
0.29 0 l
0.29 0 l
0.29 0 l
0.29 0 l
0.29 0 l
0.29 0 l
0.29 0 l
0.29 0 l
0.29 0 l
0.28 0 l
0.29 0 l
0.29 0 l
0.29 0 l
0.29 0 l
0.29 0 l
0.29 0 l
0.29 0 l
0.29 0 l
0.29 0 l
0.29 0 l
0 -306.67 l
-9.55 0 l
0 306.67 l
cp p3
np
 383.62 346.67 m
0.29 0 l
0.29 0 l
0.29 0 l
0.29 0 l
0.29 0 l
0.29 0 l
0.29 0 l
0.29 0 l
0.29 0 l
0.29 0 l
0.28 0 l
0.29 0 l
0.29 0 l
0.29 0 l
0.29 0 l
0.29 0 l
0.29 0 l
0.29 0 l
0.29 0 l
0.29 0 l
0.29 0 l
0.29 0 l
0.28 0 l
0.29 0 l
0.29 0 l
0.29 0 l
0.29 0 l
0.29 0 l
0.29 0 l
0.29 0 l
0.29 0 l
0.29 0 l
0.29 0 l
0 -306.67 l
-9.55 0 l
0 306.67 l
cp p3
/bg { 1 0.4510 0 srgb } def
1 0.4510 0 srgb
np
 383.62 346.67 m
0.29 0 l
0.29 0 l
0.29 0 l
0.29 0 l
0.29 0 l
0.29 0 l
0.29 0 l
0.29 0 l
0.29 0 l
0.29 0 l
0.28 0 l
0.29 0 l
0.29 0 l
0.29 0 l
0.29 0 l
0.29 0 l
0.29 0 l
0.29 0 l
0.29 0 l
0.29 0 l
0.29 0 l
0.29 0 l
0.28 0 l
0.29 0 l
0.29 0 l
0.29 0 l
0.29 0 l
0.29 0 l
0.29 0 l
0.29 0 l
0.29 0 l
0.29 0 l
0.29 0 l
0 -306.67 l
-9.55 0 l
0 306.67 l
cp p3
np
 383.62 346.67 m
0.29 0 l
0.29 0 l
0.29 0 l
0.29 0 l
0.29 0 l
0.29 0 l
0.29 0 l
0.29 0 l
0.29 0 l
0.29 0 l
0.28 0 l
0.29 0 l
0.29 0 l
0.29 0 l
0.29 0 l
0.29 0 l
0.29 0 l
0.29 0 l
0.29 0 l
0.29 0 l
0.29 0 l
0.29 0 l
0.28 0 l
0.29 0 l
0.29 0 l
0.29 0 l
0.29 0 l
0.29 0 l
0.29 0 l
0.29 0 l
0.29 0 l
0.29 0 l
0.29 0 l
0 -306.67 l
-9.55 0 l
0 306.67 l
cp p3
/bg { 1 0.4000 0 srgb } def
1 0.4000 0 srgb
np
 383.62 346.67 m
0.29 0 l
0.29 0 l
0.29 0 l
0.29 0 l
0.29 0 l
0.29 0 l
0.29 0 l
0.29 0 l
0.29 0 l
0.29 0 l
0.28 0 l
0.29 0 l
0.29 0 l
0.29 0 l
0.29 0 l
0.29 0 l
0.29 0 l
0.29 0 l
0.29 0 l
0.29 0 l
0.29 0 l
0.29 0 l
0.28 0 l
0.29 0 l
0.29 0 l
0.29 0 l
0.29 0 l
0.29 0 l
0.29 0 l
0.29 0 l
0.29 0 l
0.29 0 l
0.29 0 l
0.29 0 l
0 -306.67 l
-9.84 0 l
0 306.67 l
cp p3
0.00 0.00 720.00 540.00 cl
0 0 0 srgb
0.75 setlinewidth
[] 0 setdash
1 setlinecap
1 setlinejoin
10.00 setmiterlimit
np
54.00 187.20 m
655.20 0 l
o
np
68.72 187.20 m
0 -7.20 l
o
np
213.31 187.20 m
0 -7.20 l
o
np
357.89 187.20 m
0 -7.20 l
o
np
502.47 187.20 m
0 -7.20 l
o
np
647.05 187.20 m
0 -7.20 l
o
/Font1 findfont 12 s
68.72 168.48 (1000) .5 0 t
213.31 168.48 (1500) .5 0 t
357.89 168.48 (2000) .5 0 t
502.47 168.48 (2500) .5 0 t
647.05 168.48 (3000) .5 0 t
np
54.00 193.33 m
0 153.34 l
o
np
54.00 193.33 m
-7.20 0 l
o
np
54.00 224.00 m
-7.20 0 l
o
np
54.00 254.67 m
-7.20 0 l
o
np
54.00 285.33 m
-7.20 0 l
o
np
54.00 316.00 m
-7.20 0 l
o
np
54.00 346.67 m
-7.20 0 l
o
43.92 193.33 (0.0) .5 90 t
43.92 224.00 (0.2) .5 90 t
43.92 254.67 (0.4) .5 90 t
43.92 285.33 (0.6) .5 90 t
43.92 316.00 (0.8) .5 90 t
43.92 346.67 (1.0) .5 90 t
54.00 187.20 709.20 352.80 cl
0 0 0 srgb
0.75 setlinewidth
[ 2.25 3.75] 0 setdash
1 setlinecap
1 setlinejoin
10.00 setmiterlimit
np
367.43 187.20 m
0 165.60 l
o
np
395.77 187.20 m
0 165.60 l
o
54.00 0.00 709.20 180.00 cl
0.00 0.00 720.00 180.00 cl
/Font1 findfont 12 s
0 0 0 srgb
22.32 90.00 (full CM) .5 90 t
54.00 0.00 709.20 180.00 cl
0.8314 1 0.1686 srgb
1.50 setlinewidth
[] 0 setdash
1 setlinecap
1 setlinejoin
10.00 setmiterlimit
np
367.43 70.16 m
28.34 0 l
o
np
380.18 61.16 m
15.59 9.00 l
-15.59 9.00 l
o
np
363.61 70.16 m
7.64 0 l
o
np
367.43 66.34 m
0 7.64 l
o
0.00 0.00 720.00 540.00 cl
0 0 0 srgb
0.75 setlinewidth
[] 0 setdash
1 setlinecap
1 setlinejoin
10.00 setmiterlimit
np
68.40 30.48 m
0 128.96 l
o
np
68.40 30.48 m
4.32 0 l
o
np
68.40 40.40 m
4.32 0 l
o
np
68.40 50.32 m
4.32 0 l
o
np
68.40 60.24 m
4.32 0 l
o
np
68.40 70.16 m
4.32 0 l
o
np
68.40 80.08 m
4.32 0 l
o
np
68.40 90.00 m
4.32 0 l
o
np
68.40 99.92 m
4.32 0 l
o
np
68.40 109.84 m
4.32 0 l
o
np
68.40 119.76 m
4.32 0 l
o
np
68.40 129.68 m
4.32 0 l
o
np
68.40 139.60 m
4.32 0 l
o
np
68.40 149.52 m
4.32 0 l
o
np
68.40 159.44 m
4.32 0 l
o
/Font1 findfont 12 s
61.20 26.17 (Intron_gpI) 1 0 t
61.20 36.09 (IE3) 1 0 t
61.20 46.01 (IE2) 1 0 t
61.20 55.93 (IE1) 1 0 t
61.20 65.85 (IC3) 1 0 t
61.20 75.77 (IC2) 1 0 t
61.20 85.69 (IC1) 1 0 t
61.20 95.61 (IB4) 1 0 t
61.20 105.53 (IB3) 1 0 t
61.20 115.45 (IB2) 1 0 t
61.20 125.37 (IB1) 1 0 t
61.20 135.30 (IA3) 1 0 t
61.20 145.22 (IA2) 1 0 t
61.20 155.14 (IA1) 1 0 t
54.00 0.00 709.20 180.00 cl
0 0 0 srgb
0.75 setlinewidth
[ 2.25 3.75] 0 setdash
1 setlinecap
1 setlinejoin
10.00 setmiterlimit
np
367.43 0.00 m
0 180.00 l
o
np
395.77 0.00 m
0 180.00 l
o
ep
%%Trailer
%%Pages: 1
%%EOF
