%!PS-Adobe-3.0
%%DocumentNeededResources: font Helvetica
%%+ font Helvetica-Bold
%%+ font Helvetica-Oblique
%%+ font Helvetica-BoldOblique
%%+ font Symbol
%%DocumentMedia: special 540 720 0 () ()
%%Title: R Graphics Output
%%Creator: R Software
%%Pages: (atend)
%%BoundingBox: 0 0 540 720
%%EndComments
%%BeginProlog
/bp  { gs sRGB 540.00 0 translate 90 rotate gs } def
% begin .ps.prolog
/gs  { gsave } bind def
/gr  { grestore } bind def
/ep  { showpage gr gr } bind def
/m   { moveto } bind def
/l  { rlineto } bind def
/np  { newpath } bind def
/cp  { closepath } bind def
/f   { fill } bind def
/o   { stroke } bind def
/c   { newpath 0 360 arc } bind def
/r   { 4 2 roll moveto 1 copy 3 -1 roll exch 0 exch rlineto 0 rlineto -1 mul 0 exch rlineto closepath } bind def
/p1  { stroke } bind def
/p2  { gsave bg fill grestore newpath } bind def
/p3  { gsave bg fill grestore stroke } bind def
/p6  { gsave bg eofill grestore newpath } bind def
/p7  { gsave bg eofill grestore stroke } bind def
/t   { 5 -2 roll moveto gsave rotate
       1 index stringwidth pop
       mul neg 0 rmoveto show grestore } bind def
/ta  { 4 -2 roll moveto gsave rotate show } bind def
/tb  { 2 -1 roll 0 rmoveto show } bind def
/cl  { grestore gsave newpath 3 index 3 index moveto 1 index
       4 -1 roll lineto  exch 1 index lineto lineto
       closepath clip newpath } bind def
/rgb { setrgbcolor } bind def
/s   { scalefont setfont } bind def
% end   .ps.prolog
/sRGB { [ /CIEBasedABC
          << /DecodeLMN
               [ { dup 0.03928 le
                        {12.92321 div}
                        {0.055 add 1.055 div 2.4 exp }
                     ifelse
                 } bind dup dup
               ]
             /MatrixLMN [0.412457 0.212673 0.019334
                         0.357576 0.715152 0.119192
                         0.180437 0.072175 0.950301]
             /WhitePoint [0.9505 1.0 1.0890]
           >>
         ] setcolorspace } bind def
/srgb { setcolor } bind def
%%IncludeResource: font Helvetica
/Helvetica findfont
dup length dict begin
  {1 index /FID ne {def} {pop pop} ifelse} forall
  /Encoding ISOLatin1Encoding def
  currentdict
  end
/Font1 exch definefont pop
%%IncludeResource: font Helvetica-Bold
/Helvetica-Bold findfont
dup length dict begin
  {1 index /FID ne {def} {pop pop} ifelse} forall
  /Encoding ISOLatin1Encoding def
  currentdict
  end
/Font2 exch definefont pop
%%IncludeResource: font Helvetica-Oblique
/Helvetica-Oblique findfont
dup length dict begin
  {1 index /FID ne {def} {pop pop} ifelse} forall
  /Encoding ISOLatin1Encoding def
  currentdict
  end
/Font3 exch definefont pop
%%IncludeResource: font Helvetica-BoldOblique
/Helvetica-BoldOblique findfont
dup length dict begin
  {1 index /FID ne {def} {pop pop} ifelse} forall
  /Encoding ISOLatin1Encoding def
  currentdict
  end
/Font4 exch definefont pop
%%IncludeResource: font Symbol
/Symbol findfont
dup length dict begin
  {1 index /FID ne {def} {pop pop} ifelse} forall
  currentdict
  end
/Font5 exch definefont pop
%%EndProlog
%%Page: 1 1
bp
0.00 360.00 720.00 540.00 cl
/Font1 findfont 12 s
0 0 0 srgb
359.26 326.88 (r) 0 ta
-0.120 (ange\(x\)) tb gr
22.32 450.00 (subCM '!') .5 90 t
54.00 367.20 709.20 532.80 cl
/bg { 0.1804 1 0.8196 srgb } def
0.1804 1 0.8196 srgb
0.75 setlinewidth
[] 0 setdash
1 setlinecap
1 setlinejoin
10.00 setmiterlimit
np
 381.07 424.44 m
0.26 0 l
0.27 0 l
0.27 0 l
0.26 0 l
0.27 0 l
0.26 0 l
0.27 0 l
0.27 0 l
0.26 0 l
0.27 0 l
0.26 0 l
0.27 0 l
0.27 0 l
0.26 0 l
0.27 0 l
0.27 0 l
0.26 0 l
0.27 0 l
0.26 0 l
0.27 0 l
0.27 0 l
0.26 0 l
0.27 0 l
0.26 0 l
0.27 0 l
0.27 0 l
0.26 0 l
0.27 0 l
0.26 0 l
0.27 0 l
0.27 0 l
0.26 0 l
0.27 0 l
0.26 0 l
0.27 0 l
0.27 0 l
0.26 0 l
0.27 0 l
0.27 0 l
0.26 0 l
0.27 0 l
0.26 0 l
0.27 0 l
0.27 0 l
0.26 0 l
0.27 0 l
0.26 0 l
0.27 0 l
0.27 0 l
0.26 0 l
0.27 0 l
0.26 0 l
0.27 0 l
0.27 0 l
0.26 0 l
0.27 0 l
0.26 0 l
0.27 0 l
0.27 0 l
0.26 0 l
0.27 0 l
0.26 0 l
0.27 0 l
0.27 0 l
0.26 0 l
0.27 0 l
0.27 0 l
0.26 0 l
0.27 0 l
0.26 0 l
0.27 0 l
0.27 0 l
0.26 0 l
0.27 0 l
0.26 0 l
0.27 0 l
0.27 0 l
0.26 0 l
0.27 0 l
0.26 0 l
0.27 0 l
0.27 0 l
0.26 0 l
0.27 0 l
0.26 0 l
0.27 0 l
0.27 0 l
0.26 0 l
0.27 0 l
0.27 0 l
0.26 0 l
0.27 0 l
0.26 0 l
0.27 0 l
0.27 0 l
0.26 0 l
0.27 0 l
0.26 0 l
0.27 0 l
407.68 424.44 lineto
0.26 0 l
0.27 0 l
0.26 0 l
0.27 0 l
0.27 0 l
0.26 0 l
0.27 0 l
0.26 0 l
0.27 0 l
0.27 0 l
0.26 0 l
0.27 0 l
0.27 0 l
0.26 0 l
0.27 0 l
0.26 0 l
0.27 0 l
0.27 0 l
0.26 0 l
0.27 0 l
0.26 0 l
0.27 0 l
0 -102.22 l
-32.46 0 l
0 102.22 l
cp p3
/bg { 0.2549 1 0.7451 srgb } def
0.2549 1 0.7451 srgb
np
 395.44 475.56 m
0.26 0 l
0.27 0 l
0.26 0 l
0.27 0 l
0.27 0 l
0.26 0 l
0.27 0 l
0.26 0 l
0.27 0 l
0.27 0 l
0.26 0 l
0.27 0 l
0.27 0 l
0.26 0 l
0.27 0 l
0.26 0 l
0.27 0 l
0.27 0 l
0.26 0 l
0.27 0 l
0.26 0 l
0.27 0 l
0.27 0 l
0.26 0 l
0.27 0 l
0.26 0 l
0.27 0 l
0.27 0 l
0.26 0 l
0.27 0 l
0.26 0 l
0.27 0 l
0.27 0 l
0.26 0 l
0.27 0 l
0.27 0 l
0.26 0 l
0.27 0 l
0.26 0 l
0.27 0 l
0.27 0 l
0.26 0 l
0.27 0 l
0.26 0 l
0.27 0 l
0.27 0 l
0.26 0 l
0.27 0 l
0.26 0 l
0.27 0 l
0.27 0 l
0.26 0 l
0.27 0 l
0.26 0 l
0.27 0 l
0.27 0 l
0.26 0 l
0.27 0 l
0.27 0 l
0.26 0 l
0.27 0 l
0.26 0 l
0.27 0 l
0.27 0 l
0.26 0 l
0.27 0 l
0.26 0 l
0.27 -51.12 l
0.27 0 l
0.26 0 l
0.27 0 l
0.26 0 l
0.27 0 l
0.27 0 l
0.26 0 l
0.27 0 l
0.26 0 l
0.27 0 l
0.27 0 l
0.26 0 l
0.27 0 l
0.26 0 l
0.27 0 l
0.27 0 l
0.26 0 l
0.27 0 l
0.27 0 l
0.26 0 l
0 -102.22 l
-23.41 0 l
0 153.34 l
cp p3
/bg { 0.3608 1 0.6392 srgb } def
0.3608 1 0.6392 srgb
np
 381.07 424.44 m
0.26 0 l
0.27 0 l
0.27 0 l
0.26 0 l
0.27 0 l
0.26 0 l
0.27 0 l
0.27 0 l
0.26 0 l
0.27 0 l
0.26 0 l
0.27 0 l
0.27 0 l
0.26 0 l
0.27 0 l
0.27 0 l
0.26 0 l
0.27 0 l
0.26 0 l
0.27 0 l
0.27 0 l
0.26 0 l
0.27 0 l
0.26 0 l
0.27 0 l
0.27 0 l
0.26 0 l
0.27 0 l
0.26 0 l
0.27 0 l
0.27 0 l
0.26 0 l
0.27 0 l
0.26 0 l
0.27 0 l
0.27 0 l
0.26 0 l
0.27 0 l
0.27 0 l
0.26 0 l
0.27 0 l
0.26 0 l
0.27 0 l
0.27 0 l
0.26 0 l
0.27 0 l
0.26 0 l
0.27 0 l
0.27 0 l
0.26 0 l
0.27 0 l
0.26 0 l
0.27 0 l
0.27 0 l
0.26 0 l
0.27 0 l
0.26 0 l
0.27 0 l
0.27 0 l
0.26 0 l
0.27 0 l
0.26 0 l
0.27 0 l
0.27 0 l
0.26 0 l
0.27 0 l
0.27 0 l
0.26 0 l
0.27 0 l
0.26 0 l
0.27 0 l
0.27 0 l
0.26 0 l
0.27 0 l
0.26 0 l
0.27 0 l
0.27 0 l
0.26 0 l
0.27 0 l
0.26 0 l
0.27 0 l
0.27 0 l
0.26 0 l
0.27 0 l
0.26 0 l
0.27 0 l
0.27 0 l
0.26 0 l
0.27 0 l
0.27 0 l
0.26 0 l
0.27 0 l
0.26 0 l
0.27 0 l
0.27 0 l
0.26 0 l
0.27 0 l
0.26 0 l
0.27 0 l
407.68 424.44 lineto
0.26 0 l
0.27 0 l
0.26 0 l
0.27 0 l
0.27 0 l
0.26 0 l
0.27 0 l
0.26 0 l
0.27 0 l
0.27 0 l
0.26 0 l
0.27 0 l
0.27 0 l
0.26 0 l
0.27 0 l
0.26 0 l
0.27 0 l
0.27 0 l
0.26 0 l
0.27 0 l
0.26 0 l
0.27 0 l
0.27 0 l
0.26 0 l
0.27 0 l
0.26 0 l
0.27 0 l
0.27 0 l
0.26 0 l
0.27 0 l
0.26 0 l
0.27 0 l
0.27 0 l
0.26 0 l
0.27 0 l
0.26 0 l
0.27 0 l
0.27 0 l
0.26 0 l
0 -102.22 l
-36.98 0 l
0 102.22 l
cp p3
np
 382.66 424.44 m
0.27 0 l
0.27 0 l
0.26 0 l
0.27 0 l
0.26 0 l
0.27 0 l
0.27 0 l
0.26 0 l
0.27 0 l
0.27 0 l
0.26 0 l
0.27 0 l
0.26 0 l
0.27 0 l
0.27 0 l
0.26 0 l
0.27 0 l
0.26 0 l
0.27 0 l
0.27 0 l
0.26 0 l
0.27 0 l
0.26 0 l
0.27 0 l
0.27 0 l
0.26 0 l
0.27 0 l
0.26 0 l
0.27 0 l
0.27 0 l
0.26 0 l
0.27 0 l
0.27 0 l
0.26 0 l
0.27 0 l
0.26 0 l
0.27 0 l
0.27 0 l
0.26 0 l
0.27 0 l
0.26 0 l
0.27 0 l
0.27 0 l
0.26 0 l
0.27 0 l
0.26 0 l
0.27 0 l
0.27 0 l
0.26 0 l
0.27 0 l
0.26 0 l
0.27 0 l
0.27 0 l
0.26 0 l
0.27 0 l
0.26 0 l
0.27 0 l
0.27 0 l
0.26 0 l
0.27 0 l
0.27 0 l
0.26 0 l
0.27 0 l
0.26 0 l
0.27 0 l
0.27 0 l
0.26 0 l
0.27 0 l
0.26 0 l
0.27 0 l
0.27 0 l
0.26 0 l
0.27 0 l
0.26 0 l
0.27 0 l
0.27 0 l
0.26 0 l
0.27 0 l
0.26 0 l
0.27 0 l
0.27 0 l
0.26 0 l
0.27 0 l
0.27 0 l
0.26 0 l
0.27 0 l
0.26 0 l
0.27 0 l
0.27 0 l
0.26 0 l
0.27 0 l
0.26 0 l
0.27 0 l
0.27 0 l
0.26 0 l
0.27 0 l
0.26 0 l
0.27 0 l
0.27 0 l
409.27 424.44 lineto
0.27 0 l
0.26 0 l
0.27 0 l
0.27 0 l
0 -102.22 l
-27.68 0 l
0 102.22 l
cp p3
/bg { 0.5647 1 0.4353 srgb } def
0.5647 1 0.4353 srgb
np
 395.44 475.56 m
0.26 0 l
0.27 0 l
0.26 0 l
0.27 0 l
0.27 0 l
0.26 0 l
0.27 0 l
0.26 0 l
0.27 0 l
0.27 0 l
0.26 0 l
0.27 0 l
0.27 0 l
0.26 0 l
0.27 0 l
0.26 0 l
0.27 0 l
0.27 0 l
0.26 0 l
0.27 0 l
0.26 0 l
0.27 0 l
0.27 0 l
0.26 0 l
0.27 0 l
0.26 0 l
0.27 0 l
0.27 0 l
0.26 0 l
0.27 0 l
0.26 0 l
0.27 0 l
0.27 0 l
0.26 0 l
0.27 0 l
0.27 0 l
0.26 0 l
0.27 0 l
0.26 0 l
0.27 0 l
0.27 0 l
0.26 0 l
0.27 0 l
0.26 0 l
0.27 0 l
0 -153.34 l
-11.97 0 l
0 153.34 l
cp p3
/bg { 0.6392 1 0.3608 srgb } def
0.6392 1 0.3608 srgb
np
 379.47 424.44 m
0.27 0 l
0.26 0 l
0.27 0 l
0.27 0 l
0.26 0 l
0.27 0 l
0.26 0 l
0.27 0 l
0.27 0 l
0.26 0 l
0.27 0 l
0.26 0 l
0.27 0 l
0.27 0 l
0.26 0 l
0.27 0 l
0.26 0 l
0.27 0 l
0.27 0 l
0.26 0 l
0.27 0 l
0.27 0 l
0.26 0 l
0.27 51.12 l
0.26 0 l
0.27 0 l
0.27 0 l
0.26 0 l
0.27 0 l
0.26 0 l
0.27 0 l
0.27 0 l
0.26 0 l
0.27 0 l
0.26 0 l
0.27 0 l
0.27 0 l
0.26 0 l
0.27 0 l
0.26 0 l
0.27 0 l
0.27 0 l
0.26 0 l
0.27 0 l
0.27 0 l
0.26 0 l
0.27 0 l
0.26 0 l
0.27 0 l
0.27 0 l
0.26 0 l
0.27 0 l
0.26 0 l
0.27 0 l
0.27 0 l
0.26 0 l
0.27 0 l
0.26 0 l
0.27 0 l
0.27 0 l
0.26 0 l
0.27 0 l
0.26 0 l
0.27 0 l
0.27 0 l
0.26 0 l
0.27 0 l
0.26 0 l
0.27 0 l
0.27 0 l
0.26 0 l
0.27 0 l
0.27 0 l
0.26 0 l
0.27 0 l
0.26 0 l
0.27 0 l
0.27 0 l
0.26 0 l
0.27 0 l
0.26 0 l
0.27 0 l
0.27 0 l
0.26 0 l
0.27 0 l
0.26 0 l
0.27 0 l
0.27 0 l
0.26 0 l
0.27 0 l
0.26 0 l
0.27 0 l
0.27 0 l
0.26 0 l
0.27 0 l
0.27 0 l
0.26 0 l
0.27 0 l
0.26 0 l
406.08 475.56 lineto
0.27 0 l
0.26 0 l
0.27 0 l
0.26 0 l
0.27 0 l
0.27 -51.12 l
0.26 0 l
0.27 0 l
0.26 0 l
0.27 0 l
0.27 0 l
0.26 0 l
0.27 0 l
0.26 0 l
0.27 0 l
0.27 0 l
0.26 0 l
0.27 0 l
0.27 0 l
0.26 0 l
0.27 0 l
0.26 0 l
0 -102.22 l
-32.46 0 l
0 102.22 l
cp p3
/bg { 0.7176 1 0.2824 srgb } def
0.7176 1 0.2824 srgb
np
 381.33 424.44 m
0.27 0 l
0.27 0 l
0.26 0 l
0.27 0 l
0.26 0 l
0.27 0 l
0.27 0 l
0.26 0 l
0.27 0 l
0.26 0 l
0.27 0 l
0.27 0 l
0.26 0 l
0.27 0 l
0.27 0 l
0.26 0 l
0.27 51.12 l
0.26 0 l
0.27 0 l
0.27 0 l
0.26 0 l
0.27 0 l
0.26 0 l
0.27 0 l
0.27 0 l
0.26 0 l
0.27 0 l
0.26 0 l
0.27 0 l
0.27 0 l
0.26 0 l
0.27 0 l
0.26 0 l
0.27 0 l
0.27 0 l
0.26 0 l
0.27 0 l
0.27 0 l
0.26 0 l
0.27 0 l
0.26 0 l
0.27 0 l
0.27 51.11 l
0.26 0 l
0.27 0 l
0.26 0 l
0.27 0 l
0.27 0 l
0.26 0 l
0.27 0 l
0.26 0 l
0.27 0 l
0.27 0 l
0.26 0 l
0.27 0 l
0.26 0 l
0.27 0 l
0.27 0 l
0.26 0 l
0.27 0 l
0.26 0 l
0.27 0 l
0.27 0 l
0.26 0 l
0.27 0 l
0.27 0 l
0.26 0 l
0.27 0 l
0.26 0 l
0.27 0 l
0.27 0 l
0.26 0 l
0.27 0 l
0.26 -51.11 l
0.27 -51.12 l
0 -102.22 l
-19.96 0 l
0 102.22 l
cp p3
/bg { 1 0.6980 0 srgb } def
1 0.6980 0 srgb
np
 373.62 475.56 m
0.26 0 l
0.27 0 l
0.27 0 l
0.26 0 l
0.27 0 l
0.26 0 l
0.27 0 l
0.27 0 l
0.26 0 l
0.27 0 l
0.26 0 l
0.27 0 l
0.27 0 l
0.26 0 l
0.27 0 l
0.26 0 l
0.27 0 l
0.27 0 l
0.26 0 l
0.27 0 l
0.27 0 l
0.26 0 l
0.27 0 l
0.26 0 l
0.27 0 l
0.27 0 l
0.26 0 l
0.27 0 l
0.26 0 l
0.27 0 l
0.27 0 l
0.26 0 l
0.27 0 l
0.26 0 l
0.27 0 l
0.27 0 l
0.26 0 l
0.27 0 l
0.26 0 l
0.27 0 l
0.27 0 l
0.26 0 l
0.27 0 l
0.27 0 l
0.26 0 l
0.27 0 l
0.26 0 l
0.27 0 l
0.27 0 l
0.26 0 l
0.27 0 l
0.26 0 l
0.27 0 l
0.27 0 l
0.26 0 l
0.27 0 l
0.26 0 l
0.27 0 l
0.27 0 l
0.26 0 l
0.27 0 l
0.26 0 l
0.27 0 l
0.27 0 l
0.26 0 l
0.27 0 l
0.27 0 l
0.26 0 l
0.27 0 l
0.26 0 l
0.27 0 l
0.27 0 l
0.26 0 l
0.27 0 l
0.26 0 l
0.27 0 l
0.27 0 l
0.26 0 l
0.27 0 l
0.26 0 l
0.27 0 l
0.27 0 l
0.26 0 l
0.27 0 l
0.26 0 l
0.27 0 l
0.27 0 l
0.26 0 l
0.27 0 l
0.26 0 l
0.27 0 l
0.27 0 l
0.26 0 l
0.27 0 l
0.27 0 l
0.26 0 l
0.27 0 l
0.26 0 l
0.27 0 l
400.23 475.56 lineto
0.26 0 l
0.27 0 l
0.26 -51.12 l
0.27 0 l
0.27 0 l
0.26 0 l
0.27 0 l
0.26 0 l
0 -102.22 l
-28.73 0 l
0 153.34 l
cp p3
/bg { 1 0.6510 0 srgb } def
1 0.6510 0 srgb
np
 373.62 424.44 m
0.26 0 l
0.27 0 l
0.27 0 l
0.26 0 l
0.27 0 l
0.26 0 l
0.27 0 l
0.27 0 l
0.26 0 l
0.27 0 l
0.26 0 l
0.27 0 l
0.27 0 l
0.26 0 l
0.27 0 l
0.26 0 l
0.27 0 l
0.27 0 l
0.26 0 l
0.27 0 l
0.27 0 l
0.26 0 l
0.27 0 l
0.26 0 l
0.27 0 l
0.27 0 l
0.26 0 l
0.27 0 l
0.26 0 l
0.27 0 l
0.27 0 l
0.26 0 l
0.27 0 l
0.26 0 l
0.27 0 l
0.27 0 l
0.26 0 l
0.27 0 l
0.26 0 l
0.27 0 l
0.27 0 l
0.26 0 l
0.27 0 l
0.27 0 l
0.26 0 l
0.27 0 l
0.26 0 l
0.27 0 l
0.27 0 l
0.26 0 l
0.27 0 l
0.26 0 l
0.27 0 l
0.27 0 l
0.26 0 l
0.27 0 l
0.26 0 l
0.27 0 l
0.27 0 l
0.26 0 l
0.27 0 l
0.26 0 l
0.27 0 l
0.27 0 l
0.26 0 l
0.27 0 l
0.27 0 l
0.26 0 l
0.27 0 l
0.26 0 l
0.27 0 l
0.27 0 l
0.26 0 l
0.27 0 l
0.26 0 l
0.27 0 l
0.27 0 l
0.26 0 l
0.27 0 l
0.26 0 l
0.27 0 l
0.27 0 l
0.26 0 l
0.27 0 l
0.26 0 l
0.27 0 l
0.27 0 l
0.26 0 l
0 -102.22 l
-23.41 0 l
0 102.22 l
cp p3
np
 370.96 424.44 m
0.26 51.12 l
0.27 0 l
0.26 0 l
0.27 0 l
0.27 0 l
0.26 0 l
0.27 0 l
0.27 0 l
0.26 0 l
0.27 0 l
0.26 0 l
0.27 0 l
0.27 0 l
0.26 0 l
0.27 0 l
0.26 0 l
0.27 0 l
0.27 0 l
0.26 0 l
0.27 0 l
0.26 0 l
0.27 0 l
0.27 0 l
0.26 0 l
0.27 0 l
0.26 0 l
0.27 0 l
0.27 0 l
0.26 0 l
0.27 0 l
0.27 0 l
0.26 0 l
0.27 0 l
0.26 0 l
0.27 0 l
0.27 0 l
0.26 0 l
0.27 0 l
0.26 0 l
0.27 0 l
0.27 0 l
0.26 0 l
0.27 0 l
0.26 0 l
0.27 0 l
0.27 0 l
0.26 0 l
0.27 0 l
0.26 0 l
0.27 0 l
0.27 0 l
0.26 0 l
0.27 0 l
0.27 0 l
0.26 0 l
0.27 0 l
0.26 0 l
0.27 0 l
0.27 0 l
0.26 0 l
0.27 0 l
0.26 0 l
0.27 0 l
0.27 0 l
0.26 0 l
0.27 0 l
0.26 0 l
0.27 0 l
0.27 0 l
0.26 0 l
0.27 0 l
0.26 0 l
0.27 0 l
0.27 0 l
0.26 0 l
0.27 0 l
0.27 0 l
0.26 0 l
0.27 0 l
0.26 0 l
0.27 0 l
0.27 0 l
0.26 0 l
0.27 0 l
0.26 0 l
0.27 0 l
0.27 0 l
0.26 0 l
0.27 0 l
0.26 0 l
0.27 0 l
0.27 0 l
0.26 0 l
0.27 0 l
0.26 0 l
0.27 0 l
0.27 0 l
0.26 0 l
0 -153.34 l
370.96 322.22 lineto
0 102.22 l
cp p3
/bg { 1 0.4000 0 srgb } def
1 0.4000 0 srgb
np
 363.51 424.44 m
0.26 0 l
0.27 0 l
0.26 0 l
0.27 0 l
0.27 0 l
0.26 0 l
0.27 0 l
0.27 0 l
0.26 0 l
0.27 0 l
0.26 0 l
0.27 0 l
0.27 51.12 l
0.26 0 l
0.27 0 l
0.26 0 l
0.27 0 l
0.27 0 l
0.26 0 l
0.27 0 l
0.26 0 l
0.27 0 l
0.27 0 l
0.26 0 l
0.27 0 l
0.26 0 l
0.27 0 l
0.27 0 l
0.26 0 l
0.27 0 l
0.26 0 l
0.27 0 l
0.27 0 l
0.26 0 l
0.27 0 l
0.27 0 l
0.26 0 l
0.27 0 l
0.26 0 l
0.27 0 l
0.27 0 l
0.26 0 l
0.27 0 l
0.26 0 l
0.27 0 l
0.27 0 l
0.26 0 l
0.27 0 l
0.26 0 l
0.27 0 l
0.27 0 l
0.26 0 l
0.27 0 l
0.26 0 l
0.27 0 l
0.27 0 l
0.26 0 l
0.27 0 l
0.27 0 l
0.26 0 l
0.27 0 l
0.26 0 l
0.27 0 l
0.27 0 l
0.26 0 l
0.27 -51.12 l
0.26 0 l
0.27 0 l
0.27 0 l
0.26 0 l
0 -102.22 l
-18.62 0 l
0 102.22 l
cp p3
/bg { 0.8235 0 0 srgb } def
0.8235 0 0 srgb
np
 344.35 424.44 m
0.26 0 l
0.27 0 l
0.27 0 l
0.26 0 l
0.27 0 l
0.27 0 l
0.26 0 l
0.27 0 l
0.26 0 l
0.27 0 l
0.27 0 l
0.26 0 l
0.27 0 l
0.26 0 l
0.27 0 l
0.27 0 l
0.26 0 l
0.27 0 l
0.26 0 l
0.27 0 l
0.27 0 l
0.26 0 l
0.27 0 l
0.26 0 l
0.27 0 l
0.27 0 l
0.26 0 l
0.27 0 l
0.26 0 l
0.27 0 l
0.27 0 l
0.26 0 l
0.27 0 l
0.27 0 l
0.26 0 l
0.27 0 l
0.26 0 l
0.27 0 l
0.27 0 l
0.26 0 l
0.27 0 l
0.26 0 l
0.27 0 l
0.27 0 l
0.26 0 l
0.27 0 l
0.26 0 l
0.27 0 l
0.27 0 l
0.26 0 l
0.27 0 l
0.26 0 l
0.27 0 l
0.27 0 l
0.26 0 l
0.27 0 l
0.27 0 l
0.26 0 l
0.27 0 l
0.26 0 l
0.27 0 l
0.27 0 l
0.26 0 l
0.27 0 l
0.26 0 l
0.27 0 l
0.27 0 l
0.26 0 l
0.27 0 l
0.26 0 l
0.27 0 l
0.27 0 l
0.26 0 l
0.27 0 l
0.26 0 l
0.27 0 l
0.27 0 l
0.26 0 l
0.27 0 l
0.27 0 l
0.26 0 l
0.27 0 l
0.26 0 l
0.27 0 l
0.27 51.12 l
0.26 0 l
0.27 0 l
0.26 0 l
0.27 0 l
0.27 0 l
0.26 0 l
0.27 0 l
0.26 0 l
0.27 0 l
0.27 0 l
0.26 0 l
0.27 0 l
0.26 0 l
0.27 0 l
370.96 475.56 lineto
0.26 0 l
0.27 0 l
0.26 0 l
0.27 0 l
0.27 0 l
0.26 0 l
0.27 0 l
0.27 0 l
0.26 0 l
0.27 0 l
0.26 0 l
0.27 0 l
0.27 0 l
0.26 0 l
0.27 0 l
0.26 0 l
0.27 0 l
0.27 0 l
0.26 0 l
0.27 0 l
0.26 0 l
0.27 0 l
0.27 0 l
0.26 0 l
0.27 0 l
0.26 0 l
0.27 0 l
0.27 0 l
0.26 0 l
0.27 0 l
0 -153.34 l
-34.59 0 l
0 102.22 l
cp p3
0.00 0.00 720.00 540.00 cl
0 0 0 srgb
0.75 setlinewidth
[] 0 setdash
1 setlinecap
1 setlinejoin
10.00 setmiterlimit
np
54.00 367.20 m
655.20 0 l
o
np
166.61 367.20 m
0 -7.20 l
o
np
299.65 367.20 m
0 -7.20 l
o
np
432.69 367.20 m
0 -7.20 l
o
np
565.73 367.20 m
0 -7.20 l
o
np
698.77 367.20 m
0 -7.20 l
o
/Font1 findfont 12 s
166.61 348.48 (2500) .5 0 t
299.65 348.48 (3000) .5 0 t
432.69 348.48 (3500) .5 0 t
565.73 348.48 (4000) .5 0 t
698.77 348.48 (4500) .5 0 t
np
54.00 373.33 m
0 153.34 l
o
np
54.00 373.33 m
-7.20 0 l
o
np
54.00 398.89 m
-7.20 0 l
o
np
54.00 424.44 m
-7.20 0 l
o
np
54.00 450.00 m
-7.20 0 l
o
np
54.00 475.56 m
-7.20 0 l
o
np
54.00 501.11 m
-7.20 0 l
o
np
54.00 526.67 m
-7.20 0 l
o
43.92 373.33 (0.0) .5 90 t
43.92 424.44 (1.0) .5 90 t
43.92 475.56 (2.0) .5 90 t
43.92 526.67 (3.0) .5 90 t
54.00 367.20 709.20 532.80 cl
0 0 0 srgb
0.75 setlinewidth
[ 2.25 3.75] 0 setdash
1 setlinecap
1 setlinejoin
10.00 setmiterlimit
np
344.35 367.20 m
0 165.60 l
o
np
418.85 367.20 m
0 165.60 l
o
54.00 187.20 709.20 352.80 cl
0.00 180.00 720.00 360.00 cl
/Font1 findfont 12 s
0 0 0 srgb
359.26 146.88 (r) 0 ta
-0.120 (ange\(x\)) tb gr
22.32 270.00 (subCM '?') .5 90 t
54.00 187.20 709.20 352.80 cl
/bg { 0.1804 1 0.8196 srgb } def
0.1804 1 0.8196 srgb
0.75 setlinewidth
[] 0 setdash
1 setlinecap
1 setlinejoin
10.00 setmiterlimit
np
 183.64 224.00 m
0.26 0 l
0.27 0 l
0.26 0 l
0.27 0 l
0.27 0 l
0.26 0 l
0.27 0 l
0.26 0 l
0.27 0 l
0.27 0 l
0.26 0 l
0.27 0 l
0.26 0 l
0.27 0 l
0.27 0 l
0.26 0 l
0.27 0 l
0.26 0 l
0.27 0 l
0.27 0 l
0.26 0 l
0.27 0 l
0.26 0 l
0.27 0 l
0.27 0 l
0.26 0 l
0.27 0 l
0.27 0 l
0.26 0 l
0.27 0 l
0.26 0 l
0.27 0 l
0.27 0 l
0.26 0 l
0.27 0 l
0.26 0 l
0.27 0 l
0.27 0 l
0.26 0 l
0.27 0 l
0.26 0 l
0.27 0 l
0.27 0 l
0.26 0 l
0.27 0 l
0.26 0 l
0.27 0 l
0.27 0 l
0.26 0 l
0.27 0 l
0.27 0 l
0.26 0 l
0.27 0 l
0.26 0 l
0.27 0 l
0.27 0 l
0.26 0 l
0.27 0 l
0.26 0 l
0.27 0 l
0.27 0 l
0.26 0 l
0.27 0 l
0.26 0 l
0.27 0 l
0.27 0 l
0.26 0 l
0.27 0 l
0.26 0 l
0.27 0 l
0.27 0 l
0.26 0 l
0.27 0 l
0.27 0 l
0.26 0 l
0.27 0 l
0.26 0 l
0.27 0 l
0.27 0 l
0.26 0 l
0.27 0 l
0.26 0 l
0.27 0 l
0.27 0 l
0.26 0 l
0.27 0 l
0.26 0 l
0.27 0 l
0.27 0 l
0.26 0 l
0.27 0 l
0.26 0 l
0.27 0 l
0.27 0 l
0.26 0 l
0.27 0 l
0.27 0 l
0.26 0 l
0.27 0 l
210.24 224.00 lineto
0.27 0 l
0.27 0 l
0.26 0 l
0.27 0 l
0.26 0 l
0.27 0 l
0.27 0 l
0 -61.33 l
-28.47 0 l
0 61.33 l
cp p3
np
 390.38 224.00 m
0.27 0 l
0.26 0 l
0.27 0 l
0.27 0 l
0.26 0 l
0.27 0 l
0.26 0 l
0.27 0 l
0.27 30.67 l
0.26 0 l
0.27 0 l
0.26 0 l
0.27 0 l
0.27 0 l
0.26 0 l
0.27 0 l
0.26 0 l
0.27 0 l
0.27 0 l
0.26 0 l
0.27 0 l
0.26 0 l
0.27 0 l
0.27 0 l
0.26 0 l
0.27 0 l
0.26 0 l
0.27 0 l
0.27 0 l
0.26 0 l
0.27 0 l
0.27 0 l
0.26 0 l
0.27 0 l
0.26 0 l
0.27 0 l
0.27 0 l
0.26 0 l
0.27 0 l
0.26 0 l
0.27 0 l
0.27 0 l
0.26 0 l
0.27 0 l
0.26 0 l
0.27 0 l
0.27 0 l
0.26 0 l
0.27 0 l
0.26 0 l
0.27 0 l
0.27 0 l
0.26 0 l
0.27 0 l
0.27 0 l
0.26 0 l
0.27 0 l
0.26 0 l
0.27 0 l
0.27 0 l
0.26 0 l
0.27 0 l
0.26 0 l
0.27 0 l
0.27 -30.67 l
0.26 0 l
0.27 0 l
0.26 0 l
0.27 0 l
0.27 0 l
0.26 0 l
0.27 0 l
0.26 0 l
0.27 0 l
0.27 0 l
0.26 0 l
0.27 0 l
0.27 0 l
0.26 0 l
0.27 0 l
0.26 0 l
0.27 0 l
0.27 0 l
0.26 0 l
0.27 0 l
0.26 0 l
0.27 0 l
0.27 0 l
0.26 0 l
0.27 0 l
0.26 0 l
0.27 0 l
0.27 0 l
0.26 0 l
0.27 0 l
0.26 0 l
0.27 0 l
0.27 0 l
0.26 0 l
416.99 224.00 lineto
0.26 0 l
0.27 0 l
0.27 0 l
0.26 0 l
0.27 0 l
0.27 0 l
0.26 0 l
0 -61.33 l
-28.47 0 l
0 61.33 l
cp p3
/bg { 0.2549 1 0.7451 srgb } def
0.2549 1 0.7451 srgb
np
 395.44 224.00 m
0.26 0 l
0.27 0 l
0.26 0 l
0.27 0 l
0.27 0 l
0.26 0 l
0.27 0 l
0.26 0 l
0.27 0 l
0.27 0 l
0.26 0 l
0.27 0 l
0.27 0 l
0.26 0 l
0.27 0 l
0.26 0 l
0.27 0 l
0.27 0 l
0.26 0 l
0.27 0 l
0.26 0 l
0.27 0 l
0.27 0 l
0.26 0 l
0.27 0 l
0.26 0 l
0.27 0 l
0.27 0 l
0.26 0 l
0.27 0 l
0.26 0 l
0.27 0 l
0.27 0 l
0.26 0 l
0.27 0 l
0.27 0 l
0.26 0 l
0.27 0 l
0.26 0 l
0.27 0 l
0.27 0 l
0.26 0 l
0.27 0 l
0.26 0 l
0.27 0 l
0.27 0 l
0.26 0 l
0.27 0 l
0.26 0 l
0.27 0 l
0.27 0 l
0.26 0 l
0.27 0 l
0.26 0 l
0.27 0 l
0.27 0 l
0.26 0 l
0.27 0 l
0.27 0 l
0.26 0 l
0.27 0 l
0.26 0 l
0.27 0 l
0.27 0 l
0.26 0 l
0.27 0 l
0.26 0 l
0 -61.33 l
-17.82 0 l
0 61.33 l
cp p3
/bg { 0.3608 1 0.6392 srgb } def
0.3608 1 0.6392 srgb
np
 390.38 224.00 m
0.27 0 l
0.26 0 l
0.27 0 l
0.27 0 l
0.26 0 l
0.27 0 l
0.26 0 l
0.27 0 l
0.27 30.67 l
0.26 0 l
0.27 0 l
0.26 0 l
0.27 0 l
0.27 0 l
0.26 0 l
0.27 0 l
0.26 0 l
0.27 0 l
0.27 0 l
0.26 0 l
0.27 0 l
0.26 0 l
0.27 0 l
0.27 0 l
0.26 0 l
0.27 0 l
0.26 0 l
0.27 0 l
0.27 0 l
0.26 0 l
0.27 0 l
0.27 0 l
0.26 0 l
0.27 0 l
0.26 0 l
0.27 0 l
0.27 0 l
0.26 0 l
0.27 0 l
0.26 0 l
0.27 0 l
0.27 0 l
0.26 0 l
0.27 0 l
0.26 0 l
0.27 0 l
0.27 0 l
0.26 0 l
0.27 0 l
0.26 0 l
0.27 0 l
0.27 0 l
0.26 0 l
0.27 0 l
0.27 0 l
0.26 0 l
0.27 0 l
0.26 0 l
0.27 0 l
0.27 0 l
0.26 0 l
0.27 0 l
0.26 0 l
0.27 0 l
0.27 -30.67 l
0.26 0 l
0.27 0 l
0.26 0 l
0.27 0 l
0.27 0 l
0.26 0 l
0.27 0 l
0.26 0 l
0.27 0 l
0.27 0 l
0.26 0 l
0.27 0 l
0.27 0 l
0.26 0 l
0.27 0 l
0.26 0 l
0.27 0 l
0.27 0 l
0.26 0 l
0.27 0 l
0.26 0 l
0.27 0 l
0.27 0 l
0.26 0 l
0.27 0 l
0.26 0 l
0.27 0 l
0.27 0 l
0.26 0 l
0.27 0 l
0.26 0 l
0.27 0 l
0.27 0 l
0.26 0 l
416.99 224.00 lineto
0.26 0 l
0.27 0 l
0.27 0 l
0.26 0 l
0.27 0 l
0.27 0 l
0 -61.33 l
-28.21 0 l
0 61.33 l
cp p3
np
 390.38 224.00 m
0.27 0 l
0.26 0 l
0.27 0 l
0.27 0 l
0.26 0 l
0.27 0 l
0.26 0 l
0.27 0 l
0.27 0 l
0.26 0 l
0.27 0 l
0.26 0 l
0.27 0 l
0.27 0 l
0.26 0 l
0.27 0 l
0.26 0 l
0.27 0 l
0.27 30.67 l
0.26 0 l
0.27 0 l
0.26 0 l
0.27 0 l
0.27 0 l
0.26 0 l
0.27 0 l
0.26 0 l
0.27 0 l
0.27 0 l
0.26 0 l
0.27 0 l
0.27 0 l
0.26 0 l
0.27 0 l
0.26 0 l
0.27 0 l
0.27 0 l
0.26 0 l
0.27 0 l
0.26 0 l
0.27 0 l
0.27 0 l
0.26 0 l
0.27 0 l
0.26 0 l
0.27 0 l
0.27 0 l
0.26 0 l
0.27 0 l
0.26 0 l
0.27 0 l
0.27 0 l
0.26 0 l
0.27 0 l
0.27 0 l
0.26 0 l
0.27 0 l
0.26 0 l
0.27 0 l
0.27 0 l
0.26 0 l
0.27 0 l
0.26 0 l
0.27 0 l
0.27 -30.67 l
0.26 0 l
0.27 0 l
0.26 0 l
0.27 0 l
0.27 0 l
0.26 0 l
0.27 0 l
0.26 0 l
0.27 0 l
0.27 0 l
0.26 0 l
0.27 0 l
0.27 0 l
0.26 0 l
0.27 0 l
0.26 0 l
0.27 0 l
0.27 0 l
0.26 0 l
0.27 0 l
0.26 0 l
0.27 0 l
0.27 0 l
0.26 0 l
0.27 0 l
0.26 0 l
0.27 0 l
0.27 0 l
0.26 0 l
0.27 0 l
0.26 0 l
0.27 0 l
0.27 0 l
0.26 0 l
416.99 224.00 lineto
0.26 0 l
0.27 0 l
0 -61.33 l
-27.14 0 l
0 61.33 l
cp p3
/bg { 0.5647 1 0.4353 srgb } def
0.5647 1 0.4353 srgb
np
 395.44 285.33 m
0.26 0 l
0.27 0 l
0.26 0 l
0.27 0 l
0.27 0 l
0.26 0 l
0.27 0 l
0.26 0 l
0.27 0 l
0.27 0 l
0.26 0 l
0.27 0 l
0.27 0 l
0.26 0 l
0.27 0 l
0.26 0 l
0.27 0 l
0.27 0 l
0.26 0 l
0.27 0 l
0.26 0 l
0.27 0 l
0.27 0 l
0.26 0 l
0.27 0 l
0.26 0 l
0.27 0 l
0.27 0 l
0.26 0 l
0.27 0 l
0.26 0 l
0.27 0 l
0.27 0 l
0.26 0 l
0.27 0 l
0.27 0 l
0.26 0 l
0.27 -30.66 l
0.26 0 l
0.27 0 l
0.27 0 l
0.26 0 l
0.27 0 l
0.26 0 l
0.27 0 l
0.27 -30.67 l
0.26 0 l
0.27 0 l
0.26 0 l
0.27 0 l
0.27 0 l
0.26 0 l
0.27 0 l
0.26 0 l
0.27 0 l
0.27 0 l
0.26 0 l
0.27 0 l
0.27 0 l
0.26 0 l
0.27 0 l
0.26 0 l
0.27 0 l
0.27 0 l
0.26 0 l
0.27 0 l
0.26 0 l
0.27 0 l
0.27 0 l
0.26 0 l
0.27 0 l
0.26 0 l
0.27 0 l
0.27 0 l
0.26 0 l
0.27 0 l
0.26 0 l
0.27 0 l
0.27 0 l
0.26 0 l
0.27 0 l
0.26 0 l
0 -61.33 l
-21.81 0 l
0 122.66 l
cp p3
/bg { 0.6392 1 0.3608 srgb } def
0.6392 1 0.3608 srgb
np
 395.44 224.00 m
0.26 0 l
0.27 0 l
0.26 0 l
0.27 0 l
0.27 0 l
0.26 0 l
0.27 0 l
0.26 0 l
0.27 0 l
0.27 0 l
0.26 0 l
0.27 0 l
0.27 0 l
0.26 0 l
0.27 0 l
0.26 0 l
0.27 0 l
0.27 0 l
0.26 0 l
0.27 0 l
0.26 0 l
0.27 0 l
0.27 0 l
0.26 0 l
0.27 0 l
0.26 0 l
0.27 0 l
0.27 0 l
0.26 0 l
0.27 0 l
0.26 0 l
0.27 0 l
0.27 0 l
0.26 0 l
0.27 0 l
0.27 0 l
0.26 0 l
0.27 0 l
0.26 0 l
0.27 0 l
0.27 0 l
0.26 0 l
0.27 0 l
0.26 0 l
0.27 0 l
0.27 0 l
0.26 0 l
0.27 0 l
0.26 0 l
0.27 0 l
0.27 0 l
0.26 0 l
0.27 0 l
0.26 0 l
0.27 0 l
0.27 0 l
0.26 0 l
0.27 0 l
0.27 0 l
0.26 0 l
0.27 0 l
0.26 0 l
0.27 0 l
0.27 0 l
0.26 0 l
0.27 0 l
0.26 0 l
0.27 0 l
0.27 0 l
0.26 0 l
0.27 0 l
0.26 0 l
0.27 0 l
0.27 0 l
0.26 0 l
0.27 0 l
0.26 0 l
0.27 0 l
0.27 0 l
0.26 0 l
0.27 0 l
0.26 0 l
0.27 0 l
0.27 0 l
0.26 0 l
0.27 0 l
0.27 0 l
0.26 0 l
0 -61.33 l
-23.41 0 l
0 61.33 l
cp p3
/bg { 0.7451 1 0.2549 srgb } def
0.7451 1 0.2549 srgb
np
 188.42 224.00 m
0.27 0 l
0.27 0 l
0.26 0 l
0.27 0 l
0.26 0 l
0.27 0 l
0.27 0 l
0.26 0 l
0.27 0 l
0.27 0 l
0.26 0 l
0.27 0 l
0.26 0 l
0.27 0 l
0.27 0 l
0.26 0 l
0.27 0 l
0.26 0 l
0.27 0 l
0.27 0 l
0.26 0 l
0.27 0 l
0.26 0 l
0.27 0 l
0.27 0 l
0.26 0 l
0.27 0 l
0.26 0 l
0.27 0 l
0.27 0 l
0.26 0 l
0.27 0 l
0.27 0 l
0.26 0 l
0.27 0 l
0.26 0 l
0.27 0 l
0.27 0 l
0.26 0 l
0.27 0 l
0.26 0 l
0.27 0 l
0.27 0 l
0.26 0 l
0.27 0 l
0.26 0 l
0.27 0 l
0.27 0 l
0.26 0 l
0.27 0 l
0.26 0 l
0.27 0 l
0.27 0 l
0.26 0 l
0.27 0 l
0.27 0 l
0.26 0 l
0.27 0 l
0.26 0 l
0.27 0 l
0.27 0 l
0.26 0 l
0.27 0 l
0 -61.33 l
-16.77 0 l
0 61.33 l
cp p3
np
 382.66 224.00 m
0.27 0 l
0.27 0 l
0.26 0 l
0.27 0 l
0.26 0 l
0.27 0 l
0.27 0 l
0.26 0 l
0.27 0 l
0.27 0 l
0.26 0 l
0.27 0 l
0.26 0 l
0.27 0 l
0.27 0 l
0.26 0 l
0.27 0 l
0.26 0 l
0.27 0 l
0.27 0 l
0.26 0 l
0.27 0 l
0.26 0 l
0.27 0 l
0.27 0 l
0.26 0 l
0.27 0 l
0.26 0 l
0.27 0 l
0.27 0 l
0.26 0 l
0.27 0 l
0.27 0 l
0.26 0 l
0.27 0 l
0.26 0 l
0.27 0 l
0.27 0 l
0.26 0 l
0.27 0 l
0.26 0 l
0.27 0 l
0.27 0 l
0.26 0 l
0.27 0 l
0.26 0 l
0.27 0 l
0.27 0 l
0.26 0 l
0.27 0 l
0.26 0 l
0.27 0 l
0.27 0 l
0.26 0 l
0 -61.33 l
-14.37 0 l
0 61.33 l
cp p3
/bg { 1 0.6980 0 srgb } def
1 0.6980 0 srgb
np
 373.62 285.33 m
0.26 0 l
0.27 0 l
0.27 0 l
0.26 0 l
0.27 0 l
0.26 0 l
0.27 0 l
0.27 0 l
0.26 0 l
0.27 0 l
0.26 0 l
0.27 0 l
0.27 0 l
0.26 0 l
0.27 0 l
0.26 0 l
0.27 0 l
0.27 0 l
0.26 0 l
0.27 0 l
0.27 0 l
0.26 0 l
0.27 0 l
0.26 0 l
0.27 0 l
0.27 0 l
0.26 0 l
0.27 0 l
0.26 0 l
0.27 0 l
0.27 0 l
0.26 0 l
0.27 0 l
0.26 0 l
0.27 0 l
0.27 0 l
0.26 0 l
0.27 0 l
0.26 0 l
0.27 0 l
0.27 0 l
0.26 0 l
0.27 0 l
0.27 0 l
0.26 0 l
0.27 0 l
0.26 0 l
0.27 0 l
0.27 0 l
0.26 0 l
0.27 0 l
0.26 0 l
0.27 0 l
0.27 0 l
0.26 0 l
0.27 0 l
0.26 0 l
0.27 0 l
0.27 0 l
0.26 0 l
0.27 0 l
0.26 0 l
0.27 0 l
0.27 0 l
0.26 0 l
0.27 0 l
0.27 0 l
0.26 0 l
0.27 0 l
0.26 0 l
0.27 0 l
0.27 0 l
0.26 0 l
0.27 0 l
0.26 0 l
0.27 0 l
0.27 0 l
0.26 0 l
0.27 0 l
0.26 0 l
0.27 0 l
0.27 0 l
0.26 0 l
0.27 0 l
0.26 0 l
0.27 0 l
0.27 0 l
0.26 0 l
0.27 0 l
0.26 0 l
0.27 0 l
0.27 0 l
0.26 0 l
0.27 0 l
0.27 0 l
0.26 0 l
0.27 0 l
0.26 0 l
0.27 0 l
400.23 285.33 lineto
0.26 0 l
0.27 0 l
0.26 -30.66 l
0.27 -30.67 l
0 -61.33 l
-27.67 0 l
0 122.66 l
cp p3
/bg { 1 0.6510 0 srgb } def
1 0.6510 0 srgb
np
 373.62 254.67 m
0.26 0 l
0.27 0 l
0.27 0 l
0.26 0 l
0.27 0 l
0.26 0 l
0.27 0 l
0.27 0 l
0.26 0 l
0.27 0 l
0.26 0 l
0.27 0 l
0.27 0 l
0.26 0 l
0.27 0 l
0.26 0 l
0.27 0 l
0.27 0 l
0.26 0 l
0.27 0 l
0.27 0 l
0.26 0 l
0.27 0 l
0.26 0 l
0.27 0 l
0.27 0 l
0.26 0 l
0.27 0 l
0.26 0 l
0.27 0 l
0.27 0 l
0.26 0 l
0.27 0 l
0.26 0 l
0.27 0 l
0.27 0 l
0.26 0 l
0.27 0 l
0.26 0 l
0.27 0 l
0.27 0 l
0.26 0 l
0.27 0 l
0.27 0 l
0.26 0 l
0.27 0 l
0.26 0 l
0.27 0 l
0.27 0 l
0.26 0 l
0.27 0 l
0.26 0 l
0.27 0 l
0.27 0 l
0.26 0 l
0.27 0 l
0.26 0 l
0.27 0 l
0.27 0 l
0.26 0 l
0.27 0 l
0.26 0 l
0.27 0 l
0.27 0 l
0.26 0 l
0.27 0 l
0.27 0 l
0.26 0 l
0.27 0 l
0.26 0 l
0.27 0 l
0.27 0 l
0.26 0 l
0.27 0 l
0.26 0 l
0.27 0 l
0.27 0 l
0.26 0 l
0.27 0 l
0.26 0 l
0.27 0 l
0.27 0 l
0.26 0 l
0.27 0 l
0.26 0 l
0.27 0 l
0.27 0 l
0.26 0 l
0 -92.00 l
-23.41 0 l
0 92.00 l
cp p3
np
 370.69 224.00 m
0.27 0 l
0.26 0 l
0.27 0 l
0.26 0 l
0.27 0 l
0.27 0 l
0.26 0 l
0.27 0 l
0.27 0 l
0.26 0 l
0.27 0 l
0.26 0 l
0.27 0 l
0.27 0 l
0.26 0 l
0.27 0 l
0.26 0 l
0.27 0 l
0.27 0 l
0.26 0 l
0.27 0 l
0.26 0 l
0.27 0 l
0.27 0 l
0.26 0 l
0.27 0 l
0.26 0 l
0.27 0 l
0.27 0 l
0.26 0 l
0.27 0 l
0.27 0 l
0.26 0 l
0.27 0 l
0.26 0 l
0.27 0 l
0.27 0 l
0.26 0 l
0.27 0 l
0.26 0 l
0.27 0 l
0.27 0 l
0.26 0 l
0.27 0 l
0.26 0 l
0.27 0 l
0.27 0 l
0.26 0 l
0.27 0 l
0.26 0 l
0.27 0 l
0.27 0 l
0.26 0 l
0.27 0 l
0.27 0 l
0.26 0 l
0.27 0 l
0.26 0 l
0.27 0 l
0.27 0 l
0.26 0 l
0.27 0 l
0.26 0 l
0.27 0 l
0.27 0 l
0.26 0 l
0.27 0 l
0.26 0 l
0.27 0 l
0.27 0 l
0.26 0 l
0.27 0 l
0.26 0 l
0.27 0 l
0.27 0 l
0.26 0 l
0.27 0 l
0.27 0 l
0.26 0 l
0.27 0 l
0.26 0 l
0.27 0 l
0.27 0 l
0.26 0 l
0.27 0 l
0.26 0 l
0.27 0 l
0.27 0 l
0.26 0 l
0.27 0 l
0.26 0 l
0.27 0 l
0.27 0 l
0.26 0 l
0.27 0 l
0.26 0 l
0.27 0 l
0.27 0 l
0.26 0 l
397.03 162.67 lineto
-26.34 0 l
0 61.33 l
cp p3
/bg { 1 0.4510 0 srgb } def
1 0.4510 0 srgb
np
 373.62 346.67 m
0.26 0 l
0.27 0 l
0.27 0 l
0.26 0 l
0.27 0 l
0.26 0 l
0.27 0 l
0.27 0 l
0.26 0 l
0.27 0 l
0.26 0 l
0.27 0 l
0.27 0 l
0.26 0 l
0.27 0 l
0.26 0 l
0.27 0 l
0.27 0 l
0.26 0 l
0.27 0 l
0.27 0 l
0.26 0 l
0.27 0 l
0.26 0 l
0.27 0 l
0.27 0 l
0.26 0 l
0.27 -122.67 l
0.26 0 l
0.27 0 l
0.27 0 l
0.26 0 l
0 -61.33 l
-8.51 0 l
0 184.00 l
cp p3
np
 369.89 224.00 m
0.27 0 l
0.26 0 l
0.27 0 l
0.27 61.33 l
0.26 30.67 l
0.27 0 l
0.26 0 l
0.27 0 l
0.27 0 l
0.26 0 l
0.27 0 l
0.27 0 l
0.26 0 l
0.27 0 l
0.26 0 l
0.27 0 l
0.27 0 l
0.26 0 l
0.27 0 l
0.26 0 l
0.27 0 l
0.27 0 l
0.26 0 l
0.27 0 l
0.26 0 l
0.27 0 l
0.27 0 l
0.26 0 l
0.27 0 l
0.26 0 l
0.27 0 l
0.27 0 l
0.26 0 l
0.27 0 l
0.27 0 l
0.26 0 l
0.27 0 l
0.26 0 l
0.27 0 l
0.27 0 l
0.26 0 l
0.27 -92.00 l
0.26 0 l
0.27 0 l
0.27 0 l
0.26 0 l
0 -61.33 l
-12.24 0 l
0 61.33 l
cp p3
/bg { 1 0.4000 0 srgb } def
1 0.4000 0 srgb
np
 342.22 224.00 m
0.27 0 l
0.26 0 l
0.27 0 l
0.26 0 l
0.27 0 l
0.27 0 l
0.26 0 l
0.27 0 l
0.26 0 l
0.27 0 l
0.27 0 l
0.26 0 l
0.27 0 l
0.27 0 l
0.26 0 l
0.27 0 l
0.26 0 l
0.27 0 l
0.27 0 l
0.26 0 l
0.27 0 l
0.26 0 l
0.27 0 l
0.27 30.67 l
0.26 0 l
0.27 0 l
0.26 0 l
0.27 0 l
0.27 0 l
0.26 0 l
0.27 0 l
0.26 0 l
0.27 0 l
0.27 0 l
0.26 0 l
0.27 0 l
0.26 0 l
0.27 0 l
0.27 0 l
0.26 0 l
0.27 0 l
0.27 0 l
0.26 0 l
0.27 0 l
0.26 0 l
0.27 0 l
0.27 0 l
0.26 0 l
0.27 0 l
0.26 0 l
0.27 30.66 l
0.27 0 l
0.26 0 l
0.27 0 l
0.26 0 l
0.27 0 l
0.27 0 l
0.26 0 l
0.27 0 l
0.26 0 l
0.27 0 l
0.27 0 l
0.26 0 l
0.27 0 l
0.27 0 l
0.26 30.67 l
0.27 0 l
0.26 0 l
0.27 0 l
0.27 0 l
0.26 0 l
0.27 0 l
0.26 0 l
0.27 0 l
0.27 0 l
0.26 0 l
0.27 0 l
0.26 0 l
0.27 0 l
0.27 30.67 l
0.26 0 l
0.27 0 l
0.26 0 l
0.27 0 l
0.27 0 l
0.26 0 l
0.27 0 l
0.27 0 l
0.26 0 l
0.27 0 l
0.26 0 l
0.27 0 l
0.27 0 l
0.26 0 l
0.27 0 l
0.26 0 l
0.27 0 l
0.27 0 l
0.26 0 l
368.83 346.67 lineto
0.26 0 l
0.27 0 l
0.27 0 l
0.26 0 l
0.27 0 l
0.26 0 l
0.27 0 l
0.27 0 l
0.26 0 l
0.27 0 l
0.26 0 l
0.27 0 l
0.27 0 l
0.26 0 l
0.27 0 l
0.27 0 l
0.26 0 l
0.27 0 l
0.26 0 l
0.27 0 l
0.27 0 l
0.26 0 l
0.27 0 l
0.26 0 l
0.27 0 l
0.27 0 l
0.26 -30.67 l
0.27 0 l
0.26 0 l
0.27 0 l
0.27 0 l
0.26 0 l
0.27 0 l
0.26 0 l
0.27 0 l
0.27 0 l
0.26 0 l
0.27 0 l
0.27 0 l
0.26 0 l
0.27 0 l
0.26 0 l
0.27 0 l
0.27 0 l
0.26 0 l
0 -153.33 l
-38.58 0 l
0 61.33 l
cp p3
/bg { 0.8235 0 0 srgb } def
0.8235 0 0 srgb
np
 363.51 254.67 m
0.26 30.66 l
0.27 0 l
0.26 0 l
0.27 0 l
0.27 0 l
0.26 0 l
0.27 0 l
0.27 0 l
0.26 0 l
0.27 0 l
0.26 0 l
0.27 0 l
0.27 0 l
0.26 0 l
0.27 0 l
0.26 0 l
0.27 0 l
0.27 0 l
0.26 30.67 l
0.27 0 l
0.26 0 l
0.27 0 l
0.27 0 l
0.26 0 l
0.27 0 l
0.26 0 l
0.27 0 l
0.27 0 l
0.26 0 l
0.27 0 l
0.26 0 l
0.27 0 l
0.27 0 l
0.26 0 l
0.27 0 l
0.27 0 l
0.26 0 l
0.27 0 l
0.26 0 l
0.27 0 l
0.27 0 l
0.26 0 l
0.27 0 l
0.26 0 l
0.27 0 l
0.27 0 l
0.26 0 l
0.27 0 l
0.26 0 l
0.27 0 l
0.27 0 l
0.26 0 l
0.27 0 l
0.26 0 l
0.27 0 l
0.27 -30.67 l
0.26 0 l
0.27 0 l
0.27 -30.66 l
0.26 0 l
0 -92.00 l
-15.96 0 l
0 92.00 l
cp p3
/bg { 0.8000 0 0 srgb } def
0.8000 0 0 srgb
np
 344.35 224.00 m
0.26 0 l
0.27 0 l
0.27 0 l
0.26 0 l
0.27 0 l
0.27 0 l
0.26 0 l
0.27 0 l
0.26 0 l
0.27 0 l
0.27 0 l
0.26 0 l
0.27 0 l
0.26 0 l
0.27 0 l
0.27 0 l
0.26 0 l
0.27 0 l
0.26 0 l
0.27 0 l
0.27 0 l
0.26 0 l
0.27 0 l
0.26 0 l
0.27 0 l
0.27 0 l
0.26 0 l
0.27 0 l
0.26 0 l
0.27 0 l
0.27 0 l
0.26 0 l
0.27 0 l
0.27 0 l
0.26 0 l
0.27 0 l
0.26 0 l
0.27 0 l
0.27 0 l
0.26 0 l
0.27 0 l
0.26 0 l
0.27 0 l
0.27 0 l
0.26 0 l
0.27 0 l
0.26 0 l
0.27 0 l
0.27 0 l
0.26 0 l
0.27 0 l
0.26 0 l
0.27 0 l
0.27 0 l
0.26 0 l
0.27 0 l
0.27 0 l
0.26 0 l
0.27 0 l
0.26 0 l
0.27 0 l
0.27 0 l
0.26 0 l
0.27 0 l
0.26 0 l
0.27 0 l
0.27 0 l
0.26 0 l
0.27 0 l
0.26 0 l
0.27 0 l
0.27 30.67 l
0.26 0 l
0.27 0 l
0.26 0 l
0.27 0 l
0.27 0 l
0.26 0 l
0.27 0 l
0.27 0 l
0.26 0 l
0.27 0 l
0.26 0 l
0.27 0 l
0.27 30.66 l
0.26 0 l
0.27 0 l
0.26 0 l
0.27 0 l
0.27 0 l
0.26 0 l
0.27 0 l
0.26 0 l
0.27 0 l
0.27 0 l
0.26 0 l
0.27 0 l
0.26 0 l
0.27 0 l
370.96 285.33 lineto
0.26 0 l
0.27 0 l
0.26 0 l
0.27 0 l
0.27 0 l
0.26 0 l
0.27 0 l
0.27 0 l
0.26 0 l
0.27 0 l
0.26 0 l
0.27 0 l
0.27 0 l
0.26 0 l
0.27 0 l
0 -122.66 l
-30.60 0 l
0 61.33 l
cp p3
0.00 0.00 720.00 540.00 cl
0 0 0 srgb
0.75 setlinewidth
[] 0 setdash
1 setlinecap
1 setlinejoin
10.00 setmiterlimit
np
54.00 187.20 m
655.20 0 l
o
np
166.61 187.20 m
0 -7.20 l
o
np
299.65 187.20 m
0 -7.20 l
o
np
432.69 187.20 m
0 -7.20 l
o
np
565.73 187.20 m
0 -7.20 l
o
np
698.77 187.20 m
0 -7.20 l
o
/Font1 findfont 12 s
166.61 168.48 (2500) .5 0 t
299.65 168.48 (3000) .5 0 t
432.69 168.48 (3500) .5 0 t
565.73 168.48 (4000) .5 0 t
698.77 168.48 (4500) .5 0 t
np
54.00 193.33 m
0 153.34 l
o
np
54.00 193.33 m
-7.20 0 l
o
np
54.00 224.00 m
-7.20 0 l
o
np
54.00 254.67 m
-7.20 0 l
o
np
54.00 285.33 m
-7.20 0 l
o
np
54.00 316.00 m
-7.20 0 l
o
np
54.00 346.67 m
-7.20 0 l
o
43.92 193.33 (0) .5 90 t
43.92 224.00 (1) .5 90 t
43.92 254.67 (2) .5 90 t
43.92 285.33 (3) .5 90 t
43.92 316.00 (4) .5 90 t
43.92 346.67 (5) .5 90 t
54.00 187.20 709.20 352.80 cl
0 0 0 srgb
0.75 setlinewidth
[ 2.25 3.75] 0 setdash
1 setlinecap
1 setlinejoin
10.00 setmiterlimit
np
344.35 187.20 m
0 165.60 l
o
np
418.85 187.20 m
0 165.60 l
o
54.00 0.00 709.20 180.00 cl
0.00 0.00 720.00 180.00 cl
/Font1 findfont 12 s
0 0 0 srgb
22.32 90.00 (full CM) .5 90 t
54.00 0.00 709.20 180.00 cl
0 0.3333 1 srgb
1.50 setlinewidth
[] 0 setdash
1 setlinecap
1 setlinejoin
10.00 setmiterlimit
np
418.85 139.60 m
-62.00 0 l
o
np
372.44 148.60 m
-15.59 -9.00 l
15.59 -9.00 l
o
np
415.03 139.60 m
7.64 0 l
o
np
418.85 135.78 m
0 7.64 l
o
0.3333 1 0.6667 srgb
np
418.85 99.92 m
-58.54 0 l
o
np
375.90 108.92 m
-15.59 -9.00 l
15.59 -9.00 l
o
np
415.03 99.92 m
7.64 0 l
o
np
418.85 96.10 m
0 7.64 l
o
0 0 1 srgb
np
418.85 149.52 m
-56.94 0 l
o
np
377.50 158.52 m
-15.59 -9.00 l
15.59 -9.00 l
o
np
415.03 149.52 m
7.64 0 l
o
np
418.85 145.71 m
0 7.63 l
o
0.00 0.00 720.00 540.00 cl
0 0 0 srgb
0.75 setlinewidth
[] 0 setdash
1 setlinecap
1 setlinejoin
10.00 setmiterlimit
np
68.40 30.48 m
0 128.96 l
o
np
68.40 30.48 m
4.32 0 l
o
np
68.40 40.40 m
4.32 0 l
o
np
68.40 50.32 m
4.32 0 l
o
np
68.40 60.24 m
4.32 0 l
o
np
68.40 70.16 m
4.32 0 l
o
np
68.40 80.08 m
4.32 0 l
o
np
68.40 90.00 m
4.32 0 l
o
np
68.40 99.92 m
4.32 0 l
o
np
68.40 109.84 m
4.32 0 l
o
np
68.40 119.76 m
4.32 0 l
o
np
68.40 129.68 m
4.32 0 l
o
np
68.40 139.60 m
4.32 0 l
o
np
68.40 149.52 m
4.32 0 l
o
np
68.40 159.44 m
4.32 0 l
o
/Font1 findfont 12 s
61.20 26.17 (Intron_gpI) 1 0 t
61.20 36.09 (IE3) 1 0 t
61.20 46.01 (IE2) 1 0 t
61.20 55.93 (IE1) 1 0 t
61.20 65.85 (IC3) 1 0 t
61.20 75.77 (IC2) 1 0 t
61.20 85.69 (IC1) 1 0 t
61.20 95.61 (IB4) 1 0 t
61.20 105.53 (IB3) 1 0 t
61.20 115.45 (IB2) 1 0 t
61.20 125.37 (IB1) 1 0 t
61.20 135.30 (IA3) 1 0 t
61.20 145.22 (IA2) 1 0 t
61.20 155.14 (IA1) 1 0 t
54.00 0.00 709.20 180.00 cl
0 0 0 srgb
0.75 setlinewidth
[ 2.25 3.75] 0 setdash
1 setlinecap
1 setlinejoin
10.00 setmiterlimit
np
344.35 0.00 m
0 180.00 l
o
np
418.85 0.00 m
0 180.00 l
o
ep
%%Trailer
%%Pages: 1
%%EOF
