%!PS-Adobe-3.0
%%DocumentNeededResources: font Helvetica
%%+ font Helvetica-Bold
%%+ font Helvetica-Oblique
%%+ font Helvetica-BoldOblique
%%+ font Symbol
%%DocumentMedia: special 540 720 0 () ()
%%Title: R Graphics Output
%%Creator: R Software
%%Pages: (atend)
%%BoundingBox: 0 0 540 720
%%EndComments
%%BeginProlog
/bp  { gs sRGB 540.00 0 translate 90 rotate gs } def
% begin .ps.prolog
/gs  { gsave } bind def
/gr  { grestore } bind def
/ep  { showpage gr gr } bind def
/m   { moveto } bind def
/l  { rlineto } bind def
/np  { newpath } bind def
/cp  { closepath } bind def
/f   { fill } bind def
/o   { stroke } bind def
/c   { newpath 0 360 arc } bind def
/r   { 4 2 roll moveto 1 copy 3 -1 roll exch 0 exch rlineto 0 rlineto -1 mul 0 exch rlineto closepath } bind def
/p1  { stroke } bind def
/p2  { gsave bg fill grestore newpath } bind def
/p3  { gsave bg fill grestore stroke } bind def
/p6  { gsave bg eofill grestore newpath } bind def
/p7  { gsave bg eofill grestore stroke } bind def
/t   { 5 -2 roll moveto gsave rotate
       1 index stringwidth pop
       mul neg 0 rmoveto show grestore } bind def
/ta  { 4 -2 roll moveto gsave rotate show } bind def
/tb  { 2 -1 roll 0 rmoveto show } bind def
/cl  { grestore gsave newpath 3 index 3 index moveto 1 index
       4 -1 roll lineto  exch 1 index lineto lineto
       closepath clip newpath } bind def
/rgb { setrgbcolor } bind def
/s   { scalefont setfont } bind def
% end   .ps.prolog
/sRGB { [ /CIEBasedABC
          << /DecodeLMN
               [ { dup 0.03928 le
                        {12.92321 div}
                        {0.055 add 1.055 div 2.4 exp }
                     ifelse
                 } bind dup dup
               ]
             /MatrixLMN [0.412457 0.212673 0.019334
                         0.357576 0.715152 0.119192
                         0.180437 0.072175 0.950301]
             /WhitePoint [0.9505 1.0 1.0890]
           >>
         ] setcolorspace } bind def
/srgb { setcolor } bind def
%%IncludeResource: font Helvetica
/Helvetica findfont
dup length dict begin
  {1 index /FID ne {def} {pop pop} ifelse} forall
  /Encoding ISOLatin1Encoding def
  currentdict
  end
/Font1 exch definefont pop
%%IncludeResource: font Helvetica-Bold
/Helvetica-Bold findfont
dup length dict begin
  {1 index /FID ne {def} {pop pop} ifelse} forall
  /Encoding ISOLatin1Encoding def
  currentdict
  end
/Font2 exch definefont pop
%%IncludeResource: font Helvetica-Oblique
/Helvetica-Oblique findfont
dup length dict begin
  {1 index /FID ne {def} {pop pop} ifelse} forall
  /Encoding ISOLatin1Encoding def
  currentdict
  end
/Font3 exch definefont pop
%%IncludeResource: font Helvetica-BoldOblique
/Helvetica-BoldOblique findfont
dup length dict begin
  {1 index /FID ne {def} {pop pop} ifelse} forall
  /Encoding ISOLatin1Encoding def
  currentdict
  end
/Font4 exch definefont pop
%%IncludeResource: font Symbol
/Symbol findfont
dup length dict begin
  {1 index /FID ne {def} {pop pop} ifelse} forall
  currentdict
  end
/Font5 exch definefont pop
%%EndProlog
%%Page: 1 1
bp
0.00 360.00 720.00 540.00 cl
/Font1 findfont 12 s
0 0 0 srgb
22.32 450.00 (subCM '!') .5 90 t
54.00 367.20 709.20 532.80 cl
54.00 187.20 709.20 352.80 cl
0.00 180.00 720.00 360.00 cl
/Font1 findfont 12 s
0 0 0 srgb
359.26 146.88 (r) 0 ta
-0.120 (ange\(x\)) tb gr
22.32 270.00 (subCM '?') .5 90 t
54.00 187.20 709.20 352.80 cl
/bg { 0.5137 1 0.4863 srgb } def
0.5137 1 0.4863 srgb
0.75 setlinewidth
[] 0 setdash
1 setlinecap
1 setlinejoin
10.00 setmiterlimit
np
 228.65 218.89 m
0.28 0 l
0.29 0 l
0.29 0 l
0.28 0 l
0.29 0 l
0.28 0 l
0.29 0 l
0.28 0 l
0.29 0 l
0.28 0 l
0.29 0 l
0.28 0 l
0.29 0 l
0.28 0 l
0.29 0 l
0.28 0 l
0.29 0 l
0.29 0 l
0.28 0 l
0.29 0 l
0.28 0 l
0.29 0 l
0.28 0 l
0.29 0 l
0.28 0 l
0.29 0 l
0.28 0 l
0.29 0 l
0.28 0 l
0.29 0 l
0.29 0 l
0.28 0 l
0.29 0 l
0.28 0 l
0.29 0 l
0.28 0 l
0.29 0 l
0.28 0 l
0.29 0 l
0.28 0 l
0.29 0 l
0.28 0 l
0.29 0 l
0.28 0 l
0.29 0 l
0.29 0 l
0.28 0 l
0.29 0 l
0.28 0 l
0.29 0 l
0.28 0 l
0.29 0 l
0.28 0 l
0.29 0 l
0.28 0 l
0.29 0 l
0.28 0 l
0.29 0 l
0.29 0 l
0.28 0 l
0.29 0 l
0.28 0 l
0.29 0 l
0.28 0 l
0.29 0 l
0.28 0 l
0.29 0 l
0.28 0 l
0.29 0 l
0.28 0 l
0.29 0 l
0.28 0 l
0.29 0 l
0.29 0 l
0.28 0 l
0.29 0 l
0.28 0 l
0.29 0 l
0.28 0 l
0.29 0 l
0.28 0 l
0.29 0 l
0.28 0 l
0.29 0 l
0.28 0 l
0.29 0 l
0.29 0 l
0.28 0 l
0.29 0 l
0.28 0 l
0.29 0 l
0.28 0 l
0.29 0 l
0.28 0 l
0.29 0 l
0.28 0 l
0.29 0 l
0.28 0 l
0.29 0 l
257.18 218.89 lineto
0.29 0 l
0.29 0 l
0.28 0 l
0.29 0 l
0.28 0 l
0.29 0 l
0.28 0 l
0.29 0 l
0.28 0 l
0.29 0 l
0.28 0 l
0.29 0 l
0.28 0 l
0.29 0 l
0.29 0 l
0.28 0 l
0.29 0 l
0.28 0 l
0.29 0 l
0.28 0 l
0.29 0 l
0.28 0 l
0 -51.11 l
-34.81 0 l
0 51.11 l
cp p3
/bg { 0.6392 1 0.3608 srgb } def
0.6392 1 0.3608 srgb
np
 228.65 218.89 m
0.28 0 l
0.29 0 l
0.29 0 l
0.28 0 l
0.29 0 l
0.28 0 l
0.29 0 l
0.28 0 l
0.29 0 l
0.28 0 l
0.29 0 l
0.28 0 l
0.29 0 l
0.28 0 l
0.29 0 l
0.28 0 l
0.29 0 l
0.29 0 l
0.28 0 l
0.29 0 l
0.28 0 l
0.29 0 l
0.28 0 l
0.29 0 l
0.28 0 l
0.29 0 l
0.28 0 l
0.29 0 l
0.28 0 l
0.29 0 l
0.29 0 l
0.28 0 l
0.29 0 l
0.28 0 l
0.29 0 l
0.28 0 l
0.29 0 l
0.28 0 l
0.29 0 l
0.28 0 l
0.29 0 l
0.28 0 l
0.29 0 l
0.28 0 l
0.29 0 l
0.29 0 l
0.28 0 l
0.29 0 l
0.28 0 l
0.29 0 l
0.28 0 l
0.29 0 l
0.28 0 l
0.29 0 l
0.28 0 l
0.29 0 l
0.28 0 l
0.29 0 l
0.29 0 l
0.28 0 l
0.29 0 l
0.28 0 l
0.29 0 l
0.28 0 l
0.29 0 l
0.28 0 l
0.29 0 l
0.28 0 l
0.29 0 l
0.28 0 l
0.29 0 l
0.28 0 l
0.29 0 l
0.29 0 l
0.28 0 l
0.29 0 l
0.28 0 l
0.29 0 l
0.28 0 l
0.29 0 l
0.28 0 l
0.29 0 l
0.28 0 l
0.29 0 l
0.28 0 l
0.29 0 l
0.29 0 l
0.28 0 l
0.29 0 l
0.28 0 l
0.29 0 l
0.28 0 l
0.29 0 l
0.28 0 l
0.29 0 l
0.28 0 l
0.29 0 l
0.28 0 l
0.29 0 l
257.18 218.89 lineto
0.29 0 l
0.29 0 l
0.28 0 l
0.29 0 l
0.28 0 l
0.29 0 l
0.28 0 l
0.29 0 l
0.28 0 l
0.29 0 l
0.28 0 l
0.29 0 l
0.28 0 l
0.29 0 l
0.29 0 l
0.28 0 l
0.29 0 l
0.28 0 l
0.29 0 l
0.28 0 l
0.29 0 l
0.28 0 l
0.29 0 l
0.28 0 l
0.29 0 l
0.28 0 l
0.29 0 l
0.28 0 l
0.29 0 l
0.29 0 l
0.28 0 l
0.29 0 l
0.28 0 l
0.29 0 l
0.28 0 l
0.29 0 l
0.28 0 l
0.29 0 l
0.28 0 l
0.29 0 l
0.28 0 l
0.29 0 l
0.29 0 l
0.28 0 l
0.29 0 l
0.28 0 l
0.29 0 l
0 -51.11 l
-41.95 0 l
0 51.11 l
cp p3
/bg { 1 0.6510 0 srgb } def
1 0.6510 0 srgb
np
 339.37 218.89 m
0.28 0 l
0.29 0 l
0.28 0 l
0.29 0 l
0.28 0 l
0.29 0 l
0.28 0 l
0.29 0 l
0.29 0 l
0.28 0 l
0.29 0 l
0.28 0 l
0.29 0 l
0.28 0 l
0.29 0 l
0.28 0 l
0.29 0 l
0.28 0 l
0.29 0 l
0.28 0 l
0.29 0 l
0.29 0 l
0.28 0 l
0.29 0 l
0.28 0 l
0.29 0 l
0.28 0 l
0.29 0 l
0.28 0 l
0.29 0 l
0.28 0 l
0.29 0 l
0.28 0 l
0.29 0 l
0.28 0 l
0.29 0 l
0.29 0 l
0.28 0 l
0.29 0 l
0.28 0 l
0.29 0 l
0.28 0 l
0.29 0 l
0.28 0 l
0.29 0 l
0 -51.11 l
-12.84 0 l
0 51.11 l
cp p3
np
 371.04 218.89 m
0.29 0 l
0.28 0 l
0.29 0 l
0.28 0 l
0.29 0 l
0.28 0 l
0.29 0 l
0.28 0 l
0.29 0 l
0.29 0 l
0.28 0 l
0.29 0 l
0.28 0 l
0.29 0 l
0.28 0 l
0.29 0 l
0.28 0 l
0.29 0 l
0.28 0 l
0.29 0 l
0.28 0 l
0.29 0 l
0.29 0 l
0.28 0 l
0.29 0 l
0.28 0 l
0.29 0 l
0.28 0 l
0.29 0 l
0.28 0 l
0.29 0 l
0.28 0 l
0.29 0 l
0.28 0 l
0.29 0 l
0.28 0 l
0.29 0 l
0.29 0 l
0.28 0 l
0.29 0 l
0.28 0 l
0.29 0 l
0.28 0 l
0.29 0 l
0.28 0 l
0.29 0 l
0.28 0 l
0.29 0 l
0.28 0 l
0.29 0 l
0.28 0 l
0.29 0 l
0 -51.11 l
-14.84 0 l
0 51.11 l
cp p3
np
 371.04 218.89 m
0.29 0 l
0.28 0 l
0.29 0 l
0.28 0 l
0.29 0 l
0.28 0 l
0.29 0 l
0.28 0 l
0.29 0 l
0.29 0 l
0.28 0 l
0.29 0 l
0.28 0 l
0.29 0 l
0.28 0 l
0.29 0 l
0.28 0 l
0.29 0 l
0.28 0 l
0.29 0 l
0.28 0 l
0.29 0 l
0.29 0 l
0.28 0 l
0.29 0 l
0.28 0 l
0.29 0 l
0.28 0 l
0.29 0 l
0.28 0 l
0.29 0 l
0.28 0 l
0.29 0 l
0.28 0 l
0.29 0 l
0.28 0 l
0.29 0 l
0.29 0 l
0.28 0 l
0.29 0 l
0.28 0 l
0.29 0 l
0.28 0 l
0.29 0 l
0.28 0 l
0.29 0 l
0.28 0 l
0.29 0 l
0.28 0 l
0.29 0 l
0.28 0 l
0.29 0 l
0.29 0 l
0.28 0 l
0.29 0 l
0.28 0 l
0.29 0 l
0.28 0 l
0.29 0 l
0.28 0 l
0 -51.11 l
-17.12 0 l
0 51.11 l
cp p3
/bg { 1 0.4510 0 srgb } def
1 0.4510 0 srgb
np
 339.37 218.89 m
0.28 0 l
0.29 0 l
0.28 0 l
0.29 0 l
0.28 0 l
0.29 0 l
0.28 0 l
0.29 0 l
0.29 0 l
0.28 0 l
0.29 0 l
0.28 0 l
0.29 0 l
0.28 0 l
0.29 0 l
0.28 0 l
0.29 0 l
0.28 0 l
0.29 0 l
0.28 0 l
0.29 0 l
0.29 0 l
0.28 0 l
0.29 0 l
0.28 0 l
0.29 0 l
0.28 0 l
0.29 0 l
0.28 0 l
0.29 0 l
0.28 0 l
0.29 0 l
0.28 0 l
0.29 0 l
0.28 0 l
0.29 0 l
0.29 0 l
0.28 0 l
0.29 0 l
0.28 0 l
0.29 0 l
0.28 0 l
0 -51.11 l
-11.98 0 l
0 51.11 l
cp p3
np
 355.35 218.89 m
0.28 0 l
0.29 0 l
0.28 0 l
0.29 0 l
0.28 0 l
0.29 0 l
0.28 0 l
0.29 0 l
0.29 0 l
0.28 0 l
0.29 0 l
0.28 0 l
0.29 0 l
0.28 0 l
0.29 0 l
0.28 0 l
0.29 0 l
0.28 0 l
0.29 0 l
0.28 0 l
0.29 0 l
0.29 0 l
0.28 0 l
0.29 0 l
0.28 0 l
0.29 0 l
0.28 0 l
0.29 0 l
0.28 0 l
0.29 0 l
0 -51.11 l
-8.56 0 l
0 51.11 l
cp p3
np
 375.61 244.44 m
0.28 0 l
0.29 0 l
0.28 0 l
0.29 0 l
0.28 0 l
0.29 0 l
0.29 0 l
0.28 0 l
0.29 0 l
0.28 0 l
0.29 0 l
0.28 0 l
0.29 0 l
0.28 0 l
0.29 0 l
0.28 0 l
0.29 0 l
0.28 0 l
0.29 0 l
0.28 0 l
0.29 0 l
0.29 0 l
0.28 0 l
0.29 0 l
0.28 0 l
0.29 0 l
0.28 0 l
0.29 0 l
0.28 0 l
0.29 0 l
0.28 0 l
0.29 0 l
0.28 0 l
0.29 0 l
0.28 0 l
0.29 0 l
0 -76.66 l
-10.27 0 l
0 76.66 l
cp p3
np
 355.35 218.89 m
0.28 0 l
0.29 0 l
0.28 0 l
0.29 0 l
0.28 0 l
0.29 0 l
0.28 0 l
0.29 0 l
0.29 0 l
0.28 0 l
0.29 0 l
0.28 0 l
0.29 0 l
0.28 0 l
0.29 0 l
0.28 0 l
0.29 0 l
0.28 0 l
0.29 0 l
0.28 0 l
0.29 0 l
0.29 0 l
0.28 0 l
0.29 0 l
0.28 0 l
0.29 0 l
0.28 0 l
0.29 0 l
0.28 0 l
0.29 0 l
0.28 0 l
0.29 0 l
0.28 0 l
0.29 0 l
0.28 0 l
0.29 0 l
0.29 0 l
0.28 0 l
0.29 0 l
0.28 0 l
0 -51.11 l
-11.41 0 l
0 51.11 l
cp p3
np
 375.61 244.44 m
0.28 0 l
0.29 0 l
0.28 0 l
0.29 0 l
0.28 0 l
0.29 0 l
0.29 0 l
0.28 0 l
0.29 0 l
0.28 0 l
0.29 0 l
0.28 0 l
0.29 0 l
0.28 0 l
0.29 0 l
0.28 0 l
0.29 0 l
0.28 0 l
0.29 0 l
0.28 0 l
0.29 0 l
0.29 0 l
0.28 0 l
0.29 0 l
0.28 0 l
0.29 0 l
0.28 0 l
0.29 0 l
0.28 0 l
0.29 0 l
0.28 0 l
0.29 0 l
0.28 0 l
0.29 0 l
0.28 0 l
0.29 0 l
0.29 0 l
0.28 0 l
0.29 0 l
0.28 0 l
0.29 0 l
0.28 0 l
0.29 0 l
0.28 0 l
0.29 -25.55 l
0.28 0 l
0 -51.11 l
-13.12 0 l
0 76.66 l
cp p3
/bg { 1 0.4000 0 srgb } def
1 0.4000 0 srgb
np
 373.32 218.89 m
0.29 0 l
0.29 0 l
0.28 0 l
0.29 0 l
0.28 0 l
0.29 0 l
0.28 0 l
0.29 76.67 l
0.28 25.55 l
0.29 0 l
0.28 25.56 l
0.29 0 l
0.28 0 l
0.29 0 l
0.29 0 l
0.28 0 l
0.29 0 l
0.28 0 l
0.29 0 l
0.28 0 l
0.29 0 l
0.28 0 l
0.29 0 l
0.28 0 l
0.29 0 l
0.28 0 l
0.29 0 l
0.28 0 l
0.29 0 l
0.29 0 l
0.28 0 l
0.29 0 l
0.28 0 l
0.29 0 l
0.28 0 l
0.29 0 l
0.28 0 l
0.29 0 l
0.28 0 l
0.29 0 l
0.28 0 l
0.29 0 l
0.28 0 l
0.29 0 l
0.29 0 l
0.28 0 l
0.29 0 l
0.28 0 l
0.29 0 l
0.28 0 l
0.29 0 l
0.28 0 l
0.29 0 l
0.28 0 l
0.29 0 l
0.28 0 l
0.29 0 l
0.29 0 l
0.28 0 l
0.29 0 l
0.28 0 l
0.29 0 l
0.28 0 l
0.29 0 l
0.28 0 l
0.29 0 l
0.28 0 l
0.29 0 l
0.28 0 l
0.29 0 l
0.28 -25.56 l
0.29 0 l
0.29 -25.55 l
0.28 -25.56 l
0.29 -51.11 l
0.28 0 l
0.29 0 l
0 -51.11 l
-21.98 0 l
0 51.11 l
cp p3
/bg { 0.8235 0 0 srgb } def
0.8235 0 0 srgb
np
 380.17 244.44 m
0.29 25.56 l
0.28 0 l
0.29 0 l
0.28 0 l
0.29 0 l
0.29 0 l
0.28 0 l
0.29 0 l
0.28 0 l
0.29 0 l
0.28 0 l
0.29 0 l
0.28 0 l
0.29 0 l
0.28 0 l
0.29 0 l
0.28 0 l
0.29 0 l
0.28 0 l
0.29 0 l
0.29 0 l
0.28 0 l
0.29 0 l
0.28 0 l
0.29 0 l
0.28 0 l
0.29 0 l
0.28 0 l
0.29 0 l
0.28 0 l
0.29 0 l
0.28 0 l
0.29 0 l
0.29 0 l
0.28 0 l
0.29 0 l
0.28 0 l
0.29 0 l
0.28 0 l
0.29 0 l
0.28 0 l
0.29 0 l
0.28 0 l
0.29 0 l
0.28 0 l
0.29 0 l
0.28 0 l
0.29 0 l
0.29 0 l
0.28 0 l
0.29 -51.11 l
0.28 0 l
0.29 0 l
0.28 0 l
0.29 0 l
0.28 0 l
0.29 0 l
0.28 0 l
0.29 0 l
0.28 0 l
0.29 0 l
0.29 0 l
0.28 0 l
0.29 0 l
0.28 0 l
0.29 0 l
0.28 0 l
0.29 0 l
0.28 0 l
0.29 0 l
0.28 0 l
0.29 0 l
0.28 0 l
0.29 0 l
0.28 0 l
0.29 0 l
0.29 0 l
0.28 0 l
0.29 0 l
0.28 0 l
0.29 0 l
0.28 0 l
0.29 0 l
0.28 0 l
0.29 0 l
0.28 0 l
0.29 0 l
0.28 0 l
0.29 0 l
0.29 0 l
0.28 0 l
0.29 0 l
0.28 0 l
0.29 0 l
0.28 0 l
0.29 0 l
0.28 0 l
0.29 0 l
0.28 0 l
408.71 218.89 lineto
0.28 0 l
0.29 0 l
0.28 0 l
0.29 0 l
0.29 0 l
0.28 0 l
0.29 0 l
0.28 0 l
0.29 0 l
0.28 0 l
0.29 0 l
0.28 0 l
0.29 0 l
0.28 0 l
0.29 0 l
0.28 0 l
0.29 0 l
0 -51.11 l
-33.39 0 l
0 76.66 l
cp p3
0.00 0.00 720.00 540.00 cl
0 0 0 srgb
0.75 setlinewidth
[] 0 setdash
1 setlinecap
1 setlinejoin
10.00 setmiterlimit
np
54.00 187.20 m
655.20 0 l
o
np
69.14 187.20 m
0 -7.20 l
o
np
211.81 187.20 m
0 -7.20 l
o
np
354.49 187.20 m
0 -7.20 l
o
np
497.17 187.20 m
0 -7.20 l
o
np
639.85 187.20 m
0 -7.20 l
o
/Font1 findfont 12 s
69.14 168.48 (4283500) .5 0 t
211.81 168.48 (4284000) .5 0 t
354.49 168.48 (4284500) .5 0 t
497.17 168.48 (4285000) .5 0 t
639.85 168.48 (4285500) .5 0 t
np
54.00 193.33 m
0 153.34 l
o
np
54.00 193.33 m
-7.20 0 l
o
np
54.00 218.89 m
-7.20 0 l
o
np
54.00 244.44 m
-7.20 0 l
o
np
54.00 270.00 m
-7.20 0 l
o
np
54.00 295.56 m
-7.20 0 l
o
np
54.00 321.11 m
-7.20 0 l
o
np
54.00 346.67 m
-7.20 0 l
o
43.92 193.33 (0) .5 90 t
43.92 218.89 (1) .5 90 t
43.92 244.44 (2) .5 90 t
43.92 270.00 (3) .5 90 t
43.92 295.56 (4) .5 90 t
43.92 321.11 (5) .5 90 t
43.92 346.67 (6) .5 90 t
54.00 187.20 709.20 352.80 cl
0 0 0 srgb
0.75 setlinewidth
[ 2.25 3.75] 0 setdash
1 setlinecap
1 setlinejoin
10.00 setmiterlimit
np
363.62 187.20 m
0 165.60 l
o
np
399.58 187.20 m
0 165.60 l
o
54.00 0.00 709.20 180.00 cl
0.00 0.00 720.00 180.00 cl
/Font1 findfont 12 s
0 0 0 srgb
22.32 90.00 (full CM) .5 90 t
54.00 0.00 709.20 180.00 cl
0.3333 1 0.6667 srgb
1.50 setlinewidth
[] 0 setdash
1 setlinecap
1 setlinejoin
10.00 setmiterlimit
np
363.62 99.92 m
35.96 0 l
o
np
383.99 90.92 m
15.59 9.00 l
-15.59 9.00 l
o
np
359.80 99.92 m
7.64 0 l
o
np
363.62 96.10 m
0 7.64 l
o
0.00 0.00 720.00 540.00 cl
0 0 0 srgb
0.75 setlinewidth
[] 0 setdash
1 setlinecap
1 setlinejoin
10.00 setmiterlimit
np
68.40 30.48 m
0 128.96 l
o
np
68.40 30.48 m
4.32 0 l
o
np
68.40 40.40 m
4.32 0 l
o
np
68.40 50.32 m
4.32 0 l
o
np
68.40 60.24 m
4.32 0 l
o
np
68.40 70.16 m
4.32 0 l
o
np
68.40 80.08 m
4.32 0 l
o
np
68.40 90.00 m
4.32 0 l
o
np
68.40 99.92 m
4.32 0 l
o
np
68.40 109.84 m
4.32 0 l
o
np
68.40 119.76 m
4.32 0 l
o
np
68.40 129.68 m
4.32 0 l
o
np
68.40 139.60 m
4.32 0 l
o
np
68.40 149.52 m
4.32 0 l
o
np
68.40 159.44 m
4.32 0 l
o
/Font1 findfont 12 s
61.20 26.17 (Intron_gpI) 1 0 t
61.20 36.09 (IE3) 1 0 t
61.20 46.01 (IE2) 1 0 t
61.20 55.93 (IE1) 1 0 t
61.20 65.85 (IC3) 1 0 t
61.20 75.77 (IC2) 1 0 t
61.20 85.69 (IC1) 1 0 t
61.20 95.61 (IB4) 1 0 t
61.20 105.53 (IB3) 1 0 t
61.20 115.45 (IB2) 1 0 t
61.20 125.37 (IB1) 1 0 t
61.20 135.30 (IA3) 1 0 t
61.20 145.22 (IA2) 1 0 t
61.20 155.14 (IA1) 1 0 t
54.00 0.00 709.20 180.00 cl
0 0 0 srgb
0.75 setlinewidth
[ 2.25 3.75] 0 setdash
1 setlinecap
1 setlinejoin
10.00 setmiterlimit
np
363.62 0.00 m
0 180.00 l
o
np
399.58 0.00 m
0 180.00 l
o
ep
%%Trailer
%%Pages: 1
%%EOF
