%!PS-Adobe-3.0
%%DocumentNeededResources: font Helvetica
%%+ font Helvetica-Bold
%%+ font Helvetica-Oblique
%%+ font Helvetica-BoldOblique
%%+ font Symbol
%%DocumentMedia: special 540 720 0 () ()
%%Title: R Graphics Output
%%Creator: R Software
%%Pages: (atend)
%%BoundingBox: 0 0 540 720
%%EndComments
%%BeginProlog
/bp  { gs sRGB 540.00 0 translate 90 rotate gs } def
% begin .ps.prolog
/gs  { gsave } bind def
/gr  { grestore } bind def
/ep  { showpage gr gr } bind def
/m   { moveto } bind def
/l  { rlineto } bind def
/np  { newpath } bind def
/cp  { closepath } bind def
/f   { fill } bind def
/o   { stroke } bind def
/c   { newpath 0 360 arc } bind def
/r   { 4 2 roll moveto 1 copy 3 -1 roll exch 0 exch rlineto 0 rlineto -1 mul 0 exch rlineto closepath } bind def
/p1  { stroke } bind def
/p2  { gsave bg fill grestore newpath } bind def
/p3  { gsave bg fill grestore stroke } bind def
/p6  { gsave bg eofill grestore newpath } bind def
/p7  { gsave bg eofill grestore stroke } bind def
/t   { 5 -2 roll moveto gsave rotate
       1 index stringwidth pop
       mul neg 0 rmoveto show grestore } bind def
/ta  { 4 -2 roll moveto gsave rotate show } bind def
/tb  { 2 -1 roll 0 rmoveto show } bind def
/cl  { grestore gsave newpath 3 index 3 index moveto 1 index
       4 -1 roll lineto  exch 1 index lineto lineto
       closepath clip newpath } bind def
/rgb { setrgbcolor } bind def
/s   { scalefont setfont } bind def
% end   .ps.prolog
/sRGB { [ /CIEBasedABC
          << /DecodeLMN
               [ { dup 0.03928 le
                        {12.92321 div}
                        {0.055 add 1.055 div 2.4 exp }
                     ifelse
                 } bind dup dup
               ]
             /MatrixLMN [0.412457 0.212673 0.019334
                         0.357576 0.715152 0.119192
                         0.180437 0.072175 0.950301]
             /WhitePoint [0.9505 1.0 1.0890]
           >>
         ] setcolorspace } bind def
/srgb { setcolor } bind def
%%IncludeResource: font Helvetica
/Helvetica findfont
dup length dict begin
  {1 index /FID ne {def} {pop pop} ifelse} forall
  /Encoding ISOLatin1Encoding def
  currentdict
  end
/Font1 exch definefont pop
%%IncludeResource: font Helvetica-Bold
/Helvetica-Bold findfont
dup length dict begin
  {1 index /FID ne {def} {pop pop} ifelse} forall
  /Encoding ISOLatin1Encoding def
  currentdict
  end
/Font2 exch definefont pop
%%IncludeResource: font Helvetica-Oblique
/Helvetica-Oblique findfont
dup length dict begin
  {1 index /FID ne {def} {pop pop} ifelse} forall
  /Encoding ISOLatin1Encoding def
  currentdict
  end
/Font3 exch definefont pop
%%IncludeResource: font Helvetica-BoldOblique
/Helvetica-BoldOblique findfont
dup length dict begin
  {1 index /FID ne {def} {pop pop} ifelse} forall
  /Encoding ISOLatin1Encoding def
  currentdict
  end
/Font4 exch definefont pop
%%IncludeResource: font Symbol
/Symbol findfont
dup length dict begin
  {1 index /FID ne {def} {pop pop} ifelse} forall
  currentdict
  end
/Font5 exch definefont pop
%%EndProlog
%%Page: 1 1
bp
0.00 360.00 720.00 540.00 cl
/Font1 findfont 12 s
0 0 0 srgb
359.26 326.88 (r) 0 ta
-0.120 (ange\(x\)) tb gr
22.32 450.00 (subCM '!') .5 90 t
54.00 367.20 709.20 532.80 cl
/bg { 0.1804 1 0.8196 srgb } def
0.1804 1 0.8196 srgb
0.75 setlinewidth
[] 0 setdash
1 setlinecap
1 setlinejoin
10.00 setmiterlimit
np
 364.89 404.00 m
0.26 0 l
0.26 0 l
0.25 0 l
0.26 0 l
0.26 0 l
0.25 0 l
0.26 0 l
0.26 0 l
0.25 0 l
0.26 0 l
0.26 0 l
0.26 0 l
0.25 0 l
0.26 0 l
0.26 0 l
0.25 0 l
0.26 0 l
0.26 0 l
0.26 0 l
0.25 0 l
0.26 0 l
0.26 0 l
0.25 0 l
0.26 0 l
0.26 0 l
0.25 0 l
0.26 0 l
0.26 0 l
0.26 0 l
0.25 0 l
0.26 0 l
0.26 0 l
0.25 0 l
0.26 0 l
0.26 0 l
0.26 0 l
0.25 0 l
0.26 0 l
0.26 0 l
0.25 0 l
0.26 0 l
0.26 0 l
0.25 0 l
0.26 0 l
0.26 0 l
0.26 0 l
0.25 0 l
0.26 0 l
0.26 0 l
0.25 0 l
0.26 0 l
0.26 0 l
0.26 0 l
0.25 0 l
0.26 0 l
0.26 0 l
0.25 0 l
0.26 0 l
0.26 0 l
0.25 0 l
0.26 0 l
0.26 0 l
0.26 0 l
0.25 0 l
0.26 0 l
0.26 0 l
0.25 0 l
0.26 0 l
0.26 0 l
0.26 0 l
0.25 0 l
0.26 0 l
0.26 0 l
0.25 0 l
0.26 0 l
0.26 0 l
0.25 0 l
0.26 0 l
0.26 0 l
0.26 0 l
0.25 0 l
0.26 0 l
0.26 0 l
0.25 0 l
0.26 0 l
0.26 0 l
0.26 0 l
0.25 0 l
0.26 0 l
0.26 0 l
0.25 0 l
0 -61.33 l
-23.39 0 l
0 61.33 l
cp p3
np
 392.65 404.00 m
0.26 30.67 l
0.26 0 l
0.25 0 l
0.26 0 l
0.26 0 l
0.26 0 l
0.25 0 l
0.26 0 l
0.26 0 l
0.25 0 l
0.26 0 l
0.26 0 l
0.26 0 l
0.25 0 l
0.26 0 l
0.26 0 l
0.25 0 l
0.26 0 l
0.26 0 l
0.25 0 l
0.26 0 l
0.26 0 l
0.26 0 l
0.25 0 l
0.26 0 l
0.26 0 l
0.25 0 l
0.26 0 l
0.26 0 l
0.26 0 l
0.25 0 l
0.26 0 l
0.26 0 l
0.25 0 l
0.26 0 l
0.26 0 l
0.25 0 l
0.26 0 l
0.26 0 l
0.26 0 l
0.25 0 l
0.26 0 l
0.26 0 l
0.25 0 l
0.26 0 l
0.26 0 l
0.26 0 l
0.25 0 l
0.26 0 l
0.26 0 l
0.25 0 l
0.26 0 l
0.26 0 l
0.26 0 l
0.25 0 l
0.26 0 l
0.26 0 l
0.25 0 l
0.26 0 l
0.26 0 l
0.25 0 l
0.26 0 l
0.26 0 l
0.26 0 l
0.25 0 l
0.26 0 l
0.26 0 l
0.25 0 l
0.26 0 l
0.26 0 l
0.26 0 l
0.25 0 l
0.26 0 l
0.26 0 l
0.25 0 l
0.26 0 l
0.26 0 l
0.25 0 l
0.26 0 l
0.26 0 l
0.26 0 l
0.25 0 l
0.26 0 l
0.26 0 l
0.25 0 l
0.26 0 l
0.26 0 l
0.26 0 l
0.25 0 l
0.26 0 l
0.26 0 l
0.25 0 l
0.26 0 l
0.26 0 l
0.25 0 l
0.26 0 l
0.26 0 l
0.26 0 l
0.25 0 l
418.36 434.67 lineto
0.26 0 l
0.25 0 l
0.26 0 l
0.26 0 l
0.26 0 l
0.25 0 l
0.26 0 l
0.26 0 l
0.25 0 l
0.26 0 l
0.26 0 l
0.25 0 l
0.26 0 l
0.26 0 l
0.26 0 l
0.25 0 l
0.26 0 l
0.26 0 l
0.25 0 l
0.26 0 l
0.26 0 l
0.26 0 l
0.25 -30.67 l
0.26 0 l
0.26 0 l
0.25 0 l
0.26 0 l
0.26 0 l
0.25 0 l
0.26 0 l
0.26 0 l
0.26 0 l
0.25 0 l
0.26 0 l
0.26 0 l
0.25 0 l
0.26 0 l
0 -61.33 l
-35.22 0 l
0 61.33 l
cp p3
/bg { 0.2549 1 0.7451 srgb } def
0.2549 1 0.7451 srgb
np
 375.69 404.00 m
0.25 0 l
0.26 0 l
0.26 0 l
0.26 0 l
0.25 0 l
0.26 0 l
0.26 0 l
0.25 0 l
0.26 0 l
0.26 0 l
0.26 0 l
0.25 0 l
0.26 0 l
0.26 0 l
0.25 0 l
0.26 0 l
0.26 0 l
0.25 0 l
0.26 0 l
0.26 0 l
0.26 0 l
0.25 0 l
0.26 0 l
0.26 0 l
0.25 0 l
0.26 0 l
0.26 0 l
0.26 0 l
0.25 0 l
0.26 0 l
0.26 0 l
0.25 0 l
0.26 0 l
0.26 0 l
0.25 0 l
0.26 0 l
0.26 0 l
0.26 0 l
0.25 0 l
0.26 0 l
0.26 0 l
0.25 0 l
0.26 0 l
0.26 0 l
0.26 0 l
0.25 0 l
0.26 0 l
0.26 0 l
0.25 0 l
0.26 0 l
0.26 0 l
0.25 0 l
0.26 0 l
0.26 0 l
0.26 0 l
0.25 0 l
0.26 0 l
0.26 0 l
0.25 0 l
0.26 0 l
0.26 0 l
0.26 0 l
0.25 0 l
0.26 0 l
0.26 0 l
0.25 0 l
0.26 0 l
0.26 0 l
0.25 0 l
0.26 0 l
0.26 0 l
0.26 0 l
0.25 0 l
0.26 0 l
0.26 0 l
0.25 0 l
0.26 0 l
0.26 0 l
0.26 0 l
0.25 0 l
0.26 0 l
0.26 0 l
0.25 0 l
0.26 0 l
0.26 0 l
0.25 0 l
0.26 0 l
0.26 0 l
0.26 0 l
0.25 0 l
0.26 0 l
0.26 0 l
0.25 0 l
0.26 0 l
0.26 30.67 l
0.26 0 l
0.25 30.66 l
0.26 0 l
0.26 0 l
401.39 465.33 lineto
0.26 0 l
0.26 0 l
0.25 0 l
0.26 0 l
0.26 0 l
0.26 0 l
0.25 0 l
0.26 0 l
0.26 0 l
0.25 0 l
0.26 0 l
0.26 0 l
0.26 0 l
0.25 0 l
0.26 0 l
0.26 0 l
0.25 0 l
0.26 0 l
0.26 0 l
0.26 0 l
0.25 0 l
0.26 0 l
0.26 0 l
0.25 0 l
0.26 0 l
0.26 0 l
0.25 0 l
0.26 0 l
0.26 0 l
0.26 0 l
0.25 0 l
0.26 0 l
0.26 0 l
0.25 0 l
0.26 0 l
0.26 0 l
0.26 0 l
0.25 0 l
0.26 0 l
0.26 0 l
0.25 0 l
0.26 0 l
0.26 0 l
0.25 0 l
0.26 0 l
0.26 0 l
0.26 0 l
0.25 0 l
0.26 0 l
0.26 0 l
0.25 0 l
0.26 0 l
0.26 0 l
0.26 0 l
0.25 0 l
0.26 0 l
0.26 0 l
0.25 0 l
0.26 0 l
0.26 0 l
0.25 0 l
0.26 0 l
0.26 0 l
0.26 0 l
0.25 0 l
0.26 0 l
0.26 0 l
0.25 0 l
0.26 0 l
0.26 0 l
0.26 0 l
0.25 0 l
0.26 0 l
0.26 0 l
0.25 0 l
0.26 0 l
0.26 0 l
0.25 -30.66 l
0.26 -30.67 l
0 -61.33 l
-46.01 0 l
0 61.33 l
cp p3
/bg { 0.3608 1 0.6392 srgb } def
0.3608 1 0.6392 srgb
np
 363.61 404.00 m
0.25 0 l
0.26 0 l
0.26 0 l
0.25 0 l
0.26 0 l
0.26 0 l
0.26 0 l
0.25 0 l
0.26 0 l
0.26 0 l
0.25 0 l
0.26 0 l
0.26 0 l
0.25 0 l
0.26 0 l
0.26 0 l
0.26 0 l
0.25 0 l
0.26 0 l
0.26 0 l
0.25 0 l
0.26 0 l
0.26 0 l
0.26 0 l
0.25 0 l
0.26 0 l
0.26 0 l
0.25 0 l
0.26 0 l
0.26 0 l
0.25 0 l
0.26 0 l
0.26 0 l
0.26 0 l
0.25 0 l
0.26 0 l
0.26 0 l
0.25 0 l
0.26 0 l
0.26 0 l
0.26 0 l
0.25 0 l
0.26 0 l
0.26 0 l
0.25 0 l
0.26 0 l
0.26 0 l
0.25 0 l
0.26 0 l
0.26 0 l
0.26 0 l
0.25 0 l
0.26 0 l
0.26 0 l
0.25 0 l
0.26 0 l
0.26 0 l
0.26 0 l
0.25 0 l
0.26 0 l
0.26 0 l
0.25 0 l
0.26 0 l
0.26 0 l
0.25 0 l
0.26 0 l
0.26 0 l
0.26 0 l
0.25 0 l
0.26 0 l
0.26 0 l
0.25 0 l
0.26 0 l
0.26 0 l
0.26 0 l
0.25 0 l
0.26 0 l
0.26 0 l
0.25 0 l
0.26 0 l
0.26 0 l
0.25 0 l
0.26 0 l
0.26 0 l
0.26 0 l
0.25 0 l
0.26 0 l
0.26 0 l
0.25 0 l
0.26 0 l
0.26 0 l
0.26 0 l
0.25 0 l
0.26 0 l
0.26 0 l
0.25 0 l
0.26 0 l
0.26 0 l
0.25 0 l
389.31 404.00 lineto
0.26 0 l
0.26 0 l
0.25 0 l
0.26 0 l
0.26 0 l
0.25 0 l
0.26 0 l
0.26 0 l
0.26 0 l
0.25 0 l
0.26 0 l
0.26 0 l
0.25 0 l
0.26 30.67 l
0.26 0 l
0.25 0 l
0.26 0 l
0.26 0 l
0.26 0 l
0.25 0 l
0.26 0 l
0.26 0 l
0.25 0 l
0.26 0 l
0.26 0 l
0.26 0 l
0.25 0 l
0.26 0 l
0.26 0 l
0.25 0 l
0.26 0 l
0.26 0 l
0.25 0 l
0.26 0 l
0.26 0 l
0.26 0 l
0.25 0 l
0.26 0 l
0.26 0 l
0.25 0 l
0.26 0 l
0.26 0 l
0.26 0 l
0.25 0 l
0.26 0 l
0.26 0 l
0.25 0 l
0.26 -30.67 l
0.26 0 l
0.25 0 l
0.26 0 l
0.26 0 l
0.26 0 l
0.25 0 l
0.26 0 l
0.26 0 l
0.25 0 l
0.26 0 l
0.26 0 l
0.26 0 l
0.25 0 l
0.26 0 l
0.26 0 l
0.25 0 l
0.26 0 l
0.26 0 l
0.26 0 l
0.25 0 l
0.26 0 l
0.26 0 l
0.25 0 l
0.26 0 l
0.26 0 l
0.25 0 l
0.26 0 l
0.26 0 l
0.26 0 l
0.25 0 l
0.26 0 l
0.26 0 l
0.25 0 l
0.26 0 l
0.26 0 l
0.26 0 l
0.25 0 l
0.26 0 l
0.26 0 l
0.25 0 l
0.26 0 l
0.26 0 l
0.25 0 l
0.26 0 l
0.26 0 l
0.26 0 l
0.25 0 l
0.26 0 l
0.26 0 l
0.25 0 l
0.26 0 l
415.02 404.00 lineto
0.26 0 l
0.25 0 l
0.26 0 l
0.26 0 l
0.25 0 l
0.26 0 l
0.26 0 l
0.25 0 l
0.26 0 l
0.26 0 l
0.26 0 l
0.25 0 l
0.26 0 l
0.26 0 l
0.25 0 l
0.26 0 l
0.26 0 l
0.26 0 l
0.25 0 l
0.26 0 l
0.26 0 l
0.25 0 l
0.26 0 l
0.26 0 l
0 -61.33 l
-57.58 0 l
0 61.33 l
cp p3
np
 363.61 404.00 m
0.25 0 l
0.26 0 l
0.26 0 l
0.25 0 l
0.26 0 l
0.26 0 l
0.26 0 l
0.25 0 l
0.26 0 l
0.26 0 l
0.25 0 l
0.26 0 l
0.26 0 l
0.25 0 l
0.26 0 l
0.26 0 l
0.26 0 l
0.25 0 l
0.26 0 l
0.26 0 l
0.25 0 l
0.26 0 l
0.26 0 l
0.26 0 l
0.25 0 l
0.26 0 l
0.26 0 l
0.25 0 l
0.26 0 l
0.26 0 l
0.25 0 l
0.26 0 l
0.26 0 l
0.26 0 l
0.25 0 l
0.26 0 l
0.26 0 l
0.25 0 l
0.26 0 l
0.26 0 l
0.26 0 l
0.25 0 l
0.26 0 l
0.26 0 l
0.25 0 l
0.26 0 l
0.26 0 l
0.25 0 l
0.26 0 l
0.26 0 l
0.26 0 l
0.25 0 l
0.26 0 l
0.26 0 l
0.25 0 l
0.26 0 l
0.26 0 l
0.26 0 l
0.25 0 l
0.26 0 l
0.26 0 l
0.25 0 l
0.26 0 l
0.26 0 l
0.25 0 l
0.26 0 l
0.26 0 l
0.26 0 l
0.25 0 l
0.26 0 l
0.26 0 l
0.25 0 l
0.26 0 l
0.26 0 l
0.26 0 l
0.25 0 l
0.26 0 l
0.26 0 l
0.25 0 l
0.26 0 l
0.26 0 l
0.25 0 l
0.26 0 l
0.26 0 l
0.26 0 l
0.25 0 l
0.26 0 l
0.26 0 l
0.25 0 l
0.26 0 l
0.26 0 l
0.26 0 l
0.25 0 l
0.26 0 l
0.26 0 l
0.25 0 l
0.26 0 l
0.26 0 l
0 -61.33 l
363.61 342.67 lineto
0 61.33 l
cp p3
np
 397.79 404.00 m
0.26 0 l
0.26 0 l
0.26 0 l
0.25 0 l
0.26 0 l
0.26 0 l
0.25 0 l
0.26 0 l
0.26 0 l
0.26 0 l
0.25 0 l
0.26 0 l
0.26 0 l
0.25 0 l
0.26 0 l
0.26 0 l
0.25 0 l
0.26 0 l
0.26 0 l
0.26 0 l
0.25 0 l
0.26 0 l
0.26 0 l
0.25 0 l
0.26 0 l
0.26 0 l
0.26 0 l
0.25 0 l
0.26 0 l
0.26 0 l
0.25 0 l
0.26 0 l
0.26 0 l
0.26 0 l
0.25 0 l
0.26 0 l
0.26 0 l
0.25 0 l
0.26 0 l
0.26 0 l
0.25 0 l
0.26 0 l
0.26 0 l
0.26 0 l
0.25 0 l
0.26 0 l
0.26 0 l
0.25 0 l
0.26 0 l
0.26 0 l
0.26 0 l
0.25 0 l
0.26 0 l
0.26 0 l
0.25 0 l
0.26 0 l
0.26 0 l
0.25 0 l
0.26 0 l
0.26 0 l
0.26 0 l
0.25 0 l
0.26 0 l
0.26 0 l
0.25 0 l
0.26 0 l
0.26 0 l
0.26 0 l
0.25 0 l
0.26 0 l
0.26 0 l
0.25 0 l
0.26 0 l
0.26 0 l
0.25 0 l
0.26 0 l
0.26 0 l
0.26 0 l
0.25 0 l
0.26 0 l
0.26 0 l
0.25 0 l
0 -61.33 l
-21.08 0 l
0 61.33 l
cp p3
/bg { 0.6392 1 0.3608 srgb } def
0.6392 1 0.3608 srgb
np
 362.06 404.00 m
0.26 0 l
0.26 0 l
0.25 0 l
0.26 0 l
0.26 0 l
0.26 0 l
0.25 0 l
0.26 0 l
0.26 0 l
0.25 0 l
0.26 0 l
0.26 0 l
0.26 0 l
0.25 0 l
0.26 0 l
0.26 0 l
0.25 0 l
0.26 0 l
0.26 0 l
0.25 0 l
0.26 0 l
0.26 0 l
0.26 0 l
0.25 0 l
0.26 0 l
0.26 0 l
0.25 0 l
0.26 0 l
0.26 0 l
0.26 0 l
0.25 0 l
0.26 0 l
0.26 0 l
0.25 0 l
0.26 0 l
0.26 0 l
0.25 0 l
0.26 0 l
0.26 0 l
0.26 0 l
0.25 0 l
0.26 0 l
0.26 0 l
0.25 0 l
0.26 0 l
0.26 0 l
0.26 0 l
0.25 0 l
0.26 0 l
0.26 0 l
0.25 0 l
0.26 0 l
0.26 0 l
0.25 0 l
0.26 0 l
0.26 0 l
0.26 0 l
0.25 0 l
0.26 0 l
0.26 0 l
0.25 0 l
0.26 0 l
0.26 0 l
0.26 0 l
0.25 0 l
0.26 0 l
0.26 0 l
0.25 0 l
0.26 0 l
0.26 0 l
0.25 0 l
0.26 0 l
0.26 0 l
0.26 0 l
0.25 0 l
0.26 0 l
0.26 0 l
0.25 0 l
0.26 0 l
0.26 0 l
0.26 0 l
0.25 0 l
0.26 0 l
0.26 0 l
0.25 0 l
0.26 0 l
0.26 0 l
0.25 0 l
0.26 0 l
0.26 0 l
0.26 0 l
0.25 0 l
0.26 0 l
0.26 0 l
0.25 0 l
0.26 0 l
0.26 0 l
0.26 0 l
0.25 0 l
387.77 404.00 lineto
0.26 0 l
0.25 0 l
0.26 0 l
0.26 0 l
0 -61.33 l
-26.74 0 l
0 61.33 l
cp p3
/bg { 0.7176 1 0.2824 srgb } def
0.7176 1 0.2824 srgb
np
 362.06 404.00 m
0.26 0 l
0.26 0 l
0.25 0 l
0.26 0 l
0.26 0 l
0.26 0 l
0.25 0 l
0.26 0 l
0.26 0 l
0.25 0 l
0.26 0 l
0.26 0 l
0.26 0 l
0.25 0 l
0.26 0 l
0.26 0 l
0.25 0 l
0.26 0 l
0.26 0 l
0.25 0 l
0.26 0 l
0.26 0 l
0.26 0 l
0.25 0 l
0.26 0 l
0.26 0 l
0.25 0 l
0.26 0 l
0.26 0 l
0.26 0 l
0.25 0 l
0.26 0 l
0.26 0 l
0.25 0 l
0.26 0 l
0.26 0 l
0.25 0 l
0.26 0 l
0.26 0 l
0.26 0 l
0.25 0 l
0.26 0 l
0.26 0 l
0.25 0 l
0.26 0 l
0.26 0 l
0.26 0 l
0.25 0 l
0.26 0 l
0.26 0 l
0.25 0 l
0.26 0 l
0.26 0 l
0.25 0 l
0.26 0 l
0.26 0 l
0.26 0 l
0.25 0 l
0.26 0 l
0.26 0 l
0.25 0 l
0.26 0 l
0.26 0 l
0.26 0 l
0.25 0 l
0.26 0 l
0.26 0 l
0.25 0 l
0.26 0 l
0.26 0 l
0.25 0 l
0.26 0 l
0.26 0 l
0 -61.33 l
-18.77 0 l
0 61.33 l
cp p3
/bg { 0.7451 1 0.2549 srgb } def
0.7451 1 0.2549 srgb
np
 363.61 404.00 m
0.25 0 l
0.26 0 l
0.26 0 l
0.25 0 l
0.26 0 l
0.26 0 l
0.26 0 l
0.25 0 l
0.26 0 l
0.26 0 l
0.25 0 l
0.26 0 l
0.26 0 l
0.25 0 l
0.26 0 l
0.26 0 l
0.26 0 l
0.25 0 l
0.26 0 l
0.26 0 l
0.25 0 l
0.26 0 l
0.26 0 l
0.26 0 l
0.25 0 l
0.26 0 l
0.26 0 l
0.25 0 l
0.26 0 l
0.26 0 l
0.25 0 l
0.26 0 l
0.26 0 l
0.26 0 l
0.25 0 l
0.26 0 l
0.26 0 l
0.25 0 l
0.26 0 l
0.26 0 l
0.26 0 l
0.25 0 l
0.26 0 l
0.26 0 l
0.25 0 l
0.26 0 l
0.26 0 l
0.25 0 l
0.26 0 l
0.26 0 l
0.26 0 l
0.25 0 l
0.26 0 l
0 -61.33 l
-13.62 0 l
0 61.33 l
cp p3
/bg { 1 0.6980 0 srgb } def
1 0.6980 0 srgb
np
 353.84 434.67 m
0.25 0 l
0.26 0 l
0.26 0 l
0.26 0 l
0.25 0 l
0.26 0 l
0.26 0 l
0.25 0 l
0.26 0 l
0.26 0 l
0.25 0 l
0.26 0 l
0.26 0 l
0.26 0 l
0.25 0 l
0.26 0 l
0.26 0 l
0.25 0 l
0.26 0 l
0.26 0 l
0.26 0 l
0.25 0 l
0.26 0 l
0.26 0 l
0.25 0 l
0.26 0 l
0.26 0 l
0.26 0 l
0.25 0 l
0.26 0 l
0.26 0 l
0.25 0 l
0.26 0 l
0.26 0 l
0.25 0 l
0.26 0 l
0.26 0 l
0.26 0 l
0.25 0 l
0.26 0 l
0.26 0 l
0.25 0 l
0.26 0 l
0.26 0 l
0.26 0 l
0.25 0 l
0.26 0 l
0.26 0 l
0.25 0 l
0.26 0 l
0.26 0 l
0.25 0 l
0.26 0 l
0.26 0 l
0.26 0 l
0.25 0 l
0.26 0 l
0.26 0 l
0.25 0 l
0.26 0 l
0.26 0 l
0.26 0 l
0.25 0 l
0.26 0 l
0.26 0 l
0.25 0 l
0.26 0 l
0.26 0 l
0.25 0 l
0.26 0 l
0.26 0 l
0.26 0 l
0.25 0 l
0.26 0 l
0.26 0 l
0.25 0 l
0.26 0 l
0.26 0 l
0.26 0 l
0.25 0 l
0.26 0 l
0.26 0 l
0.25 0 l
0.26 0 l
0.26 0 l
0.25 0 l
0.26 0 l
0.26 0 l
0.26 0 l
0.25 0 l
0.26 0 l
0.26 0 l
0.25 0 l
0.26 0 l
0.26 0 l
0.26 0 l
0.25 0 l
0.26 0 l
0.26 0 l
379.54 434.67 lineto
0.26 0 l
0.26 0 l
0.25 0 l
0.26 0 l
0.26 0 l
0.26 -30.67 l
0.25 0 l
0.26 0 l
0.26 0 l
0.25 0 l
0.26 0 l
0.26 0 l
0.26 0 l
0.25 0 l
0.26 0 l
0.26 0 l
0.25 0 l
0.26 0 l
0.26 0 l
0.25 0 l
0.26 0 l
0.26 0 l
0.26 0 l
0.25 0 l
0.26 0 l
0.26 0 l
0.25 0 l
0.26 0 l
0.26 0 l
0.26 0 l
0.25 0 l
0.26 0 l
0.26 0 l
0.25 0 l
0.26 0 l
0.26 0 l
0.25 0 l
0.26 0 l
0.26 0 l
0.26 0 l
0.25 0 l
0.26 0 l
0 -61.33 l
-36.50 0 l
0 92.00 l
cp p3
/bg { 1 0.6510 0 srgb } def
1 0.6510 0 srgb
np
 353.84 434.67 m
0.25 0 l
0.26 0 l
0.26 0 l
0.26 0 l
0.25 0 l
0.26 0 l
0.26 0 l
0.25 0 l
0.26 0 l
0.26 0 l
0.25 0 l
0.26 0 l
0.26 0 l
0.26 0 l
0.25 0 l
0.26 0 l
0.26 0 l
0.25 0 l
0.26 0 l
0.26 0 l
0.26 0 l
0.25 0 l
0.26 0 l
0.26 0 l
0.25 0 l
0.26 0 l
0.26 0 l
0.26 0 l
0.25 0 l
0.26 0 l
0.26 0 l
0.25 0 l
0.26 0 l
0.26 0 l
0.25 0 l
0.26 0 l
0.26 0 l
0.26 0 l
0.25 0 l
0.26 0 l
0.26 0 l
0.25 0 l
0.26 0 l
0.26 0 l
0.26 0 l
0.25 0 l
0.26 0 l
0.26 0 l
0.25 0 l
0.26 0 l
0.26 0 l
0.25 0 l
0.26 0 l
0.26 0 l
0.26 0 l
0.25 0 l
0.26 0 l
0.26 0 l
0.25 0 l
0.26 0 l
0.26 0 l
0.26 0 l
0.25 0 l
0.26 0 l
0.26 0 l
0.25 0 l
0.26 0 l
0.26 0 l
0.25 0 l
0.26 0 l
0.26 0 l
0.26 0 l
0.25 0 l
0.26 0 l
0.26 0 l
0.25 0 l
0.26 0 l
0.26 0 l
0.26 0 l
0.25 0 l
0.26 0 l
0.26 0 l
0.25 0 l
0.26 0 l
0.26 0 l
0.25 0 l
0.26 0 l
0.26 0 l
0.26 0 l
0.25 0 l
0.26 0 l
0.26 -30.67 l
0.25 0 l
0.26 0 l
0.26 0 l
0.26 0 l
0.25 0 l
0.26 0 l
0.26 0 l
379.54 404.00 lineto
0.26 0 l
0.26 0 l
0.25 0 l
0.26 0 l
0.26 0 l
0.26 0 l
0.25 0 l
0.26 0 l
0.26 0 l
0.25 0 l
0.26 0 l
0.26 0 l
0.26 0 l
0.25 0 l
0.26 0 l
0.26 0 l
0.25 0 l
0.26 0 l
0.26 0 l
0.25 0 l
0.26 0 l
0.26 0 l
0.26 0 l
0.25 0 l
0.26 0 l
0.26 0 l
0.25 0 l
0 -61.33 l
-32.64 0 l
0 92.00 l
cp p3
np
 351.27 465.33 m
0.25 0 l
0.26 0 l
0.26 0 l
0.25 0 l
0.26 0 l
0.26 0 l
0.26 0 l
0.25 0 l
0.26 0 l
0.26 0 l
0.25 0 l
0.26 0 l
0.26 0 l
0.26 0 l
0.25 0 l
0.26 0 l
0.26 0 l
0.25 0 l
0.26 0 l
0.26 0 l
0.25 0 l
0.26 0 l
0.26 0 l
0.26 0 l
0.25 0 l
0.26 0 l
0.26 0 l
0.25 0 l
0.26 0 l
0.26 0 l
0.26 0 l
0.25 0 l
0.26 0 l
0.26 0 l
0.25 0 l
0.26 0 l
0.26 0 l
0.26 0 l
0.25 0 l
0.26 0 l
0.26 0 l
0.25 0 l
0.26 0 l
0.26 0 l
0.25 0 l
0.26 0 l
0.26 0 l
0.26 0 l
0.25 0 l
0.26 0 l
0.26 0 l
0.25 0 l
0.26 0 l
0.26 0 l
0.26 0 l
0.25 0 l
0.26 0 l
0.26 0 l
0.25 0 l
0.26 0 l
0.26 0 l
0.25 0 l
0.26 0 l
0.26 0 l
0.26 0 l
0.25 0 l
0.26 0 l
0.26 0 l
0.25 0 l
0.26 0 l
0.26 0 l
0.26 0 l
0.25 0 l
0.26 0 l
0.26 0 l
0.25 0 l
0.26 0 l
0.26 0 l
0.25 0 l
0.26 0 l
0.26 0 l
0.26 0 l
0.25 0 l
0.26 0 l
0.26 0 l
0.25 0 l
0.26 0 l
0.26 0 l
0.26 0 l
0.25 0 l
0.26 0 l
0.26 0 l
0.25 0 l
0.26 0 l
0.26 0 l
0.25 0 l
0.26 0 l
0.26 0 l
0.26 0 l
376.97 465.33 lineto
0.26 0 l
0.26 -61.33 l
0.25 0 l
0.26 0 l
0.26 0 l
0.26 0 l
0.25 0 l
0.26 0 l
0.26 0 l
0.25 0 l
0.26 0 l
0.26 0 l
0.25 0 l
0.26 0 l
0.26 0 l
0.26 0 l
0.25 0 l
0.26 0 l
0.26 0 l
0.25 0 l
0.26 0 l
0.26 0 l
0.26 0 l
0.25 0 l
0.26 0 l
0.26 0 l
0.25 0 l
0.26 0 l
0.26 0 l
0.25 0 l
0.26 0 l
0.26 0 l
0.26 0 l
0.25 0 l
0.26 0 l
0.26 0 l
0.25 0 l
0 -61.33 l
-35.21 0 l
0 122.66 l
cp p3
/bg { 1 0.4510 0 srgb } def
1 0.4510 0 srgb
np
 353.84 434.67 m
0.25 0 l
0.26 0 l
0.26 0 l
0.26 0 l
0.25 0 l
0.26 0 l
0.26 0 l
0.25 0 l
0.26 0 l
0.26 0 l
0.25 0 l
0.26 0 l
0.26 0 l
0.26 0 l
0.25 0 l
0.26 0 l
0.26 0 l
0.25 0 l
0.26 0 l
0.26 0 l
0.26 0 l
0.25 0 l
0.26 0 l
0.26 0 l
0.25 0 l
0.26 0 l
0.26 0 l
0.26 0 l
0.25 0 l
0.26 0 l
0.26 0 l
0.25 0 l
0.26 0 l
0.26 0 l
0.25 0 l
0.26 0 l
0.26 0 l
0 -92.00 l
-9.51 0 l
0 92.00 l
cp p3
np
 351.27 434.67 m
0.25 0 l
0.26 0 l
0.26 0 l
0.25 0 l
0.26 0 l
0.26 0 l
0.26 0 l
0.25 0 l
0.26 0 l
0.26 0 l
0.25 0 l
0.26 0 l
0.26 0 l
0.26 0 l
0.25 0 l
0.26 0 l
0.26 0 l
0.25 0 l
0.26 0 l
0.26 0 l
0.25 0 l
0.26 0 l
0.26 0 l
0.26 0 l
0.25 0 l
0.26 0 l
0.26 0 l
0.25 0 l
0.26 0 l
0.26 0 l
0.26 0 l
0.25 0 l
0.26 0 l
0.26 0 l
0.25 0 l
0.26 0 l
0.26 0 l
0.26 0 l
0.25 0 l
0.26 0 l
0.26 0 l
0.25 0 l
0.26 0 l
0.26 0 l
0.25 0 l
0.26 0 l
0.26 0 l
0 -92.00 l
-12.08 0 l
0 92.00 l
cp p3
/bg { 1 0.4000 0 srgb } def
1 0.4000 0 srgb
np
 335.33 465.33 m
0.26 0 l
0.25 0 l
0.26 0 l
0.26 0 l
0.25 0 l
0.26 0 l
0.26 0 l
0.26 0 l
0.25 0 l
0.26 0 l
0.26 0 l
0.25 0 l
0.26 0 l
0.26 0 l
0.25 0 l
0.26 0 l
0.26 0 l
0.26 0 l
0.25 0 l
0.26 0 l
0.26 0 l
0.25 0 l
0.26 0 l
0.26 0 l
0.26 0 l
0.25 0 l
0.26 0 l
0.26 0 l
0.25 0 l
0.26 0 l
0.26 0 l
0.25 0 l
0.26 0 l
0.26 0 l
0.26 0 l
0.25 0 l
0.26 0 l
0.26 0 l
0.25 0 l
0.26 0 l
0.26 0 l
0.26 30.67 l
0.25 0 l
0.26 0 l
0.26 0 l
0.25 0 l
0.26 0 l
0.26 0 l
0.25 0 l
0.26 0 l
0.26 0 l
0.26 0 l
0.25 30.67 l
0.26 0 l
0.26 0 l
0.25 0 l
0.26 0 l
0.26 0 l
0.26 0 l
0.25 0 l
0.26 0 l
0.26 0 l
0.25 0 l
0.26 0 l
0.26 0 l
0.25 0 l
0.26 0 l
0.26 0 l
0.26 0 l
0.25 0 l
0.26 0 l
0.26 0 l
0.25 0 l
0.26 0 l
0.26 0 l
0.26 0 l
0.25 0 l
0.26 0 l
0.26 0 l
0.25 0 l
0.26 0 l
0.26 0 l
0.25 0 l
0.26 0 l
0.26 0 l
0.26 0 l
0.25 0 l
0.26 0 l
0.26 0 l
0.25 0 l
0.26 0 l
0.26 0 l
0.26 0 l
0.25 0 l
0.26 0 l
0.26 0 l
0.25 0 l
0.26 0 l
0.26 0 l
361.04 526.67 lineto
0.25 0 l
0.26 0 l
0.26 0 l
0.25 0 l
0.26 0 l
0.26 0 l
0.25 0 l
0.26 0 l
0.26 0 l
0.26 -92.00 l
0.25 0 l
0.26 0 l
0.26 0 l
0.25 0 l
0.26 0 l
0.26 0 l
0.26 0 l
0.25 0 l
0.26 0 l
0.26 0 l
0.25 0 l
0.26 0 l
0.26 0 l
0.25 0 l
0.26 0 l
0.26 0 l
0.26 0 l
0.25 0 l
0.26 0 l
0.26 0 l
0.25 0 l
0.26 0 l
0.26 0 l
0.26 0 l
0.25 0 l
0.26 0 l
0.26 0 l
0.25 0 l
0.26 0 l
0.26 0 l
0.25 0 l
0.26 0 l
0.26 0 l
0.26 0 l
0.25 0 l
0.26 0 l
0.26 0 l
0.25 0 l
0.26 0 l
0.26 0 l
0.26 0 l
0.25 0 l
0.26 0 l
0.26 0 l
0.25 0 l
0.26 0 l
0.26 0 l
0.25 0 l
0.26 0 l
0.26 0 l
0.26 0 l
0.25 0 l
0.26 0 l
0.26 0 l
0.25 0 l
0.26 0 l
0.26 0 l
0.26 0 l
0.25 0 l
0.26 0 l
0.26 0 l
0.25 0 l
0.26 0 l
0.26 0 l
0.25 0 l
0.26 0 l
0.26 0 l
0.26 0 l
0.25 0 l
0.26 0 l
0.26 0 l
0.25 0 l
0.26 0 l
0.26 0 l
0.26 0 l
0.25 0 l
0.26 0 l
0.26 0 l
0.25 0 l
0.26 0 l
0.26 0 l
0.25 0 l
0.26 0 l
0.26 0 l
0.26 0 l
0.25 0 l
0.26 0 l
0.26 0 l
0.25 0 l
386.74 434.67 lineto
0.26 0 l
0.26 0 l
0.25 0 l
0.26 0 l
0.26 0 l
0.25 0 l
0.26 0 l
0.26 0 l
0.25 0 l
0.26 0 l
0.26 0 l
0.26 0 l
0.25 0 l
0.26 0 l
0.26 0 l
0.25 0 l
0.26 0 l
0.26 0 l
0.26 0 l
0.25 0 l
0.26 0 l
0.26 0 l
0.25 0 l
0.26 0 l
0.26 0 l
0.25 0 l
0.26 0 l
0.26 0 l
0.26 0 l
0.25 0 l
0.26 0 l
0.26 0 l
0.25 0 l
0.26 0 l
0.26 0 l
0.26 0 l
0.25 0 l
0.26 0 l
0.26 0 l
0.25 0 l
0.26 0 l
0.26 0 l
0.25 0 l
0.26 0 l
0.26 0 l
0.26 0 l
0.25 0 l
0.26 0 l
0.26 0 l
0.25 0 l
0.26 0 l
0.26 0 l
0.26 0 l
0.25 0 l
0.26 0 l
0.26 0 l
0.25 0 l
0.26 0 l
0.26 0 l
0.25 0 l
0.26 0 l
0.26 0 l
0.26 0 l
0.25 0 l
0.26 0 l
0.26 0 l
0.25 0 l
0.26 0 l
0.26 0 l
0.26 0 l
0.25 0 l
0.26 0 l
0.26 0 l
0.25 0 l
0.26 0 l
0.26 0 l
0.26 0 l
0.25 0 l
0.26 0 l
0.26 0 l
0.25 -30.67 l
0.26 0 l
0.26 0 l
0.25 0 l
0.26 0 l
0.26 0 l
0.26 0 l
0.25 0 l
0.26 0 l
0.26 0 l
0.25 0 l
0.26 0 l
0.26 0 l
0.26 0 l
0.25 0 l
0.26 0 l
0.26 0 l
0.25 0 l
0 -61.33 l
335.33 342.67 lineto
0 122.66 l
cp p3
/bg { 0.8235 0 0 srgb } def
0.8235 0 0 srgb
np
 335.33 434.67 m
0.26 0 l
0.25 0 l
0.26 0 l
0.26 0 l
0.25 0 l
0.26 0 l
0.26 0 l
0.26 0 l
0.25 0 l
0.26 0 l
0.26 0 l
0.25 0 l
0.26 0 l
0.26 0 l
0.25 0 l
0.26 0 l
0.26 0 l
0.26 0 l
0.25 0 l
0.26 0 l
0.26 0 l
0.25 0 l
0.26 0 l
0.26 0 l
0.26 0 l
0.25 0 l
0.26 0 l
0.26 0 l
0.25 0 l
0.26 0 l
0.26 0 l
0.25 0 l
0.26 0 l
0.26 0 l
0.26 0 l
0.25 0 l
0.26 0 l
0.26 0 l
0.25 0 l
0.26 0 l
0.26 0 l
0.26 30.66 l
0.25 0 l
0.26 0 l
0.26 0 l
0.25 0 l
0.26 0 l
0.26 0 l
0.25 0 l
0.26 0 l
0.26 0 l
0.26 0 l
0.25 30.67 l
0.26 0 l
0.26 0 l
0.25 0 l
0.26 0 l
0.26 0 l
0.26 0 l
0.25 0 l
0.26 0 l
0.26 0 l
0.25 0 l
0.26 0 l
0.26 0 l
0.25 0 l
0.26 0 l
0.26 0 l
0.26 0 l
0.25 0 l
0.26 0 l
0.26 0 l
0.25 0 l
0.26 0 l
0.26 0 l
0.26 0 l
0.25 0 l
0.26 0 l
0.26 0 l
0.25 0 l
0.26 0 l
0.26 0 l
0.25 0 l
0.26 0 l
0.26 0 l
0.26 0 l
0.25 0 l
0.26 0 l
0.26 0 l
0.25 -30.67 l
0.26 0 l
0.26 0 l
0.26 -61.33 l
0.25 0 l
0 -61.33 l
-24.16 0 l
0 92.00 l
cp p3
/bg { 0.8000 0 0 srgb } def
0.8000 0 0 srgb
np
 335.33 404.00 m
0.26 0 l
0.25 0 l
0.26 0 l
0.26 0 l
0.25 0 l
0.26 0 l
0.26 0 l
0.26 0 l
0.25 0 l
0.26 0 l
0.26 0 l
0.25 0 l
0.26 0 l
0.26 0 l
0.25 0 l
0.26 0 l
0.26 0 l
0.26 0 l
0.25 0 l
0.26 0 l
0.26 0 l
0.25 0 l
0.26 0 l
0.26 0 l
0.26 0 l
0.25 0 l
0.26 0 l
0.26 0 l
0.25 0 l
0.26 0 l
0.26 0 l
0.25 0 l
0.26 0 l
0.26 0 l
0.26 0 l
0.25 0 l
0.26 0 l
0.26 0 l
0.25 0 l
0.26 0 l
0.26 0 l
0.26 0 l
0.25 0 l
0.26 0 l
0.26 0 l
0.25 0 l
0.26 0 l
0.26 0 l
0.25 0 l
0.26 0 l
0.26 0 l
0.26 0 l
0.25 0 l
0.26 0 l
0.26 0 l
0.25 0 l
0.26 0 l
0.26 0 l
0.26 0 l
0.25 0 l
0.26 0 l
0.26 0 l
0.25 0 l
0.26 0 l
0.26 0 l
0.25 0 l
0.26 0 l
0.26 0 l
0.26 0 l
0.25 0 l
0.26 0 l
0.26 0 l
0.25 0 l
0.26 0 l
0.26 0 l
0.26 0 l
0.25 0 l
0 -61.33 l
-19.79 0 l
0 61.33 l
cp p3
0.00 0.00 720.00 540.00 cl
0 0 0 srgb
0.75 setlinewidth
[] 0 setdash
1 setlinecap
1 setlinejoin
10.00 setmiterlimit
np
54.00 367.20 m
655.20 0 l
o
np
74.67 367.20 m
0 -7.20 l
o
np
203.20 367.20 m
0 -7.20 l
o
np
331.73 367.20 m
0 -7.20 l
o
np
460.26 367.20 m
0 -7.20 l
o
np
588.79 367.20 m
0 -7.20 l
o
/Font1 findfont 12 s
74.67 348.48 (3038500) .5 0 t
203.20 348.48 (3039000) .5 0 t
331.73 348.48 (3039500) .5 0 t
460.26 348.48 (3040000) .5 0 t
588.79 348.48 (3040500) .5 0 t
np
54.00 373.33 m
0 153.34 l
o
np
54.00 373.33 m
-7.20 0 l
o
np
54.00 404.00 m
-7.20 0 l
o
np
54.00 434.67 m
-7.20 0 l
o
np
54.00 465.33 m
-7.20 0 l
o
np
54.00 496.00 m
-7.20 0 l
o
np
54.00 526.67 m
-7.20 0 l
o
43.92 373.33 (0) .5 90 t
43.92 404.00 (1) .5 90 t
43.92 434.67 (2) .5 90 t
43.92 465.33 (3) .5 90 t
43.92 496.00 (4) .5 90 t
43.92 526.67 (5) .5 90 t
54.00 367.20 709.20 532.80 cl
0 0 0 srgb
0.75 setlinewidth
[ 2.25 3.75] 0 setdash
1 setlinecap
1 setlinejoin
10.00 setmiterlimit
np
335.33 367.20 m
0 165.60 l
o
np
427.87 367.20 m
0 165.60 l
o
54.00 187.20 709.20 352.80 cl
0.00 180.00 720.00 360.00 cl
/Font1 findfont 12 s
0 0 0 srgb
359.26 146.88 (r) 0 ta
-0.120 (ange\(x\)) tb gr
22.32 270.00 (subCM '?') .5 90 t
54.00 187.20 709.20 352.80 cl
/bg { 0 0.2510 1 srgb } def
0 0.2510 1 srgb
0.75 setlinewidth
[] 0 setdash
1 setlinecap
1 setlinejoin
10.00 setmiterlimit
np
 411.42 231.67 m
0.26 0 l
0.25 0 l
0.26 0 l
0.26 0 l
0.25 0 l
0.26 0 l
0.26 0 l
0.26 0 l
0.25 0 l
0.26 0 l
0.26 0 l
0.25 0 l
0.26 0 l
0.26 0 l
0.26 0 l
0.25 0 l
0.26 0 l
0.26 0 l
0.25 0 l
0.26 0 l
0.26 0 l
0.25 0 l
0.26 0 l
0.26 0 l
0.26 0 l
0.25 0 l
0.26 0 l
0.26 0 l
0.25 0 l
0.26 0 l
0.26 0 l
0.26 0 l
0.25 0 l
0.26 0 l
0.26 0 l
0.25 0 l
0.26 0 l
0.26 0 l
0.25 0 l
0.26 0 l
0.26 0 l
0.26 0 l
0.25 0 l
0.26 0 l
0.26 0 l
0.25 0 l
0.26 0 l
0.26 0 l
0.26 0 l
0.25 0 l
0.26 0 l
0.26 0 l
0.25 0 l
0.26 0 l
0.26 0 l
0.25 0 l
0.26 0 l
0.26 0 l
0.26 0 l
0.25 0 l
0 -76.67 l
-15.42 0 l
0 76.67 l
cp p3
/bg { 0 0.5020 1 srgb } def
0 0.5020 1 srgb
np
 408.85 231.67 m
0.26 0 l
0.25 0 l
0.26 0 l
0.26 0 l
0.25 0 l
0.26 0 l
0.26 0 l
0.26 0 l
0.25 0 l
0.26 0 l
0.26 0 l
0.25 0 l
0.26 0 l
0.26 0 l
0.25 0 l
0.26 0 l
0.26 0 l
0.26 38.33 l
0.25 0 l
0.26 0 l
0.26 0 l
0.25 0 l
0.26 0 l
0.26 0 l
0.26 0 l
0.25 0 l
0.26 0 l
0.26 0 l
0.25 0 l
0.26 0 l
0.26 0 l
0.25 0 l
0.26 0 l
0.26 0 l
0.26 0 l
0.25 0 l
0.26 0 l
0.26 0 l
0.25 0 l
0.26 0 l
0.26 0 l
0.26 0 l
0.25 0 l
0.26 0 l
0.26 0 l
0.25 0 l
0.26 0 l
0.26 0 l
0.25 0 l
0.26 0 l
0.26 0 l
0.26 0 l
0.25 0 l
0.26 0 l
0.26 0 l
0.25 0 l
0.26 0 l
0.26 0 l
0.26 0 l
0.25 0 l
0.26 0 l
0.26 -38.33 l
0.25 0 l
0.26 0 l
0.26 0 l
0.25 0 l
0.26 0 l
0.26 0 l
0.26 0 l
0.25 0 l
0.26 0 l
0.26 0 l
0.25 0 l
0.26 0 l
0.26 0 l
0.26 0 l
0.25 0 l
0.26 0 l
0.26 0 l
0.25 0 l
0.26 0 l
0.26 0 l
0.25 0 l
0.26 0 l
0.26 0 l
0 -76.67 l
-21.85 0 l
0 76.67 l
cp p3
/bg { 0.2039 1 0.7961 srgb } def
0.2039 1 0.7961 srgb
np
 406.28 231.67 m
0.26 0 l
0.25 38.33 l
0.26 38.33 l
0.26 0 l
0.25 0 l
0.26 0 l
0.26 0 l
0.25 0 l
0.26 0 l
0.26 0 l
0.26 0 l
0.25 0 l
0.26 0 l
0.26 0 l
0.25 0 l
0.26 0 l
0.26 0 l
0.26 0 l
0.25 0 l
0.26 0 l
0.26 0 l
0.25 0 l
0.26 0 l
0.26 0 l
0.25 0 l
0.26 0 l
0.26 0 l
0.26 0 l
0.25 0 l
0.26 0 l
0.26 0 l
0.25 0 l
0.26 0 l
0.26 0 l
0.26 0 l
0.25 0 l
0.26 0 l
0.26 0 l
0.25 0 l
0.26 0 l
0.26 0 l
0.25 0 l
0.26 0 l
0.26 0 l
0.26 0 l
0.25 0 l
0.26 0 l
0.26 0 l
0.25 0 l
0 -153.33 l
-12.59 0 l
0 76.67 l
cp p3
/bg { 0.2549 1 0.7451 srgb } def
0.2549 1 0.7451 srgb
np
 375.69 231.67 m
0.25 0 l
0.26 0 l
0.26 0 l
0.26 0 l
0.25 0 l
0.26 0 l
0.26 0 l
0.25 0 l
0.26 0 l
0.26 0 l
0.26 0 l
0.25 0 l
0.26 0 l
0.26 0 l
0.25 0 l
0.26 0 l
0.26 0 l
0.25 0 l
0.26 0 l
0.26 0 l
0.26 0 l
0.25 0 l
0.26 0 l
0.26 0 l
0.25 0 l
0.26 0 l
0.26 0 l
0.26 0 l
0.25 0 l
0.26 0 l
0.26 0 l
0.25 0 l
0.26 0 l
0.26 0 l
0.25 0 l
0.26 0 l
0.26 0 l
0.26 0 l
0 -76.67 l
-9.77 0 l
0 76.67 l
cp p3
/bg { 0.3608 1 0.6392 srgb } def
0.3608 1 0.6392 srgb
np
 373.12 231.67 m
0.25 0 l
0.26 0 l
0.26 0 l
0.26 0 l
0.25 0 l
0.26 0 l
0.26 0 l
0.25 0 l
0.26 0 l
0.26 0 l
0.25 0 l
0.26 0 l
0.26 0 l
0.26 0 l
0.25 0 l
0.26 0 l
0.26 0 l
0.25 0 l
0.26 0 l
0.26 0 l
0.26 0 l
0.25 0 l
0.26 0 l
0.26 0 l
0.25 0 l
0.26 0 l
0.26 0 l
0.25 0 l
0.26 0 l
0.26 0 l
0.26 0 l
0.25 0 l
0.26 0 l
0.26 0 l
0.25 0 l
0.26 0 l
0.26 0 l
0.26 0 l
0.25 0 l
0.26 0 l
0.26 0 l
0.25 0 l
0.26 0 l
0.26 0 l
0.25 0 l
0.26 0 l
0.26 0 l
0.26 0 l
0.25 0 l
0.26 0 l
0.26 0 l
0.25 0 l
0.26 0 l
0.26 0 l
0.26 0 l
0.25 0 l
0.26 0 l
0.26 0 l
0.25 0 l
0.26 0 l
0.26 0 l
0.25 0 l
0.26 0 l
0.26 0 l
0.26 0 l
0.25 0 l
0.26 0 l
0.26 0 l
0.25 0 l
0.26 0 l
0.26 0 l
0.26 0 l
0.25 0 l
0.26 0 l
0.26 0 l
0.25 0 l
0.26 0 l
0.26 0 l
0.25 0 l
0.26 0 l
0.26 0 l
0.26 0 l
0.25 0 l
0.26 0 l
0.26 0 l
0.25 0 l
0.26 0 l
0.26 0 l
0.26 0 l
0.25 0 l
0.26 0 l
0.26 0 l
0.25 0 l
0.26 0 l
0.26 0 l
0.25 0 l
0.26 0 l
0.26 0 l
0.26 0 l
398.82 231.67 lineto
0.26 0 l
0.26 0 l
0.25 0 l
0.26 0 l
0.26 0 l
0.26 0 l
0.25 0 l
0.26 0 l
0.26 0 l
0.25 0 l
0.26 0 l
0.26 0 l
0.25 0 l
0.26 0 l
0.26 0 l
0.26 0 l
0.25 0 l
0.26 0 l
0.26 0 l
0.25 0 l
0.26 0 l
0.26 0 l
0.26 0 l
0.25 0 l
0.26 0 l
0.26 0 l
0.25 0 l
0.26 0 l
0.26 0 l
0.26 0 l
0.25 0 l
0.26 0 l
0.26 0 l
0.25 0 l
0.26 0 l
0.26 0 l
0.25 0 l
0.26 0 l
0.26 0 l
0.26 0 l
0.25 0 l
0.26 0 l
0.26 0 l
0.25 0 l
0.26 0 l
0.26 0 l
0.26 0 l
0.25 0 l
0.26 0 l
0.26 0 l
0.25 0 l
0.26 0 l
0.26 0 l
0.25 0 l
0.26 0 l
0.26 0 l
0.26 0 l
0.25 0 l
0.26 0 l
0.26 0 l
0.25 0 l
0.26 0 l
0.26 0 l
0.26 0 l
0.25 0 l
0.26 0 l
0.26 0 l
0.25 0 l
0.26 0 l
0.26 0 l
0.25 0 l
0.26 0 l
0.26 0 l
0.26 0 l
0.25 0 l
0.26 0 l
0.26 0 l
0.25 0 l
0.26 0 l
0.26 0 l
0.26 0 l
0.25 0 l
0.26 0 l
0.26 0 l
0.25 0 l
0 -76.67 l
-47.55 0 l
0 76.67 l
cp p3
np
 373.12 231.67 m
0.25 0 l
0.26 0 l
0.26 0 l
0.26 0 l
0.25 0 l
0.26 0 l
0.26 0 l
0.25 0 l
0.26 0 l
0.26 0 l
0.25 0 l
0.26 0 l
0.26 0 l
0.26 0 l
0.25 0 l
0.26 0 l
0.26 0 l
0.25 0 l
0.26 0 l
0.26 0 l
0.26 0 l
0.25 0 l
0.26 0 l
0.26 0 l
0.25 0 l
0.26 0 l
0.26 0 l
0.25 0 l
0.26 0 l
0.26 0 l
0.26 0 l
0.25 0 l
0.26 0 l
0.26 0 l
0.25 0 l
0.26 0 l
0.26 0 l
0.26 0 l
0.25 0 l
0.26 0 l
0.26 0 l
0.25 0 l
0.26 0 l
0.26 0 l
0.25 0 l
0.26 0 l
0.26 0 l
0.26 0 l
0.25 0 l
0.26 0 l
0.26 0 l
0.25 0 l
0.26 0 l
0.26 0 l
0.26 0 l
0.25 0 l
0.26 0 l
0.26 0 l
0.25 0 l
0.26 0 l
0.26 0 l
0.25 0 l
0.26 0 l
0.26 0 l
0.26 0 l
0.25 0 l
0.26 0 l
0.26 0 l
0.25 0 l
0.26 0 l
0.26 0 l
0.26 38.33 l
0.25 0 l
0.26 0 l
0.26 0 l
0.25 0 l
0.26 0 l
0.26 0 l
0.25 0 l
0.26 0 l
0.26 0 l
0.26 0 l
0.25 0 l
0.26 0 l
0.26 0 l
0.25 0 l
0.26 0 l
0.26 0 l
0.26 0 l
0.25 0 l
0.26 0 l
0.26 0 l
0.25 0 l
0.26 0 l
0.26 0 l
0.25 0 l
0.26 0 l
0.26 0 l
0.26 0 l
398.82 270.00 lineto
0.26 0 l
0.26 0 l
0.25 0 l
0.26 0 l
0.26 0 l
0.26 0 l
0.25 0 l
0.26 0 l
0.26 0 l
0.25 0 l
0.26 0 l
0.26 0 l
0.25 0 l
0.26 0 l
0.26 0 l
0.26 0 l
0.25 0 l
0.26 0 l
0.26 0 l
0.25 0 l
0.26 0 l
0.26 0 l
0.26 0 l
0.25 0 l
0.26 0 l
0.26 0 l
0.25 0 l
0.26 0 l
0.26 0 l
0.26 0 l
0.25 0 l
0.26 0 l
0.26 0 l
0.25 0 l
0.26 0 l
0.26 0 l
0.25 0 l
0.26 0 l
0.26 0 l
0.26 0 l
0.25 0 l
0.26 0 l
0.26 0 l
0.25 0 l
0.26 0 l
0.26 0 l
0.26 0 l
0.25 0 l
0.26 0 l
0.26 0 l
0.25 0 l
0.26 0 l
0.26 0 l
0.25 0 l
0.26 0 l
0.26 0 l
0.26 0 l
0.25 0 l
0.26 0 l
0.26 0 l
0.25 0 l
0.26 0 l
0.26 0 l
0.26 0 l
0.25 0 l
0.26 0 l
0.26 0 l
0.25 0 l
0.26 0 l
0.26 0 l
0.25 0 l
0.26 0 l
0.26 0 l
0.26 0 l
0.25 0 l
0.26 0 l
0.26 0 l
0.25 0 l
0 -115.00 l
-45.75 0 l
0 76.67 l
cp p3
/bg { 0.5137 1 0.4863 srgb } def
0.5137 1 0.4863 srgb
np
 401.39 270.00 m
0.26 0 l
0.26 0 l
0.25 0 l
0.26 0 l
0.26 0 l
0.26 0 l
0.25 0 l
0.26 0 l
0.26 0 l
0.25 0 l
0.26 0 l
0.26 0 l
0.26 0 l
0.25 0 l
0.26 0 l
0.26 0 l
0.25 0 l
0.26 0 l
0.26 0 l
0.26 0 l
0.25 0 l
0.26 0 l
0.26 0 l
0.25 0 l
0.26 0 l
0.26 0 l
0.25 0 l
0.26 0 l
0.26 0 l
0.26 0 l
0.25 0 l
0.26 0 l
0.26 0 l
0.25 0 l
0.26 0 l
0.26 0 l
0.26 0 l
0.25 0 l
0.26 0 l
0.26 0 l
0.25 0 l
0.26 0 l
0.26 0 l
0.25 0 l
0.26 0 l
0.26 0 l
0.26 0 l
0.25 -38.33 l
0.26 0 l
0 -76.67 l
-12.60 0 l
0 115.00 l
cp p3
/bg { 0.5647 1 0.4353 srgb } def
0.5647 1 0.4353 srgb
np
 375.69 231.67 m
0.25 0 l
0.26 0 l
0.26 0 l
0.26 0 l
0.25 0 l
0.26 0 l
0.26 0 l
0.25 0 l
0.26 0 l
0.26 0 l
0.26 0 l
0.25 0 l
0.26 0 l
0.26 0 l
0.25 0 l
0.26 0 l
0.26 0 l
0.25 0 l
0.26 0 l
0.26 0 l
0.26 0 l
0.25 0 l
0 -76.67 l
-5.65 0 l
0 76.67 l
cp p3
np
 400.11 231.67 m
0.26 0 l
0.25 0 l
0.26 0 l
0.26 0 l
0.25 0 l
0.26 0 l
0.26 0 l
0.25 0 l
0.26 0 l
0.26 0 l
0.26 0 l
0.25 0 l
0.26 0 l
0.26 0 l
0.25 0 l
0.26 0 l
0.26 0 l
0.26 0 l
0.25 0 l
0.26 0 l
0.26 0 l
0.25 0 l
0.26 0 l
0.26 0 l
0.26 0 l
0.25 0 l
0.26 0 l
0.26 0 l
0.25 0 l
0.26 0 l
0.26 0 l
0.25 0 l
0.26 0 l
0.26 0 l
0.26 0 l
0.25 0 l
0.26 0 l
0.26 0 l
0 -76.67 l
-9.77 0 l
0 76.67 l
cp p3
/bg { 0.6392 1 0.3608 srgb } def
0.6392 1 0.3608 srgb
np
 396.51 231.67 m
0.26 0 l
0.25 0 l
0.26 0 l
0.26 0 l
0.25 0 l
0.26 0 l
0.26 0 l
0.26 0 l
0.25 0 l
0.26 0 l
0.26 0 l
0.25 0 l
0.26 0 l
0.26 0 l
0.26 0 l
0.25 0 l
0.26 0 l
0.26 0 l
0.25 0 l
0.26 0 l
0.26 0 l
0.25 0 l
0.26 0 l
0.26 0 l
0.26 0 l
0.25 0 l
0.26 0 l
0.26 0 l
0.25 0 l
0.26 0 l
0.26 0 l
0.26 0 l
0.25 0 l
0.26 0 l
0.26 0 l
0.25 0 l
0.26 0 l
0.26 0 l
0.26 0 l
0.25 0 l
0.26 0 l
0.26 0 l
0.25 0 l
0.26 0 l
0.26 0 l
0.25 0 l
0.26 0 l
0.26 0 l
0.26 0 l
0.25 0 l
0.26 0 l
0.26 0 l
0.25 0 l
0.26 0 l
0.26 0 l
0.26 0 l
0.25 0 l
0.26 0 l
0.26 0 l
0.25 0 l
0.26 0 l
0.26 0 l
0.25 0 l
0.26 0 l
0.26 0 l
0.26 0 l
0.25 0 l
0.26 0 l
0 -76.67 l
-17.48 0 l
0 76.67 l
cp p3
np
 507.56 231.67 m
0.26 0 l
0.25 0 l
0.26 0 l
0.26 0 l
0.26 0 l
0.25 0 l
0.26 0 l
0.26 0 l
0.25 0 l
0.26 0 l
0.26 0 l
0.26 0 l
0.25 0 l
0.26 0 l
0.26 0 l
0.25 0 l
0.26 0 l
0.26 0 l
0.25 0 l
0.26 0 l
0.26 0 l
0.26 0 l
0.25 0 l
0.26 0 l
0.26 0 l
0.25 0 l
0.26 0 l
0.26 0 l
0.26 0 l
0.25 0 l
0.26 0 l
0.26 0 l
0.25 0 l
0.26 0 l
0.26 0 l
0.25 0 l
0.26 0 l
0.26 0 l
0.26 0 l
0.25 0 l
0.26 0 l
0.26 0 l
0.25 0 l
0.26 0 l
0.26 0 l
0.26 0 l
0.25 0 l
0.26 0 l
0.26 0 l
0.25 0 l
0.26 0 l
0.26 0 l
0.25 0 l
0.26 0 l
0.26 0 l
0.26 0 l
0.25 0 l
0.26 0 l
0.26 0 l
0.25 0 l
0.26 0 l
0.26 0 l
0.26 0 l
0.25 0 l
0.26 0 l
0.26 0 l
0.25 0 l
0.26 0 l
0.26 0 l
0.25 0 l
0.26 0 l
0.26 0 l
0.26 0 l
0.25 0 l
0.26 0 l
0.26 0 l
0.25 0 l
0.26 0 l
0.26 0 l
0.26 0 l
0.25 0 l
0.26 0 l
0.26 0 l
0.25 0 l
0.26 0 l
0.26 0 l
0.25 0 l
0.26 0 l
0.26 0 l
0.26 0 l
0.25 0 l
0.26 0 l
0.26 0 l
0.25 0 l
0.26 0 l
0.26 0 l
0.26 0 l
0.25 0 l
0.26 0 l
533.27 231.67 lineto
0.25 0 l
0.26 0 l
0.26 0 l
0.25 0 l
0.26 0 l
0.26 0 l
0.26 0 l
0.25 0 l
0.26 0 l
0.26 0 l
0.25 0 l
0.26 0 l
0.26 0 l
0.26 0 l
0.25 0 l
0.26 0 l
0.26 0 l
0.25 0 l
0.26 0 l
0.26 0 l
0.25 0 l
0.26 0 l
0.26 0 l
0.26 0 l
0.25 0 l
0.26 0 l
0.26 0 l
0 -76.67 l
-32.65 0 l
0 76.67 l
cp p3
/bg { 0.7176 1 0.2824 srgb } def
0.7176 1 0.2824 srgb
np
 369.00 231.67 m
0.26 0 l
0.26 0 l
0.26 0 l
0.25 0 l
0.26 0 l
0.26 0 l
0.25 0 l
0.26 0 l
0.26 0 l
0.25 0 l
0.26 0 l
0.26 0 l
0.26 0 l
0.25 0 l
0.26 0 l
0.26 0 l
0.25 0 l
0.26 0 l
0.26 0 l
0.26 0 l
0.25 0 l
0.26 0 l
0.26 0 l
0.25 0 l
0.26 0 l
0.26 0 l
0.25 0 l
0.26 0 l
0.26 0 l
0.26 0 l
0.25 0 l
0.26 0 l
0.26 0 l
0.25 0 l
0.26 0 l
0.26 0 l
0.26 0 l
0.25 0 l
0.26 0 l
0.26 0 l
0.25 0 l
0.26 0 l
0.26 0 l
0.25 0 l
0 -76.67 l
-11.31 0 l
0 76.67 l
cp p3
np
 513.47 231.67 m
0.26 0 l
0.26 0 l
0.25 0 l
0.26 0 l
0.26 0 l
0.26 0 l
0.25 0 l
0.26 0 l
0.26 0 l
0.25 0 l
0.26 0 l
0.26 0 l
0.25 0 l
0.26 0 l
0.26 0 l
0.26 0 l
0.25 0 l
0.26 0 l
0.26 0 l
0.25 0 l
0.26 0 l
0.26 0 l
0.26 0 l
0.25 0 l
0.26 0 l
0.26 0 l
0.25 0 l
0.26 0 l
0.26 0 l
0.25 0 l
0.26 0 l
0.26 0 l
0.26 0 l
0.25 0 l
0.26 0 l
0.26 0 l
0.25 0 l
0.26 0 l
0.26 0 l
0.26 0 l
0.25 0 l
0.26 0 l
0.26 0 l
0.25 0 l
0.26 0 l
0.26 0 l
0.25 0 l
0.26 0 l
0.26 0 l
0.26 0 l
0.25 0 l
0.26 0 l
0.26 0 l
0.25 0 l
0.26 0 l
0.26 0 l
0.26 0 l
0.25 0 l
0.26 0 l
0.26 0 l
0.25 0 l
0.26 0 l
0.26 0 l
0.25 0 l
0.26 0 l
0.26 0 l
0.26 0 l
0.25 0 l
0.26 0 l
0.26 0 l
0.25 0 l
0.26 0 l
0.26 0 l
0.26 0 l
0.25 0 l
0.26 0 l
0.26 0 l
0.25 0 l
0.26 0 l
0.26 0 l
0.25 0 l
0.26 0 l
0.26 0 l
0.26 0 l
0.25 0 l
0.26 0 l
0.26 0 l
0.25 0 l
0.26 0 l
0.26 0 l
0.26 0 l
0.25 0 l
0.26 0 l
0.26 0 l
0.25 0 l
0.26 0 l
0.26 0 l
0.25 0 l
0.26 0 l
539.18 231.67 lineto
0.26 0 l
0.25 0 l
0.26 0 l
0.26 0 l
0 -76.67 l
-26.74 0 l
0 76.67 l
cp p3
/bg { 1 0.6980 0 srgb } def
1 0.6980 0 srgb
np
 353.84 346.67 m
0.25 0 l
0.26 0 l
0.26 0 l
0.26 0 l
0.25 0 l
0.26 0 l
0.26 0 l
0.25 0 l
0.26 0 l
0.26 0 l
0.25 0 l
0.26 0 l
0.26 0 l
0.26 0 l
0.25 0 l
0.26 0 l
0.26 0 l
0.25 0 l
0.26 0 l
0.26 0 l
0.26 0 l
0.25 0 l
0.26 0 l
0.26 0 l
0.25 0 l
0.26 0 l
0.26 0 l
0.26 0 l
0.25 0 l
0.26 0 l
0.26 0 l
0.25 0 l
0.26 0 l
0.26 0 l
0.25 0 l
0.26 0 l
0.26 0 l
0.26 0 l
0.25 0 l
0.26 0 l
0.26 0 l
0.25 0 l
0.26 0 l
0.26 0 l
0.26 0 l
0.25 0 l
0.26 0 l
0.26 -76.67 l
0.25 0 l
0.26 0 l
0.26 0 l
0.25 0 l
0.26 0 l
0.26 0 l
0.26 0 l
0.25 0 l
0.26 0 l
0.26 0 l
0.25 0 l
0.26 0 l
0.26 0 l
0.26 0 l
0.25 0 l
0.26 0 l
0.26 0 l
0.25 0 l
0.26 0 l
0.26 0 l
0.25 0 l
0.26 0 l
0.26 0 l
0.26 0 l
0.25 0 l
0.26 0 l
0.26 0 l
0.25 0 l
0.26 0 l
0.26 0 l
0.26 0 l
0.25 0 l
0.26 0 l
0.26 0 l
0.25 0 l
0.26 0 l
0.26 0 l
0.25 0 l
0.26 0 l
0.26 0 l
0.26 0 l
0.25 0 l
0.26 0 l
0.26 0 l
0.25 0 l
0.26 0 l
0.26 0 l
0.26 0 l
0.25 0 l
0.26 0 l
0.26 0 l
379.54 270.00 lineto
0.26 0 l
0.26 0 l
0.25 -38.33 l
0.26 0 l
0.26 0 l
0.26 0 l
0.25 0 l
0.26 0 l
0.26 0 l
0.25 0 l
0.26 0 l
0 -76.67 l
-28.53 0 l
0 191.67 l
cp p3
/bg { 1 0.6510 0 srgb } def
1 0.6510 0 srgb
np
 353.84 346.67 m
0.25 0 l
0.26 0 l
0.26 0 l
0.26 0 l
0.25 0 l
0.26 0 l
0.26 0 l
0.25 0 l
0.26 0 l
0.26 0 l
0.25 0 l
0.26 0 l
0.26 0 l
0.26 0 l
0.25 0 l
0.26 0 l
0.26 0 l
0.25 0 l
0.26 0 l
0.26 0 l
0.26 0 l
0.25 0 l
0.26 0 l
0.26 0 l
0.25 0 l
0.26 0 l
0.26 0 l
0.26 0 l
0.25 0 l
0.26 0 l
0.26 0 l
0.25 0 l
0.26 0 l
0.26 0 l
0.25 0 l
0.26 0 l
0.26 0 l
0.26 0 l
0.25 0 l
0.26 0 l
0.26 0 l
0.25 0 l
0.26 0 l
0.26 0 l
0.26 0 l
0.25 0 l
0.26 0 l
0.26 -76.67 l
0.25 0 l
0.26 0 l
0.26 0 l
0.25 0 l
0.26 0 l
0.26 0 l
0.26 0 l
0.25 0 l
0.26 0 l
0.26 0 l
0.25 0 l
0.26 0 l
0.26 0 l
0.26 0 l
0.25 0 l
0.26 0 l
0.26 0 l
0.25 0 l
0.26 0 l
0.26 0 l
0.25 0 l
0.26 0 l
0.26 0 l
0.26 0 l
0.25 0 l
0.26 0 l
0.26 0 l
0.25 0 l
0.26 0 l
0.26 0 l
0.26 0 l
0.25 0 l
0.26 0 l
0.26 0 l
0.25 0 l
0.26 0 l
0.26 0 l
0.25 0 l
0.26 0 l
0.26 0 l
0.26 0 l
0.25 0 l
0.26 0 l
0 -115.00 l
-23.39 0 l
0 191.67 l
cp p3
np
 548.69 231.67 m
0.26 0 l
0.25 0 l
0.26 0 l
0.26 0 l
0.26 0 l
0.25 0 l
0.26 0 l
0.26 0 l
0.25 0 l
0.26 0 l
0.26 0 l
0.26 0 l
0.25 0 l
0.26 0 l
0.26 0 l
0.25 0 l
0.26 0 l
0.26 0 l
0.25 0 l
0.26 0 l
0.26 0 l
0.26 0 l
0.25 0 l
0.26 0 l
0.26 0 l
0.25 0 l
0.26 0 l
0.26 0 l
0.26 0 l
0.25 0 l
0.26 0 l
0.26 0 l
0.25 0 l
0.26 0 l
0.26 0 l
0.25 0 l
0.26 0 l
0 -76.67 l
-9.51 0 l
0 76.67 l
cp p3
np
 350.24 231.67 m
0.26 0 l
0.25 0 l
0.26 0 l
0.26 38.33 l
0.25 0 l
0.26 0 l
0.26 0 l
0.25 0 l
0.26 0 l
0.26 0 l
0.26 0 l
0.25 0 l
0.26 0 l
0.26 0 l
0.25 0 l
0.26 0 l
0.26 0 l
0.26 0 l
0.25 0 l
0.26 0 l
0.26 0 l
0.25 0 l
0.26 0 l
0.26 0 l
0.25 0 l
0.26 0 l
0.26 0 l
0.26 0 l
0.25 0 l
0.26 0 l
0.26 0 l
0.25 0 l
0.26 0 l
0.26 0 l
0.26 0 l
0.25 0 l
0.26 0 l
0.26 0 l
0.25 0 l
0.26 0 l
0.26 0 l
0.26 0 l
0.25 0 l
0.26 0 l
0.26 0 l
0.25 0 l
0.26 0 l
0.26 0 l
0.25 0 l
0.26 0 l
0.26 0 l
0.26 0 l
0.25 0 l
0.26 0 l
0.26 0 l
0.25 0 l
0.26 0 l
0.26 0 l
0.26 0 l
0.25 0 l
0.26 0 l
0.26 0 l
0.25 -38.33 l
0.26 0 l
0.26 0 l
0.25 0 l
0.26 0 l
0.26 0 l
0.26 0 l
0.25 0 l
0.26 0 l
0.26 0 l
0.25 0 l
0.26 0 l
0.26 0 l
0.26 0 l
0.25 0 l
0.26 0 l
0.26 0 l
0.25 0 l
0.26 0 l
0.26 0 l
0.25 0 l
0.26 0 l
0.26 0 l
0.26 0 l
0.25 0 l
0.26 0 l
0.26 0 l
0.25 0 l
0.26 0 l
0.26 0 l
0.26 0 l
0.25 0 l
0.26 0 l
0.26 0 l
0.25 0 l
0.26 0 l
0.26 0 l
375.94 231.67 lineto
0.26 0 l
0.26 0 l
0.26 0 l
0.25 0 l
0.26 0 l
0 -76.67 l
-26.99 0 l
0 76.67 l
cp p3
/bg { 1 0.4510 0 srgb } def
1 0.4510 0 srgb
np
 353.84 346.67 m
0.25 0 l
0.26 0 l
0.26 0 l
0.26 0 l
0.25 0 l
0.26 0 l
0.26 0 l
0.25 0 l
0.26 0 l
0.26 0 l
0.25 0 l
0.26 0 l
0.26 0 l
0.26 0 l
0.25 0 l
0.26 0 l
0.26 0 l
0.25 0 l
0.26 0 l
0.26 0 l
0.26 0 l
0.25 0 l
0.26 0 l
0.26 0 l
0.25 0 l
0.26 0 l
0.26 0 l
0.26 0 l
0.25 0 l
0.26 0 l
0.26 0 l
0.25 0 l
0.26 0 l
0.26 0 l
0.25 0 l
0.26 0 l
0.26 0 l
0.26 -115.00 l
0.25 0 l
0.26 0 l
0.26 0 l
0.25 0 l
0.26 0 l
0.26 0 l
0.26 0 l
0.25 0 l
0.26 0 l
0.26 0 l
0.25 0 l
0.26 0 l
0.26 0 l
0.25 0 l
0.26 0 l
0.26 0 l
0.26 0 l
0.25 0 l
0.26 0 l
0.26 0 l
0.25 0 l
0.26 0 l
0.26 0 l
0.26 0 l
0.25 0 l
0.26 0 l
0.26 0 l
0.25 0 l
0.26 0 l
0.26 0 l
0.25 0 l
0.26 0 l
0.26 0 l
0.26 0 l
0.25 0 l
0.26 0 l
0.26 0 l
0.25 0 l
0.26 0 l
0.26 0 l
0.26 0 l
0.25 0 l
0.26 0 l
0.26 0 l
0.25 0 l
0.26 0 l
0.26 0 l
0.25 0 l
0.26 0 l
0.26 0 l
0.26 0 l
0.25 0 l
0.26 0 l
0.26 0 l
0.25 0 l
0.26 0 l
0.26 0 l
0.26 0 l
0.25 0 l
0.26 0 l
0.26 0 l
379.54 231.67 lineto
0.26 0 l
0.26 0 l
0.25 0 l
0.26 0 l
0.26 0 l
0.26 0 l
0.25 0 l
0.26 0 l
0.26 0 l
0.25 0 l
0.26 0 l
0.26 0 l
0.26 0 l
0.25 0 l
0.26 0 l
0.26 0 l
0.25 0 l
0.26 0 l
0.26 0 l
0.25 0 l
0.26 0 l
0.26 0 l
0.26 0 l
0.25 0 l
0.26 0 l
0.26 0 l
0.25 0 l
0.26 0 l
0.26 0 l
0.26 0 l
0.25 0 l
0.26 0 l
0.26 0 l
0.25 0 l
0.26 0 l
0.26 0 l
0.25 0 l
0.26 0 l
0.26 0 l
0.26 0 l
0.25 0 l
0.26 0 l
0.26 0 l
0.25 0 l
0.26 0 l
0.26 0 l
0.26 0 l
0.25 0 l
0.26 0 l
0.26 0 l
0.25 0 l
0.26 0 l
0.26 0 l
0.25 0 l
0.26 0 l
0.26 0 l
0.26 0 l
0.25 0 l
0.26 0 l
0.26 0 l
0.25 0 l
0.26 0 l
0.26 0 l
0.26 0 l
0.25 0 l
0.26 0 l
0.26 0 l
0.25 0 l
0.26 0 l
0.26 0 l
0.25 0 l
0.26 0 l
0.26 0 l
0.26 0 l
0.25 0 l
0.26 0 l
0.26 0 l
0.25 0 l
0.26 0 l
0.26 0 l
0.26 0 l
0.25 0 l
0.26 0 l
0.26 0 l
0.25 0 l
0.26 0 l
0.26 0 l
0.25 0 l
0.26 0 l
0.26 0 l
0.26 0 l
0.25 0 l
0.26 0 l
0.26 0 l
0.25 0 l
0.26 0 l
0.26 0 l
0.26 0 l
0.25 0 l
405.25 231.67 lineto
0.26 0 l
0.25 0 l
0.26 0 l
0.26 0 l
0.26 0 l
0.25 0 l
0.26 0 l
0.26 0 l
0.25 0 l
0.26 0 l
0.26 0 l
0.25 0 l
0.26 0 l
0.26 0 l
0.26 0 l
0.25 0 l
0.26 0 l
0.26 0 l
0.25 0 l
0.26 0 l
0.26 0 l
0.26 0 l
0.25 0 l
0.26 0 l
0.26 0 l
0.25 0 l
0 -76.67 l
-58.09 0 l
0 191.67 l
cp p3
np
 350.24 231.67 m
0.26 0 l
0.25 0 l
0.26 0 l
0.26 38.33 l
0.25 38.33 l
0.26 38.34 l
0.26 0 l
0.25 0 l
0.26 0 l
0.26 0 l
0.26 0 l
0.25 0 l
0.26 0 l
0.26 0 l
0.25 0 l
0.26 0 l
0.26 0 l
0.26 0 l
0.25 0 l
0.26 0 l
0.26 0 l
0.25 0 l
0.26 0 l
0.26 0 l
0.25 0 l
0.26 0 l
0.26 0 l
0.26 0 l
0.25 0 l
0.26 0 l
0.26 0 l
0.25 0 l
0.26 0 l
0.26 0 l
0.26 0 l
0.25 0 l
0.26 0 l
0.26 0 l
0.25 0 l
0.26 0 l
0.26 0 l
0.26 0 l
0.25 0 l
0.26 0 l
0.26 0 l
0.25 0 l
0.26 0 l
0.26 0 l
0.25 0 l
0.26 0 l
0.26 0 l
0.26 -115.00 l
0.25 0 l
0.26 0 l
0.26 0 l
0.25 0 l
0.26 0 l
0.26 0 l
0.26 0 l
0.25 0 l
0.26 0 l
0.26 0 l
0.25 0 l
0.26 0 l
0.26 0 l
0.25 0 l
0.26 0 l
0.26 0 l
0.26 0 l
0.25 0 l
0.26 0 l
0.26 0 l
0.25 0 l
0.26 0 l
0.26 0 l
0.26 0 l
0.25 0 l
0.26 0 l
0.26 0 l
0.25 0 l
0.26 0 l
0.26 0 l
0.25 0 l
0.26 0 l
0.26 0 l
0.26 0 l
0.25 0 l
0.26 0 l
0.26 0 l
0.25 0 l
0.26 0 l
0.26 0 l
0.26 0 l
0.25 0 l
0.26 0 l
0.26 0 l
0.25 0 l
0.26 38.33 l
0.26 0 l
375.94 270.00 lineto
0.26 0 l
0.26 0 l
0.26 0 l
0.25 0 l
0.26 0 l
0.26 0 l
0.25 0 l
0.26 0 l
0.26 0 l
0.26 0 l
0.25 0 l
0.26 0 l
0.26 0 l
0.25 0 l
0.26 0 l
0.26 0 l
0.25 0 l
0.26 0 l
0.26 0 l
0.26 0 l
0.25 0 l
0.26 0 l
0.26 0 l
0.25 0 l
0.26 0 l
0.26 0 l
0.26 0 l
0.25 0 l
0.26 0 l
0.26 0 l
0.25 0 l
0.26 0 l
0.26 0 l
0.25 0 l
0.26 0 l
0.26 0 l
0.26 0 l
0.25 0 l
0.26 0 l
0.26 0 l
0.25 0 l
0.26 0 l
0.26 0 l
0.26 76.67 l
0.25 0 l
0.26 -38.34 l
0.26 0 l
0.25 0 l
0.26 0 l
0.26 0 l
0.25 0 l
0.26 0 l
0.26 0 l
0.26 0 l
0.25 0 l
0.26 0 l
0.26 0 l
0.25 0 l
0.26 0 l
0.26 0 l
0.26 0 l
0.25 0 l
0.26 0 l
0.26 0 l
0.25 0 l
0.26 0 l
0.26 0 l
0.25 0 l
0.26 0 l
0.26 0 l
0.26 0 l
0.25 0 l
0.26 0 l
0.26 0 l
0.25 0 l
0.26 0 l
0.26 0 l
0.26 0 l
0.25 0 l
0.26 0 l
0.26 0 l
0.25 0 l
0.26 0 l
0.26 0 l
0.25 0 l
0.26 0 l
0.26 0 l
0.26 0 l
0.25 0 l
0.26 0 l
0.26 0 l
0.25 0 l
0.26 0 l
0.26 0 l
0.26 0 l
0.25 0 l
0.26 0 l
0.26 0 l
0.25 0 l
401.65 308.33 lineto
0.26 0 l
0.25 0 l
0.26 0 l
0.26 0 l
0.26 0 l
0.25 0 l
0.26 -76.66 l
0.26 0 l
0.25 0 l
0.26 0 l
0.26 0 l
0.26 0 l
0.25 0 l
0.26 0 l
0.26 0 l
0.25 0 l
0.26 0 l
0.26 0 l
0.26 0 l
0.25 0 l
0.26 0 l
0.26 0 l
0.25 0 l
0.26 0 l
0.26 0 l
0.25 0 l
0.26 0 l
0.26 0 l
0.26 0 l
0.25 0 l
0.26 0 l
0.26 0 l
0.25 0 l
0.26 0 l
0.26 0 l
0.26 0 l
0.25 0 l
0.26 0 l
0.26 0 l
0.25 0 l
0 -76.67 l
-61.69 0 l
0 76.67 l
cp p3
/bg { 1 0.4000 0 srgb } def
1 0.4000 0 srgb
np
 328.39 231.67 m
0.26 0 l
0.25 0 l
0.26 0 l
0.26 0 l
0.25 0 l
0.26 0 l
0.26 0 l
0.25 0 l
0.26 0 l
0.26 0 l
0.26 0 l
0.25 0 l
0.26 0 l
0.26 0 l
0.25 0 l
0.26 38.33 l
0.26 0 l
0.26 0 l
0.25 0 l
0.26 0 l
0.26 0 l
0.25 0 l
0.26 0 l
0.26 0 l
0.25 0 l
0.26 38.33 l
0.26 0 l
0.26 0 l
0.25 0 l
0.26 0 l
0.26 0 l
0.25 0 l
0.26 0 l
0.26 0 l
0.26 0 l
0.25 0 l
0.26 0 l
0.26 0 l
0.25 0 l
0.26 0 l
0.26 0 l
0.25 0 l
0.26 0 l
0.26 0 l
0.26 0 l
0.25 0 l
0.26 0 l
0.26 0 l
0.25 0 l
0.26 0 l
0.26 0 l
0.26 0 l
0.25 0 l
0.26 0 l
0.26 0 l
0.25 0 l
0.26 0 l
0.26 0 l
0.25 0 l
0.26 0 l
0.26 0 l
0.26 0 l
0.25 0 l
0.26 0 l
0.26 0 l
0.25 0 l
0.26 0 l
0.26 0 l
0.26 0 l
0.25 0 l
0.26 0 l
0.26 0 l
0.25 0 l
0.26 0 l
0.26 38.34 l
0.25 0 l
0.26 0 l
0.26 0 l
0.26 0 l
0.25 0 l
0.26 0 l
0.26 0 l
0.25 0 l
0.26 0 l
0.26 0 l
0.26 0 l
0.25 0 l
0.26 0 l
0.26 0 l
0.25 0 l
0.26 0 l
0.26 0 l
0.25 0 l
0.26 0 l
0.26 0 l
0.26 0 l
0.25 0 l
0.26 0 l
0.26 0 l
354.09 346.67 lineto
0.26 0 l
0.26 0 l
0.26 0 l
0.25 0 l
0.26 0 l
0.26 0 l
0.25 0 l
0.26 0 l
0.26 0 l
0.25 0 l
0.26 0 l
0.26 0 l
0.26 0 l
0.25 0 l
0.26 0 l
0.26 0 l
0.25 0 l
0.26 0 l
0.26 0 l
0.26 0 l
0.25 -38.34 l
0.26 0 l
0.26 0 l
0.25 0 l
0.26 0 l
0.26 0 l
0.26 0 l
0.25 0 l
0.26 0 l
0.26 0 l
0.25 0 l
0.26 0 l
0.26 0 l
0.25 0 l
0.26 0 l
0.26 0 l
0 -153.33 l
-34.96 0 l
0 76.67 l
cp p3
np
 387.26 231.67 m
0.25 0 l
0.26 0 l
0.26 0 l
0.25 0 l
0.26 0 l
0.26 0 l
0.25 0 l
0.26 0 l
0.26 0 l
0.26 0 l
0.25 0 l
0.26 0 l
0.26 0 l
0.25 0 l
0.26 0 l
0.26 0 l
0.26 0 l
0.25 0 l
0.26 0 l
0.26 0 l
0.25 0 l
0.26 0 l
0.26 0 l
0.25 0 l
0.26 0 l
0.26 0 l
0.26 0 l
0.25 0 l
0.26 0 l
0.26 0 l
0.25 0 l
0.26 0 l
0.26 0 l
0.26 0 l
0.25 0 l
0.26 0 l
0.26 0 l
0.25 0 l
0.26 0 l
0.26 0 l
0.25 0 l
0.26 0 l
0.26 0 l
0.26 0 l
0.25 0 l
0.26 0 l
0.26 0 l
0.25 0 l
0.26 0 l
0.26 0 l
0.26 0 l
0.25 0 l
0.26 0 l
0.26 0 l
0.25 0 l
0.26 0 l
0.26 0 l
0.25 0 l
0.26 0 l
0.26 0 l
0.26 0 l
0.25 0 l
0.26 0 l
0.26 0 l
0.25 0 l
0.26 0 l
0.26 0 l
0.26 0 l
0.25 0 l
0.26 0 l
0.26 0 l
0.25 0 l
0.26 0 l
0.26 0 l
0.26 0 l
0.25 0 l
0.26 0 l
0.26 0 l
0.25 0 l
0.26 0 l
0.26 0 l
0.25 0 l
0.26 0 l
0.26 0 l
0.26 0 l
0.25 0 l
0.26 0 l
0.26 0 l
0.25 0 l
0.26 0 l
0.26 0 l
0.26 0 l
0.25 0 l
0.26 0 l
0.26 0 l
0.25 0 l
0.26 0 l
0.26 0 l
0.25 0 l
412.96 231.67 lineto
0.26 0 l
0.26 0 l
0.25 0 l
0.26 0 l
0.26 0 l
0.25 0 l
0.26 0 l
0.26 0 l
0.26 0 l
0.25 0 l
0.26 0 l
0.26 0 l
0.25 0 l
0.26 0 l
0.26 0 l
0.25 0 l
0.26 0 l
0.26 0 l
0.26 0 l
0.25 0 l
0.26 0 l
0.26 0 l
0.25 0 l
0.26 0 l
0.26 0 l
0.26 0 l
0.25 0 l
0.26 0 l
0.26 0 l
0.25 0 l
0.26 0 l
0.26 0 l
0.25 0 l
0.26 0 l
0 -76.67 l
-34.44 0 l
0 76.67 l
cp p3
/bg { 0.8510 0 0 srgb } def
0.8510 0 0 srgb
np
 353.84 346.67 m
0.25 0 l
0.26 0 l
0.26 0 l
0.26 0 l
0.25 0 l
0.26 0 l
0.26 0 l
0.25 0 l
0.26 0 l
0.26 0 l
0.25 0 l
0.26 0 l
0.26 0 l
0.26 0 l
0.25 0 l
0.26 -38.34 l
0.26 -76.66 l
0 -76.67 l
-4.37 0 l
0 191.67 l
cp p3
/bg { 0.8235 0 0 srgb } def
0.8235 0 0 srgb
np
 328.39 231.67 m
0.26 0 l
0.25 0 l
0.26 0 l
0.26 0 l
0.25 0 l
0.26 0 l
0.26 0 l
0.25 0 l
0.26 0 l
0.26 0 l
0.26 0 l
0.25 0 l
0.26 0 l
0.26 0 l
0.25 0 l
0.26 0 l
0.26 0 l
0.26 0 l
0.25 0 l
0.26 0 l
0.26 0 l
0.25 0 l
0.26 0 l
0.26 0 l
0.25 0 l
0.26 0 l
0.26 0 l
0.26 0 l
0.25 0 l
0.26 0 l
0.26 0 l
0.25 0 l
0.26 0 l
0.26 0 l
0.26 0 l
0.25 0 l
0.26 0 l
0.26 0 l
0.25 0 l
0.26 0 l
0.26 0 l
0.25 0 l
0.26 0 l
0.26 0 l
0.26 0 l
0.25 0 l
0.26 0 l
0.26 0 l
0.25 0 l
0.26 0 l
0.26 0 l
0.26 0 l
0.25 0 l
0.26 0 l
0.26 0 l
0.25 0 l
0.26 0 l
0.26 0 l
0.25 0 l
0.26 0 l
0.26 0 l
0.26 0 l
0.25 0 l
0.26 0 l
0.26 0 l
0.25 0 l
0.26 0 l
0.26 0 l
0.26 0 l
0.25 0 l
0.26 0 l
0.26 0 l
0.25 0 l
0.26 0 l
0.26 0 l
0.25 0 l
0.26 0 l
0.26 0 l
0.26 0 l
0.25 0 l
0.26 0 l
0.26 0 l
0.25 0 l
0.26 0 l
0.26 0 l
0.26 0 l
0.25 0 l
0.26 0 l
0.26 0 l
0.25 0 l
0.26 0 l
0.26 0 l
0.25 0 l
0.26 0 l
0.26 0 l
0.26 0 l
0.25 0 l
0.26 0 l
0.26 0 l
354.09 231.67 lineto
0.26 0 l
0.26 0 l
0.26 0 l
0.25 0 l
0.26 0 l
0.26 0 l
0.25 0 l
0.26 0 l
0.26 0 l
0.25 0 l
0.26 0 l
0.26 0 l
0.26 0 l
0.25 0 l
0.26 0 l
0.26 0 l
0.25 0 l
0.26 0 l
0.26 0 l
0 -76.67 l
-30.59 0 l
0 76.67 l
cp p3
np
 394.71 231.67 m
0.26 0 l
0.25 0 l
0.26 38.33 l
0.26 0 l
0.26 0 l
0.25 0 l
0.26 0 l
0.26 0 l
0.25 0 l
0.26 0 l
0.26 0 l
0.25 0 l
0.26 0 l
0.26 0 l
0.26 0 l
0.25 0 l
0.26 0 l
0.26 0 l
0.25 0 l
0.26 0 l
0.26 0 l
0.26 0 l
0.25 0 l
0.26 0 l
0.26 0 l
0.25 0 l
0.26 0 l
0.26 0 l
0.25 0 l
0.26 0 l
0.26 0 l
0.26 0 l
0.25 0 l
0.26 0 l
0.26 0 l
0.25 0 l
0.26 0 l
0.26 0 l
0.26 0 l
0.25 0 l
0.26 0 l
0.26 0 l
0.25 0 l
0.26 0 l
0.26 0 l
0.26 0 l
0.25 0 l
0.26 0 l
0.26 0 l
0.25 0 l
0.26 0 l
0.26 0 l
0.25 0 l
0.26 0 l
0.26 0 l
0.26 0 l
0.25 0 l
0.26 0 l
0.26 0 l
0.25 0 l
0.26 0 l
0.26 0 l
0.26 0 l
0.25 0 l
0.26 0 l
0.26 0 l
0.25 0 l
0.26 0 l
0.26 0 l
0.25 0 l
0.26 0 l
0.26 0 l
0.26 0 l
0.25 0 l
0.26 0 l
0.26 0 l
0.25 0 l
0.26 0 l
0.26 0 l
0.26 0 l
0.25 0 l
0.26 0 l
0.26 0 l
0.25 0 l
0.26 0 l
0.26 0 l
0.25 0 l
0.26 0 l
0.26 0 l
0.26 0 l
0.25 0 l
0.26 0 l
0.26 0 l
0.25 0 l
0.26 0 l
0.26 0 l
0.26 0 l
0.25 0 l
0.26 0 l
420.42 270.00 lineto
0.25 0 l
0.26 0 l
0.26 0 l
0.25 0 l
0.26 0 l
0.26 -38.33 l
0.26 0 l
0.25 0 l
0.26 0 l
0.26 0 l
0.25 0 l
0.26 0 l
0.26 0 l
0.26 0 l
0.25 0 l
0.26 0 l
0.26 0 l
0.25 0 l
0.26 0 l
0.26 0 l
0.25 0 l
0 -76.67 l
-31.10 0 l
0 76.67 l
cp p3
/bg { 0.8000 0 0 srgb } def
0.8000 0 0 srgb
np
 236.62 231.67 m
0.25 0 l
0.26 0 l
0.26 0 l
0.26 0 l
0.25 0 l
0.26 0 l
0.26 0 l
0.25 0 l
0.26 0 l
0.26 0 l
0.25 0 l
0.26 0 l
0.26 0 l
0.26 0 l
0.25 0 l
0.26 0 l
0.26 0 l
0.25 0 l
0.26 0 l
0.26 0 l
0.26 0 l
0.25 0 l
0.26 0 l
0.26 0 l
0.25 0 l
0.26 0 l
0.26 0 l
0.25 0 l
0.26 0 l
0.26 0 l
0.26 0 l
0.25 0 l
0.26 0 l
0.26 0 l
0.25 0 l
0.26 0 l
0.26 0 l
0 -76.67 l
-9.51 0 l
0 76.67 l
cp p3
np
 335.33 231.67 m
0.26 0 l
0.25 0 l
0.26 0 l
0.26 38.33 l
0.25 0 l
0.26 0 l
0.26 0 l
0.26 0 l
0.25 0 l
0.26 0 l
0.26 0 l
0.25 0 l
0.26 0 l
0.26 0 l
0.25 0 l
0.26 0 l
0.26 0 l
0.26 0 l
0.25 0 l
0.26 0 l
0.26 0 l
0.25 0 l
0.26 0 l
0.26 0 l
0.26 0 l
0.25 0 l
0.26 0 l
0.26 0 l
0.25 0 l
0.26 0 l
0.26 0 l
0.25 0 l
0.26 0 l
0.26 0 l
0.26 0 l
0.25 0 l
0.26 0 l
0.26 0 l
0.25 0 l
0.26 0 l
0.26 0 l
0.26 0 l
0.25 0 l
0.26 0 l
0.26 0 l
0.25 0 l
0.26 0 l
0.26 0 l
0.25 0 l
0.26 0 l
0.26 0 l
0.26 0 l
0.25 38.33 l
0.26 0 l
0.26 0 l
0.25 0 l
0.26 0 l
0.26 0 l
0.26 0 l
0.25 0 l
0.26 0 l
0.26 0 l
0.25 0 l
0.26 0 l
0.26 0 l
0.25 0 l
0.26 0 l
0.26 0 l
0.26 0 l
0.25 0 l
0.26 0 l
0.26 0 l
0.25 0 l
0.26 0 l
0.26 0 l
0.26 0 l
0.25 0 l
0 -153.33 l
-19.79 0 l
0 76.67 l
cp p3
/bg { 0.7765 0 0 srgb } def
0.7765 0 0 srgb
np
 332.50 231.67 m
0.26 0 l
0.26 0 l
0.25 0 l
0.26 0 l
0.26 0 l
0.25 0 l
0.26 0 l
0.26 0 l
0.25 0 l
0.26 0 l
0.26 0 l
0.26 0 l
0.25 0 l
0.26 0 l
0.26 0 l
0.25 0 l
0.26 0 l
0.26 0 l
0.26 0 l
0.25 0 l
0.26 0 l
0.26 0 l
0.25 0 l
0.26 0 l
0.26 0 l
0.25 0 l
0.26 0 l
0.26 0 l
0.26 0 l
0.25 0 l
0.26 0 l
0.26 0 l
0.25 0 l
0.26 0 l
0.26 0 l
0.26 0 l
0.25 0 l
0.26 0 l
0.26 0 l
0.25 0 l
0.26 0 l
0.26 0 l
0.25 0 l
0.26 0 l
0.26 0 l
0.26 0 l
0.25 0 l
0.26 0 l
0.26 0 l
0.25 0 l
0.26 0 l
0.26 0 l
0.26 0 l
0.25 0 l
0.26 0 l
0.26 0 l
0.25 0 l
0.26 0 l
0.26 0 l
0.25 0 l
0.26 0 l
0.26 0 l
0.26 0 l
0.25 0 l
0.26 0 l
0.26 0 l
0.25 0 l
0.26 0 l
0.26 0 l
0.26 0 l
0.25 0 l
0.26 0 l
0.26 0 l
0.25 0 l
0.26 0 l
0.26 0 l
0.25 0 l
0.26 0 l
0.26 0 l
0.26 0 l
0.25 0 l
0 -76.67 l
-20.82 0 l
0 76.67 l
cp p3
np
 633.78 231.67 m
0.26 0 l
0.25 0 l
0.26 0 l
0.26 0 l
0.25 0 l
0.26 0 l
0.26 0 l
0.25 0 l
0.26 0 l
0.26 0 l
0.26 0 l
0.25 0 l
0.26 0 l
0.26 0 l
0.25 0 l
0.26 0 l
0.26 0 l
0.26 0 l
0.25 0 l
0.26 0 l
0.26 0 l
0.25 0 l
0.26 0 l
0.26 0 l
0.25 0 l
0.26 0 l
0.26 0 l
0.26 0 l
0.25 0 l
0.26 0 l
0.26 0 l
0.25 0 l
0.26 0 l
0.26 0 l
0.26 0 l
0.25 0 l
0.26 0 l
0.26 0 l
0.25 0 l
0.26 0 l
0.26 0 l
0.25 0 l
0.26 0 l
0.26 0 l
0.26 0 l
0.25 0 l
0.26 0 l
0.26 0 l
0.25 0 l
0.26 0 l
0.26 0 l
0.26 0 l
0.25 0 l
0.26 0 l
0 -76.67 l
-13.88 0 l
0 76.67 l
cp p3
0.00 0.00 720.00 540.00 cl
0 0 0 srgb
0.75 setlinewidth
[] 0 setdash
1 setlinecap
1 setlinejoin
10.00 setmiterlimit
np
54.00 187.20 m
655.20 0 l
o
np
74.67 187.20 m
0 -7.20 l
o
np
203.20 187.20 m
0 -7.20 l
o
np
331.73 187.20 m
0 -7.20 l
o
np
460.26 187.20 m
0 -7.20 l
o
np
588.79 187.20 m
0 -7.20 l
o
/Font1 findfont 12 s
74.67 168.48 (3038500) .5 0 t
203.20 168.48 (3039000) .5 0 t
331.73 168.48 (3039500) .5 0 t
460.26 168.48 (3040000) .5 0 t
588.79 168.48 (3040500) .5 0 t
np
54.00 193.33 m
0 153.34 l
o
np
54.00 193.33 m
-7.20 0 l
o
np
54.00 231.67 m
-7.20 0 l
o
np
54.00 270.00 m
-7.20 0 l
o
np
54.00 308.33 m
-7.20 0 l
o
np
54.00 346.67 m
-7.20 0 l
o
43.92 193.33 (0) .5 90 t
43.92 231.67 (1) .5 90 t
43.92 270.00 (2) .5 90 t
43.92 308.33 (3) .5 90 t
43.92 346.67 (4) .5 90 t
54.00 187.20 709.20 352.80 cl
0 0 0 srgb
0.75 setlinewidth
[ 2.25 3.75] 0 setdash
1 setlinecap
1 setlinejoin
10.00 setmiterlimit
np
335.33 187.20 m
0 165.60 l
o
np
427.87 187.20 m
0 165.60 l
o
54.00 0.00 709.20 180.00 cl
0.00 0.00 720.00 180.00 cl
/Font1 findfont 12 s
0 0 0 srgb
22.32 90.00 (full CM) .5 90 t
54.00 0.00 709.20 180.00 cl
0.3333 1 0.6667 srgb
1.50 setlinewidth
[] 0 setdash
1 setlinecap
1 setlinejoin
10.00 setmiterlimit
np
428.39 99.92 m
-95.89 0 l
o
np
348.09 108.92 m
-15.59 -9.00 l
15.59 -9.00 l
o
np
424.57 99.92 m
7.63 0 l
o
np
428.39 96.10 m
0 7.64 l
o
0 0 1 srgb
np
433.53 149.52 m
-101.03 0 l
o
np
348.09 158.52 m
-15.59 -9.00 l
15.59 -9.00 l
o
np
429.71 149.52 m
7.63 0 l
o
np
433.53 145.71 m
0 7.63 l
o
0 0.6667 1 srgb
np
434.04 129.68 m
-92.03 0 l
o
np
357.60 138.68 m
-15.59 -9.00 l
15.59 -9.00 l
o
np
430.22 129.68 m
7.64 0 l
o
np
434.04 125.86 m
0 7.64 l
o
0 0.3333 1 srgb
np
434.04 139.60 m
-90.74 0 l
o
np
358.89 148.60 m
-15.59 -9.00 l
15.59 -9.00 l
o
np
430.22 139.60 m
7.64 0 l
o
np
434.04 135.78 m
0 7.64 l
o
1 0 0 srgb
np
434.04 30.48 m
-85.60 0 l
o
np
364.03 39.48 m
-15.59 -9.00 l
15.59 -9.00 l
o
np
430.22 30.48 m
7.64 0 l
o
np
434.04 26.66 m
0 7.63 l
o
0.00 0.00 720.00 540.00 cl
0 0 0 srgb
0.75 setlinewidth
[] 0 setdash
1 setlinecap
1 setlinejoin
10.00 setmiterlimit
np
68.40 30.48 m
0 128.96 l
o
np
68.40 30.48 m
4.32 0 l
o
np
68.40 40.40 m
4.32 0 l
o
np
68.40 50.32 m
4.32 0 l
o
np
68.40 60.24 m
4.32 0 l
o
np
68.40 70.16 m
4.32 0 l
o
np
68.40 80.08 m
4.32 0 l
o
np
68.40 90.00 m
4.32 0 l
o
np
68.40 99.92 m
4.32 0 l
o
np
68.40 109.84 m
4.32 0 l
o
np
68.40 119.76 m
4.32 0 l
o
np
68.40 129.68 m
4.32 0 l
o
np
68.40 139.60 m
4.32 0 l
o
np
68.40 149.52 m
4.32 0 l
o
np
68.40 159.44 m
4.32 0 l
o
/Font1 findfont 12 s
61.20 26.17 (Intron_gpI) 1 0 t
61.20 36.09 (IE3) 1 0 t
61.20 46.01 (IE2) 1 0 t
61.20 55.93 (IE1) 1 0 t
61.20 65.85 (IC3) 1 0 t
61.20 75.77 (IC2) 1 0 t
61.20 85.69 (IC1) 1 0 t
61.20 95.61 (IB4) 1 0 t
61.20 105.53 (IB3) 1 0 t
61.20 115.45 (IB2) 1 0 t
61.20 125.37 (IB1) 1 0 t
61.20 135.30 (IA3) 1 0 t
61.20 145.22 (IA2) 1 0 t
61.20 155.14 (IA1) 1 0 t
54.00 0.00 709.20 180.00 cl
0 0 0 srgb
0.75 setlinewidth
[ 2.25 3.75] 0 setdash
1 setlinecap
1 setlinejoin
10.00 setmiterlimit
np
335.33 0.00 m
0 180.00 l
o
np
427.87 0.00 m
0 180.00 l
o
ep
%%Trailer
%%Pages: 1
%%EOF
