%!PS-Adobe-3.0 EPSF-3.0
%%Creator: PS_dot.c,v 1.38 2007/02/02 15:18:13 ivo Exp $, ViennaRNA-2.0.7
%%CreationDate: Fri Nov  9 19:01:56 2012
%%Title: RNA Secondary Structure Plot
%%BoundingBox: 66 210 518 662
%%DocumentFonts: Helvetica
%%Pages: 1
%%EndComments

%Options: -d2 
% to switch off outline pairs of sequence comment or
% delete the appropriate line near the end of the file

%%BeginProlog
/RNAplot 100 dict def
RNAplot begin
/fsize  14 def
/outlinecolor {0.2 setgray} bind def
/paircolor    {0.2 setgray} bind def
/seqcolor     {0   setgray} bind def
/cshow  { dup stringwidth pop -2 div fsize -3 div rmoveto show} bind def
/min { 2 copy gt { exch } if pop } bind def
/max { 2 copy lt { exch } if pop } bind def
/arccoords { % i j arccoords
  % puts optimal x1 y1 x2 y2 coordinates used in bezier curves from i to j
  % onto the stack
  dup 3 -1 roll dup 4 -1 roll lt dup dup 5 2 roll {exch} if
  dup 3 -1 roll dup 3 -1 roll exch sub 1 sub dup
  4 -2 roll 5 -1 roll {exch} if 4 2 roll
  sequence length dup 2 div exch 3 1 roll lt 
  {exch 5 -1 roll pop 4 -2 roll exch 4 2 roll}
  { 4 2 roll 5 -1 roll dup 6 1 roll {exch} if
    4 -2 roll exch pop dup 3 -1 roll dup 4 1 roll
    exch add 4 -1 roll dup 5 1 roll sub 1 sub
    5 -1 roll not {4 -2 roll exch 4 2 roll} if
  }ifelse
   % compute the scalingfactor and prepare (1-sf) and sf*r
  2 mul exch cpr 3 1 roll div dup
  3 -1 roll mul exch 1 exch sub exch
   % compute the coordinates
  3 -1 roll 1 sub coor exch get aload pop % get coord for i
  4 -1 roll dup 5 1 roll mul 3 -1 roll dup 4 1 roll add exch % calculate y1
  4 -1 roll dup 5 1 roll mul 3 -1 roll dup 4 1 roll add exch % calculate x1
  5 -1 roll 1 sub coor exch get aload pop % get coord for j
  % duplicate j coord
  dup 3 -1 roll dup 4 1 roll exch 8 2 roll
  6 -1 roll dup 7 1 roll mul 5 -1 roll dup 6 1 roll add exch % calculate y2
  6 -1 roll mul 5 -1 roll add exch % calculate x2
  6 -2 roll % reorder
} bind def
/drawoutline {
  gsave outlinecolor newpath
  coor 0 get aload pop 0.8 0 360 arc % draw 5' circle of 1st sequence
  currentdict /cutpoint known        % check if cutpoint is defined
  {coor 0 cutpoint getinterval
   {aload pop lineto} forall         % draw outline of 1st sequence
   coor cutpoint 1 add get aload pop
   2 copy moveto 0.8 0 360 arc       % draw 5' circle of 2nd sequence
   coor cutpoint 1 add coor length cutpoint 1 add sub getinterval
   {aload pop lineto} forall}        % draw outline of 2nd sequence
  {coor {aload pop lineto} forall}   % draw outline as a whole
  ifelse
  stroke grestore
} bind def
/drawpairs {
  paircolor
  0.7 setlinewidth
  [9 3.01] 9 setdash
  newpath
  pairs {aload pop
      currentdict (cpr) known
      { exch dup
        coor  exch 1 sub get aload pop moveto
        exch arccoords curveto
      }
      { coor exch 1 sub get aload pop moveto
        coor exch 1 sub get aload pop lineto
      }ifelse
  } forall
  stroke
} bind def
% draw bases
/drawbases {
  [] 0 setdash
  seqcolor
  0
  coor {
    aload pop moveto
    dup sequence exch 1 getinterval cshow
    1 add
  } forall
  pop
} bind def

/init {
  /Helvetica findfont fsize scalefont setfont
  1 setlinejoin
  1 setlinecap
  0.8 setlinewidth
  72 216 translate
  % find the coordinate range
  /xmax -1000 def /xmin 10000 def
  /ymax -1000 def /ymin 10000 def
  coor {
      aload pop
      dup ymin lt {dup /ymin exch def} if
      dup ymax gt {/ymax exch def} {pop} ifelse
      dup xmin lt {dup /xmin exch def} if
      dup xmax gt {/xmax exch def} {pop} ifelse
  } forall
  /size {xmax xmin sub ymax ymin sub max} bind def
  72 6 mul size div dup scale
  size xmin sub xmax sub 2 div size ymin sub ymax sub 2 div
  translate
} bind def
end
%%EndProlog
RNAplot begin
% data start here
/sequence (\
1111111111111122222222222222333333344444444444444444444444444445555555555555555555555666666<<<<<>>>>>33333337777777777777777776666668888888888888888<<<<<<<>>>>>>>88\
) def
/coor [
[115.78904724 151.07502747]
[111.56305695 165.46742249]
[107.33706665 179.85981750]
[103.11107635 194.25221252]
[98.88509369 208.64460754]
[94.65910339 223.03700256]
[90.43311310 237.42938232]
[76.04071808 233.20339966]
[80.26670837 218.81100464]
[84.49269867 204.41860962]
[88.71868134 190.02621460]
[92.94467163 175.63381958]
[97.17066193 161.24142456]
[101.39665222 146.84902954]
[88.62574005 138.98114014]
[77.67167664 149.22850037]
[66.71761322 159.47587585]
[55.76355743 169.72325134]
[44.80949402 179.97061157]
[33.85543442 190.21798706]
[22.90137482 200.46534729]
[12.65400696 189.51129150]
[23.60806656 179.26391602]
[34.56212616 169.01655579]
[45.51618576 158.76918030]
[56.47024918 148.52182007]
[67.42430878 138.27444458]
[78.37836456 128.02708435]
[76.74925995 120.70614624]
[62.22332001 124.44740295]
[49.09086990 131.69577026]
[37.94431686 121.65811920]
[43.78195953 107.84066772]
[58.74933243 108.83588409]
[73.49105072 106.06428528]
[71.86194611 98.74335480]
[57.59609604 94.10810089]
[43.33024979 89.47284698]
[29.06440163 84.83759308]
[14.79855442 80.20233917]
[0.53270686 75.56708527]
[-13.73314095 70.93183136]
[-27.99898911 66.29657745]
[-42.26483536 61.66131973]
[-56.53068542 57.02606583]
[-70.79653168 52.39080811]
[-85.06237793 47.75555420]
[-99.32822418 43.12030029]
[-113.59407806 38.48504639]
[-108.95881653 24.21919632]
[-94.69297028 28.85445213]
[-80.42712402 33.48970795]
[-66.16127777 38.12496185]
[-51.89542770 42.76021576]
[-37.62958145 47.39546967]
[-23.36373329 52.03072739]
[-9.09788609 56.66598129]
[5.16796160 61.30123520]
[19.43380928 65.93649292]
[33.69965744 70.57174683]
[47.96550369 75.20700073]
[62.23135376 79.84225464]
[76.49720001 84.47750854]
[87.15416718 73.92151642]
[82.65493011 59.61218643]
[78.15569305 45.30286026]
[73.65646362 30.99353218]
[69.15722656 16.68420410]
[64.65798950 2.37487555]
[60.15875244 -11.93445206]
[55.65951538 -26.24378014]
[51.16027832 -40.55310822]
[46.66104126 -54.86243820]
[42.16180420 -69.17176819]
[56.47113419 -73.67100525]
[60.97037125 -59.36167145]
[65.46960449 -45.05234528]
[69.96884155 -30.74301720]
[74.46807861 -16.43368912]
[78.96731567 -2.12436080]
[83.46655273 12.18496704]
[87.96578979 26.49429512]
[92.46502686 40.80362320]
[96.96426392 55.11295319]
[101.46350098 69.42227936]
[115.54253387 74.59728241]
[128.23797607 66.60816956]
[140.93339539 58.61905289]
[153.62882996 50.62993622]
[166.32426453 42.64082336]
[179.01969910 34.65170670]
[189.47377014 23.89472961]
[197.09709167 10.97633553]
[204.72041321 -1.94205821]
[212.34375000 -14.86045170]
[219.96707153 -27.77884483]
[232.88546753 -20.15551949]
[225.26214600 -7.23712540]
[217.63880920 5.68126822]
[210.01548767 18.59966278]
[202.39216614 31.51805496]
[206.85810852 37.54344177]
[218.90888977 28.61153603]
[227.60975647 16.39291000]
[241.91906738 20.89219284]
[242.06179810 35.89151382]
[227.84078979 40.66230774]
[215.79002380 49.59421158]
[220.25596619 55.61959839]
[234.83314514 52.08321381]
[249.41030884 48.54682922]
[263.98748779 45.01044464]
[278.56466675 41.47406006]
[293.14184570 37.93767548]
[307.71902466 34.40129471]
[322.29617310 30.86490822]
[336.87335205 27.32852554]
[340.40972900 41.90569687]
[325.83258057 45.44208145]
[311.25540161 48.97846603]
[296.67822266 52.51485062]
[282.10104370 56.05123520]
[267.52386475 59.58761978]
[252.94670105 63.12400436]
[238.36952209 66.66038513]
[223.79235840 70.19676971]
[187.00881958 47.34714127]
[174.31338501 55.33625412]
[161.61795044 63.32537079]
[148.92251587 71.31448364]
[136.22708130 79.30360413]
[123.53165436 87.29271698]
[120.69288635 102.02165222]
[129.50965881 114.15690613]
[139.86083984 125.01291656]
[151.56283569 134.39712524]
[163.26483154 143.78134155]
[174.96681213 153.16554260]
[186.66880798 162.54975891]
[198.37080383 171.93397522]
[210.07278442 181.31817627]
[200.68858337 193.02017212]
[188.98658752 183.63595581]
[177.28459167 174.25175476]
[165.58261108 164.86753845]
[153.88061523 155.48332214]
[142.17861938 146.09912109]
[130.47663879 136.71490479]
[118.34137726 145.53167725]
[123.65018463 159.56082153]
[128.95898438 173.58995056]
[134.26777649 187.61909485]
[139.57658386 201.64822388]
[144.88539124 215.67735291]
[150.19418335 229.70649719]
[136.16505432 235.01528931]
[130.85624695 220.98616028]
[125.54744720 206.95703125]
[120.23864746 192.92788696]
[114.92984772 178.89875793]
[109.62104797 164.86961365]
[104.31224823 150.84048462]
[117.37440491 122.97368622]
[108.55762482 110.83842468]
] def
/pairs [
[1 14]
[2 13]
[3 12]
[4 11]
[5 10]
[6 9]
[7 8]
[15 28]
[16 27]
[17 26]
[18 25]
[19 24]
[20 23]
[21 22]
[36 63]
[37 62]
[38 61]
[39 60]
[40 59]
[41 58]
[42 57]
[43 56]
[44 55]
[45 54]
[46 53]
[47 52]
[48 51]
[49 50]
[64 85]
[65 84]
[66 83]
[67 82]
[68 81]
[69 80]
[70 79]
[71 78]
[72 77]
[73 76]
[74 75]
[86 132]
[87 131]
[88 130]
[89 129]
[90 128]
[91 127]
[92 101]
[93 100]
[94 99]
[95 98]
[96 97]
[109 126]
[110 125]
[111 124]
[112 123]
[113 122]
[114 121]
[115 120]
[116 119]
[117 118]
[133 164]
[134 163]
[135 148]
[136 147]
[137 146]
[138 145]
[139 144]
[140 143]
[141 142]
[149 162]
[150 161]
[151 160]
[152 159]
[153 158]
[154 157]
[155 156]
] def

init

% switch off outline pairs or bases by removing these lines
drawoutline
drawpairs
drawbases
% show it
showpage
end
%%EOF
