%!PS-Adobe-3.0 EPSF-3.0
%%Creator: PS_dot.c,v 1.38 2007/02/02 15:18:13 ivo Exp $, ViennaRNA-2.0.7
%%CreationDate: Fri Nov  9 19:01:56 2012
%%Title: RNA Secondary Structure Plot
%%BoundingBox: 66 210 518 662
%%DocumentFonts: Helvetica
%%Pages: 1
%%EndComments

%Options: -d2 
% to switch off outline pairs of sequence comment or
% delete the appropriate line near the end of the file

%%BeginProlog
/RNAplot 100 dict def
RNAplot begin
/fsize  14 def
/outlinecolor {0.2 setgray} bind def
/paircolor    {0.2 setgray} bind def
/seqcolor     {0   setgray} bind def
/cshow  { dup stringwidth pop -2 div fsize -3 div rmoveto show} bind def
/min { 2 copy gt { exch } if pop } bind def
/max { 2 copy lt { exch } if pop } bind def
/arccoords { % i j arccoords
  % puts optimal x1 y1 x2 y2 coordinates used in bezier curves from i to j
  % onto the stack
  dup 3 -1 roll dup 4 -1 roll lt dup dup 5 2 roll {exch} if
  dup 3 -1 roll dup 3 -1 roll exch sub 1 sub dup
  4 -2 roll 5 -1 roll {exch} if 4 2 roll
  sequence length dup 2 div exch 3 1 roll lt 
  {exch 5 -1 roll pop 4 -2 roll exch 4 2 roll}
  { 4 2 roll 5 -1 roll dup 6 1 roll {exch} if
    4 -2 roll exch pop dup 3 -1 roll dup 4 1 roll
    exch add 4 -1 roll dup 5 1 roll sub 1 sub
    5 -1 roll not {4 -2 roll exch 4 2 roll} if
  }ifelse
   % compute the scalingfactor and prepare (1-sf) and sf*r
  2 mul exch cpr 3 1 roll div dup
  3 -1 roll mul exch 1 exch sub exch
   % compute the coordinates
  3 -1 roll 1 sub coor exch get aload pop % get coord for i
  4 -1 roll dup 5 1 roll mul 3 -1 roll dup 4 1 roll add exch % calculate y1
  4 -1 roll dup 5 1 roll mul 3 -1 roll dup 4 1 roll add exch % calculate x1
  5 -1 roll 1 sub coor exch get aload pop % get coord for j
  % duplicate j coord
  dup 3 -1 roll dup 4 1 roll exch 8 2 roll
  6 -1 roll dup 7 1 roll mul 5 -1 roll dup 6 1 roll add exch % calculate y2
  6 -1 roll mul 5 -1 roll add exch % calculate x2
  6 -2 roll % reorder
} bind def
/drawoutline {
  gsave outlinecolor newpath
  coor 0 get aload pop 0.8 0 360 arc % draw 5' circle of 1st sequence
  currentdict /cutpoint known        % check if cutpoint is defined
  {coor 0 cutpoint getinterval
   {aload pop lineto} forall         % draw outline of 1st sequence
   coor cutpoint 1 add get aload pop
   2 copy moveto 0.8 0 360 arc       % draw 5' circle of 2nd sequence
   coor cutpoint 1 add coor length cutpoint 1 add sub getinterval
   {aload pop lineto} forall}        % draw outline of 2nd sequence
  {coor {aload pop lineto} forall}   % draw outline as a whole
  ifelse
  stroke grestore
} bind def
/drawpairs {
  paircolor
  0.7 setlinewidth
  [9 3.01] 9 setdash
  newpath
  pairs {aload pop
      currentdict (cpr) known
      { exch dup
        coor  exch 1 sub get aload pop moveto
        exch arccoords curveto
      }
      { coor exch 1 sub get aload pop moveto
        coor exch 1 sub get aload pop lineto
      }ifelse
  } forall
  stroke
} bind def
% draw bases
/drawbases {
  [] 0 setdash
  seqcolor
  0
  coor {
    aload pop moveto
    dup sequence exch 1 getinterval cshow
    1 add
  } forall
  pop
} bind def

/init {
  /Helvetica findfont fsize scalefont setfont
  1 setlinejoin
  1 setlinecap
  0.8 setlinewidth
  72 216 translate
  % find the coordinate range
  /xmax -1000 def /xmin 10000 def
  /ymax -1000 def /ymin 10000 def
  coor {
      aload pop
      dup ymin lt {dup /ymin exch def} if
      dup ymax gt {/ymax exch def} {pop} ifelse
      dup xmin lt {dup /xmin exch def} if
      dup xmax gt {/xmax exch def} {pop} ifelse
  } forall
  /size {xmax xmin sub ymax ymin sub max} bind def
  72 6 mul size div dup scale
  size xmin sub xmax sub 2 div size ymin sub ymax sub 2 div
  translate
} bind def
end
%%EndProlog
RNAplot begin
% data start here
/sequence (\
1111111111111122222222222222333333344444444444444444444444444445555555555555555555555666666<<<<<>>>>>33333337777777777777777776666668888888888888888<<<<<<<>>>>>>>88\
) def
/coor [
[101.55690765 121.31864929]
[97.33091736 135.71104431]
[93.10492706 150.10343933]
[88.87894440 164.49583435]
[84.65295410 178.88822937]
[80.42696381 193.28062439]
[76.20098114 207.67301941]
[61.80858231 203.44703674]
[66.03456879 189.05464172]
[70.26055908 174.66224670]
[74.48654938 160.26985168]
[78.71253967 145.87745667]
[82.93852234 131.48506165]
[87.16451263 117.09266663]
[74.39360046 109.22476959]
[63.43954086 119.47213745]
[52.48547745 129.71949768]
[41.53141785 139.96687317]
[30.57735825 150.21424866]
[19.62329865 160.46160889]
[8.66923809 170.70898438]
[-1.57813013 159.75491333]
[9.37592983 149.50755310]
[20.32999039 139.26017761]
[31.28404999 129.01281738]
[42.23810959 118.76544189]
[53.19216919 108.51807404]
[64.14623260 98.27070618]
[66.28095245 83.42338562]
[58.65762711 70.50498962]
[51.03430176 57.58659744]
[43.41097260 44.66820526]
[35.78764725 31.74981117]
[28.16432190 18.83141708]
[20.54099464 5.91302395]
[-38.86500931 1.56770754]
[-53.13085556 -3.06754732]
[-67.39670563 -7.70280218]
[-81.66255188 -12.33805752]
[-95.92839813 -16.97331238]
[-110.19424438 -21.60856628]
[-124.46009827 -26.24382210]
[-138.72593689 -30.87907600]
[-152.99179077 -35.51433182]
[-167.25764465 -40.14958572]
[-181.52348328 -44.78484344]
[-195.78933716 -49.42009735]
[-210.05517578 -54.05535126]
[-224.32102966 -58.69060516]
[-219.68577576 -72.95645142]
[-205.41992188 -68.32119751]
[-191.15408325 -63.68594360]
[-176.88822937 -59.05068970]
[-162.62239075 -54.41543579]
[-148.35653687 -49.78017807]
[-134.09068298 -45.14492416]
[-119.82483673 -40.50967026]
[-105.55899048 -35.87441635]
[-91.29314423 -31.23916054]
[-77.02729797 -26.60390472]
[-62.76144791 -21.96865082]
[-48.49560165 -17.33339500]
[-34.22975540 -12.69814014]
[-23.57278442 -23.25413513]
[-28.07202148 -37.56346130]
[-32.57125854 -51.87279129]
[-37.07049561 -66.18212128]
[-41.56972885 -80.49144745]
[-46.06896591 -94.80077362]
[-50.56820297 -109.11009979]
[-55.06744003 -123.41943359]
[-59.56667709 -137.72875977]
[-64.06591034 -152.03808594]
[-68.56514740 -166.34741211]
[-54.25582123 -170.84664917]
[-49.75658417 -156.53732300]
[-45.25734711 -142.22799683]
[-40.75811005 -127.91867065]
[-36.25887680 -113.60933685]
[-31.75963783 -99.30001068]
[-27.26040268 -84.99068451]
[-22.76116562 -70.68135834]
[-18.26193047 -56.37202835]
[-13.76269341 -42.06269836]
[-9.26345730 -27.75337029]
[-1.81234384 -26.89843559]
[-0.10247274 -41.80066299]
[1.60764563 -56.70285797]
[16.50981522 -54.99249268]
[14.79975319 -40.09078979]
[13.08988190 -25.18856430]
[20.54099464 -24.33362961]
[28.16432190 -37.25202179]
[35.78764725 -50.17041779]
[43.41097260 -63.08880997]
[51.03430176 -76.00720215]
[63.95269394 -68.38388062]
[56.32936859 -55.46548462]
[48.70604324 -42.54708862]
[41.08271408 -29.62869644]
[33.45938873 -16.71030235]
[33.45938873 -1.71030223]
[41.08271408 11.20809174]
[48.70604324 24.12648582]
[56.32936859 37.04487991]
[63.95269394 49.96327209]
[71.57601929 62.88166428]
[79.19934845 75.80005646]
[150.06640625 64.65095520]
[164.64358521 61.11457443]
[179.22074890 57.57818985]
[193.79792786 54.04180527]
[208.37509155 50.50542068]
[222.95227051 46.96903610]
[237.52944946 43.43265152]
[252.10661316 39.89626694]
[266.68380737 36.35988617]
[270.22018433 50.93705750]
[255.64300537 54.47344208]
[241.06582642 58.00982666]
[226.48866272 61.54621124]
[211.91148376 65.08259583]
[197.33430481 68.61898041]
[182.75714111 72.15536499]
[168.17996216 75.69174957]
[153.60278320 79.22813416]
[151.01528931 86.26764679]
[165.79560852 83.70992279]
[175.40074158 95.23126984]
[170.22543335 109.31019592]
[155.44505310 111.86759949]
[145.84028625 100.34668732]
[143.25277710 107.38620758]
[152.06954956 119.52146149]
[162.42074585 130.37747192]
[174.12272644 139.76168823]
[185.82472229 149.14588928]
[197.52671814 158.53010559]
[209.22869873 167.91432190]
[220.93069458 177.29852295]
[232.63269043 186.68273926]
[223.24847412 198.38473511]
[211.54647827 189.00051880]
[199.84449768 179.61630249]
[188.14250183 170.23210144]
[176.44050598 160.84788513]
[164.73852539 151.46366882]
[153.03652954 142.07946777]
[140.90127563 150.89624023]
[146.21008301 164.92538452]
[151.51887512 178.95451355]
[156.82768250 192.98364258]
[162.13647461 207.01278687]
[167.44528198 221.04191589]
[172.75408936 235.07104492]
[158.72494507 240.37985229]
[153.41615295 226.35072327]
[148.10734558 212.32157898]
[142.79853821 198.29244995]
[137.48974609 184.26330566]
[132.18093872 170.23417664]
[126.87213898 156.20504761]
[139.93429565 128.33824158]
[131.11752319 116.20298767]
] def
/pairs [
[1 14]
[2 13]
[3 12]
[4 11]
[5 10]
[6 9]
[7 8]
[15 28]
[16 27]
[17 26]
[18 25]
[19 24]
[20 23]
[21 22]
[29 108]
[30 107]
[31 106]
[32 105]
[33 104]
[34 103]
[35 102]
[36 63]
[37 62]
[38 61]
[39 60]
[40 59]
[41 58]
[42 57]
[43 56]
[44 55]
[45 54]
[46 53]
[47 52]
[48 51]
[49 50]
[64 85]
[65 84]
[66 83]
[67 82]
[68 81]
[69 80]
[70 79]
[71 78]
[72 77]
[73 76]
[74 75]
[92 101]
[93 100]
[94 99]
[95 98]
[96 97]
[109 126]
[110 125]
[111 124]
[112 123]
[113 122]
[114 121]
[115 120]
[116 119]
[117 118]
[133 164]
[134 163]
[135 148]
[136 147]
[137 146]
[138 145]
[139 144]
[140 143]
[141 142]
[149 162]
[150 161]
[151 160]
[152 159]
[153 158]
[154 157]
[155 156]
] def

init

% switch off outline pairs or bases by removing these lines
drawoutline
drawpairs
drawbases
% show it
showpage
end
%%EOF
