%!PS-Adobe-3.0 EPSF-3.0
%%Creator: PS_dot.c,v 1.38 2007/02/02 15:18:13 ivo Exp $, ViennaRNA-2.0.7
%%CreationDate: Fri Nov  9 19:01:56 2012
%%Title: RNA Secondary Structure Plot
%%BoundingBox: 66 210 518 662
%%DocumentFonts: Helvetica
%%Pages: 1
%%EndComments

%Options: -d2 
% to switch off outline pairs of sequence comment or
% delete the appropriate line near the end of the file

%%BeginProlog
/RNAplot 100 dict def
RNAplot begin
/fsize  14 def
/outlinecolor {0.2 setgray} bind def
/paircolor    {0.2 setgray} bind def
/seqcolor     {0   setgray} bind def
/cshow  { dup stringwidth pop -2 div fsize -3 div rmoveto show} bind def
/min { 2 copy gt { exch } if pop } bind def
/max { 2 copy lt { exch } if pop } bind def
/arccoords { % i j arccoords
  % puts optimal x1 y1 x2 y2 coordinates used in bezier curves from i to j
  % onto the stack
  dup 3 -1 roll dup 4 -1 roll lt dup dup 5 2 roll {exch} if
  dup 3 -1 roll dup 3 -1 roll exch sub 1 sub dup
  4 -2 roll 5 -1 roll {exch} if 4 2 roll
  sequence length dup 2 div exch 3 1 roll lt 
  {exch 5 -1 roll pop 4 -2 roll exch 4 2 roll}
  { 4 2 roll 5 -1 roll dup 6 1 roll {exch} if
    4 -2 roll exch pop dup 3 -1 roll dup 4 1 roll
    exch add 4 -1 roll dup 5 1 roll sub 1 sub
    5 -1 roll not {4 -2 roll exch 4 2 roll} if
  }ifelse
   % compute the scalingfactor and prepare (1-sf) and sf*r
  2 mul exch cpr 3 1 roll div dup
  3 -1 roll mul exch 1 exch sub exch
   % compute the coordinates
  3 -1 roll 1 sub coor exch get aload pop % get coord for i
  4 -1 roll dup 5 1 roll mul 3 -1 roll dup 4 1 roll add exch % calculate y1
  4 -1 roll dup 5 1 roll mul 3 -1 roll dup 4 1 roll add exch % calculate x1
  5 -1 roll 1 sub coor exch get aload pop % get coord for j
  % duplicate j coord
  dup 3 -1 roll dup 4 1 roll exch 8 2 roll
  6 -1 roll dup 7 1 roll mul 5 -1 roll dup 6 1 roll add exch % calculate y2
  6 -1 roll mul 5 -1 roll add exch % calculate x2
  6 -2 roll % reorder
} bind def
/drawoutline {
  gsave outlinecolor newpath
  coor 0 get aload pop 0.8 0 360 arc % draw 5' circle of 1st sequence
  currentdict /cutpoint known        % check if cutpoint is defined
  {coor 0 cutpoint getinterval
   {aload pop lineto} forall         % draw outline of 1st sequence
   coor cutpoint 1 add get aload pop
   2 copy moveto 0.8 0 360 arc       % draw 5' circle of 2nd sequence
   coor cutpoint 1 add coor length cutpoint 1 add sub getinterval
   {aload pop lineto} forall}        % draw outline of 2nd sequence
  {coor {aload pop lineto} forall}   % draw outline as a whole
  ifelse
  stroke grestore
} bind def
/drawpairs {
  paircolor
  0.7 setlinewidth
  [9 3.01] 9 setdash
  newpath
  pairs {aload pop
      currentdict (cpr) known
      { exch dup
        coor  exch 1 sub get aload pop moveto
        exch arccoords curveto
      }
      { coor exch 1 sub get aload pop moveto
        coor exch 1 sub get aload pop lineto
      }ifelse
  } forall
  stroke
} bind def
% draw bases
/drawbases {
  [] 0 setdash
  seqcolor
  0
  coor {
    aload pop moveto
    dup sequence exch 1 getinterval cshow
    1 add
  } forall
  pop
} bind def

/init {
  /Helvetica findfont fsize scalefont setfont
  1 setlinejoin
  1 setlinecap
  0.8 setlinewidth
  72 216 translate
  % find the coordinate range
  /xmax -1000 def /xmin 10000 def
  /ymax -1000 def /ymin 10000 def
  coor {
      aload pop
      dup ymin lt {dup /ymin exch def} if
      dup ymax gt {/ymax exch def} {pop} ifelse
      dup xmin lt {dup /xmin exch def} if
      dup xmax gt {/xmax exch def} {pop} ifelse
  } forall
  /size {xmax xmin sub ymax ymin sub max} bind def
  72 6 mul size div dup scale
  size xmin sub xmax sub 2 div size ymin sub ymax sub 2 div
  translate
} bind def
end
%%EndProlog
RNAplot begin
% data start here
/sequence (\
1111111111112222222222223333333444444444444444444555555555555555555666666<<<<>>>><<<<<>>>>>3333333777777777777666666888888888888888888\
) def
/coor [
[101.84746552 119.25428009]
[97.37850952 133.57308960]
[92.90955353 147.89190674]
[88.44060516 162.21072388]
[83.97164917 176.52954102]
[79.50269318 190.84835815]
[65.18387604 186.37939453]
[69.65283203 172.06057739]
[74.12178802 157.74177551]
[78.59074402 143.42295837]
[83.05969238 129.10414124]
[87.52864838 114.78532410]
[74.99633026 106.54269409]
[63.61862946 116.31755066]
[52.24092484 126.09240723]
[40.86322021 135.86726379]
[29.48551750 145.64212036]
[18.10781479 155.41697693]
[8.33295631 144.03927612]
[19.71065903 134.26441956]
[31.08836365 124.48956299]
[42.46606827 114.71470642]
[53.84377289 104.93984222]
[65.22147369 95.16498566]
[69.52352142 80.79514313]
[65.38896179 66.37622070]
[61.25440216 51.95729446]
[57.11984253 37.53836823]
[52.98528290 23.11944199]
[48.85072327 8.70051670]
[44.71615982 -5.71840858]
[-29.38709641 -21.06167221]
[-43.65294266 -25.69692612]
[-57.91879272 -30.33218193]
[-72.18463898 -34.96743774]
[-86.45048523 -39.60269165]
[-100.71633911 -44.23794556]
[-114.98218536 -48.87319946]
[-129.24803162 -53.50845718]
[-143.51388550 -58.14371109]
[-138.87861633 -72.40956116]
[-124.61277771 -67.77430725]
[-110.34693146 -63.13904953]
[-96.08107758 -58.50379562]
[-81.81523132 -53.86853790]
[-67.54938507 -49.23328400]
[-53.28353882 -44.59803009]
[-39.01768875 -39.96277618]
[-24.75184250 -35.32751846]
[-14.71488285 -46.47469330]
[-20.81593323 -60.17787552]
[-26.91698265 -73.88105774]
[-33.01803207 -87.58423615]
[-39.11907959 -101.28742218]
[-45.22013092 -114.99060059]
[-51.32118225 -128.69378662]
[-57.42222977 -142.39695740]
[-63.52328110 -156.10014343]
[-49.82009888 -162.20120239]
[-43.71904755 -148.49801636]
[-37.61800003 -134.79483032]
[-31.51694870 -121.09165192]
[-25.41589928 -107.38846588]
[-19.31484985 -93.68528748]
[-13.21380043 -79.98210144]
[-7.11275053 -66.27892303]
[-1.01170087 -52.57574081]
[6.48626852 -52.40122604]
[6.83530283 -67.39716339]
[7.18458605 -82.39309692]
[22.18051338 -82.04356384]
[21.83124161 -67.04812622]
[21.48220634 -52.05218887]
[28.98017693 -51.87767410]
[35.71216583 -65.28216553]
[42.44415283 -78.68665314]
[49.17613983 -92.09114075]
[62.58062744 -85.35915375]
[55.84864044 -71.95466614]
[49.11665344 -58.55017471]
[42.38466644 -45.14568329]
[54.09657669 -35.77385712]
[65.69864655 -45.28132248]
[77.30072784 -54.78878784]
[88.90280151 -64.29624939]
[100.50487518 -73.80371857]
[110.01233673 -62.20164108]
[98.41026306 -52.69417572]
[86.80818939 -43.18671417]
[75.20611572 -33.67924881]
[63.60404205 -24.17178345]
[59.13508606 -9.85296917]
[63.26964569 4.56595659]
[67.40420532 18.98488235]
[71.53876495 33.40380859]
[75.67332458 47.82273102]
[79.80789185 62.24165726]
[83.94245148 76.66058350]
[165.50694275 71.85090637]
[180.33566284 74.11119080]
[195.16438293 76.37147522]
[209.99311829 78.63176727]
[224.82183838 80.89205170]
[239.65055847 83.15233612]
[237.39027405 97.98106384]
[222.56155396 95.72077942]
[207.73283386 93.46048737]
[192.90409851 91.20020294]
[178.07537842 88.93991852]
[163.24665833 86.67963409]
[158.76795959 92.69555664]
[170.79980469 101.65293884]
[182.83151245 110.61050415]
[173.87376404 122.64207458]
[161.84243774 113.68478394]
[149.81057739 104.72740173]
[145.33189392 110.74333191]
[151.75015259 124.30083466]
[158.16841125 137.85833740]
[164.58666992 151.41584778]
[171.00491333 164.97335815]
[177.42317200 178.53086853]
[183.84143066 192.08836365]
[190.25968933 205.64587402]
[196.67794800 219.20338440]
[183.12043762 225.62164307]
[176.70217896 212.06413269]
[170.28392029 198.50662231]
[163.86566162 184.94911194]
[157.44741821 171.39161682]
[151.02915955 157.83410645]
[144.61090088 144.27659607]
[138.19264221 130.71908569]
[131.77438354 117.16158295]
] def
/pairs [
[1 12]
[2 11]
[3 10]
[4 9]
[5 8]
[6 7]
[13 24]
[14 23]
[15 22]
[16 21]
[17 20]
[18 19]
[25 98]
[26 97]
[27 96]
[28 95]
[29 94]
[30 93]
[31 92]
[32 49]
[33 48]
[34 47]
[35 46]
[36 45]
[37 44]
[38 43]
[39 42]
[40 41]
[50 67]
[51 66]
[52 65]
[53 64]
[54 63]
[55 62]
[56 61]
[57 60]
[58 59]
[74 81]
[75 80]
[76 79]
[77 78]
[82 91]
[83 90]
[84 89]
[85 88]
[86 87]
[99 110]
[100 109]
[101 108]
[102 107]
[103 106]
[104 105]
[117 134]
[118 133]
[119 132]
[120 131]
[121 130]
[122 129]
[123 128]
[124 127]
[125 126]
] def

init

% switch off outline pairs or bases by removing these lines
drawoutline
drawpairs
drawbases
% show it
showpage
end
%%EOF
