%!PS-Adobe-3.0 EPSF-3.0
%%Creator: PS_dot.c,v 1.38 2007/02/02 15:18:13 ivo Exp $, ViennaRNA-2.0.7
%%CreationDate: Fri Nov  9 19:01:57 2012
%%Title: RNA Secondary Structure Plot
%%BoundingBox: 66 210 518 662
%%DocumentFonts: Helvetica
%%Pages: 1
%%EndComments

%Options: -d2 
% to switch off outline pairs of sequence comment or
% delete the appropriate line near the end of the file

%%BeginProlog
/RNAplot 100 dict def
RNAplot begin
/fsize  14 def
/outlinecolor {0.2 setgray} bind def
/paircolor    {0.2 setgray} bind def
/seqcolor     {0   setgray} bind def
/cshow  { dup stringwidth pop -2 div fsize -3 div rmoveto show} bind def
/min { 2 copy gt { exch } if pop } bind def
/max { 2 copy lt { exch } if pop } bind def
/arccoords { % i j arccoords
  % puts optimal x1 y1 x2 y2 coordinates used in bezier curves from i to j
  % onto the stack
  dup 3 -1 roll dup 4 -1 roll lt dup dup 5 2 roll {exch} if
  dup 3 -1 roll dup 3 -1 roll exch sub 1 sub dup
  4 -2 roll 5 -1 roll {exch} if 4 2 roll
  sequence length dup 2 div exch 3 1 roll lt 
  {exch 5 -1 roll pop 4 -2 roll exch 4 2 roll}
  { 4 2 roll 5 -1 roll dup 6 1 roll {exch} if
    4 -2 roll exch pop dup 3 -1 roll dup 4 1 roll
    exch add 4 -1 roll dup 5 1 roll sub 1 sub
    5 -1 roll not {4 -2 roll exch 4 2 roll} if
  }ifelse
   % compute the scalingfactor and prepare (1-sf) and sf*r
  2 mul exch cpr 3 1 roll div dup
  3 -1 roll mul exch 1 exch sub exch
   % compute the coordinates
  3 -1 roll 1 sub coor exch get aload pop % get coord for i
  4 -1 roll dup 5 1 roll mul 3 -1 roll dup 4 1 roll add exch % calculate y1
  4 -1 roll dup 5 1 roll mul 3 -1 roll dup 4 1 roll add exch % calculate x1
  5 -1 roll 1 sub coor exch get aload pop % get coord for j
  % duplicate j coord
  dup 3 -1 roll dup 4 1 roll exch 8 2 roll
  6 -1 roll dup 7 1 roll mul 5 -1 roll dup 6 1 roll add exch % calculate y2
  6 -1 roll mul 5 -1 roll add exch % calculate x2
  6 -2 roll % reorder
} bind def
/drawoutline {
  gsave outlinecolor newpath
  coor 0 get aload pop 0.8 0 360 arc % draw 5' circle of 1st sequence
  currentdict /cutpoint known        % check if cutpoint is defined
  {coor 0 cutpoint getinterval
   {aload pop lineto} forall         % draw outline of 1st sequence
   coor cutpoint 1 add get aload pop
   2 copy moveto 0.8 0 360 arc       % draw 5' circle of 2nd sequence
   coor cutpoint 1 add coor length cutpoint 1 add sub getinterval
   {aload pop lineto} forall}        % draw outline of 2nd sequence
  {coor {aload pop lineto} forall}   % draw outline as a whole
  ifelse
  stroke grestore
} bind def
/drawpairs {
  paircolor
  0.7 setlinewidth
  [9 3.01] 9 setdash
  newpath
  pairs {aload pop
      currentdict (cpr) known
      { exch dup
        coor  exch 1 sub get aload pop moveto
        exch arccoords curveto
      }
      { coor exch 1 sub get aload pop moveto
        coor exch 1 sub get aload pop lineto
      }ifelse
  } forall
  stroke
} bind def
% draw bases
/drawbases {
  [] 0 setdash
  seqcolor
  0
  coor {
    aload pop moveto
    dup sequence exch 1 getinterval cshow
    1 add
  } forall
  pop
} bind def

/init {
  /Helvetica findfont fsize scalefont setfont
  1 setlinejoin
  1 setlinecap
  0.8 setlinewidth
  72 216 translate
  % find the coordinate range
  /xmax -1000 def /xmin 10000 def
  /ymax -1000 def /ymin 10000 def
  coor {
      aload pop
      dup ymin lt {dup /ymin exch def} if
      dup ymax gt {/ymax exch def} {pop} ifelse
      dup xmin lt {dup /xmin exch def} if
      dup xmax gt {/xmax exch def} {pop} ifelse
  } forall
  /size {xmax xmin sub ymax ymin sub max} bind def
  72 6 mul size div dup scale
  size xmin sub xmax sub 2 div size ymin sub ymax sub 2 div
  translate
} bind def
end
%%EndProlog
RNAplot begin
% data start here
/sequence (\
1111111111112222222222223333333444444444444444444555555555555555555666666<<<<>>>><<<<<>>>>>3333333777777777777666666888888888888888888\
) def
/coor [
[116.28611755 152.86589050]
[111.81716156 167.18469238]
[107.34820557 181.50350952]
[102.87924957 195.82232666]
[98.41030121 210.14114380]
[93.94134521 224.45996094]
[79.62252808 219.99099731]
[84.09148407 205.67219543]
[88.56044006 191.35337830]
[93.02939606 177.03456116]
[97.49834442 162.71574402]
[101.96730042 148.39692688]
[89.43498230 140.15429688]
[78.05728149 149.92915344]
[66.67957306 159.70401001]
[55.30187225 169.47886658]
[43.92416763 179.25372314]
[32.54646301 189.02859497]
[22.77160645 177.65087891]
[34.14931107 167.87602234]
[45.52701569 158.10116577]
[56.90471649 148.32630920]
[68.28242493 138.55145264]
[79.66012573 128.77659607]
[78.18624878 121.42283630]
[63.51506042 124.54632568]
[50.36257553 131.75827026]
[39.36792755 121.55445862]
[45.57984543 107.90117645]
[60.49678421 109.48692322]
[75.23850250 106.71533203]
[73.76462555 99.36157990]
[59.49877930 94.72632599]
[45.23293304 90.09106445]
[30.96708298 85.45581055]
[16.70123672 80.82055664]
[2.43538809 76.18530273]
[-11.83045959 71.55004883]
[-26.09630775 66.91479492]
[-40.36215591 62.27953720]
[-35.72690201 48.01369095]
[-21.46105194 52.64894485]
[-7.19520473 57.28419876]
[7.07064295 61.91945648]
[21.33649063 66.55471039]
[35.60233688 71.18996429]
[49.86818695 75.82521820]
[64.13403320 80.46047211]
[78.39987946 85.09572601]
[88.43684387 73.94855499]
[82.33579254 60.24537659]
[76.23474121 46.54219437]
[70.13368988 32.83901215]
[64.03263855 19.13582993]
[57.93159103 5.43264771]
[51.83054352 -8.27053452]
[45.72949219 -21.97371674]
[39.62844467 -35.67689896]
[53.33162689 -41.77794647]
[59.43267441 -28.07476616]
[65.53372192 -14.37158394]
[71.63477325 -0.66840190]
[77.73582458 13.03477955]
[83.83687592 26.73796272]
[89.93791962 40.44114304]
[96.03897095 54.14432526]
[102.14002228 67.84750366]
[116.17476654 73.14146423]
[129.80603027 66.88138580]
[143.43730164 60.62131119]
[157.06857300 54.36123657]
[170.69982910 48.10115814]
[184.33110046 41.84108353]
[195.12120056 31.42120552]
[201.85317993 18.01671600]
[208.58517456 4.61222696]
[215.31715393 -8.79226303]
[228.72164917 -2.06027484]
[221.98965454 11.34421444]
[215.25767517 24.74870491]
[208.52568054 38.15319443]
[220.23759460 47.52502060]
[231.83967590 38.01755905]
[243.44174194 28.51009178]
[255.04382324 19.00262833]
[266.64590454 9.49516392]
[276.15335083 21.09723663]
[264.55126953 30.60470200]
[252.94920349 40.11216736]
[241.34713745 49.61963272]
[229.74505615 59.12709427]
[231.72831726 66.36012268]
[246.19436646 62.39361191]
[258.72680664 54.15113449]
[270.43847656 63.52325439]
[265.14398193 77.55780029]
[250.16088867 76.85966492]
[235.69482422 80.82617950]
[237.67808533 88.05920410]
[252.50680542 90.31949615]
[267.33554077 92.57978058]
[282.16427612 94.84006500]
[296.99298096 97.10034943]
[311.82171631 99.36063385]
[309.56143188 114.18936157]
[294.73269653 111.92907715]
[279.90399170 109.66879272]
[265.07525635 107.40850830]
[250.24652100 105.14821625]
[235.41780090 102.88793182]
[190.59117126 55.47234726]
[176.95991516 61.73242569]
[163.32864380 67.99250031]
[149.69737244 74.25257874]
[136.06611633 80.51265717]
[122.43484497 86.77273560]
[117.30454254 100.86812592]
[123.72279358 114.42562866]
[130.14105225 127.98313904]
[136.55931091 141.54063416]
[142.97756958 155.09814453]
[149.39582825 168.65565491]
[155.81407166 182.21316528]
[162.23233032 195.77066040]
[168.65058899 209.32817078]
[155.09307861 215.74642944]
[148.67483521 202.18891907]
[142.25657654 188.63142395]
[135.83831787 175.07391357]
[129.42005920 161.51640320]
[123.00180054 147.95889282]
[116.58354950 134.40139771]
[110.16529083 120.84388733]
[103.74703217 107.28637695]
] def
/pairs [
[1 12]
[2 11]
[3 10]
[4 9]
[5 8]
[6 7]
[13 24]
[14 23]
[15 22]
[16 21]
[17 20]
[18 19]
[32 49]
[33 48]
[34 47]
[35 46]
[36 45]
[37 44]
[38 43]
[39 42]
[40 41]
[50 67]
[51 66]
[52 65]
[53 64]
[54 63]
[55 62]
[56 61]
[57 60]
[58 59]
[68 116]
[69 115]
[70 114]
[71 113]
[72 112]
[73 111]
[74 81]
[75 80]
[76 79]
[77 78]
[82 91]
[83 90]
[84 89]
[85 88]
[86 87]
[99 110]
[100 109]
[101 108]
[102 107]
[103 106]
[104 105]
[117 134]
[118 133]
[119 132]
[120 131]
[121 130]
[122 129]
[123 128]
[124 127]
[125 126]
] def

init

% switch off outline pairs or bases by removing these lines
drawoutline
drawpairs
drawbases
% show it
showpage
end
%%EOF
