%!PS-Adobe-3.0 EPSF-3.0
%%Creator: PS_dot.c,v 1.38 2007/02/02 15:18:13 ivo Exp $, ViennaRNA-2.0.7
%%CreationDate: Fri Nov  9 19:01:57 2012
%%Title: RNA Secondary Structure Plot
%%BoundingBox: 66 210 518 662
%%DocumentFonts: Helvetica
%%Pages: 1
%%EndComments

%Options: -d2 
% to switch off outline pairs of sequence comment or
% delete the appropriate line near the end of the file

%%BeginProlog
/RNAplot 100 dict def
RNAplot begin
/fsize  14 def
/outlinecolor {0.2 setgray} bind def
/paircolor    {0.2 setgray} bind def
/seqcolor     {0   setgray} bind def
/cshow  { dup stringwidth pop -2 div fsize -3 div rmoveto show} bind def
/min { 2 copy gt { exch } if pop } bind def
/max { 2 copy lt { exch } if pop } bind def
/arccoords { % i j arccoords
  % puts optimal x1 y1 x2 y2 coordinates used in bezier curves from i to j
  % onto the stack
  dup 3 -1 roll dup 4 -1 roll lt dup dup 5 2 roll {exch} if
  dup 3 -1 roll dup 3 -1 roll exch sub 1 sub dup
  4 -2 roll 5 -1 roll {exch} if 4 2 roll
  sequence length dup 2 div exch 3 1 roll lt 
  {exch 5 -1 roll pop 4 -2 roll exch 4 2 roll}
  { 4 2 roll 5 -1 roll dup 6 1 roll {exch} if
    4 -2 roll exch pop dup 3 -1 roll dup 4 1 roll
    exch add 4 -1 roll dup 5 1 roll sub 1 sub
    5 -1 roll not {4 -2 roll exch 4 2 roll} if
  }ifelse
   % compute the scalingfactor and prepare (1-sf) and sf*r
  2 mul exch cpr 3 1 roll div dup
  3 -1 roll mul exch 1 exch sub exch
   % compute the coordinates
  3 -1 roll 1 sub coor exch get aload pop % get coord for i
  4 -1 roll dup 5 1 roll mul 3 -1 roll dup 4 1 roll add exch % calculate y1
  4 -1 roll dup 5 1 roll mul 3 -1 roll dup 4 1 roll add exch % calculate x1
  5 -1 roll 1 sub coor exch get aload pop % get coord for j
  % duplicate j coord
  dup 3 -1 roll dup 4 1 roll exch 8 2 roll
  6 -1 roll dup 7 1 roll mul 5 -1 roll dup 6 1 roll add exch % calculate y2
  6 -1 roll mul 5 -1 roll add exch % calculate x2
  6 -2 roll % reorder
} bind def
/drawoutline {
  gsave outlinecolor newpath
  coor 0 get aload pop 0.8 0 360 arc % draw 5' circle of 1st sequence
  currentdict /cutpoint known        % check if cutpoint is defined
  {coor 0 cutpoint getinterval
   {aload pop lineto} forall         % draw outline of 1st sequence
   coor cutpoint 1 add get aload pop
   2 copy moveto 0.8 0 360 arc       % draw 5' circle of 2nd sequence
   coor cutpoint 1 add coor length cutpoint 1 add sub getinterval
   {aload pop lineto} forall}        % draw outline of 2nd sequence
  {coor {aload pop lineto} forall}   % draw outline as a whole
  ifelse
  stroke grestore
} bind def
/drawpairs {
  paircolor
  0.7 setlinewidth
  [9 3.01] 9 setdash
  newpath
  pairs {aload pop
      currentdict (cpr) known
      { exch dup
        coor  exch 1 sub get aload pop moveto
        exch arccoords curveto
      }
      { coor exch 1 sub get aload pop moveto
        coor exch 1 sub get aload pop lineto
      }ifelse
  } forall
  stroke
} bind def
% draw bases
/drawbases {
  [] 0 setdash
  seqcolor
  0
  coor {
    aload pop moveto
    dup sequence exch 1 getinterval cshow
    1 add
  } forall
  pop
} bind def

/init {
  /Helvetica findfont fsize scalefont setfont
  1 setlinejoin
  1 setlinecap
  0.8 setlinewidth
  72 216 translate
  % find the coordinate range
  /xmax -1000 def /xmin 10000 def
  /ymax -1000 def /ymin 10000 def
  coor {
      aload pop
      dup ymin lt {dup /ymin exch def} if
      dup ymax gt {/ymax exch def} {pop} ifelse
      dup xmin lt {dup /xmin exch def} if
      dup xmax gt {/xmax exch def} {pop} ifelse
  } forall
  /size {xmax xmin sub ymax ymin sub max} bind def
  72 6 mul size div dup scale
  size xmin sub xmax sub 2 div size ymin sub ymax sub 2 div
  translate
} bind def
end
%%EndProlog
RNAplot begin
% data start here
/sequence (\
111111112222222222222233333344444444444444444444444444444444444444444444444444444444444444445555555555555555555566666633333377777777777777777777666666888888888888888888888888\
) def
/coor [
[73.92314911 131.19305420]
[71.51016235 145.99769592]
[69.09718323 160.80233765]
[66.68419647 175.60697937]
[51.87955475 173.19400024]
[54.29253769 158.38935852]
[56.70552063 143.58471680]
[59.11850357 128.78005981]
[45.07498169 123.50944519]
[37.15158081 136.24598694]
[29.22818375 148.98254395]
[21.30478287 161.71910095]
[13.38138390 174.45564270]
[5.45798397 187.19219971]
[-2.46541548 199.92875671]
[-15.20196629 192.00535583]
[-7.27856731 179.26879883]
[0.64483249 166.53224182]
[8.56823254 153.79570007]
[16.49163246 141.05914307]
[24.41503143 128.32260132]
[32.33843231 115.58604431]
[19.27876663 122.96473694]
[19.31381989 107.96478271]
[25.93513870 94.50527954]
[37.79633331 85.32312012]
[52.48552704 82.28541565]
[67.01704407 86.01051331]
[81.94001007 87.52877045]
[69.57176208 79.04192352]
[57.20351791 70.55507660]
[44.83527374 62.06823349]
[32.46702957 53.58139038]
[20.09878731 45.09454727]
[7.73054218 36.60770035]
[-4.63770247 28.12085724]
[-17.00594711 19.63401222]
[-29.37419128 11.14716816]
[-41.74243546 2.66032314]
[-54.11067963 -5.82652140]
[-66.47892761 -14.31336594]
[-78.84716797 -22.80021095]
[-91.21541595 -31.28705406]
[-103.58365631 -39.77389908]
[-115.95190430 -48.26074219]
[-128.32014465 -56.74758911]
[-140.68838501 -65.23443604]
[-153.05664062 -73.72127533]
[-165.42488098 -82.20812225]
[-177.79312134 -90.69496918]
[-190.16136169 -99.18180847]
[-202.52961731 -107.66865540]
[-214.89785767 -116.15550232]
[-227.26609802 -124.64234161]
[-239.63435364 -133.12919617]
[-252.00259399 -141.61602783]
[-264.37084961 -150.10287476]
[-276.73907471 -158.58972168]
[-289.10733032 -167.07656860]
[-301.47555542 -175.56341553]
[-292.98873901 -187.93165588]
[-280.62048340 -179.44480896]
[-268.25222778 -170.95796204]
[-255.88398743 -162.47111511]
[-243.51574707 -153.98428345]
[-231.14750671 -145.49743652]
[-218.77925110 -137.01058960]
[-206.41101074 -128.52374268]
[-194.04277039 -120.03690338]
[-181.67453003 -111.55005646]
[-169.30627441 -103.06320953]
[-156.93803406 -94.57636261]
[-144.56979370 -86.08952332]
[-132.20155334 -77.60267639]
[-119.83330536 -69.11582947]
[-107.46505737 -60.62898636]
[-95.09681702 -52.14214325]
[-82.72856903 -43.65530014]
[-70.36032104 -35.16845322]
[-57.99208069 -26.68161011]
[-45.62383652 -18.19476509]
[-33.25559235 -9.70792103]
[-20.88734627 -1.22107673]
[-8.51910210 7.26576757]
[3.84914207 15.75261211]
[16.21738625 24.23945618]
[28.58563042 32.72630310]
[40.95387650 41.21314621]
[53.32212067 49.69998932]
[65.69036102 58.18683624]
[78.05860901 66.67367554]
[90.42684937 75.16052246]
[105.08013916 71.95410919]
[112.77362823 59.07737350]
[120.46711731 46.20064163]
[128.16061401 33.32390976]
[135.85409546 20.44717979]
[143.54759216 7.57044697]
[151.24107361 -5.30628490]
[158.93457031 -18.18301773]
[166.62805176 -31.05974960]
[174.32154846 -43.93648148]
[187.19827271 -36.24299240]
[179.50479126 -23.36625862]
[171.81129456 -10.48952770]
[164.11781311 2.38720417]
[156.42431641 15.26393604]
[148.73083496 28.14066887]
[141.03733826 41.01739883]
[133.34385681 53.89413071]
[125.65036011 66.77086639]
[117.95687103 79.64759827]
[125.30087280 92.72680664]
[140.30026245 92.86144257]
[155.29966736 92.99607849]
[170.29905701 93.13071442]
[185.29846191 93.26535797]
[200.29785156 93.39999390]
[190.75738525 81.82503510]
[192.03036499 66.87915039]
[203.39091492 57.08436584]
[218.36135864 58.02560425]
[228.40563965 69.16617584]
[227.79660034 84.15380859]
[216.87995911 94.44325256]
[231.77795410 96.18959808]
[246.67594910 97.93594360]
[261.57394409 99.68228912]
[276.47195435 101.42863464]
[291.36993408 103.17498779]
[306.26794434 104.92133331]
[321.16592407 106.66767883]
[336.06393433 108.41402435]
[350.96191406 110.16036987]
[349.21557617 125.05836487]
[334.31756592 123.31201935]
[319.41958618 121.56567383]
[304.52157593 119.81932831]
[289.62359619 118.07298279]
[274.72558594 116.32662964]
[259.82760620 114.58028412]
[244.92961121 112.83393860]
[230.03161621 111.08759308]
[215.13362122 109.34124756]
[200.16320801 108.39939117]
[185.16381836 108.26474762]
[170.16442871 108.13011169]
[155.16502380 107.99547577]
[140.16563416 107.86083984]
[125.16623688 107.72619629]
[117.12882996 120.39112091]
[123.63708496 133.90565491]
[130.14533997 147.42018127]
[136.65359497 160.93472290]
[143.16184998 174.44924927]
[149.67012024 187.96379089]
[156.17837524 201.47831726]
[162.68663025 214.99284363]
[169.19488525 228.50738525]
[175.70314026 242.02191162]
[182.21139526 255.53645325]
[188.71965027 269.05099487]
[175.20512390 275.55923462]
[168.69685364 262.04470825]
[162.18859863 248.53016663]
[155.68034363 235.01564026]
[149.17208862 221.50109863]
[142.66383362 207.98657227]
[136.15557861 194.47204590]
[129.64732361 180.95750427]
[123.13906860 167.44297791]
[116.63081360 153.92843628]
[110.12255859 140.41390991]
[103.61429596 126.89937592]
] def
/pairs [
[1 8]
[2 7]
[3 6]
[4 5]
[9 22]
[10 21]
[11 20]
[12 19]
[13 18]
[14 17]
[15 16]
[29 92]
[30 91]
[31 90]
[32 89]
[33 88]
[34 87]
[35 86]
[36 85]
[37 84]
[38 83]
[39 82]
[40 81]
[41 80]
[42 79]
[43 78]
[44 77]
[45 76]
[46 75]
[47 74]
[48 73]
[49 72]
[50 71]
[51 70]
[52 69]
[53 68]
[54 67]
[55 66]
[56 65]
[57 64]
[58 63]
[59 62]
[60 61]
[93 112]
[94 111]
[95 110]
[96 109]
[97 108]
[98 107]
[99 106]
[100 105]
[101 104]
[102 103]
[113 150]
[114 149]
[115 148]
[116 147]
[117 146]
[118 145]
[125 144]
[126 143]
[127 142]
[128 141]
[129 140]
[130 139]
[131 138]
[132 137]
[133 136]
[134 135]
[151 174]
[152 173]
[153 172]
[154 171]
[155 170]
[156 169]
[157 168]
[158 167]
[159 166]
[160 165]
[161 164]
[162 163]
] def

init

% switch off outline pairs or bases by removing these lines
drawoutline
drawpairs
drawbases
% show it
showpage
end
%%EOF
