%!PS-Adobe-3.0 EPSF-3.0
%%Creator: PS_dot.c,v 1.38 2007/02/02 15:18:13 ivo Exp $, ViennaRNA-2.0.7
%%CreationDate: Fri Nov  9 19:01:57 2012
%%Title: RNA Secondary Structure Plot
%%BoundingBox: 66 210 518 662
%%DocumentFonts: Helvetica
%%Pages: 1
%%EndComments

%Options: -d2 
% to switch off outline pairs of sequence comment or
% delete the appropriate line near the end of the file

%%BeginProlog
/RNAplot 100 dict def
RNAplot begin
/fsize  14 def
/outlinecolor {0.2 setgray} bind def
/paircolor    {0.2 setgray} bind def
/seqcolor     {0   setgray} bind def
/cshow  { dup stringwidth pop -2 div fsize -3 div rmoveto show} bind def
/min { 2 copy gt { exch } if pop } bind def
/max { 2 copy lt { exch } if pop } bind def
/arccoords { % i j arccoords
  % puts optimal x1 y1 x2 y2 coordinates used in bezier curves from i to j
  % onto the stack
  dup 3 -1 roll dup 4 -1 roll lt dup dup 5 2 roll {exch} if
  dup 3 -1 roll dup 3 -1 roll exch sub 1 sub dup
  4 -2 roll 5 -1 roll {exch} if 4 2 roll
  sequence length dup 2 div exch 3 1 roll lt 
  {exch 5 -1 roll pop 4 -2 roll exch 4 2 roll}
  { 4 2 roll 5 -1 roll dup 6 1 roll {exch} if
    4 -2 roll exch pop dup 3 -1 roll dup 4 1 roll
    exch add 4 -1 roll dup 5 1 roll sub 1 sub
    5 -1 roll not {4 -2 roll exch 4 2 roll} if
  }ifelse
   % compute the scalingfactor and prepare (1-sf) and sf*r
  2 mul exch cpr 3 1 roll div dup
  3 -1 roll mul exch 1 exch sub exch
   % compute the coordinates
  3 -1 roll 1 sub coor exch get aload pop % get coord for i
  4 -1 roll dup 5 1 roll mul 3 -1 roll dup 4 1 roll add exch % calculate y1
  4 -1 roll dup 5 1 roll mul 3 -1 roll dup 4 1 roll add exch % calculate x1
  5 -1 roll 1 sub coor exch get aload pop % get coord for j
  % duplicate j coord
  dup 3 -1 roll dup 4 1 roll exch 8 2 roll
  6 -1 roll dup 7 1 roll mul 5 -1 roll dup 6 1 roll add exch % calculate y2
  6 -1 roll mul 5 -1 roll add exch % calculate x2
  6 -2 roll % reorder
} bind def
/drawoutline {
  gsave outlinecolor newpath
  coor 0 get aload pop 0.8 0 360 arc % draw 5' circle of 1st sequence
  currentdict /cutpoint known        % check if cutpoint is defined
  {coor 0 cutpoint getinterval
   {aload pop lineto} forall         % draw outline of 1st sequence
   coor cutpoint 1 add get aload pop
   2 copy moveto 0.8 0 360 arc       % draw 5' circle of 2nd sequence
   coor cutpoint 1 add coor length cutpoint 1 add sub getinterval
   {aload pop lineto} forall}        % draw outline of 2nd sequence
  {coor {aload pop lineto} forall}   % draw outline as a whole
  ifelse
  stroke grestore
} bind def
/drawpairs {
  paircolor
  0.7 setlinewidth
  [9 3.01] 9 setdash
  newpath
  pairs {aload pop
      currentdict (cpr) known
      { exch dup
        coor  exch 1 sub get aload pop moveto
        exch arccoords curveto
      }
      { coor exch 1 sub get aload pop moveto
        coor exch 1 sub get aload pop lineto
      }ifelse
  } forall
  stroke
} bind def
% draw bases
/drawbases {
  [] 0 setdash
  seqcolor
  0
  coor {
    aload pop moveto
    dup sequence exch 1 getinterval cshow
    1 add
  } forall
  pop
} bind def

/init {
  /Helvetica findfont fsize scalefont setfont
  1 setlinejoin
  1 setlinecap
  0.8 setlinewidth
  72 216 translate
  % find the coordinate range
  /xmax -1000 def /xmin 10000 def
  /ymax -1000 def /ymin 10000 def
  coor {
      aload pop
      dup ymin lt {dup /ymin exch def} if
      dup ymax gt {/ymax exch def} {pop} ifelse
      dup xmin lt {dup /xmin exch def} if
      dup xmax gt {/xmax exch def} {pop} ifelse
  } forall
  /size {xmax xmin sub ymax ymin sub max} bind def
  72 6 mul size div dup scale
  size xmin sub xmax sub 2 div size ymin sub ymax sub 2 div
  translate
} bind def
end
%%EndProlog
RNAplot begin
% data start here
/sequence (\
1111111111111133333344444444444444444444444444444444444444445555555555555555555566666633333377777777777777776666668888888888888888\
) def
/coor [
[68.81058502 116.86149597]
[63.53033829 130.90141296]
[58.25009537 144.94131470]
[52.96985245 158.98121643]
[47.68960953 173.02113342]
[42.40936661 187.06103516]
[37.12911987 201.10095215]
[23.08921242 195.82070923]
[28.36945724 181.78079224]
[33.64970016 167.74089050]
[38.92994308 153.70097351]
[44.21018600 139.66107178]
[49.49043274 125.62116241]
[54.77067566 111.58125305]
[53.15505600 96.66851807]
[44.99049759 84.08518982]
[36.82594299 71.50186920]
[28.66138458 58.91854858]
[20.49682808 46.33522415]
[12.33227158 33.75189972]
[-12.17019939 20.73815536]
[-26.14578438 15.28994656]
[-40.12137222 9.84173679]
[-54.09695816 4.39352655]
[-68.07254028 -1.05468333]
[-82.04812622 -6.50289345]
[-96.02371979 -11.95110321]
[-109.99930573 -17.39931297]
[-123.97489166 -22.84752274]
[-137.95046997 -28.29573250]
[-151.92605591 -33.74394226]
[-165.90164185 -39.19215393]
[-179.87722778 -44.64036179]
[-193.85281372 -50.08857346]
[-207.82839966 -55.53678131]
[-221.80398560 -60.98499298]
[-235.77957153 -66.43320465]
[-249.75515747 -71.88140869]
[-263.73074341 -77.32962036]
[-277.70632935 -82.77783203]
[-272.25811768 -96.75341797]
[-258.28253174 -91.30520630]
[-244.30696106 -85.85699463]
[-230.33137512 -80.40879059]
[-216.35578918 -74.96057892]
[-202.38020325 -69.51236725]
[-188.40460205 -64.06415558]
[-174.42901611 -58.61594772]
[-160.45343018 -53.16773987]
[-146.47784424 -47.71952820]
[-132.50225830 -42.27132034]
[-118.52667999 -36.82310867]
[-104.55109406 -31.37489891]
[-90.57550812 -25.92668915]
[-76.59992218 -20.47847939]
[-62.62433243 -15.03026962]
[-48.64874649 -9.58205986]
[-34.67316055 -4.13384962]
[-20.69757462 1.31436002]
[-6.72198915 6.76256990]
[6.58547974 -0.15922724]
[10.14834118 -14.72995186]
[13.71120358 -29.30067635]
[17.27406502 -43.87140274]
[20.83692741 -58.44212723]
[24.39978981 -73.01284790]
[27.96265030 -87.58357239]
[31.52551270 -102.15429688]
[35.08837509 -116.72502136]
[38.65123749 -131.29574585]
[53.22196198 -127.73288727]
[49.65909958 -113.16216278]
[46.09623718 -98.59143829]
[42.53337479 -84.02071381]
[38.97051239 -69.44998932]
[35.40764999 -54.87926483]
[31.84478951 -40.30854034]
[28.28192711 -25.73781395]
[24.71906662 -11.16709042]
[21.15620422 3.40363455]
[31.58479881 -7.37803507]
[46.55107498 -8.38333225]
[58.32790756 0.90678090]
[60.83489609 15.69579792]
[52.77767181 28.34811592]
[38.31620026 32.33131790]
[24.91559410 25.58734512]
[33.08015060 38.17066574]
[41.24470901 50.75399017]
[49.40926361 63.33731461]
[57.57382202 75.92063904]
[65.73838043 88.50395966]
[131.99589539 71.13904572]
[146.90863037 72.75466919]
[161.82136536 74.37028503]
[176.73410034 75.98590851]
[191.64685059 77.60152435]
[206.55958557 79.21714783]
[221.47232056 80.83276367]
[236.38505554 82.44838715]
[234.76943970 97.36112213]
[219.85670471 95.74550629]
[204.94396973 94.12988281]
[190.03121948 92.51426697]
[175.11848450 90.89864349]
[160.20574951 89.28302765]
[145.29301453 87.66740417]
[130.38027954 86.05178833]
[125.92834473 92.08753967]
[140.83451843 93.76266479]
[146.83699036 107.50930786]
[137.93334961 119.58097839]
[123.02715302 117.90613556]
[117.02449036 104.15904999]
[112.57255554 110.19480896]
[118.51987457 123.96540833]
[124.46718597 137.73600769]
[130.41448975 151.50660706]
[136.36181641 165.27720642]
[142.30912781 179.04782104]
[148.25643921 192.81842041]
[154.20375061 206.58901978]
[140.43315125 212.53633118]
[134.48583984 198.76573181]
[128.53851318 184.99513245]
[122.59120941 171.22451782]
[116.64389801 157.45391846]
[110.69657898 143.68331909]
[104.74926758 129.91271973]
[98.80195618 116.14212036]
] def
/pairs [
[1 14]
[2 13]
[3 12]
[4 11]
[5 10]
[6 9]
[7 8]
[15 92]
[16 91]
[17 90]
[18 89]
[19 88]
[20 87]
[21 60]
[22 59]
[23 58]
[24 57]
[25 56]
[26 55]
[27 54]
[28 53]
[29 52]
[30 51]
[31 50]
[32 49]
[33 48]
[34 47]
[35 46]
[36 45]
[37 44]
[38 43]
[39 42]
[40 41]
[61 80]
[62 79]
[63 78]
[64 77]
[65 76]
[66 75]
[67 74]
[68 73]
[69 72]
[70 71]
[93 108]
[94 107]
[95 106]
[96 105]
[97 104]
[98 103]
[99 102]
[100 101]
[115 130]
[116 129]
[117 128]
[118 127]
[119 126]
[120 125]
[121 124]
[122 123]
] def

init

% switch off outline pairs or bases by removing these lines
drawoutline
drawpairs
drawbases
% show it
showpage
end
%%EOF
