%!PS-Adobe-3.0 EPSF-3.0
%%Creator: PS_dot.c,v 1.38 2007/02/02 15:18:13 ivo Exp $, ViennaRNA-2.0.7
%%CreationDate: Fri Nov  9 19:01:57 2012
%%Title: RNA Secondary Structure Plot
%%BoundingBox: 66 210 518 662
%%DocumentFonts: Helvetica
%%Pages: 1
%%EndComments

%Options: -d2 
% to switch off outline pairs of sequence comment or
% delete the appropriate line near the end of the file

%%BeginProlog
/RNAplot 100 dict def
RNAplot begin
/fsize  14 def
/outlinecolor {0.2 setgray} bind def
/paircolor    {0.2 setgray} bind def
/seqcolor     {0   setgray} bind def
/cshow  { dup stringwidth pop -2 div fsize -3 div rmoveto show} bind def
/min { 2 copy gt { exch } if pop } bind def
/max { 2 copy lt { exch } if pop } bind def
/arccoords { % i j arccoords
  % puts optimal x1 y1 x2 y2 coordinates used in bezier curves from i to j
  % onto the stack
  dup 3 -1 roll dup 4 -1 roll lt dup dup 5 2 roll {exch} if
  dup 3 -1 roll dup 3 -1 roll exch sub 1 sub dup
  4 -2 roll 5 -1 roll {exch} if 4 2 roll
  sequence length dup 2 div exch 3 1 roll lt 
  {exch 5 -1 roll pop 4 -2 roll exch 4 2 roll}
  { 4 2 roll 5 -1 roll dup 6 1 roll {exch} if
    4 -2 roll exch pop dup 3 -1 roll dup 4 1 roll
    exch add 4 -1 roll dup 5 1 roll sub 1 sub
    5 -1 roll not {4 -2 roll exch 4 2 roll} if
  }ifelse
   % compute the scalingfactor and prepare (1-sf) and sf*r
  2 mul exch cpr 3 1 roll div dup
  3 -1 roll mul exch 1 exch sub exch
   % compute the coordinates
  3 -1 roll 1 sub coor exch get aload pop % get coord for i
  4 -1 roll dup 5 1 roll mul 3 -1 roll dup 4 1 roll add exch % calculate y1
  4 -1 roll dup 5 1 roll mul 3 -1 roll dup 4 1 roll add exch % calculate x1
  5 -1 roll 1 sub coor exch get aload pop % get coord for j
  % duplicate j coord
  dup 3 -1 roll dup 4 1 roll exch 8 2 roll
  6 -1 roll dup 7 1 roll mul 5 -1 roll dup 6 1 roll add exch % calculate y2
  6 -1 roll mul 5 -1 roll add exch % calculate x2
  6 -2 roll % reorder
} bind def
/drawoutline {
  gsave outlinecolor newpath
  coor 0 get aload pop 0.8 0 360 arc % draw 5' circle of 1st sequence
  currentdict /cutpoint known        % check if cutpoint is defined
  {coor 0 cutpoint getinterval
   {aload pop lineto} forall         % draw outline of 1st sequence
   coor cutpoint 1 add get aload pop
   2 copy moveto 0.8 0 360 arc       % draw 5' circle of 2nd sequence
   coor cutpoint 1 add coor length cutpoint 1 add sub getinterval
   {aload pop lineto} forall}        % draw outline of 2nd sequence
  {coor {aload pop lineto} forall}   % draw outline as a whole
  ifelse
  stroke grestore
} bind def
/drawpairs {
  paircolor
  0.7 setlinewidth
  [9 3.01] 9 setdash
  newpath
  pairs {aload pop
      currentdict (cpr) known
      { exch dup
        coor  exch 1 sub get aload pop moveto
        exch arccoords curveto
      }
      { coor exch 1 sub get aload pop moveto
        coor exch 1 sub get aload pop lineto
      }ifelse
  } forall
  stroke
} bind def
% draw bases
/drawbases {
  [] 0 setdash
  seqcolor
  0
  coor {
    aload pop moveto
    dup sequence exch 1 getinterval cshow
    1 add
  } forall
  pop
} bind def

/init {
  /Helvetica findfont fsize scalefont setfont
  1 setlinejoin
  1 setlinecap
  0.8 setlinewidth
  72 216 translate
  % find the coordinate range
  /xmax -1000 def /xmin 10000 def
  /ymax -1000 def /ymin 10000 def
  coor {
      aload pop
      dup ymin lt {dup /ymin exch def} if
      dup ymax gt {/ymax exch def} {pop} ifelse
      dup xmin lt {dup /xmin exch def} if
      dup xmax gt {/xmax exch def} {pop} ifelse
  } forall
  /size {xmax xmin sub ymax ymin sub max} bind def
  72 6 mul size div dup scale
  size xmin sub xmax sub 2 div size ymin sub ymax sub 2 div
  translate
} bind def
end
%%EndProlog
RNAplot begin
% data start here
/sequence (\
1111111111111133333344444444444444444444444444444444444444445555555555555555555566666633333377777777777777776666668888888888888888\
) def
/coor [
[71.75261688 126.00514984]
[66.47237396 140.04505920]
[61.19212723 154.08496094]
[55.91188431 168.12487793]
[50.63164139 182.16477966]
[45.35139847 196.20469666]
[40.07115555 210.24459839]
[26.03124619 204.96435547]
[31.31148911 190.92445374]
[36.59173203 176.88453674]
[41.87197495 162.84463501]
[47.15222168 148.80471802]
[52.43246460 134.76481628]
[57.71270752 120.72490692]
[46.34776688 130.51460266]
[34.98282623 140.30429077]
[33.91041565 125.34268188]
[39.42476273 111.39305878]
[50.43593979 101.20963287]
[65.31268311 99.29063416]
[80.18942261 97.37163544]
[66.21383667 91.92342377]
[52.23825073 86.47521210]
[38.26266479 81.02700806]
[24.28707695 75.57879639]
[10.31149197 70.13058472]
[-3.66409445 64.68237305]
[-17.63968086 59.23416519]
[-31.61526680 53.78595734]
[-45.59085464 48.33774567]
[-59.56644058 42.88953781]
[-73.54202271 37.44132614]
[-87.51760864 31.99311638]
[-101.49319458 26.54490662]
[-115.46878052 21.09669685]
[-129.44436646 15.64848709]
[-143.41995239 10.20027733]
[-157.39553833 4.75206709]
[-171.37112427 -0.69614261]
[-185.34671021 -6.14435244]
[-179.89849854 -20.11993790]
[-165.92291260 -14.67172909]
[-151.94732666 -9.22351933]
[-137.97174072 -3.77530909]
[-123.99616241 1.67290080]
[-110.02057648 7.12111044]
[-96.04499054 12.56932068]
[-82.06940460 18.01753044]
[-68.09381866 23.46574020]
[-54.11822891 28.91394997]
[-40.14264297 34.36215973]
[-26.16705704 39.81037140]
[-12.19147110 45.25857925]
[1.78411531 50.70679092]
[15.75970173 56.15499878]
[29.73528862 61.60321045]
[43.71087265 67.05142212]
[57.68645859 72.49962616]
[71.66204834 77.94783783]
[85.63763428 83.39604950]
[98.94509888 76.47425079]
[102.50796509 61.90352631]
[106.07082367 47.33280182]
[109.63368988 32.76207733]
[113.19654846 18.19135284]
[116.75940704 3.62062860]
[120.32227325 -10.95009613]
[123.88513184 -25.52082062]
[127.44799805 -40.09154510]
[131.01086426 -54.66226959]
[145.58158875 -51.09940720]
[142.01872253 -36.52868271]
[138.45585632 -21.95795822]
[134.89299011 -7.38723421]
[131.33013916 7.18349028]
[127.76727295 21.75421524]
[124.20441437 36.32493973]
[120.64154816 50.89566422]
[117.07868958 65.46639252]
[113.51582336 80.03711700]
[122.98821259 91.66784668]
[137.97850037 91.12837219]
[152.96879578 90.58890533]
[167.95909119 90.04943848]
[182.94938660 89.50996399]
[197.93968201 88.97049713]
[188.21760559 77.54766083]
[189.19934082 62.57982635]
[200.33016968 52.52474213]
[215.32046509 53.06415558]
[225.69978333 63.89326859]
[225.60316467 78.89295959]
[215.08506775 89.58752441]
[229.99781799 91.20314026]
[244.91055298 92.81876373]
[259.82330322 94.43437958]
[274.73602295 96.05000305]
[289.64877319 97.66561890]
[304.56149292 99.28124237]
[319.47424316 100.89685822]
[317.85861206 115.80959320]
[302.94589233 114.19397736]
[288.03314209 112.57836151]
[273.12042236 110.96273804]
[258.20767212 109.34712219]
[243.29493713 107.73149872]
[228.38218689 106.11588287]
[213.46945190 104.50025940]
[198.47915649 103.96079254]
[183.48886108 104.50025940]
[168.49856567 105.03973389]
[153.50827026 105.57920074]
[138.51797485 106.11867523]
[123.52767944 106.65814209]
[115.51458740 119.33845520]
[121.46190643 133.10905457]
[127.40921783 146.87965393]
[133.35652161 160.65026855]
[139.30384827 174.42086792]
[145.25115967 188.19146729]
[151.19847107 201.96206665]
[157.14578247 215.73266602]
[143.37518311 221.67997742]
[137.42787170 207.90937805]
[131.48054504 194.13877869]
[125.53324127 180.36817932]
[119.58592987 166.59757996]
[113.63861084 152.82698059]
[107.69129944 139.05636597]
[101.74398804 125.28576660]
] def
/pairs [
[1 14]
[2 13]
[3 12]
[4 11]
[5 10]
[6 9]
[7 8]
[21 60]
[22 59]
[23 58]
[24 57]
[25 56]
[26 55]
[27 54]
[28 53]
[29 52]
[30 51]
[31 50]
[32 49]
[33 48]
[34 47]
[35 46]
[36 45]
[37 44]
[38 43]
[39 42]
[40 41]
[61 80]
[62 79]
[63 78]
[64 77]
[65 76]
[66 75]
[67 74]
[68 73]
[69 72]
[70 71]
[81 114]
[82 113]
[83 112]
[84 111]
[85 110]
[86 109]
[93 108]
[94 107]
[95 106]
[96 105]
[97 104]
[98 103]
[99 102]
[100 101]
[115 130]
[116 129]
[117 128]
[118 127]
[119 126]
[120 125]
[121 124]
[122 123]
] def

init

% switch off outline pairs or bases by removing these lines
drawoutline
drawpairs
drawbases
% show it
showpage
end
%%EOF
