%!PS-Adobe-3.0 EPSF-3.0
%%Creator: PS_dot.c,v 1.38 2007/02/02 15:18:13 ivo Exp $, ViennaRNA-2.0.7
%%CreationDate: Fri Nov  9 19:01:58 2012
%%Title: RNA Secondary Structure Plot
%%BoundingBox: 66 210 518 662
%%DocumentFonts: Helvetica
%%Pages: 1
%%EndComments

%Options: -d2 
% to switch off outline pairs of sequence comment or
% delete the appropriate line near the end of the file

%%BeginProlog
/RNAplot 100 dict def
RNAplot begin
/fsize  14 def
/outlinecolor {0.2 setgray} bind def
/paircolor    {0.2 setgray} bind def
/seqcolor     {0   setgray} bind def
/cshow  { dup stringwidth pop -2 div fsize -3 div rmoveto show} bind def
/min { 2 copy gt { exch } if pop } bind def
/max { 2 copy lt { exch } if pop } bind def
/arccoords { % i j arccoords
  % puts optimal x1 y1 x2 y2 coordinates used in bezier curves from i to j
  % onto the stack
  dup 3 -1 roll dup 4 -1 roll lt dup dup 5 2 roll {exch} if
  dup 3 -1 roll dup 3 -1 roll exch sub 1 sub dup
  4 -2 roll 5 -1 roll {exch} if 4 2 roll
  sequence length dup 2 div exch 3 1 roll lt 
  {exch 5 -1 roll pop 4 -2 roll exch 4 2 roll}
  { 4 2 roll 5 -1 roll dup 6 1 roll {exch} if
    4 -2 roll exch pop dup 3 -1 roll dup 4 1 roll
    exch add 4 -1 roll dup 5 1 roll sub 1 sub
    5 -1 roll not {4 -2 roll exch 4 2 roll} if
  }ifelse
   % compute the scalingfactor and prepare (1-sf) and sf*r
  2 mul exch cpr 3 1 roll div dup
  3 -1 roll mul exch 1 exch sub exch
   % compute the coordinates
  3 -1 roll 1 sub coor exch get aload pop % get coord for i
  4 -1 roll dup 5 1 roll mul 3 -1 roll dup 4 1 roll add exch % calculate y1
  4 -1 roll dup 5 1 roll mul 3 -1 roll dup 4 1 roll add exch % calculate x1
  5 -1 roll 1 sub coor exch get aload pop % get coord for j
  % duplicate j coord
  dup 3 -1 roll dup 4 1 roll exch 8 2 roll
  6 -1 roll dup 7 1 roll mul 5 -1 roll dup 6 1 roll add exch % calculate y2
  6 -1 roll mul 5 -1 roll add exch % calculate x2
  6 -2 roll % reorder
} bind def
/drawoutline {
  gsave outlinecolor newpath
  coor 0 get aload pop 0.8 0 360 arc % draw 5' circle of 1st sequence
  currentdict /cutpoint known        % check if cutpoint is defined
  {coor 0 cutpoint getinterval
   {aload pop lineto} forall         % draw outline of 1st sequence
   coor cutpoint 1 add get aload pop
   2 copy moveto 0.8 0 360 arc       % draw 5' circle of 2nd sequence
   coor cutpoint 1 add coor length cutpoint 1 add sub getinterval
   {aload pop lineto} forall}        % draw outline of 2nd sequence
  {coor {aload pop lineto} forall}   % draw outline as a whole
  ifelse
  stroke grestore
} bind def
/drawpairs {
  paircolor
  0.7 setlinewidth
  [9 3.01] 9 setdash
  newpath
  pairs {aload pop
      currentdict (cpr) known
      { exch dup
        coor  exch 1 sub get aload pop moveto
        exch arccoords curveto
      }
      { coor exch 1 sub get aload pop moveto
        coor exch 1 sub get aload pop lineto
      }ifelse
  } forall
  stroke
} bind def
% draw bases
/drawbases {
  [] 0 setdash
  seqcolor
  0
  coor {
    aload pop moveto
    dup sequence exch 1 getinterval cshow
    1 add
  } forall
  pop
} bind def

/init {
  /Helvetica findfont fsize scalefont setfont
  1 setlinejoin
  1 setlinecap
  0.8 setlinewidth
  72 216 translate
  % find the coordinate range
  /xmax -1000 def /xmin 10000 def
  /ymax -1000 def /ymin 10000 def
  coor {
      aload pop
      dup ymin lt {dup /ymin exch def} if
      dup ymax gt {/ymax exch def} {pop} ifelse
      dup xmin lt {dup /xmin exch def} if
      dup xmax gt {/xmax exch def} {pop} ifelse
  } forall
  /size {xmax xmin sub ymax ymin sub max} bind def
  72 6 mul size div dup scale
  size xmin sub xmax sub 2 div size ymin sub ymax sub 2 div
  translate
} bind def
end
%%EndProlog
RNAplot begin
% data start here
/sequence (\
1111111111111133333444444444444444444444444444444444444444444445555555555555555555556666665333337777777777777777776666668888888888888888<<<<>>>>88\
) def
/coor [
[72.56273651 121.14296722]
[67.83612061 135.37879944]
[63.10949326 149.61463928]
[58.38286972 163.85047913]
[53.65624619 178.08630371]
[48.92962265 192.32214355]
[44.20299911 206.55798340]
[29.96716499 201.83135986]
[34.69378662 187.59552002]
[39.42041016 173.35968018]
[44.14703369 159.12385559]
[48.87365723 144.88801575]
[53.60028076 130.65217590]
[58.32690430 116.41634369]
[54.98908997 101.79241943]
[44.55385208 91.01718140]
[34.11861420 80.24194336]
[23.68337440 69.46669769]
[13.24813652 58.69145966]
[-10.59737492 54.51224899]
[-25.28928185 51.48770905]
[-39.98118973 48.46316528]
[-54.67309570 45.43862152]
[-69.36500549 42.41408157]
[-84.05691528 39.38953781]
[-98.74881744 36.36499786]
[-113.44072723 33.34045410]
[-128.13262939 30.31591225]
[-142.82453918 27.29136848]
[-157.51644897 24.26682663]
[-172.20835876 21.24228477]
[-186.90026855 18.21774292]
[-201.59217834 15.19320011]
[-216.28407288 12.16865826]
[-230.97598267 9.14411545]
[-245.66789246 6.11957312]
[-260.35980225 3.09503102]
[-275.05169678 0.07048873]
[-289.74362183 -2.95405364]
[-304.43551636 -5.97859573]
[-319.12744141 -9.00313854]
[-316.10287476 -23.69504547]
[-301.41098022 -20.67050362]
[-286.71908569 -17.64596176]
[-272.02716064 -14.62141895]
[-257.33526611 -11.59687614]
[-242.64335632 -8.57233429]
[-227.95144653 -5.54779196]
[-213.25953674 -2.52324963]
[-198.56762695 0.50129271]
[-183.87571716 3.52583504]
[-169.18380737 6.55037737]
[-154.49191284 9.57491970]
[-139.80000305 12.59946156]
[-125.10809326 15.62400436]
[-110.41618347 18.64854622]
[-95.72427368 21.67308807]
[-81.03237152 24.69763184]
[-66.34046173 27.72217369]
[-51.64855576 30.74671555]
[-36.95664597 33.77125931]
[-22.26473999 36.79579926]
[-7.57283258 39.82034302]
[4.82074928 31.37054062]
[6.42055416 16.45609856]
[7.06150007 1.46979785]
[7.70244646 -13.51650238]
[8.34339237 -28.50280190]
[8.98433876 -43.48910141]
[9.62528515 -58.47540283]
[10.26623058 -73.46170044]
[10.90717697 -88.44800568]
[11.54812336 -103.43430328]
[12.18906975 -118.42060089]
[27.17536926 -117.77965546]
[26.53442383 -102.79335785]
[25.89347649 -87.80705261]
[25.25253105 -72.82075500]
[24.61158562 -57.83445740]
[23.97063828 -42.84815598]
[23.32969284 -27.86185646]
[22.68874550 -12.87555599]
[22.04780006 2.11074400]
[21.40685463 17.09704399]
[33.44696045 8.15076828]
[48.31409836 10.14281082]
[57.57437515 21.94311714]
[55.97458649 36.85756302]
[44.42226410 46.42541885]
[29.47085762 45.21899033]
[19.60204887 33.92263031]
[24.02337646 48.25622177]
[34.45861435 59.03146362]
[44.89385223 69.80670166]
[55.32909012 80.58194733]
[65.76432800 91.35718536]
[123.41772461 66.74610138]
[138.10963440 63.72155762]
[152.80154419 60.69701767]
[167.49343872 57.67247391]
[182.18534851 54.64793015]
[196.87725830 51.62339020]
[211.56916809 48.59884644]
[226.26107788 45.57430649]
[240.95298767 42.54976273]
[243.97752380 57.24166870]
[229.28561401 60.26621246]
[214.59370422 63.29075623]
[199.90180969 66.31529999]
[185.20989990 69.33983612]
[170.51799011 72.36437988]
[155.82608032 75.38892365]
[141.13417053 78.41346741]
[126.44226837 81.43801117]
[123.55364227 88.35941315]
[138.43051147 86.44136047]
[147.52992249 98.36614990]
[141.75238037 112.20883179]
[126.87547302 114.12655640]
[117.77639008 102.20222473]
[114.88776398 109.12362671]
[123.07078552 121.69494629]
[155.20779419 121.85112762]
[165.41038513 132.84690857]
[175.61297607 143.84268188]
[185.81556702 154.83847046]
[196.01815796 165.83424377]
[206.22074890 176.83001709]
[216.42333984 187.82580566]
[205.42756653 198.02839661]
[195.22497559 187.03260803]
[185.02238464 176.03683472]
[174.81979370 165.04106140]
[164.61720276 154.04527283]
[154.41461182 143.04949951]
[144.21202087 132.05372620]
[131.14222717 139.41448975]
[135.25624084 153.83927917]
[139.37025452 168.26408386]
[143.48426819 182.68888855]
[129.05946350 186.80290222]
[124.94545746 172.37809753]
[120.83144379 157.95329285]
[116.71743011 143.52850342]
[110.49946594 129.87797546]
[102.31643677 117.30664825]
] def
/pairs [
[1 14]
[2 13]
[3 12]
[4 11]
[5 10]
[6 9]
[7 8]
[15 96]
[16 95]
[17 94]
[18 93]
[19 92]
[20 63]
[21 62]
[22 61]
[23 60]
[24 59]
[25 58]
[26 57]
[27 56]
[28 55]
[29 54]
[30 53]
[31 52]
[32 51]
[33 50]
[34 49]
[35 48]
[36 47]
[37 46]
[38 45]
[39 44]
[40 43]
[41 42]
[64 91]
[65 84]
[66 83]
[67 82]
[68 81]
[69 80]
[70 79]
[71 78]
[72 77]
[73 76]
[74 75]
[97 114]
[98 113]
[99 112]
[100 111]
[101 110]
[102 109]
[103 108]
[104 107]
[105 106]
[121 146]
[122 145]
[123 136]
[124 135]
[125 134]
[126 133]
[127 132]
[128 131]
[129 130]
[137 144]
[138 143]
[139 142]
[140 141]
] def

init

% switch off outline pairs or bases by removing these lines
drawoutline
drawpairs
drawbases
% show it
showpage
end
%%EOF
