%!PS-Adobe-3.0 EPSF-3.0
%%Creator: PS_dot.c,v 1.38 2007/02/02 15:18:13 ivo Exp $, ViennaRNA-2.0.7
%%CreationDate: Fri Nov  9 19:01:58 2012
%%Title: RNA Secondary Structure Plot
%%BoundingBox: 66 210 518 662
%%DocumentFonts: Helvetica
%%Pages: 1
%%EndComments

%Options: -d2 
% to switch off outline pairs of sequence comment or
% delete the appropriate line near the end of the file

%%BeginProlog
/RNAplot 100 dict def
RNAplot begin
/fsize  14 def
/outlinecolor {0.2 setgray} bind def
/paircolor    {0.2 setgray} bind def
/seqcolor     {0   setgray} bind def
/cshow  { dup stringwidth pop -2 div fsize -3 div rmoveto show} bind def
/min { 2 copy gt { exch } if pop } bind def
/max { 2 copy lt { exch } if pop } bind def
/arccoords { % i j arccoords
  % puts optimal x1 y1 x2 y2 coordinates used in bezier curves from i to j
  % onto the stack
  dup 3 -1 roll dup 4 -1 roll lt dup dup 5 2 roll {exch} if
  dup 3 -1 roll dup 3 -1 roll exch sub 1 sub dup
  4 -2 roll 5 -1 roll {exch} if 4 2 roll
  sequence length dup 2 div exch 3 1 roll lt 
  {exch 5 -1 roll pop 4 -2 roll exch 4 2 roll}
  { 4 2 roll 5 -1 roll dup 6 1 roll {exch} if
    4 -2 roll exch pop dup 3 -1 roll dup 4 1 roll
    exch add 4 -1 roll dup 5 1 roll sub 1 sub
    5 -1 roll not {4 -2 roll exch 4 2 roll} if
  }ifelse
   % compute the scalingfactor and prepare (1-sf) and sf*r
  2 mul exch cpr 3 1 roll div dup
  3 -1 roll mul exch 1 exch sub exch
   % compute the coordinates
  3 -1 roll 1 sub coor exch get aload pop % get coord for i
  4 -1 roll dup 5 1 roll mul 3 -1 roll dup 4 1 roll add exch % calculate y1
  4 -1 roll dup 5 1 roll mul 3 -1 roll dup 4 1 roll add exch % calculate x1
  5 -1 roll 1 sub coor exch get aload pop % get coord for j
  % duplicate j coord
  dup 3 -1 roll dup 4 1 roll exch 8 2 roll
  6 -1 roll dup 7 1 roll mul 5 -1 roll dup 6 1 roll add exch % calculate y2
  6 -1 roll mul 5 -1 roll add exch % calculate x2
  6 -2 roll % reorder
} bind def
/drawoutline {
  gsave outlinecolor newpath
  coor 0 get aload pop 0.8 0 360 arc % draw 5' circle of 1st sequence
  currentdict /cutpoint known        % check if cutpoint is defined
  {coor 0 cutpoint getinterval
   {aload pop lineto} forall         % draw outline of 1st sequence
   coor cutpoint 1 add get aload pop
   2 copy moveto 0.8 0 360 arc       % draw 5' circle of 2nd sequence
   coor cutpoint 1 add coor length cutpoint 1 add sub getinterval
   {aload pop lineto} forall}        % draw outline of 2nd sequence
  {coor {aload pop lineto} forall}   % draw outline as a whole
  ifelse
  stroke grestore
} bind def
/drawpairs {
  paircolor
  0.7 setlinewidth
  [9 3.01] 9 setdash
  newpath
  pairs {aload pop
      currentdict (cpr) known
      { exch dup
        coor  exch 1 sub get aload pop moveto
        exch arccoords curveto
      }
      { coor exch 1 sub get aload pop moveto
        coor exch 1 sub get aload pop lineto
      }ifelse
  } forall
  stroke
} bind def
% draw bases
/drawbases {
  [] 0 setdash
  seqcolor
  0
  coor {
    aload pop moveto
    dup sequence exch 1 getinterval cshow
    1 add
  } forall
  pop
} bind def

/init {
  /Helvetica findfont fsize scalefont setfont
  1 setlinejoin
  1 setlinecap
  0.8 setlinewidth
  72 216 translate
  % find the coordinate range
  /xmax -1000 def /xmin 10000 def
  /ymax -1000 def /ymin 10000 def
  coor {
      aload pop
      dup ymin lt {dup /ymin exch def} if
      dup ymax gt {/ymax exch def} {pop} ifelse
      dup xmin lt {dup /xmin exch def} if
      dup xmax gt {/xmax exch def} {pop} ifelse
  } forall
  /size {xmax xmin sub ymax ymin sub max} bind def
  72 6 mul size div dup scale
  size xmin sub xmax sub 2 div size ymin sub ymax sub 2 div
  translate
} bind def
end
%%EndProlog
RNAplot begin
% data start here
/sequence (\
1111111111111133333444444444444444444444444444444444444444444445555555555555555555556666665333337777777777777777776666668888888888888888<<<<>>>>88\
) def
/coor [
[97.64286041 130.90068054]
[92.91623688 145.13652039]
[88.18961334 159.37236023]
[83.46298981 173.60820007]
[78.73636627 187.84402466]
[74.00974274 202.07986450]
[69.28311920 216.31570435]
[55.04727936 211.58908081]
[59.77390289 197.35324097]
[64.50052643 183.11740112]
[69.22714996 168.88157654]
[73.95377350 154.64573669]
[78.68039703 140.40989685]
[83.40702057 126.17406464]
[79.43202209 123.18117523]
[75.98724365 119.59071350]
[73.16147614 115.49523163]
[71.02756500 111.00029755]
[69.64052582 106.22180176]
[69.03610992 101.28291321]
[54.34420013 98.25836945]
[39.65229034 95.23382568]
[24.96038437 92.20928192]
[10.26847744 89.18473816]
[-4.42343044 86.16020203]
[-19.11533737 83.13565826]
[-33.80724716 80.11111450]
[-48.49915314 77.08657074]
[-63.19105911 74.06202698]
[-77.88296509 71.03749084]
[-92.57487488 68.01294708]
[-107.26678467 64.98840332]
[-121.95868683 61.96385956]
[-136.65060425 58.93931961]
[-151.34249878 55.91477585]
[-166.03440857 52.89023209]
[-180.72631836 49.86569214]
[-195.41822815 46.84114838]
[-210.11013794 43.81660843]
[-224.80204773 40.79206467]
[-239.49394226 37.76752090]
[-236.46940613 23.07561493]
[-221.77749634 26.10015678]
[-207.08558655 29.12469864]
[-192.39369202 32.14924240]
[-177.70178223 35.17378235]
[-163.00987244 38.19832611]
[-148.31796265 41.22286987]
[-133.62605286 44.24740982]
[-118.93415070 47.27195358]
[-104.24224091 50.29649353]
[-89.55033112 53.32103729]
[-74.85842896 56.34558105]
[-60.16651917 59.37012100]
[-45.47460938 62.39466476]
[-30.78270340 65.41920471]
[-16.09079552 68.44374847]
[-1.39888811 71.46829224]
[13.29301929 74.49283600]
[27.98492622 77.51737213]
[42.67683411 80.54191589]
[57.36874008 83.56645966]
[72.06064606 86.59100342]
[90.99273682 66.02323914]
[122.35990906 67.66831207]
[123.00085449 52.68201447]
[123.64179993 37.69571304]
[124.28274536 22.70941353]
[124.92369080 7.72311306]
[125.56463623 -7.26318693]
[126.20558167 -22.24948692]
[126.84652710 -37.23578644]
[127.48747253 -52.22208786]
[128.12841797 -67.20838928]
[143.11471558 -66.56744385]
[142.47377014 -51.58114243]
[141.83282471 -36.59484100]
[141.19187927 -21.60854149]
[140.55093384 -6.62224054]
[139.90998840 8.36405945]
[139.26904297 23.35035896]
[138.62809753 38.33665848]
[137.98715210 53.32295990]
[137.34620667 68.30925751]
[149.36741638 77.28091431]
[163.55192566 72.40245056]
[177.73645020 67.52397919]
[191.92095947 62.64550781]
[206.10548401 57.76703644]
[220.28999329 52.88856506]
[207.56340027 44.94918823]
[203.98616028 30.38198662]
[211.58760071 17.45070076]
[226.05554199 13.49104404]
[239.18254089 20.74926758]
[243.52186584 35.10789490]
[236.61186218 48.42153549]
[251.30377197 45.39699173]
[265.99566650 42.37244797]
[280.68759155 39.34790802]
[295.37948608 36.32336426]
[310.07141113 33.29882431]
[324.76330566 30.27428055]
[339.45520020 27.24973869]
[354.14712524 24.22519493]
[357.17166138 38.91710281]
[342.47976685 41.94164658]
[327.78784180 44.96618652]
[313.09594727 47.99073029]
[298.40402222 51.01527405]
[283.71212769 54.03981400]
[269.02023315 57.06435776]
[254.32830811 60.08889771]
[239.63639832 63.11344147]
[225.16847229 67.07308197]
[210.98394775 71.95155334]
[196.79943848 76.83002472]
[182.61491394 81.70849609]
[168.43040466 86.58696747]
[154.24588013 91.46543121]
[149.36741638 105.64994812]
[157.55043030 118.22127533]
[189.68743896 118.37745667]
[199.89002991 129.37322998]
[210.09262085 140.36901855]
[220.29521179 151.36479187]
[230.49780273 162.36056519]
[240.70039368 173.35635376]
[250.90298462 184.35212708]
[239.90721130 194.55471802]
[229.70462036 183.55894470]
[219.50202942 172.56315613]
[209.29943848 161.56738281]
[199.09684753 150.57160950]
[188.89425659 139.57582092]
[178.69166565 128.58004761]
[165.62188721 135.94081116]
[169.73590088 150.36561584]
[173.84991455 164.79042053]
[177.96391296 179.21520996]
[163.53912354 183.32922363]
[159.42510986 168.90441895]
[155.31109619 154.47962952]
[151.19708252 140.05482483]
[144.97911072 126.40429688]
[136.79609680 113.83297729]
] def
/pairs [
[1 14]
[2 13]
[3 12]
[4 11]
[5 10]
[6 9]
[7 8]
[20 63]
[21 62]
[22 61]
[23 60]
[24 59]
[25 58]
[26 57]
[27 56]
[28 55]
[29 54]
[30 53]
[31 52]
[32 51]
[33 50]
[34 49]
[35 48]
[36 47]
[37 46]
[38 45]
[39 44]
[40 43]
[41 42]
[65 84]
[66 83]
[67 82]
[68 81]
[69 80]
[70 79]
[71 78]
[72 77]
[73 76]
[74 75]
[85 120]
[86 119]
[87 118]
[88 117]
[89 116]
[90 115]
[97 114]
[98 113]
[99 112]
[100 111]
[101 110]
[102 109]
[103 108]
[104 107]
[105 106]
[121 146]
[122 145]
[123 136]
[124 135]
[125 134]
[126 133]
[127 132]
[128 131]
[129 130]
[137 144]
[138 143]
[139 142]
[140 141]
] def

init

% switch off outline pairs or bases by removing these lines
drawoutline
drawpairs
drawbases
% show it
showpage
end
%%EOF
