%!PS-Adobe-3.0 EPSF-3.0
%%Creator: PS_dot.c,v 1.38 2007/02/02 15:18:13 ivo Exp $, ViennaRNA-2.0.7
%%CreationDate: Fri Nov  9 19:01:59 2012
%%Title: RNA Secondary Structure Plot
%%BoundingBox: 66 210 518 662
%%DocumentFonts: Helvetica
%%Pages: 1
%%EndComments

%Options: -d2 
% to switch off outline pairs of sequence comment or
% delete the appropriate line near the end of the file

%%BeginProlog
/RNAplot 100 dict def
RNAplot begin
/fsize  14 def
/outlinecolor {0.2 setgray} bind def
/paircolor    {0.2 setgray} bind def
/seqcolor     {0   setgray} bind def
/cshow  { dup stringwidth pop -2 div fsize -3 div rmoveto show} bind def
/min { 2 copy gt { exch } if pop } bind def
/max { 2 copy lt { exch } if pop } bind def
/arccoords { % i j arccoords
  % puts optimal x1 y1 x2 y2 coordinates used in bezier curves from i to j
  % onto the stack
  dup 3 -1 roll dup 4 -1 roll lt dup dup 5 2 roll {exch} if
  dup 3 -1 roll dup 3 -1 roll exch sub 1 sub dup
  4 -2 roll 5 -1 roll {exch} if 4 2 roll
  sequence length dup 2 div exch 3 1 roll lt 
  {exch 5 -1 roll pop 4 -2 roll exch 4 2 roll}
  { 4 2 roll 5 -1 roll dup 6 1 roll {exch} if
    4 -2 roll exch pop dup 3 -1 roll dup 4 1 roll
    exch add 4 -1 roll dup 5 1 roll sub 1 sub
    5 -1 roll not {4 -2 roll exch 4 2 roll} if
  }ifelse
   % compute the scalingfactor and prepare (1-sf) and sf*r
  2 mul exch cpr 3 1 roll div dup
  3 -1 roll mul exch 1 exch sub exch
   % compute the coordinates
  3 -1 roll 1 sub coor exch get aload pop % get coord for i
  4 -1 roll dup 5 1 roll mul 3 -1 roll dup 4 1 roll add exch % calculate y1
  4 -1 roll dup 5 1 roll mul 3 -1 roll dup 4 1 roll add exch % calculate x1
  5 -1 roll 1 sub coor exch get aload pop % get coord for j
  % duplicate j coord
  dup 3 -1 roll dup 4 1 roll exch 8 2 roll
  6 -1 roll dup 7 1 roll mul 5 -1 roll dup 6 1 roll add exch % calculate y2
  6 -1 roll mul 5 -1 roll add exch % calculate x2
  6 -2 roll % reorder
} bind def
/drawoutline {
  gsave outlinecolor newpath
  coor 0 get aload pop 0.8 0 360 arc % draw 5' circle of 1st sequence
  currentdict /cutpoint known        % check if cutpoint is defined
  {coor 0 cutpoint getinterval
   {aload pop lineto} forall         % draw outline of 1st sequence
   coor cutpoint 1 add get aload pop
   2 copy moveto 0.8 0 360 arc       % draw 5' circle of 2nd sequence
   coor cutpoint 1 add coor length cutpoint 1 add sub getinterval
   {aload pop lineto} forall}        % draw outline of 2nd sequence
  {coor {aload pop lineto} forall}   % draw outline as a whole
  ifelse
  stroke grestore
} bind def
/drawpairs {
  paircolor
  0.7 setlinewidth
  [9 3.01] 9 setdash
  newpath
  pairs {aload pop
      currentdict (cpr) known
      { exch dup
        coor  exch 1 sub get aload pop moveto
        exch arccoords curveto
      }
      { coor exch 1 sub get aload pop moveto
        coor exch 1 sub get aload pop lineto
      }ifelse
  } forall
  stroke
} bind def
% draw bases
/drawbases {
  [] 0 setdash
  seqcolor
  0
  coor {
    aload pop moveto
    dup sequence exch 1 getinterval cshow
    1 add
  } forall
  pop
} bind def

/init {
  /Helvetica findfont fsize scalefont setfont
  1 setlinejoin
  1 setlinecap
  0.8 setlinewidth
  72 216 translate
  % find the coordinate range
  /xmax -1000 def /xmin 10000 def
  /ymax -1000 def /ymin 10000 def
  coor {
      aload pop
      dup ymin lt {dup /ymin exch def} if
      dup ymax gt {/ymax exch def} {pop} ifelse
      dup xmin lt {dup /xmin exch def} if
      dup xmax gt {/xmax exch def} {pop} ifelse
  } forall
  /size {xmax xmin sub ymax ymin sub max} bind def
  72 6 mul size div dup scale
  size xmin sub xmax sub 2 div size ymin sub ymax sub 2 div
  translate
} bind def
end
%%EndProlog
RNAplot begin
% data start here
/sequence (\
1111111111113333333444444444444444444444444444444444444<<<<>>>>444444444444<<>>4444444444555555555555555555555566666633333337777777777777766666688888888888888<<<<<<>>>>>>88\
) def
/coor [
[70.84224701 120.16992950]
[67.33394623 134.75389099]
[63.82564545 149.33784485]
[60.31734467 163.92179871]
[56.80904007 178.50575256]
[53.30073929 193.08972168]
[38.71678162 189.58142090]
[42.22508240 174.99745178]
[45.73338699 160.41349792]
[49.24168777 145.82954407]
[52.74998856 131.24559021]
[56.25829315 116.66162872]
[53.14849854 101.98752594]
[44.02608490 90.08032227]
[34.90366745 78.17311096]
[25.78125381 66.26590729]
[16.65884018 54.35870361]
[7.53642511 42.45149612]
[-1.58598924 30.54429054]
[-24.57958031 10.26009655]
[-38.34481812 4.30037880]
[-52.11005402 -1.65933931]
[-65.87528992 -7.61905766]
[-79.64053345 -13.57877541]
[-93.40576935 -19.53849411]
[-107.17100525 -25.49821281]
[-120.93624115 -31.45792961]
[-134.70147705 -37.41764832]
[-148.46672058 -43.37736511]
[-182.47691345 -38.63758850]
[-196.63838196 -43.58259201]
[-210.79983521 -48.52759171]
[-224.96130371 -53.47259521]
[-239.12275696 -58.41759872]
[-253.28421021 -63.36260223]
[-267.44567871 -68.30760193]
[-281.60714722 -73.25260925]
[-295.76858521 -78.19760895]
[-309.93005371 -83.14260864]
[-324.09152222 -88.08761597]
[-338.25299072 -93.03261566]
[-363.62756348 -72.83257294]
[-378.35571289 -75.67539978]
[-393.08386230 -78.51821899]
[-407.81201172 -81.36103821]
[-422.54016113 -84.20386505]
[-437.26831055 -87.04668427]
[-451.99645996 -89.88950348]
[-449.15365601 -104.61765289]
[-434.42550659 -101.77483368]
[-419.69735718 -98.93200684]
[-404.96920776 -96.08918762]
[-390.24105835 -93.24636841]
[-375.51290894 -90.40354919]
[-360.78475952 -87.56072235]
[-355.07598877 -101.43191528]
[-367.53854370 -109.77961731]
[-380.00112915 -118.12731934]
[-392.46371460 -126.47502136]
[-384.11599731 -138.93760681]
[-371.65344238 -130.58990479]
[-359.19085693 -122.24219513]
[-346.72827148 -113.89449310]
[-333.30798340 -107.19407654]
[-319.14651489 -102.24907684]
[-304.98504639 -97.30406952]
[-290.82360840 -92.35906982]
[-276.66213989 -87.41406250]
[-262.50067139 -82.46906281]
[-248.33921814 -77.52406311]
[-234.17774963 -72.57905579]
[-220.01629639 -67.63405609]
[-205.85482788 -62.68905258]
[-191.69337463 -57.74404907]
[-177.53192139 -52.79904938]
[-166.87727356 -63.35738754]
[-171.69348145 -77.56316376]
[-157.48771667 -82.37937927]
[-152.67149353 -68.17360687]
[-142.50700378 -57.14260483]
[-128.74176025 -51.18288422]
[-114.97652435 -45.22316742]
[-101.21128845 -39.26345062]
[-87.44605255 -33.30373001]
[-73.68080902 -27.34401321]
[-59.91557312 -21.38429451]
[-46.15033722 -15.42457676]
[-32.38510132 -9.46485806]
[-18.61986160 -3.50514030]
[-4.41408730 -8.32135868]
[2.88847923 -21.42374420]
[10.19104576 -34.52613068]
[17.49361229 -47.62851715]
[24.79617882 -60.73090363]
[32.09874344 -73.83329010]
[39.40130997 -86.93567657]
[46.70387650 -100.03806305]
[54.00644302 -113.14044952]
[61.30900955 -126.24283600]
[68.61157990 -139.34521484]
[81.71396637 -132.04264832]
[74.41139984 -118.94026947]
[67.10883331 -105.83788300]
[59.80626297 -92.73549652]
[52.50369644 -79.63311005]
[45.20112991 -66.53072357]
[37.89856339 -53.42833710]
[30.59599876 -40.32595062]
[23.29343224 -27.22356415]
[15.99086571 -14.12117767]
[8.68829918 -1.01879179]
[20.09486389 -10.75995731]
[35.08891296 -10.33756351]
[45.92899323 0.03030692]
[47.01833725 14.99069881]
[37.79452133 26.81952858]
[23.01982117 29.40954590]
[10.32121658 21.42187691]
[19.44363213 33.32908249]
[28.56604576 45.23628616]
[37.68846130 57.14349365]
[46.81087494 69.05069733]
[55.93328857 80.95790863]
[65.05570221 92.86511230]
[130.22592163 67.80302429]
[145.19563293 68.75575256]
[160.16534424 69.70848846]
[175.13505554 70.66121674]
[190.10476685 71.61395264]
[205.07449341 72.56668091]
[220.04420471 73.51940918]
[219.09146118 88.48912811]
[204.12174988 87.53639221]
[189.15203857 86.58366394]
[174.18232727 85.63092804]
[159.21261597 84.67819977]
[144.24290466 83.72546387]
[129.27319336 82.77273560]
[125.32835388 89.15147400]
[138.08583069 97.04113770]
[150.84318542 104.93100739]
[142.95310974 117.68824005]
[130.19615173 109.79861450]
[117.43868256 101.90894318]
[113.49385071 108.28768158]
[121.03313446 121.25530243]
[152.43948364 120.24389648]
[162.60397339 131.27490234]
[172.76847839 142.30590820]
[182.93296814 153.33689880]
[193.09745789 164.36790466]
[203.26196289 175.39891052]
[192.23095703 185.56340027]
[182.06646729 174.53240967]
[171.90196228 163.50140381]
[161.73747253 152.47039795]
[151.57296753 141.43939209]
[141.40847778 130.40838623]
[128.44085693 137.94767761]
[132.99832153 152.23855591]
[137.55578613 166.52944946]
[142.11326599 180.82034302]
[146.67073059 195.11122131]
[151.22819519 209.40211487]
[136.93730164 213.95957947]
[132.37983704 199.66870117]
[127.82237244 185.37780762]
[123.26490021 171.08691406]
[118.70743561 156.79603577]
[114.14996338 142.50514221]
[108.06551361 128.79458618]
[100.52622986 115.82696533]
] def
/pairs [
[1 12]
[2 11]
[3 10]
[4 9]
[5 8]
[6 7]
[13 124]
[14 123]
[15 122]
[16 121]
[17 120]
[18 119]
[19 118]
[20 89]
[21 88]
[22 87]
[23 86]
[24 85]
[25 84]
[26 83]
[27 82]
[28 81]
[29 80]
[30 75]
[31 74]
[32 73]
[33 72]
[34 71]
[35 70]
[36 69]
[37 68]
[38 67]
[39 66]
[40 65]
[41 64]
[42 55]
[43 54]
[44 53]
[45 52]
[46 51]
[47 50]
[48 49]
[56 63]
[57 62]
[58 61]
[59 60]
[76 79]
[77 78]
[90 111]
[91 110]
[92 109]
[93 108]
[94 107]
[95 106]
[96 105]
[97 104]
[98 103]
[99 102]
[100 101]
[125 138]
[126 137]
[127 136]
[128 135]
[129 134]
[130 133]
[131 132]
[145 172]
[146 171]
[147 158]
[148 157]
[149 156]
[150 155]
[151 154]
[152 153]
[159 170]
[160 169]
[161 168]
[162 167]
[163 166]
[164 165]
] def

init

% switch off outline pairs or bases by removing these lines
drawoutline
drawpairs
drawbases
% show it
showpage
end
%%EOF
