%!PS-Adobe-3.0 EPSF-3.0
%%Creator: PS_dot.c,v 1.38 2007/02/02 15:18:13 ivo Exp $, ViennaRNA-2.0.7
%%CreationDate: Fri Nov  9 19:01:59 2012
%%Title: RNA Secondary Structure Plot
%%BoundingBox: 66 210 518 662
%%DocumentFonts: Helvetica
%%Pages: 1
%%EndComments

%Options: -d2 
% to switch off outline pairs of sequence comment or
% delete the appropriate line near the end of the file

%%BeginProlog
/RNAplot 100 dict def
RNAplot begin
/fsize  14 def
/outlinecolor {0.2 setgray} bind def
/paircolor    {0.2 setgray} bind def
/seqcolor     {0   setgray} bind def
/cshow  { dup stringwidth pop -2 div fsize -3 div rmoveto show} bind def
/min { 2 copy gt { exch } if pop } bind def
/max { 2 copy lt { exch } if pop } bind def
/arccoords { % i j arccoords
  % puts optimal x1 y1 x2 y2 coordinates used in bezier curves from i to j
  % onto the stack
  dup 3 -1 roll dup 4 -1 roll lt dup dup 5 2 roll {exch} if
  dup 3 -1 roll dup 3 -1 roll exch sub 1 sub dup
  4 -2 roll 5 -1 roll {exch} if 4 2 roll
  sequence length dup 2 div exch 3 1 roll lt 
  {exch 5 -1 roll pop 4 -2 roll exch 4 2 roll}
  { 4 2 roll 5 -1 roll dup 6 1 roll {exch} if
    4 -2 roll exch pop dup 3 -1 roll dup 4 1 roll
    exch add 4 -1 roll dup 5 1 roll sub 1 sub
    5 -1 roll not {4 -2 roll exch 4 2 roll} if
  }ifelse
   % compute the scalingfactor and prepare (1-sf) and sf*r
  2 mul exch cpr 3 1 roll div dup
  3 -1 roll mul exch 1 exch sub exch
   % compute the coordinates
  3 -1 roll 1 sub coor exch get aload pop % get coord for i
  4 -1 roll dup 5 1 roll mul 3 -1 roll dup 4 1 roll add exch % calculate y1
  4 -1 roll dup 5 1 roll mul 3 -1 roll dup 4 1 roll add exch % calculate x1
  5 -1 roll 1 sub coor exch get aload pop % get coord for j
  % duplicate j coord
  dup 3 -1 roll dup 4 1 roll exch 8 2 roll
  6 -1 roll dup 7 1 roll mul 5 -1 roll dup 6 1 roll add exch % calculate y2
  6 -1 roll mul 5 -1 roll add exch % calculate x2
  6 -2 roll % reorder
} bind def
/drawoutline {
  gsave outlinecolor newpath
  coor 0 get aload pop 0.8 0 360 arc % draw 5' circle of 1st sequence
  currentdict /cutpoint known        % check if cutpoint is defined
  {coor 0 cutpoint getinterval
   {aload pop lineto} forall         % draw outline of 1st sequence
   coor cutpoint 1 add get aload pop
   2 copy moveto 0.8 0 360 arc       % draw 5' circle of 2nd sequence
   coor cutpoint 1 add coor length cutpoint 1 add sub getinterval
   {aload pop lineto} forall}        % draw outline of 2nd sequence
  {coor {aload pop lineto} forall}   % draw outline as a whole
  ifelse
  stroke grestore
} bind def
/drawpairs {
  paircolor
  0.7 setlinewidth
  [9 3.01] 9 setdash
  newpath
  pairs {aload pop
      currentdict (cpr) known
      { exch dup
        coor  exch 1 sub get aload pop moveto
        exch arccoords curveto
      }
      { coor exch 1 sub get aload pop moveto
        coor exch 1 sub get aload pop lineto
      }ifelse
  } forall
  stroke
} bind def
% draw bases
/drawbases {
  [] 0 setdash
  seqcolor
  0
  coor {
    aload pop moveto
    dup sequence exch 1 getinterval cshow
    1 add
  } forall
  pop
} bind def

/init {
  /Helvetica findfont fsize scalefont setfont
  1 setlinejoin
  1 setlinecap
  0.8 setlinewidth
  72 216 translate
  % find the coordinate range
  /xmax -1000 def /xmin 10000 def
  /ymax -1000 def /ymin 10000 def
  coor {
      aload pop
      dup ymin lt {dup /ymin exch def} if
      dup ymax gt {/ymax exch def} {pop} ifelse
      dup xmin lt {dup /xmin exch def} if
      dup xmax gt {/xmax exch def} {pop} ifelse
  } forall
  /size {xmax xmin sub ymax ymin sub max} bind def
  72 6 mul size div dup scale
  size xmin sub xmax sub 2 div size ymin sub ymax sub 2 div
  translate
} bind def
end
%%EndProlog
RNAplot begin
% data start here
/sequence (\
1111111111113333333444444444444444444444444444444444444<<<<>>>>444444444444<<>>4444444444555555555555555555555566666633333337777777777777766666688888888888888<<<<<<>>>>>>88\
) def
/coor [
[73.23717499 131.16947937]
[69.72887421 145.75343323]
[66.22057343 160.33740234]
[62.71227264 174.92135620]
[59.20397186 189.50531006]
[55.69567108 204.08926392]
[41.11171341 200.58096313]
[44.62001419 185.99700928]
[48.12831497 171.41305542]
[51.63661575 156.82908630]
[55.14492035 142.24513245]
[58.65322113 127.66117859]
[48.58247375 138.77783203]
[35.04613495 132.31504822]
[27.37524223 119.42485046]
[28.15113831 104.44493103]
[37.11272812 92.41622162]
[51.24432755 87.38652039]
[65.78906250 91.04753113]
[80.72643280 89.67826843]
[66.96119690 83.71855164]
[53.19596100 77.75883484]
[39.43072128 71.79911041]
[25.66548538 65.83939362]
[11.90024757 59.87967682]
[-1.86498964 53.91996002]
[-15.63022709 47.96023941]
[-29.39546394 42.00052261]
[-43.16070175 36.04080582]
[-77.17090607 40.78058243]
[-91.33235931 35.83557892]
[-105.49382019 30.89057732]
[-119.65528107 25.94557571]
[-133.81674194 21.00057220]
[-147.97819519 16.05557060]
[-162.13966370 11.11056805]
[-176.30111694 6.16556549]
[-190.46258545 1.22056293]
[-204.62403870 -3.72443962]
[-218.78550720 -8.66944218]
[-232.94696045 -13.61444473]
[-258.32156372 6.58559465]
[-273.04971313 3.74277353]
[-287.77786255 0.89995229]
[-302.50601196 -1.94286883]
[-317.23416138 -4.78568983]
[-331.96231079 -7.62851095]
[-346.69046021 -10.47133255]
[-343.84762573 -25.19948196]
[-329.11947632 -22.35666084]
[-314.39132690 -19.51383972]
[-299.66317749 -16.67101860]
[-284.93502808 -13.82819653]
[-270.20687866 -10.98537540]
[-255.47874451 -8.14255428]
[-249.76995850 -22.01374245]
[-262.23254395 -30.36144447]
[-274.69512939 -38.70914841]
[-287.15768433 -47.05685043]
[-278.80999756 -59.51942825]
[-266.34741211 -51.17172623]
[-253.88484192 -42.82402420]
[-241.42225647 -34.47631836]
[-228.00195312 -27.77590370]
[-213.84049988 -22.83090210]
[-199.67904663 -17.88590050]
[-185.51757812 -12.94089699]
[-171.35612488 -7.99589443]
[-157.19465637 -3.05089211]
[-143.03320312 1.89411044]
[-128.87173462 6.83911276]
[-114.71028137 11.78411579]
[-100.54882050 16.72911835]
[-86.38735962 21.67411995]
[-72.22589874 26.61912346]
[-61.57125473 16.06078339]
[-66.38747406 1.85500801]
[-52.18169785 -2.96121001]
[-47.36547852 11.24456501]
[-37.20098495 22.27556801]
[-23.43574715 28.23528481]
[-9.67050934 34.19500351]
[4.09472847 40.15472031]
[17.85996628 46.11444092]
[31.62520409 52.07415771]
[45.39044189 58.03387833]
[59.15567780 63.99359512]
[72.92091370 69.95331573]
[86.68614960 75.91303253]
[100.89192963 71.09680939]
[108.19449615 57.99442673]
[115.49706268 44.89204025]
[122.79962921 31.78965378]
[130.10218811 18.68726921]
[137.40475464 5.58488226]
[144.70732117 -7.51750422]
[152.00988770 -20.61989021]
[159.31245422 -33.72227478]
[166.61502075 -46.82466125]
[173.91758728 -59.92704773]
[187.01997375 -52.62448120]
[179.71740723 -39.52209473]
[172.41484070 -26.41971016]
[165.11227417 -13.31732368]
[157.80970764 -0.21493754]
[150.50714111 12.88744831]
[143.20457458 25.98983574]
[135.90200806 39.09222031]
[128.59944153 52.19460678]
[121.29688263 65.29699707]
[113.99431610 78.39937592]
[121.99948883 91.08469391]
[136.96920776 90.13195801]
[151.93891907 89.17922974]
[166.90863037 88.22649384]
[181.87834167 87.27376556]
[196.84805298 86.32102966]
[185.70890808 76.27516174]
[183.48191833 61.44139862]
[191.18011475 48.56747818]
[205.30166626 43.50961685]
[219.42280579 48.56858444]
[227.11999512 61.44311142]
[224.89183044 76.27669525]
[213.75352478 86.32102966]
[228.72323608 87.27376556]
[243.69294739 88.22649384]
[258.66265869 89.17922974]
[273.63238525 90.13195801]
[288.60208130 91.08469391]
[303.57180786 92.03742218]
[302.61904907 107.00713348]
[287.64935303 106.05440521]
[272.67962646 105.10166931]
[257.70993042 104.14894104]
[242.74021912 103.19620514]
[227.77049255 102.24347687]
[212.80078125 101.29074860]
[197.80078125 101.29074860]
[182.83106995 102.24347687]
[167.86135864 103.19620514]
[152.89164734 104.14894104]
[137.92193604 105.10166931]
[122.95222473 106.05440521]
[115.88877869 119.28723145]
[123.42806244 132.25485229]
[154.83441162 131.24345398]
[164.99890137 142.27444458]
[175.16340637 153.30545044]
[185.32789612 164.33645630]
[195.49240112 175.36746216]
[205.65689087 186.39846802]
[194.62588501 196.56295776]
[184.46139526 185.53195190]
[174.29689026 174.50094604]
[164.13240051 163.46995544]
[153.96789551 152.43894958]
[143.80340576 141.40794373]
[130.83578491 148.94721985]
[135.39324951 163.23811340]
[139.95071411 177.52900696]
[144.50819397 191.81988525]
[149.06565857 206.11077881]
[153.62312317 220.40167236]
[139.33224487 224.95913696]
[134.77476501 210.66824341]
[130.21730042 196.37736511]
[125.65983582 182.08647156]
[121.10236359 167.79557800]
[116.54489899 153.50469971]
[110.46044159 139.79414368]
[102.92115784 126.82651520]
] def
/pairs [
[1 12]
[2 11]
[3 10]
[4 9]
[5 8]
[6 7]
[20 89]
[21 88]
[22 87]
[23 86]
[24 85]
[25 84]
[26 83]
[27 82]
[28 81]
[29 80]
[30 75]
[31 74]
[32 73]
[33 72]
[34 71]
[35 70]
[36 69]
[37 68]
[38 67]
[39 66]
[40 65]
[41 64]
[42 55]
[43 54]
[44 53]
[45 52]
[46 51]
[47 50]
[48 49]
[56 63]
[57 62]
[58 61]
[59 60]
[76 79]
[77 78]
[90 111]
[91 110]
[92 109]
[93 108]
[94 107]
[95 106]
[96 105]
[97 104]
[98 103]
[99 102]
[100 101]
[112 144]
[113 143]
[114 142]
[115 141]
[116 140]
[117 139]
[125 138]
[126 137]
[127 136]
[128 135]
[129 134]
[130 133]
[131 132]
[145 172]
[146 171]
[147 158]
[148 157]
[149 156]
[150 155]
[151 154]
[152 153]
[159 170]
[160 169]
[161 168]
[162 167]
[163 166]
[164 165]
] def

init

% switch off outline pairs or bases by removing these lines
drawoutline
drawpairs
drawbases
% show it
showpage
end
%%EOF
