%!PS-Adobe-3.0 EPSF-3.0
%%Creator: PS_dot.c,v 1.38 2007/02/02 15:18:13 ivo Exp $, ViennaRNA-2.0.7
%%CreationDate: Fri Nov  9 19:01:59 2012
%%Title: RNA Secondary Structure Plot
%%BoundingBox: 66 210 518 662
%%DocumentFonts: Helvetica
%%Pages: 1
%%EndComments

%Options: -d2 
% to switch off outline pairs of sequence comment or
% delete the appropriate line near the end of the file

%%BeginProlog
/RNAplot 100 dict def
RNAplot begin
/fsize  14 def
/outlinecolor {0.2 setgray} bind def
/paircolor    {0.2 setgray} bind def
/seqcolor     {0   setgray} bind def
/cshow  { dup stringwidth pop -2 div fsize -3 div rmoveto show} bind def
/min { 2 copy gt { exch } if pop } bind def
/max { 2 copy lt { exch } if pop } bind def
/arccoords { % i j arccoords
  % puts optimal x1 y1 x2 y2 coordinates used in bezier curves from i to j
  % onto the stack
  dup 3 -1 roll dup 4 -1 roll lt dup dup 5 2 roll {exch} if
  dup 3 -1 roll dup 3 -1 roll exch sub 1 sub dup
  4 -2 roll 5 -1 roll {exch} if 4 2 roll
  sequence length dup 2 div exch 3 1 roll lt 
  {exch 5 -1 roll pop 4 -2 roll exch 4 2 roll}
  { 4 2 roll 5 -1 roll dup 6 1 roll {exch} if
    4 -2 roll exch pop dup 3 -1 roll dup 4 1 roll
    exch add 4 -1 roll dup 5 1 roll sub 1 sub
    5 -1 roll not {4 -2 roll exch 4 2 roll} if
  }ifelse
   % compute the scalingfactor and prepare (1-sf) and sf*r
  2 mul exch cpr 3 1 roll div dup
  3 -1 roll mul exch 1 exch sub exch
   % compute the coordinates
  3 -1 roll 1 sub coor exch get aload pop % get coord for i
  4 -1 roll dup 5 1 roll mul 3 -1 roll dup 4 1 roll add exch % calculate y1
  4 -1 roll dup 5 1 roll mul 3 -1 roll dup 4 1 roll add exch % calculate x1
  5 -1 roll 1 sub coor exch get aload pop % get coord for j
  % duplicate j coord
  dup 3 -1 roll dup 4 1 roll exch 8 2 roll
  6 -1 roll dup 7 1 roll mul 5 -1 roll dup 6 1 roll add exch % calculate y2
  6 -1 roll mul 5 -1 roll add exch % calculate x2
  6 -2 roll % reorder
} bind def
/drawoutline {
  gsave outlinecolor newpath
  coor 0 get aload pop 0.8 0 360 arc % draw 5' circle of 1st sequence
  currentdict /cutpoint known        % check if cutpoint is defined
  {coor 0 cutpoint getinterval
   {aload pop lineto} forall         % draw outline of 1st sequence
   coor cutpoint 1 add get aload pop
   2 copy moveto 0.8 0 360 arc       % draw 5' circle of 2nd sequence
   coor cutpoint 1 add coor length cutpoint 1 add sub getinterval
   {aload pop lineto} forall}        % draw outline of 2nd sequence
  {coor {aload pop lineto} forall}   % draw outline as a whole
  ifelse
  stroke grestore
} bind def
/drawpairs {
  paircolor
  0.7 setlinewidth
  [9 3.01] 9 setdash
  newpath
  pairs {aload pop
      currentdict (cpr) known
      { exch dup
        coor  exch 1 sub get aload pop moveto
        exch arccoords curveto
      }
      { coor exch 1 sub get aload pop moveto
        coor exch 1 sub get aload pop lineto
      }ifelse
  } forall
  stroke
} bind def
% draw bases
/drawbases {
  [] 0 setdash
  seqcolor
  0
  coor {
    aload pop moveto
    dup sequence exch 1 getinterval cshow
    1 add
  } forall
  pop
} bind def

/init {
  /Helvetica findfont fsize scalefont setfont
  1 setlinejoin
  1 setlinecap
  0.8 setlinewidth
  72 216 translate
  % find the coordinate range
  /xmax -1000 def /xmin 10000 def
  /ymax -1000 def /ymin 10000 def
  coor {
      aload pop
      dup ymin lt {dup /ymin exch def} if
      dup ymax gt {/ymax exch def} {pop} ifelse
      dup xmin lt {dup /xmin exch def} if
      dup xmax gt {/xmax exch def} {pop} ifelse
  } forall
  /size {xmax xmin sub ymax ymin sub max} bind def
  72 6 mul size div dup scale
  size xmin sub xmax sub 2 div size ymin sub ymax sub 2 div
  translate
} bind def
end
%%EndProlog
RNAplot begin
% data start here
/sequence (\
11112222222222222222223333344444444444444444455555555555555555555556666663333377777777777766666688888888888888888888\
) def
/coor [
[74.45780182 126.38665771]
[72.45000458 141.25167847]
[57.58498383 139.24388123]
[59.59278107 124.37886047]
[45.95591736 118.13098145]
[36.00907898 129.35864258]
[26.06223869 140.58630371]
[16.11539841 151.81396484]
[6.16855860 163.04162598]
[-3.77828121 174.26928711]
[-13.72512054 185.49694824]
[-23.67196083 196.72460938]
[-33.61880112 207.95227051]
[-44.84646225 198.00543213]
[-34.89962387 186.77777100]
[-24.95278168 175.55010986]
[-15.00594234 164.32244873]
[-5.05910254 153.09478760]
[4.88773727 141.86712646]
[14.83457756 130.63946533]
[24.78141785 119.41180420]
[34.72825623 108.18414307]
[99.05120087 69.04070282]
[92.80332184 55.40383530]
[86.55545044 41.76697159]
[80.30757904 28.13010788]
[74.05970764 14.49324226]
[63.24166870 4.10237741]
[49.36428452 -1.59132826]
[35.48690414 -7.28503370]
[21.60952187 -12.97873974]
[7.73214149 -18.67244530]
[-6.14524031 -24.36614990]
[-20.02262115 -30.05985641]
[-33.90000153 -35.75356293]
[-47.77738571 -41.44726562]
[-42.08367920 -55.32464981]
[-28.20629692 -49.63094330]
[-14.32891655 -43.93723679]
[-0.45153460 -38.24353027]
[13.42584705 -32.54982758]
[27.30322838 -26.85612106]
[41.18061066 -21.16241455]
[55.05799103 -15.46870995]
[68.93537140 -9.77500439]
[80.92701721 -18.78613853]
[79.31903839 -33.69970322]
[77.71105957 -48.61326599]
[76.10308075 -63.52683258]
[74.49510193 -78.44039917]
[72.88713074 -93.35395813]
[71.27915192 -108.26752472]
[69.67117310 -123.18109131]
[68.06319427 -138.09465027]
[66.45521545 -153.00822449]
[64.84723663 -167.92178345]
[79.76080322 -169.52975464]
[81.36878204 -154.61619568]
[82.97676086 -139.70263672]
[84.58473969 -124.78907013]
[86.19271088 -109.87550354]
[87.80068970 -94.96193695]
[89.40866852 -80.04837036]
[91.01664734 -65.13481140]
[92.62462616 -50.22124481]
[94.23260498 -35.30767822]
[95.84057617 -20.39411545]
[97.27846527 -15.46850872]
[97.71144867 -10.53243732]
[97.18903351 -5.78198242]
[95.79743958 -1.39393342]
[93.65404510 2.48078489]
[90.90074921 5.72229338]
[87.69657135 8.24536896]
[93.94444275 21.88223267]
[100.19231415 35.51909637]
[106.44019318 49.15596390]
[112.68806458 62.79282761]
[125.96990204 69.76367188]
[140.74201965 67.15895081]
[155.51412964 64.55422974]
[170.28625488 61.94950485]
[185.05836487 59.34478378]
[199.83049011 56.74006271]
[202.43521118 71.51217651]
[187.66308594 74.11689758]
[172.89097595 76.72162628]
[158.11886597 79.32634735]
[143.34674072 81.93106842]
[128.57463074 84.53578949]
[125.54251099 91.39554596]
[140.45608521 89.78768158]
[149.30523682 101.89934540]
[143.24070740 115.61872864]
[128.32710266 117.22627258]
[119.47827911 105.11505890]
[116.44615936 111.97482300]
[124.46315002 124.65267181]
[132.48013306 137.33052063]
[140.49711609 150.00837708]
[148.51411438 162.68621826]
[156.53109741 175.36407471]
[164.54808044 188.04193115]
[172.56507874 200.71977234]
[180.58206177 213.39762878]
[188.59904480 226.07548523]
[175.92118835 234.09246826]
[167.90420532 221.41461182]
[159.88722229 208.73677063]
[151.87023926 196.05891418]
[143.85324097 183.38105774]
[135.83625793 170.70321655]
[127.81927490 158.02536011]
[119.80228424 145.34750366]
[111.78529358 132.66966248]
[103.76831055 119.99180603]
] def
/pairs [
[1 4]
[2 3]
[5 22]
[6 21]
[7 20]
[8 19]
[9 18]
[10 17]
[11 16]
[12 15]
[13 14]
[23 78]
[24 77]
[25 76]
[26 75]
[27 74]
[28 45]
[29 44]
[30 43]
[31 42]
[32 41]
[33 40]
[34 39]
[35 38]
[36 37]
[46 67]
[47 66]
[48 65]
[49 64]
[50 63]
[51 62]
[52 61]
[53 60]
[54 59]
[55 58]
[56 57]
[79 90]
[80 89]
[81 88]
[82 87]
[83 86]
[84 85]
[97 116]
[98 115]
[99 114]
[100 113]
[101 112]
[102 111]
[103 110]
[104 109]
[105 108]
[106 107]
] def

init

% switch off outline pairs or bases by removing these lines
drawoutline
drawpairs
drawbases
% show it
showpage
end
%%EOF
