%!PS-Adobe-3.0 EPSF-3.0
%%Creator: PS_dot.c,v 1.38 2007/02/02 15:18:13 ivo Exp $, ViennaRNA-2.0.7
%%CreationDate: Fri Nov  9 19:01:59 2012
%%Title: RNA Secondary Structure Plot
%%BoundingBox: 66 210 518 662
%%DocumentFonts: Helvetica
%%Pages: 1
%%EndComments

%Options: -d2 
% to switch off outline pairs of sequence comment or
% delete the appropriate line near the end of the file

%%BeginProlog
/RNAplot 100 dict def
RNAplot begin
/fsize  14 def
/outlinecolor {0.2 setgray} bind def
/paircolor    {0.2 setgray} bind def
/seqcolor     {0   setgray} bind def
/cshow  { dup stringwidth pop -2 div fsize -3 div rmoveto show} bind def
/min { 2 copy gt { exch } if pop } bind def
/max { 2 copy lt { exch } if pop } bind def
/arccoords { % i j arccoords
  % puts optimal x1 y1 x2 y2 coordinates used in bezier curves from i to j
  % onto the stack
  dup 3 -1 roll dup 4 -1 roll lt dup dup 5 2 roll {exch} if
  dup 3 -1 roll dup 3 -1 roll exch sub 1 sub dup
  4 -2 roll 5 -1 roll {exch} if 4 2 roll
  sequence length dup 2 div exch 3 1 roll lt 
  {exch 5 -1 roll pop 4 -2 roll exch 4 2 roll}
  { 4 2 roll 5 -1 roll dup 6 1 roll {exch} if
    4 -2 roll exch pop dup 3 -1 roll dup 4 1 roll
    exch add 4 -1 roll dup 5 1 roll sub 1 sub
    5 -1 roll not {4 -2 roll exch 4 2 roll} if
  }ifelse
   % compute the scalingfactor and prepare (1-sf) and sf*r
  2 mul exch cpr 3 1 roll div dup
  3 -1 roll mul exch 1 exch sub exch
   % compute the coordinates
  3 -1 roll 1 sub coor exch get aload pop % get coord for i
  4 -1 roll dup 5 1 roll mul 3 -1 roll dup 4 1 roll add exch % calculate y1
  4 -1 roll dup 5 1 roll mul 3 -1 roll dup 4 1 roll add exch % calculate x1
  5 -1 roll 1 sub coor exch get aload pop % get coord for j
  % duplicate j coord
  dup 3 -1 roll dup 4 1 roll exch 8 2 roll
  6 -1 roll dup 7 1 roll mul 5 -1 roll dup 6 1 roll add exch % calculate y2
  6 -1 roll mul 5 -1 roll add exch % calculate x2
  6 -2 roll % reorder
} bind def
/drawoutline {
  gsave outlinecolor newpath
  coor 0 get aload pop 0.8 0 360 arc % draw 5' circle of 1st sequence
  currentdict /cutpoint known        % check if cutpoint is defined
  {coor 0 cutpoint getinterval
   {aload pop lineto} forall         % draw outline of 1st sequence
   coor cutpoint 1 add get aload pop
   2 copy moveto 0.8 0 360 arc       % draw 5' circle of 2nd sequence
   coor cutpoint 1 add coor length cutpoint 1 add sub getinterval
   {aload pop lineto} forall}        % draw outline of 2nd sequence
  {coor {aload pop lineto} forall}   % draw outline as a whole
  ifelse
  stroke grestore
} bind def
/drawpairs {
  paircolor
  0.7 setlinewidth
  [9 3.01] 9 setdash
  newpath
  pairs {aload pop
      currentdict (cpr) known
      { exch dup
        coor  exch 1 sub get aload pop moveto
        exch arccoords curveto
      }
      { coor exch 1 sub get aload pop moveto
        coor exch 1 sub get aload pop lineto
      }ifelse
  } forall
  stroke
} bind def
% draw bases
/drawbases {
  [] 0 setdash
  seqcolor
  0
  coor {
    aload pop moveto
    dup sequence exch 1 getinterval cshow
    1 add
  } forall
  pop
} bind def

/init {
  /Helvetica findfont fsize scalefont setfont
  1 setlinejoin
  1 setlinecap
  0.8 setlinewidth
  72 216 translate
  % find the coordinate range
  /xmax -1000 def /xmin 10000 def
  /ymax -1000 def /ymin 10000 def
  coor {
      aload pop
      dup ymin lt {dup /ymin exch def} if
      dup ymax gt {/ymax exch def} {pop} ifelse
      dup xmin lt {dup /xmin exch def} if
      dup xmax gt {/xmax exch def} {pop} ifelse
  } forall
  /size {xmax xmin sub ymax ymin sub max} bind def
  72 6 mul size div dup scale
  size xmin sub xmax sub 2 div size ymin sub ymax sub 2 div
  translate
} bind def
end
%%EndProlog
RNAplot begin
% data start here
/sequence (\
11111111111111222222222222<<<<<<<<<<>>>>>>>>>>33333334444444444444444444444444444555555555555555555666666333333377777777777777777777666666888888888888<<<<<<<<<<<<<>>>>>>>>>>>>><<<<<<>>>>>>88\
) def
/coor [
[100.66024017 128.08766174]
[96.99684143 142.63343811]
[93.33345032 157.17921448]
[89.67005157 171.72499084]
[86.00665283 186.27075195]
[82.34325409 200.81652832]
[78.67985535 215.36230469]
[64.13408661 211.69891357]
[67.79748535 197.15313721]
[71.46087646 182.60736084]
[75.12427521 168.06158447]
[78.78767395 153.51580811]
[82.45107269 138.97004700]
[86.11447144 124.42426300]
[72.67733002 117.75768280]
[63.31121063 129.47416687]
[53.94509125 141.19064331]
[44.57897186 152.90711975]
[35.21285629 164.62359619]
[25.84673691 176.34007263]
[14.13025951 166.97395325]
[23.49637794 155.25747681]
[32.86249542 143.54100037]
[42.22861481 131.82452393]
[51.59473419 120.10803986]
[60.96085358 108.39156342]
[52.08430099 96.29996490]
[38.09984207 101.72535706]
[24.11538124 107.15074921]
[10.13092041 112.57614136]
[-3.85354018 118.00152588]
[-17.83800125 123.42691803]
[-31.82246017 128.85231018]
[-45.80692291 134.27769470]
[-59.79138184 139.70309448]
[-73.77584076 145.12847900]
[-79.20123291 131.14402771]
[-65.21677399 125.71863556]
[-51.23231125 120.29324341]
[-37.24785233 114.86785126]
[-23.26339149 109.44245911]
[-9.27893066 104.01706696]
[4.70552969 98.59167480]
[18.68998909 93.16629028]
[32.67444992 87.74089813]
[46.65891266 82.31550598]
[51.62141418 68.16017151]
[44.08583069 55.19039536]
[36.55024719 42.22062302]
[29.01466370 29.25085068]
[21.47908020 16.28108025]
[13.94349766 3.31130719]
[6.40791464 -9.65846443]
[-3.52471137 -20.89870262]
[-15.46868134 -29.97292900]
[-27.41265106 -39.04715347]
[-39.35662079 -48.12137985]
[-51.30059052 -57.19560623]
[-63.24456024 -66.26983643]
[-75.18852997 -75.34406281]
[-87.13249969 -84.41828918]
[-99.07646942 -93.49251556]
[-111.02043915 -102.56674194]
[-122.96440887 -111.64096832]
[-134.90838623 -120.71519470]
[-146.85235596 -129.78941345]
[-158.79632568 -138.86364746]
[-149.72209167 -150.80761719]
[-137.77812195 -141.73338318]
[-125.83415222 -132.65916443]
[-113.89018250 -123.58493805]
[-101.94621277 -114.51071167]
[-90.00224304 -105.43648529]
[-78.05827332 -96.36225891]
[-66.11430359 -87.28803253]
[-54.17033386 -78.21380615]
[-42.22636414 -69.13957977]
[-30.28239441 -60.06534958]
[-18.33842468 -50.99112320]
[-6.39445496 -41.91689682]
[5.54951525 -32.84267044]
[18.39359283 -40.59055328]
[15.93748283 -55.38810730]
[13.48137283 -70.18565369]
[11.02526283 -84.98320770]
[8.56915379 -99.78076172]
[6.11304379 -114.57830811]
[3.65693402 -129.37586975]
[1.20082438 -144.17341614]
[-1.25528526 -158.97096252]
[13.54226589 -161.42707825]
[15.99837589 -146.62951660]
[18.45448494 -131.83197021]
[20.91059494 -117.03442383]
[23.36670494 -102.23686981]
[25.82281494 -87.43931580]
[28.27892494 -72.64176941]
[30.73503304 -57.84421539]
[33.19114304 -43.04666519]
[48.19016647 -43.21775436]
[59.85779572 -33.79085541]
[62.84145737 -19.09059143]
[55.77238846 -5.86076784]
[41.89355087 -0.17061703]
[27.57191277 -4.63051844]
[19.37768745 -17.19404793]
[26.91326904 -4.22427559]
[34.44885254 8.74549675]
[41.98443604 21.71526909]
[49.52001953 34.68503952]
[57.05560303 47.65481186]
[64.59118652 60.62458420]
[129.64401245 65.74420929]
[141.28306580 56.28204727]
[152.92211914 46.81988907]
[164.56117249 37.35773087]
[176.20022583 27.89557266]
[187.83927917 18.43341637]
[199.47833252 8.97125721]
[211.11738586 -0.49090046]
[222.75643921 -9.95305824]
[234.39549255 -19.41521645]
[243.85765076 -7.77616310]
[232.21859741 1.68599498]
[220.57954407 11.14815331]
[208.94049072 20.61031151]
[197.30143738 30.07246971]
[185.66238403 39.53462601]
[174.02333069 48.99678421]
[162.38427734 58.45894241]
[150.74522400 67.92110443]
[139.10617065 77.38326263]
[139.04449463 84.88300323]
[152.09617615 77.49018860]
[165.02432251 85.09695435]
[164.90063477 100.09644318]
[151.84880066 107.48897552]
[138.92114258 99.88249969]
[138.85945129 107.38224792]
[150.34130859 117.03455353]
[164.23464966 122.68921661]
[179.19357300 123.79845428]
[194.15251160 124.90769196]
[209.11143494 126.01692200]
[224.07035828 127.12615967]
[222.96113586 142.08509827]
[208.00219727 140.97586060]
[193.04327393 139.86662292]
[178.08433533 138.75738525]
[163.12541199 137.64814758]
[157.70001221 151.63261414]
[169.49311829 160.90205383]
[181.28622437 170.17150879]
[193.07934570 179.44094849]
[204.87245178 188.71038818]
[216.66555786 197.97984314]
[228.45866394 207.24928284]
[240.25177002 216.51873779]
[252.04487610 225.78817749]
[263.83798218 235.05763245]
[275.63107300 244.32707214]
[287.42419434 253.59651184]
[299.21728516 262.86596680]
[289.94784546 274.65905762]
[278.15475464 265.38961792]
[266.36163330 256.12017822]
[254.56852722 246.85073853]
[242.77542114 237.58128357]
[230.98231506 228.31184387]
[219.18920898 219.04238892]
[207.39610291 209.77294922]
[195.60299683 200.50349426]
[183.80989075 191.23405457]
[172.01678467 181.96461487]
[160.22367859 172.69515991]
[148.43057251 163.42572021]
[135.98428345 171.79769897]
[140.12411499 186.21510315]
[144.26394653 200.63252258]
[148.40377808 215.04994202]
[152.54360962 229.46734619]
[156.68344116 243.88476562]
[142.26602173 248.02459717]
[138.12619019 233.60717773]
[133.98635864 219.18975830]
[129.84654236 204.77235413]
[125.70670319 190.35493469]
[121.56687164 175.93753052]
[140.68899536 128.51640320]
[129.20715332 118.86409760]
] def
/pairs [
[1 14]
[2 13]
[3 12]
[4 11]
[5 10]
[6 9]
[7 8]
[15 26]
[16 25]
[17 24]
[18 23]
[19 22]
[20 21]
[27 46]
[28 45]
[29 44]
[30 43]
[31 42]
[32 41]
[33 40]
[34 39]
[35 38]
[36 37]
[47 112]
[48 111]
[49 110]
[50 109]
[51 108]
[52 107]
[53 106]
[54 81]
[55 80]
[56 79]
[57 78]
[58 77]
[59 76]
[60 75]
[61 74]
[62 73]
[63 72]
[64 71]
[65 70]
[66 69]
[67 68]
[82 99]
[83 98]
[84 97]
[85 96]
[86 95]
[87 94]
[88 93]
[89 92]
[90 91]
[113 132]
[114 131]
[115 130]
[116 129]
[117 128]
[118 127]
[119 126]
[120 125]
[121 124]
[122 123]
[139 190]
[140 189]
[141 150]
[142 149]
[143 148]
[144 147]
[145 146]
[151 176]
[152 175]
[153 174]
[154 173]
[155 172]
[156 171]
[157 170]
[158 169]
[159 168]
[160 167]
[161 166]
[162 165]
[163 164]
[177 188]
[178 187]
[179 186]
[180 185]
[181 184]
[182 183]
] def

init

% switch off outline pairs or bases by removing these lines
drawoutline
drawpairs
drawbases
% show it
showpage
end
%%EOF
