%!PS-Adobe-3.0 EPSF-3.0
%%Creator: PS_dot.c,v 1.38 2007/02/02 15:18:13 ivo Exp $, ViennaRNA-2.0.7
%%CreationDate: Sun Nov  4 18:30:36 2012
%%Title: RNA Secondary Structure Plot
%%BoundingBox: 66 210 518 662
%%DocumentFonts: Helvetica
%%Pages: 1
%%EndComments

%Options: -d2 
% to switch off outline pairs of sequence comment or
% delete the appropriate line near the end of the file

%%BeginProlog
/RNAplot 100 dict def
RNAplot begin
/fsize  14 def
/outlinecolor {0.2 setgray} bind def
/paircolor    {0.2 setgray} bind def
/seqcolor     {0   setgray} bind def
/cshow  { dup stringwidth pop -2 div fsize -3 div rmoveto show} bind def
/min { 2 copy gt { exch } if pop } bind def
/max { 2 copy lt { exch } if pop } bind def
/arccoords { % i j arccoords
  % puts optimal x1 y1 x2 y2 coordinates used in bezier curves from i to j
  % onto the stack
  dup 3 -1 roll dup 4 -1 roll lt dup dup 5 2 roll {exch} if
  dup 3 -1 roll dup 3 -1 roll exch sub 1 sub dup
  4 -2 roll 5 -1 roll {exch} if 4 2 roll
  sequence length dup 2 div exch 3 1 roll lt 
  {exch 5 -1 roll pop 4 -2 roll exch 4 2 roll}
  { 4 2 roll 5 -1 roll dup 6 1 roll {exch} if
    4 -2 roll exch pop dup 3 -1 roll dup 4 1 roll
    exch add 4 -1 roll dup 5 1 roll sub 1 sub
    5 -1 roll not {4 -2 roll exch 4 2 roll} if
  }ifelse
   % compute the scalingfactor and prepare (1-sf) and sf*r
  2 mul exch cpr 3 1 roll div dup
  3 -1 roll mul exch 1 exch sub exch
   % compute the coordinates
  3 -1 roll 1 sub coor exch get aload pop % get coord for i
  4 -1 roll dup 5 1 roll mul 3 -1 roll dup 4 1 roll add exch % calculate y1
  4 -1 roll dup 5 1 roll mul 3 -1 roll dup 4 1 roll add exch % calculate x1
  5 -1 roll 1 sub coor exch get aload pop % get coord for j
  % duplicate j coord
  dup 3 -1 roll dup 4 1 roll exch 8 2 roll
  6 -1 roll dup 7 1 roll mul 5 -1 roll dup 6 1 roll add exch % calculate y2
  6 -1 roll mul 5 -1 roll add exch % calculate x2
  6 -2 roll % reorder
} bind def
/drawoutline {
  gsave outlinecolor newpath
  coor 0 get aload pop 0.8 0 360 arc % draw 5' circle of 1st sequence
  currentdict /cutpoint known        % check if cutpoint is defined
  {coor 0 cutpoint getinterval
   {aload pop lineto} forall         % draw outline of 1st sequence
   coor cutpoint 1 add get aload pop
   2 copy moveto 0.8 0 360 arc       % draw 5' circle of 2nd sequence
   coor cutpoint 1 add coor length cutpoint 1 add sub getinterval
   {aload pop lineto} forall}        % draw outline of 2nd sequence
  {coor {aload pop lineto} forall}   % draw outline as a whole
  ifelse
  stroke grestore
} bind def
/drawpairs {
  paircolor
  0.7 setlinewidth
  [9 3.01] 9 setdash
  newpath
  pairs {aload pop
      currentdict (cpr) known
      { exch dup
        coor  exch 1 sub get aload pop moveto
        exch arccoords curveto
      }
      { coor exch 1 sub get aload pop moveto
        coor exch 1 sub get aload pop lineto
      }ifelse
  } forall
  stroke
} bind def
% draw bases
/drawbases {
  [] 0 setdash
  seqcolor
  0
  coor {
    aload pop moveto
    dup sequence exch 1 getinterval cshow
    1 add
  } forall
  pop
} bind def

/init {
  /Helvetica findfont fsize scalefont setfont
  1 setlinejoin
  1 setlinecap
  0.8 setlinewidth
  72 216 translate
  % find the coordinate range
  /xmax -1000 def /xmin 10000 def
  /ymax -1000 def /ymin 10000 def
  coor {
      aload pop
      dup ymin lt {dup /ymin exch def} if
      dup ymax gt {/ymax exch def} {pop} ifelse
      dup xmin lt {dup /xmin exch def} if
      dup xmax gt {/xmax exch def} {pop} ifelse
  } forall
  /size {xmax xmin sub ymax ymin sub max} bind def
  72 6 mul size div dup scale
  size xmin sub xmax sub 2 div size ymin sub ymax sub 2 div
  translate
} bind def
end
%%EndProlog
RNAplot begin
% data start here
/sequence (\
nnnnn1111111nnnnn1111111n2222222nnnn2222222nnnnnnn3333333nnn444444nnnn44444444nnnnnnnn44444444nnn444444555nnn55555555nnnnnnnnnnnnnn55555555nn555nnn6n66666<<<<<nnnnnnnnnnnnnnnnnnnn>>>>>nnnnnn3333333777777777nnnnnnnnnnnnnnnnnnnnnnnnnnnnnnnnnnnnnnnnnnnnnnnnn\
nnnnnnnnnnnnnnnnnnnnnnnnnnnnnnnnnnnnnnnn777777777nnnnnn666666n888888888nnnn8888888nn<<<<<<<nnnnnnnn>>>>>>>nnnnnnnnnnn88nnnnnnnnnnn\
) def
/coor [
[121.62649536 179.61299133]
[118.59545135 164.92242432]
[115.56439972 150.23185730]
[112.53334808 135.54129028]
[109.50229645 120.85073090]
[102.15702057 122.36625671]
[98.53082275 136.92134094]
[94.90462494 151.47644043]
[91.27842712 166.03152466]
[87.65222931 180.58662415]
[84.02603912 195.14170837]
[80.39984131 209.69680786]
[87.39948273 224.13233948]
[80.34783173 238.54252625]
[64.65431213 241.87312317]
[52.35764313 231.56916809]
[52.89078140 215.53497314]
[65.84474945 206.07061768]
[69.47094727 191.51551819]
[73.09713745 176.96041870]
[76.72333527 162.40533447]
[80.34953308 147.85023499]
[83.97573090 133.29515076]
[87.60192108 118.74005890]
[73.80223083 112.85886383]
[60.00376892 106.97817993]
[52.01590347 119.67440033]
[44.02804184 132.37062073]
[36.04018021 145.06684875]
[28.05231476 157.76306152]
[20.06445122 170.45928955]
[12.07658863 183.15550232]
[11.99491119 199.55445862]
[-2.38001084 207.44708252]
[-16.26049232 198.71414185]
[-15.36748123 182.33932495]
[-0.61963314 175.16764832]
[7.36823034 162.47142029]
[15.35609341 149.77520752]
[23.34395790 137.07897949]
[31.33181953 124.38275909]
[39.31968307 111.68653870]
[47.30754852 98.99031830]
[45.22918701 91.78404236]
[36.55279922 104.02006531]
[21.57665825 104.86577606]
[11.57786655 93.68435669]
[14.08555984 78.89546204]
[27.21143150 71.63519287]
[41.07246399 77.37149048]
[38.99410248 70.16521454]
[25.47201157 63.67267227]
[11.94992065 57.18013382]
[-1.57217014 50.68759537]
[-15.09426117 44.19505692]
[-28.61635208 37.70251846]
[-42.13844299 31.20998192]
[-58.84441757 48.89054108]
[-84.60674286 55.08711624]
[-111.64151764 45.53345871]
[-130.48249817 21.10237122]
[-145.06661987 24.60998535]
[-159.65074158 28.11760139]
[-174.23487854 31.62521744]
[-188.81900024 35.13283157]
[-203.40312195 38.64044952]
[-207.69041443 51.69646454]
[-217.77607727 60.87052155]
[-230.96800232 63.85775375]
[-243.81513977 59.98582840]
[-253.01019287 50.36268234]
[-267.62237549 53.75148773]
[-282.23455811 57.14028931]
[-296.84674072 60.52909088]
[-311.45892334 63.91789627]
[-326.07113647 67.30670166]
[-340.68331909 70.69550323]
[-355.29550171 74.08430481]
[-361.22006226 88.42582703]
[-374.46044922 96.51728821]
[-389.92544556 95.24736023]
[-401.66848755 85.10435486]
[-405.17413330 69.98845673]
[-399.09432983 55.71205139]
[-385.76696777 47.76469421]
[-370.31661987 49.20231628]
[-358.68429565 59.47211838]
[-344.07211304 56.08331299]
[-329.45993042 52.69451141]
[-314.84774780 49.30570984]
[-300.23556519 45.91690445]
[-285.62335205 42.52810287]
[-271.01116943 39.13929749]
[-256.39898682 35.75049591]
[-250.46038818 20.41051483]
[-236.39321899 11.56696701]
[-219.66278076 12.89085197]
[-206.91073608 24.05632591]
[-192.32661438 20.54870987]
[-177.74249268 17.04109573]
[-163.15837097 13.53347969]
[-148.57424927 10.02586365]
[-133.99011230 6.51824808]
[-132.40600586 -8.39787006]
[-145.92810059 -14.89040852]
[-159.45018005 -21.38294792]
[-171.51646423 -15.49819374]
[-184.58177185 -17.58335114]
[-193.93817139 -26.66126060]
[-196.34417725 -39.27623749]
[-209.81297302 -45.87861633]
[-223.28178406 -52.48099136]
[-236.75057983 -59.08336639]
[-250.21939087 -65.68574524]
[-263.68817139 -72.28812408]
[-277.15698242 -78.89049530]
[-290.62579346 -85.49287415]
[-302.00747681 -75.41687012]
[-316.38031006 -70.46816254]
[-331.55258179 -71.40139771]
[-345.21060181 -78.07425690]
[-355.27160645 -89.46917725]
[-360.20141602 -103.84852600]
[-359.24822998 -119.01954651]
[-352.55740356 -132.66877747]
[-341.14926147 -142.71479797]
[-326.76342773 -147.62567139]
[-311.59368896 -146.65252686]
[-297.95327759 -139.94375610]
[-287.92227173 -128.52239990]
[-283.03030396 -114.13013458]
[-284.02340698 -98.96167755]
[-270.55462646 -92.35929871]
[-257.08581543 -85.75691986]
[-243.61700439 -79.15454865]
[-230.14820862 -72.55216980]
[-216.67939758 -65.94979095]
[-203.21060181 -59.34741592]
[-189.74180603 -52.74504089]
[-174.03770447 -58.85515213]
[-158.48210144 -51.54020309]
[-152.95764160 -34.90503693]
[-139.43556213 -28.41250038]
[-125.91346741 -21.91996193]
[-120.44035339 -27.04783058]
[-130.69609070 -37.99405289]
[-140.95184326 -48.94027710]
[-151.20758057 -59.88649750]
[-161.46313477 -70.83289337]
[-150.51657104 -81.08826447]
[-140.26135254 -70.14224243]
[-130.00561523 -59.19601822]
[-119.74987030 -48.24979401]
[-109.49413300 -37.30357361]
[-104.02101898 -42.43144226]
[-109.61999512 -56.34731674]
[-115.21896362 -70.26319122]
[-120.81793213 -84.17906189]
[-126.41690063 -98.09494019]
[-141.45018005 -96.61937714]
[-156.28996277 -99.44030762]
[-169.73324585 -106.32904816]
[-180.69024658 -116.72715759]
[-188.27273560 -129.79170227]
[-191.86604309 -144.46360779]
[-191.17884827 -159.55349731]
[-186.26689148 -173.83807373]
[-177.52833557 -186.15937805]
[-165.67158508 -195.51855469]
[-151.65782166 -201.15690613]
[-136.62307739 -202.61737061]
[-121.78613281 -199.78152466]
[-108.34977722 -192.87928772]
[-97.40322113 -182.47016907]
[-89.83385468 -169.39801025]
[-86.25529480 -154.72250366]
[-86.95764160 -139.63331604]
[-91.88395691 -125.35368347]
[-100.63488770 -113.04116821]
[-112.50102997 -103.69390869]
[-106.90206146 -89.77803040]
[-101.30308533 -75.86215973]
[-95.70411682 -61.94628525]
[-90.10514832 -48.03041077]
[-73.30958557 -47.68236542]
[-58.02547836 -42.51807785]
[-45.54056549 -33.38755798]
[-36.78141022 -21.45497894]
[-32.24740982 -8.06370831]
[-31.99133301 5.40832901]
[-35.64590454 17.68789101]
[-22.12381363 24.18042946]
[-8.60172272 30.67296791]
[4.92036819 37.16550446]
[18.44245911 43.65804291]
[31.96455002 50.15058136]
[45.48664093 56.64311981]
[139.05160522 65.38490295]
[151.20118713 56.58789444]
[163.35078430 47.79087830]
[175.50038147 38.99386597]
[187.64996338 30.19685173]
[199.79956055 21.39983749]
[211.94914246 12.60282421]
[224.09873962 3.80581045]
[236.24832153 -4.99120331]
[228.30712891 -17.72376251]
[221.26329041 -30.97385597]
[215.15037537 -44.67834473]
[209.99752808 -58.77191544]
[205.82928467 -73.18740845]
[202.66552734 -87.85612488]
[200.52131653 -102.70816803]
[199.40689087 -117.67274475]
[199.32752991 -132.67855835]
[200.28364563 -147.65408325]
[202.27066040 -162.52796936]
[205.27911377 -177.22932434]
[209.29466248 -191.68809509]
[214.29818726 -205.83537292]
[220.26582336 -219.60374451]
[227.16912842 -232.92759705]
[234.97523499 -245.74342346]
[243.64691162 -257.99017334]
[253.14285278 -269.60946655]
[263.41778564 -280.54592896]
[274.42279053 -290.74743652]
[286.10534668 -300.16540527]
[298.40985107 -308.75491333]
[311.27764893 -316.47506714]
[324.64739990 -323.28906250]
[338.45538330 -329.16442871]
[352.63583374 -334.07315063]
[367.12115479 -337.99185181]
[381.84231567 -340.90182495]
[396.72915649 -342.78927612]
[411.71075439 -343.64514160]
[426.71569824 -343.46536255]
[441.67248535 -342.25079346]
[456.50985718 -340.00723267]
[471.15707397 -336.74536133]
[485.54434204 -332.48074341]
[499.60311890 -327.23370361]
[513.26635742 -321.02920532]
[526.46905518 -313.89685059]
[539.14819336 -305.87060547]
[551.24334717 -296.98873901]
[562.69689941 -287.29357910]
[573.45434570 -276.83132935]
[583.46429443 -265.65182495]
[592.67913818 -253.80836487]
[601.05493164 -241.35737610]
[608.55169678 -228.35820007]
[615.13378906 -214.87278748]
[620.76983643 -200.96539307]
[625.43298340 -186.70230103]
[629.10095215 -172.15147400]
[631.75634766 -157.38224792]
[633.38641357 -142.46502686]
[633.98345947 -127.47089386]
[633.54461670 -112.47129059]
[632.07196045 -97.53770447]
[629.57250977 -82.74130249]
[626.05822754 -68.15259552]
[621.54583740 -53.84110260]
[616.05676270 -39.87503433]
[609.61724854 -26.32093811]
[602.25799561 -13.24340820]
[594.01403809 -0.70476627]
[584.92462158 11.23523521]
[575.03314209 22.51969719]
[564.38671875 33.09484100]
[553.03601074 42.91027451]
[541.03521729 51.91921997]
[528.44146729 60.07874680]
[515.31475830 67.34996796]
[501.71768188 73.69823456]
[487.71502686 79.09329224]
[473.37356567 83.50943756]
[458.76156616 86.92561340]
[443.94869995 89.32555389]
[429.00555420 90.69780731]
[414.00332642 91.03585052]
[399.01354980 90.33805847]
[384.10760498 88.60775757]
[369.35656738 85.85320282]
[354.83071899 82.08751678]
[340.59930420 77.32864380]
[326.73010254 71.59925842]
[313.28921509 64.92667389]
[300.34069824 57.34268188]
[287.94628906 48.88342285]
[276.16500854 39.58921051]
[265.05303955 29.50433922]
[254.66331482 18.67686462]
[245.04534912 7.15838718]
[232.89575195 15.95540142]
[220.74615479 24.75241470]
[208.59657288 33.54942703]
[196.44697571 42.34644318]
[184.29739380 51.14345551]
[172.14779663 59.94046783]
[159.99821472 68.73748016]
[147.84861755 77.53450012]
[146.75379944 84.95415497]
[161.63357544 83.05887604]
[176.51336670 81.16359711]
[190.11128235 74.83139801]
[204.87066650 77.50730896]
[215.38008118 88.21020508]
[217.78633118 103.01595306]
[211.20715332 116.49610138]
[198.05476379 123.70824432]
[183.15142822 122.00808716]
[171.96063232 112.01777649]
[158.26240540 105.90563202]
[144.56416321 99.79347992]
[143.46934509 107.21314240]
[152.56036377 119.14434052]
[163.25292969 129.66426086]
[175.33052063 138.55987549]
[187.40811157 147.45547485]
[199.48570251 156.35107422]
[211.56329346 165.24668884]
[223.64089966 174.14228821]
[235.71849060 183.03790283]
[252.06747437 184.31948853]
[258.88693237 199.23348999]
[249.16157532 212.43763733]
[232.89602661 210.34864807]
[226.82287598 195.11549377]
[214.74528503 186.21987915]
[202.66769409 177.32427979]
[190.59010315 168.42866516]
[178.51251221 159.53306580]
[166.43492126 150.63746643]
[154.35733032 141.74185181]
[148.90513611 146.89195251]
[138.00073242 157.19215393]
[132.54853821 162.34225464]
[140.74200439 174.90678406]
[148.93545532 187.47129822]
[157.12892151 200.03582764]
[165.32238770 212.60034180]
[173.51583862 225.16487122]
[181.70930481 237.72938538]
[197.21282959 238.37753296]
[209.35354614 248.04101562]
[213.46308899 263.00399780]
[207.96125793 277.51293945]
[194.96360779 285.98886108]
[179.46801758 285.17254639]
[167.43284607 275.37796021]
[163.48587036 260.37124634]
[169.14477539 245.92285156]
[160.95132446 233.35832214]
[152.75785828 220.79380798]
[144.56439209 208.22927856]
[136.37094116 195.66476440]
[128.17747498 183.10023499]
[119.98401642 170.53572083]
[121.15070343 185.49028015]
[106.47217560 188.57908630]
[91.79534912 185.48217773]
[79.61616516 176.72618103]
[72.00579834 163.80014038]
[70.25846863 148.90226746]
[74.67131805 134.56605530]
[84.49389648 123.22953033]
[98.05580139 116.82055664]
[113.05068970 116.42905426]
[126.93092346 122.12320709]
[140.62916565 128.23535156]
[131.53814697 116.30415344]
[124.19286346 117.81967926]
[127.22391510 132.51025391]
[130.25495911 147.20080566]
[133.28601074 161.89137268]
[136.31706238 176.58193970]
[139.34811401 191.27250671]
[142.37916565 205.96307373]
[149.80148315 218.99800110]
[139.69813538 230.08503723]
[126.03163147 223.90225220]
[127.68859863 208.99412537]
] def
/pairs [
[6 24]
[7 23]
[8 22]
[9 21]
[10 20]
[11 19]
[12 18]
[26 43]
[27 42]
[28 41]
[29 40]
[30 39]
[31 38]
[32 37]
[51 197]
[52 196]
[53 195]
[54 194]
[55 193]
[56 192]
[57 191]
[61 103]
[62 102]
[63 101]
[64 100]
[65 99]
[66 98]
[71 94]
[72 93]
[73 92]
[74 91]
[75 90]
[76 89]
[77 88]
[78 87]
[104 144]
[105 143]
[106 142]
[110 139]
[111 138]
[112 137]
[113 136]
[114 135]
[115 134]
[116 133]
[117 132]
[155 184]
[156 183]
[157 182]
[158 181]
[159 180]
[198 304]
[199 303]
[200 302]
[201 301]
[202 300]
[203 299]
[204 298]
[205 297]
[206 296]
[318 374]
[319 373]
[320 337]
[321 336]
[322 335]
[323 334]
[324 333]
[325 332]
[326 331]
[340 361]
[341 360]
[342 359]
[343 358]
[344 357]
[345 356]
[346 355]
] def

init

% switch off outline pairs or bases by removing these lines
drawoutline
drawpairs
drawbases
% show it
showpage
end
%%EOF
