%!PS-Adobe-3.0 EPSF-3.0
%%Creator: PS_dot.c,v 1.38 2007/02/02 15:18:13 ivo Exp $, ViennaRNA-2.0.7
%%CreationDate: Sun Nov  4 18:30:36 2012
%%Title: RNA Secondary Structure Plot
%%BoundingBox: 66 210 518 662
%%DocumentFonts: Helvetica
%%Pages: 1
%%EndComments

%Options: -d2 
% to switch off outline pairs of sequence comment or
% delete the appropriate line near the end of the file

%%BeginProlog
/RNAplot 100 dict def
RNAplot begin
/fsize  14 def
/outlinecolor {0.2 setgray} bind def
/paircolor    {0.2 setgray} bind def
/seqcolor     {0   setgray} bind def
/cshow  { dup stringwidth pop -2 div fsize -3 div rmoveto show} bind def
/min { 2 copy gt { exch } if pop } bind def
/max { 2 copy lt { exch } if pop } bind def
/arccoords { % i j arccoords
  % puts optimal x1 y1 x2 y2 coordinates used in bezier curves from i to j
  % onto the stack
  dup 3 -1 roll dup 4 -1 roll lt dup dup 5 2 roll {exch} if
  dup 3 -1 roll dup 3 -1 roll exch sub 1 sub dup
  4 -2 roll 5 -1 roll {exch} if 4 2 roll
  sequence length dup 2 div exch 3 1 roll lt 
  {exch 5 -1 roll pop 4 -2 roll exch 4 2 roll}
  { 4 2 roll 5 -1 roll dup 6 1 roll {exch} if
    4 -2 roll exch pop dup 3 -1 roll dup 4 1 roll
    exch add 4 -1 roll dup 5 1 roll sub 1 sub
    5 -1 roll not {4 -2 roll exch 4 2 roll} if
  }ifelse
   % compute the scalingfactor and prepare (1-sf) and sf*r
  2 mul exch cpr 3 1 roll div dup
  3 -1 roll mul exch 1 exch sub exch
   % compute the coordinates
  3 -1 roll 1 sub coor exch get aload pop % get coord for i
  4 -1 roll dup 5 1 roll mul 3 -1 roll dup 4 1 roll add exch % calculate y1
  4 -1 roll dup 5 1 roll mul 3 -1 roll dup 4 1 roll add exch % calculate x1
  5 -1 roll 1 sub coor exch get aload pop % get coord for j
  % duplicate j coord
  dup 3 -1 roll dup 4 1 roll exch 8 2 roll
  6 -1 roll dup 7 1 roll mul 5 -1 roll dup 6 1 roll add exch % calculate y2
  6 -1 roll mul 5 -1 roll add exch % calculate x2
  6 -2 roll % reorder
} bind def
/drawoutline {
  gsave outlinecolor newpath
  coor 0 get aload pop 0.8 0 360 arc % draw 5' circle of 1st sequence
  currentdict /cutpoint known        % check if cutpoint is defined
  {coor 0 cutpoint getinterval
   {aload pop lineto} forall         % draw outline of 1st sequence
   coor cutpoint 1 add get aload pop
   2 copy moveto 0.8 0 360 arc       % draw 5' circle of 2nd sequence
   coor cutpoint 1 add coor length cutpoint 1 add sub getinterval
   {aload pop lineto} forall}        % draw outline of 2nd sequence
  {coor {aload pop lineto} forall}   % draw outline as a whole
  ifelse
  stroke grestore
} bind def
/drawpairs {
  paircolor
  0.7 setlinewidth
  [9 3.01] 9 setdash
  newpath
  pairs {aload pop
      currentdict (cpr) known
      { exch dup
        coor  exch 1 sub get aload pop moveto
        exch arccoords curveto
      }
      { coor exch 1 sub get aload pop moveto
        coor exch 1 sub get aload pop lineto
      }ifelse
  } forall
  stroke
} bind def
% draw bases
/drawbases {
  [] 0 setdash
  seqcolor
  0
  coor {
    aload pop moveto
    dup sequence exch 1 getinterval cshow
    1 add
  } forall
  pop
} bind def

/init {
  /Helvetica findfont fsize scalefont setfont
  1 setlinejoin
  1 setlinecap
  0.8 setlinewidth
  72 216 translate
  % find the coordinate range
  /xmax -1000 def /xmin 10000 def
  /ymax -1000 def /ymin 10000 def
  coor {
      aload pop
      dup ymin lt {dup /ymin exch def} if
      dup ymax gt {/ymax exch def} {pop} ifelse
      dup xmin lt {dup /xmin exch def} if
      dup xmax gt {/xmax exch def} {pop} ifelse
  } forall
  /size {xmax xmin sub ymax ymin sub max} bind def
  72 6 mul size div dup scale
  size xmin sub xmax sub 2 div size ymin sub ymax sub 2 div
  translate
} bind def
end
%%EndProlog
RNAplot begin
% data start here
/sequence (\
nnnnn1111111nnnnn1111111n2222222nnnn2222222nnnnnnn3333333nnn444444nnnn44444444nnnnnnnn44444444nnn444444555nnn55555555nnnnnnnnnnnnnn55555555nn555nnn6n66666<<<<<nnnnnnnnnnnnnnnnnnnn>>>>>nnnnnn3333333777777777nnnnnnnnnnnnnnnnnnnnnnnnnnnnnnnnnnnnnnnnnnnnnnnnn\
nnnnnnnnnnnnnnnnnnnnnnnnnnnnnnnnnnnnnnnn777777777nnnnnn666666n888888888nnnn8888888nn<<<<<<<nnnnnnnn>>>>>>>nnnnnnnnnnn88nnnnnnnnnnn\
) def
/coor [
[111.22820282 241.18569946]
[108.19715118 226.49513245]
[105.16609955 211.80456543]
[102.13505554 197.11399841]
[99.10400391 182.42343140]
[91.75872040 183.93896484]
[88.13252258 198.49404907]
[84.50632477 213.04914856]
[80.88013458 227.60423279]
[77.25393677 242.15933228]
[73.62773895 256.71441650]
[70.00154114 271.26950073]
[77.00119019 285.70504761]
[69.94953918 300.11523438]
[54.25601196 303.44583130]
[41.95934296 293.14187622]
[42.49248505 277.10769653]
[55.44645309 267.64331055]
[59.07264709 253.08822632]
[62.69884491 238.53314209]
[66.32504272 223.97804260]
[69.95123291 209.42295837]
[73.57743073 194.86785889]
[77.20362854 180.31277466]
[63.40393448 174.43157959]
[49.60547256 168.55088806]
[41.61760712 181.24711609]
[33.62974548 193.94332886]
[25.64188194 206.63955688]
[17.65401840 219.33576965]
[9.66615486 232.03199768]
[1.67829096 244.72821045]
[1.59661436 261.12716675]
[-12.77830791 269.01980591]
[-26.65878868 260.28686523]
[-25.76577950 243.91203308]
[-11.01793003 236.74035645]
[-3.03006697 224.04412842]
[4.95779657 211.34791565]
[12.94565964 198.65168762]
[20.93352318 185.95547485]
[28.92138672 173.25924683]
[36.90924835 160.56301880]
[32.53549957 154.47038269]
[20.35021210 163.21788025]
[8.16492367 171.96537781]
[-4.02036524 180.71287537]
[-16.20565414 189.46037292]
[-28.39094162 198.20787048]
[-40.57622910 206.95538330]
[-49.46215439 219.04010010]
[-63.70124435 214.32328796]
[-63.61522675 199.32353210]
[-49.32373047 194.77008057]
[-37.13844299 186.02258301]
[-24.95315361 177.27508545]
[-12.76786423 168.52758789]
[-0.58257604 159.78009033]
[11.60271263 151.03259277]
[23.78800201 142.28509521]
[19.41425133 136.19244385]
[4.83012867 139.70005798]
[-9.75399399 143.20768738]
[-24.33811569 146.71530151]
[-38.92223740 150.22291565]
[-53.50636292 153.73052979]
[-57.79366684 166.78654480]
[-67.87932587 175.96060181]
[-81.07125092 178.94783020]
[-93.91838074 175.07591248]
[-103.11343384 165.45275879]
[-117.72561646 168.84156799]
[-132.33779907 172.23036194]
[-146.94999695 175.61917114]
[-161.56217957 179.00798035]
[-176.17436218 182.39677429]
[-190.78656006 185.78558350]
[-205.39874268 189.17437744]
[-211.32328796 203.51589966]
[-224.56367493 211.60737610]
[-240.02870178 210.33743286]
[-251.77174377 200.19442749]
[-255.27735901 185.07853699]
[-249.19758606 170.80212402]
[-235.87019348 162.85476685]
[-220.41986084 164.29238892]
[-208.78755188 174.56219482]
[-194.17535400 171.17338562]
[-179.56317139 167.78459167]
[-164.95098877 164.39578247]
[-150.33879089 161.00698853]
[-135.72660828 157.61817932]
[-121.11441803 154.22937012]
[-106.50223541 150.84057617]
[-100.56362915 135.50059509]
[-86.49646759 126.65704346]
[-69.76602936 127.98092651]
[-57.01397705 139.14640808]
[-42.42985535 135.63879395]
[-27.84573174 132.13117981]
[-13.26160908 128.62355042]
[1.32251322 125.11594391]
[15.90663624 121.60832214]
[17.49075127 106.69220734]
[3.96865940 100.19966888]
[-9.55343151 93.70713043]
[-21.61970520 99.59188080]
[-34.68502045 97.50672913]
[-44.04141998 88.42881775]
[-46.44742203 75.81383514]
[-59.91622162 69.21146393]
[-73.38502502 62.60908508]
[-86.85382843 56.00671005]
[-100.32263184 49.40433502]
[-113.79142761 42.80195618]
[-127.26023102 36.19958115]
[-140.72903442 29.59720421]
[-152.11071777 39.67320633]
[-166.48356628 44.62191391]
[-181.65582275 43.68868256]
[-195.31384277 37.01582336]
[-205.37486267 25.62089920]
[-210.30465698 11.24155426]
[-209.35147095 -3.92946696]
[-202.66064453 -17.57869339]
[-191.25250244 -27.62471581]
[-176.86668396 -32.53559113]
[-161.69692993 -31.56244659]
[-148.05651855 -24.85367775]
[-138.02551270 -13.43232346]
[-133.13356018 0.95994204]
[-134.12666321 16.12840271]
[-120.65785980 22.73077965]
[-107.18905640 29.33315468]
[-93.72025299 35.93553162]
[-80.25144958 42.53790665]
[-66.78264618 49.14028549]
[-53.31384659 55.74266052]
[-39.84504318 62.34503555]
[-24.14094543 56.23492432]
[-8.58534145 63.54987717]
[-3.06089306 80.18504333]
[10.46119785 86.67758179]
[23.98328972 93.17012024]
[43.82168961 64.10768127]
[71.50904083 50.62248611]
[97.89776611 52.69665146]
[115.86734772 65.81015778]
[118.40829468 57.11474991]
[124.88482666 53.67086411]
[133.87843323 41.66607285]
[142.87203979 29.66127968]
[151.86564636 17.65648842]
[160.85925293 5.65169573]
[162.80705261 -9.22130203]
[157.20808411 -23.13717461]
[151.60911560 -37.05304718]
[146.01014709 -50.96892166]
[140.41117859 -64.88479614]
[125.37789917 -63.40923691]
[110.53812408 -66.23016357]
[97.09483337 -73.11890411]
[86.13783264 -83.51701355]
[78.55533600 -96.58156586]
[74.96203613 -111.25347137]
[75.64922333 -126.34335327]
[80.56118774 -140.62792969]
[89.29974365 -152.94923401]
[101.15649414 -162.30841064]
[115.17025757 -167.94676208]
[130.20500183 -169.40722656]
[145.04194641 -166.57138062]
[158.47830200 -159.66914368]
[169.42486572 -149.26004028]
[176.99421692 -136.18786621]
[180.57278442 -121.51235962]
[179.87043762 -106.42317963]
[174.94412231 -92.14353943]
[166.19319153 -79.83103180]
[154.32705688 -70.48376465]
[159.92602539 -56.56789398]
[165.52499390 -42.65201950]
[171.12396240 -28.73614502]
[176.72293091 -14.82027149]
[183.92921448 -12.74190998]
[185.68727112 -27.63852692]
[187.44534302 -42.53514481]
[189.20341492 -57.43176270]
[188.14044189 -72.39405060]
[197.78158569 -83.88526917]
[212.70097351 -85.43833160]
[224.50218201 -76.17919922]
[226.54367065 -61.31877136]
[217.67602539 -49.21997833]
[211.23127747 -35.67504883]
[204.78651428 -22.13011742]
[198.34176636 -8.58518791]
[205.54803467 -6.50682688]
[217.69763184 -15.30384064]
[229.84721375 -24.10085487]
[241.99681091 -32.89786911]
[254.14639282 -41.69488144]
[266.29598999 -50.49189758]
[278.44558716 -59.28890991]
[290.59518433 -68.08592224]
[302.74475098 -76.88293457]
[294.80355835 -89.61549377]
[287.75973511 -102.86559296]
[281.64682007 -116.57007599]
[276.49395752 -130.66365051]
[272.32571411 -145.07914734]
[269.16195679 -159.74786377]
[267.01776123 -174.59989929]
[265.90332031 -189.56448364]
[265.82397461 -204.57029724]
[266.78009033 -219.54582214]
[268.76708984 -234.41970825]
[271.77554321 -249.12106323]
[275.79110718 -263.57983398]
[280.79461670 -277.72711182]
[286.76223755 -291.49548340]
[293.66555786 -304.81933594]
[301.47164917 -317.63516235]
[310.14334106 -329.88189697]
[319.63928223 -341.50119019]
[329.91421509 -352.43765259]
[340.91921997 -362.63916016]
[352.60177612 -372.05712891]
[364.90628052 -380.64666748]
[377.77407837 -388.36682129]
[391.14382935 -395.18078613]
[404.95181274 -401.05615234]
[419.13226318 -405.96487427]
[433.61758423 -409.88357544]
[448.33874512 -412.79357910]
[463.22561646 -414.68099976]
[478.20718384 -415.53686523]
[493.21212769 -415.35708618]
[508.16891479 -414.14251709]
[523.00628662 -411.89895630]
[537.65350342 -408.63711548]
[552.04077148 -404.37246704]
[566.09954834 -399.12542725]
[579.76281738 -392.92092896]
[592.96545410 -385.78857422]
[605.64459229 -377.76232910]
[617.73974609 -368.88049316]
[629.19335938 -359.18533325]
[639.95074463 -348.72305298]
[649.96075439 -337.54354858]
[659.17553711 -325.70010376]
[667.55133057 -313.24911499]
[675.04815674 -300.24993896]
[681.63024902 -286.76452637]
[687.26629639 -272.85711670]
[691.92944336 -258.59402466]
[695.59741211 -244.04319763]
[698.25274658 -229.27398682]
[699.88287354 -214.35676575]
[700.47991943 -199.36262512]
[700.04107666 -184.36302185]
[698.56842041 -169.42944336]
[696.06896973 -154.63304138]
[692.55468750 -140.04432678]
[688.04223633 -125.73283386]
[682.55322266 -111.76676941]
[676.11370850 -98.21266937]
[668.75445557 -85.13513947]
[660.51043701 -72.59649658]
[651.42108154 -60.65649796]
[641.52960205 -49.37203598]
[630.88311768 -38.79689026]
[619.53247070 -28.98145866]
[607.53161621 -19.97251320]
[594.93786621 -11.81298733]
[581.81115723 -4.54176521]
[568.21411133 1.80650198]
[554.21148682 7.20156145]
[539.86999512 11.61770344]
[525.25799561 15.03388214]
[510.44512939 17.43381882]
[495.50198364 18.80607605]
[480.49975586 19.14411354]
[465.50997925 18.44632149]
[450.60403442 16.71602631]
[435.85299683 13.96147060]
[421.32714844 10.19578362]
[407.09573364 5.43690968]
[393.22653198 -0.29247215]
[379.78564453 -6.96505928]
[366.83712769 -14.54905224]
[354.44271851 -23.00831223]
[342.66143799 -32.30252075]
[331.54946899 -42.38739395]
[321.15972900 -53.21487045]
[311.54177856 -64.73334503]
[299.39218140 -55.93633270]
[287.24258423 -47.13932037]
[275.09298706 -38.34230423]
[262.94342041 -29.54529190]
[250.79382324 -20.74827766]
[238.64422607 -11.95126438]
[226.49464417 -3.15425014]
[214.34504700 5.64276361]
[209.10040283 11.69358063]
[202.94270325 16.14159203]
[196.30387878 18.89333534]
[189.61012268 19.96314049]
[183.25646973 19.46566391]
[177.58447266 17.60270691]
[172.86404419 14.64530277]
[163.87043762 26.65009499]
[154.87683105 38.65488815]
[145.88322449 50.65967941]
[136.88961792 62.66447067]
[127.94493866 74.70576477]
[155.94380188 110.96198273]
[133.07104492 168.78585815]
[142.16206360 180.71705627]
[152.85464478 191.23696899]
[164.93223572 200.13258362]
[177.00982666 209.02818298]
[189.08741760 217.92378235]
[201.16500854 226.81939697]
[213.24259949 235.71499634]
[225.32019043 244.61061096]
[241.66917419 245.89219666]
[248.48863220 260.80618286]
[238.76327515 274.01034546]
[222.49772644 271.92135620]
[216.42457581 256.68820190]
[204.34698486 247.79258728]
[192.26939392 238.89698792]
[180.19180298 230.00138855]
[168.11421204 221.10577393]
[156.03662109 212.21017456]
[143.95903015 203.31455994]
[138.50683594 208.46466064]
[127.60243988 218.76486206]
[122.15023804 223.91496277]
[130.34370422 236.47949219]
[138.53715515 249.04400635]
[146.73062134 261.60852051]
[154.92408752 274.17306519]
[163.11753845 286.73757935]
[171.31100464 299.30209351]
[186.81454468 299.95025635]
[198.95524597 309.61370850]
[203.06478882 324.57672119]
[197.56295776 339.08566284]
[184.56530762 347.56155396]
[169.06971741 346.74526978]
[157.03456116 336.95065308]
[153.08758545 321.94396973]
[158.74649048 307.49554443]
[150.55302429 294.93103027]
[142.35955811 282.36651611]
[134.16610718 269.80200195]
[125.97264099 257.23745728]
[117.77918243 244.67294312]
[109.58571625 232.10842896]
[110.75240326 247.06298828]
[96.07387543 250.15179443]
[81.39705658 247.05488586]
[69.21787262 238.29888916]
[61.60750580 225.37284851]
[59.86017227 210.47497559]
[64.27301788 196.13876343]
[74.09560394 184.80223083]
[87.65750122 178.39326477]
[102.65238953 178.00177002]
[116.53263092 183.69590759]
[130.23086548 189.80805969]
[121.13985443 177.87686157]
[113.79457092 179.39239502]
[116.82561493 194.08296204]
[119.85666656 208.77352905]
[122.88771820 223.46408081]
[125.91876984 238.15464783]
[128.94981384 252.84521484]
[131.98086548 267.53579712]
[139.40303040 280.57080078]
[129.29945374 291.65762329]
[115.63315582 285.47436523]
[117.29029846 270.56683350]
] def
/pairs [
[6 24]
[7 23]
[8 22]
[9 21]
[10 20]
[11 19]
[12 18]
[26 43]
[27 42]
[28 41]
[29 40]
[30 39]
[31 38]
[32 37]
[61 103]
[62 102]
[63 101]
[64 100]
[65 99]
[66 98]
[71 94]
[72 93]
[73 92]
[74 91]
[75 90]
[76 89]
[77 88]
[78 87]
[104 144]
[105 143]
[106 142]
[110 139]
[111 138]
[112 137]
[113 136]
[114 135]
[115 134]
[116 133]
[117 132]
[148 316]
[150 315]
[151 314]
[152 313]
[153 312]
[154 311]
[155 184]
[156 183]
[157 182]
[158 181]
[159 180]
[198 304]
[199 303]
[200 302]
[201 301]
[202 300]
[203 299]
[204 298]
[205 297]
[206 296]
[318 374]
[319 373]
[320 337]
[321 336]
[322 335]
[323 334]
[324 333]
[325 332]
[326 331]
[340 361]
[341 360]
[342 359]
[343 358]
[344 357]
[345 356]
[346 355]
] def

init

% switch off outline pairs or bases by removing these lines
drawoutline
drawpairs
drawbases
% show it
showpage
end
%%EOF
