%!PS-Adobe-3.0 EPSF-3.0
%%Creator: PS_dot.c,v 1.38 2007/02/02 15:18:13 ivo Exp $, ViennaRNA-2.0.7
%%CreationDate: Sun Nov  4 18:30:37 2012
%%Title: RNA Secondary Structure Plot
%%BoundingBox: 66 210 518 662
%%DocumentFonts: Helvetica
%%Pages: 1
%%EndComments

%Options: -d2 
% to switch off outline pairs of sequence comment or
% delete the appropriate line near the end of the file

%%BeginProlog
/RNAplot 100 dict def
RNAplot begin
/fsize  14 def
/outlinecolor {0.2 setgray} bind def
/paircolor    {0.2 setgray} bind def
/seqcolor     {0   setgray} bind def
/cshow  { dup stringwidth pop -2 div fsize -3 div rmoveto show} bind def
/min { 2 copy gt { exch } if pop } bind def
/max { 2 copy lt { exch } if pop } bind def
/arccoords { % i j arccoords
  % puts optimal x1 y1 x2 y2 coordinates used in bezier curves from i to j
  % onto the stack
  dup 3 -1 roll dup 4 -1 roll lt dup dup 5 2 roll {exch} if
  dup 3 -1 roll dup 3 -1 roll exch sub 1 sub dup
  4 -2 roll 5 -1 roll {exch} if 4 2 roll
  sequence length dup 2 div exch 3 1 roll lt 
  {exch 5 -1 roll pop 4 -2 roll exch 4 2 roll}
  { 4 2 roll 5 -1 roll dup 6 1 roll {exch} if
    4 -2 roll exch pop dup 3 -1 roll dup 4 1 roll
    exch add 4 -1 roll dup 5 1 roll sub 1 sub
    5 -1 roll not {4 -2 roll exch 4 2 roll} if
  }ifelse
   % compute the scalingfactor and prepare (1-sf) and sf*r
  2 mul exch cpr 3 1 roll div dup
  3 -1 roll mul exch 1 exch sub exch
   % compute the coordinates
  3 -1 roll 1 sub coor exch get aload pop % get coord for i
  4 -1 roll dup 5 1 roll mul 3 -1 roll dup 4 1 roll add exch % calculate y1
  4 -1 roll dup 5 1 roll mul 3 -1 roll dup 4 1 roll add exch % calculate x1
  5 -1 roll 1 sub coor exch get aload pop % get coord for j
  % duplicate j coord
  dup 3 -1 roll dup 4 1 roll exch 8 2 roll
  6 -1 roll dup 7 1 roll mul 5 -1 roll dup 6 1 roll add exch % calculate y2
  6 -1 roll mul 5 -1 roll add exch % calculate x2
  6 -2 roll % reorder
} bind def
/drawoutline {
  gsave outlinecolor newpath
  coor 0 get aload pop 0.8 0 360 arc % draw 5' circle of 1st sequence
  currentdict /cutpoint known        % check if cutpoint is defined
  {coor 0 cutpoint getinterval
   {aload pop lineto} forall         % draw outline of 1st sequence
   coor cutpoint 1 add get aload pop
   2 copy moveto 0.8 0 360 arc       % draw 5' circle of 2nd sequence
   coor cutpoint 1 add coor length cutpoint 1 add sub getinterval
   {aload pop lineto} forall}        % draw outline of 2nd sequence
  {coor {aload pop lineto} forall}   % draw outline as a whole
  ifelse
  stroke grestore
} bind def
/drawpairs {
  paircolor
  0.7 setlinewidth
  [9 3.01] 9 setdash
  newpath
  pairs {aload pop
      currentdict (cpr) known
      { exch dup
        coor  exch 1 sub get aload pop moveto
        exch arccoords curveto
      }
      { coor exch 1 sub get aload pop moveto
        coor exch 1 sub get aload pop lineto
      }ifelse
  } forall
  stroke
} bind def
% draw bases
/drawbases {
  [] 0 setdash
  seqcolor
  0
  coor {
    aload pop moveto
    dup sequence exch 1 getinterval cshow
    1 add
  } forall
  pop
} bind def

/init {
  /Helvetica findfont fsize scalefont setfont
  1 setlinejoin
  1 setlinecap
  0.8 setlinewidth
  72 216 translate
  % find the coordinate range
  /xmax -1000 def /xmin 10000 def
  /ymax -1000 def /ymin 10000 def
  coor {
      aload pop
      dup ymin lt {dup /ymin exch def} if
      dup ymax gt {/ymax exch def} {pop} ifelse
      dup xmin lt {dup /xmin exch def} if
      dup xmax gt {/xmax exch def} {pop} ifelse
  } forall
  /size {xmax xmin sub ymax ymin sub max} bind def
  72 6 mul size div dup scale
  size xmin sub xmax sub 2 div size ymin sub ymax sub 2 div
  translate
} bind def
end
%%EndProlog
RNAplot begin
% data start here
/sequence (\
nnnnnn111111nnnnn111111nnn222222nnnn222222nnnn3333333nnn444444nnn444nnnnnnnn444nnn444444555nnn555555nnnnn555555nn555nnn6n66666<<<<nnnn>>>>nnn<<<<<nnnn>>>>>nnnn3333333777777777777nnnnnn666666n888888888nnnn8888888nnnnnnnnnnnnnnnnnnn88nnnnnnnnnnn\
) def
/coor [
[77.51167297 256.49783325]
[75.80926514 241.59474182]
[74.10686493 226.69166565]
[72.40446472 211.78858948]
[70.70205688 196.88549805]
[68.99965668 181.98242188]
[61.67860031 183.61096191]
[56.02767944 197.50581360]
[50.37676239 211.40068054]
[44.72584534 225.29553223]
[39.07492447 239.19039917]
[33.42400742 253.08525085]
[38.30876541 268.36657715]
[29.28743744 281.63287354]
[13.28040981 282.70742798]
[2.56690574 270.76586914]
[5.36540890 254.96879578]
[19.52914810 247.43434143]
[25.18006516 233.53947449]
[30.83098412 219.64460754]
[36.48190308 205.74975586]
[42.13282013 191.85488892]
[47.78374100 177.96003723]
[41.75608826 173.49714661]
[27.99848938 179.47447205]
[29.70079041 164.57135010]
[23.67313957 160.10845947]
[12.03217316 169.56825256]
[0.39120659 179.02806091]
[-11.24976063 188.48786926]
[-22.89072609 197.94766235]
[-34.53169250 207.40747070]
[-39.87366867 222.91215515]
[-56.02149582 225.77217102]
[-66.36367798 213.04537964]
[-60.26106262 197.82400513]
[-43.99149704 195.76651001]
[-32.35053253 186.30670166]
[-20.70956421 176.84689331]
[-9.06859779 167.38710022]
[2.57236934 157.92729187]
[14.21333599 148.46748352]
[12.77384377 141.10691833]
[-1.94727874 143.98591614]
[-16.66840172 146.86489868]
[-31.38952446 149.74388123]
[-46.11064529 152.62286377]
[-60.83176804 155.50184631]
[-75.55293274 158.38059998]
[-78.43146515 143.65939331]
[-63.71075439 140.78073120]
[-48.98963165 137.90174866]
[-34.26850891 135.02275085]
[-19.54738617 132.14376831]
[-4.82626343 129.26478577]
[9.89485931 126.38580322]
[8.45536613 119.02523804]
[-5.89171219 114.64787292]
[-20.23879051 110.27050781]
[-34.58586884 105.89314270]
[-48.93294907 101.51577759]
[-63.28002548 97.13841248]
[-75.65621948 106.31097412]
[-90.88244629 106.43577576]
[-103.11782074 97.67452240]
[-107.79211426 83.55754852]
[-122.13919067 79.18018341]
[-136.48626709 74.80281067]
[-148.79183960 84.25546265]
[-164.30424500 84.63613129]
[-177.05865479 75.79843903]
[-182.15072632 61.14066315]
[-177.62246704 46.29901505]
[-165.21507263 36.98041534]
[-149.69944763 36.76805115]
[-137.04167175 45.74358368]
[-132.10890198 60.45573425]
[-117.76182556 64.83309937]
[-103.41474915 69.21047211]
[-91.65588379 60.10733414]
[-76.61355591 59.66864395]
[-64.05037689 68.27213287]
[-58.90266037 82.79132843]
[-44.55558014 87.16870117]
[-30.20850372 91.54606628]
[-15.86142445 95.92343140]
[-1.51434577 100.30079651]
[12.83273315 104.67816162]
[22.29253769 93.03719330]
[15.07300282 79.88887787]
[7.85346794 66.74055481]
[-5.41360569 64.49456787]
[-14.83225346 55.15896988]
[-17.12721825 42.29515839]
[-11.68229675 30.63097382]
[-18.73194695 17.39079094]
[-25.78159904 4.15060949]
[-32.83124924 -9.08957291]
[-39.88090134 -22.32975388]
[-46.93055344 -35.56993484]
[-61.79392242 -41.60813141]
[-66.20186615 -57.03374863]
[-56.77298355 -70.01357269]
[-40.74031067 -70.59059143]
[-30.40274048 -58.32216644]
[-33.69036865 -42.61958694]
[-26.64071846 -29.37940598]
[-19.59106827 -16.13922310]
[-12.54141712 -2.89904165]
[-5.49176550 10.34114075]
[1.55788565 23.58132172]
[17.84659195 27.80620384]
[26.19490242 42.80521774]
[21.00178719 59.52102280]
[28.22132301 72.66934204]
[35.44085693 85.81766510]
[55.08079910 60.49908447]
[81.92311859 49.60914230]
[107.55749512 53.35483170]
[125.30402374 67.77596283]
[129.67126465 59.77881241]
[136.78039551 57.81985855]
[148.17393494 48.06346130]
[159.56747437 38.30706406]
[170.96101379 28.55066490]
[182.35455322 18.79426575]
[190.40498352 6.13763332]
[194.41149902 -8.31739712]
[198.41799927 -22.77242661]
[202.42451477 -37.22745895]
[197.79463196 -52.95946884]
[209.29841614 -64.64685822]
[225.10176086 -60.26663589]
[228.94754028 -44.32480240]
[216.87954712 -33.22095108]
[212.87303162 -18.76591873]
[208.86653137 -4.31088924]
[204.86001587 10.14414120]
[211.52494812 13.58344078]
[224.14689636 5.47872686]
[224.85479736 20.46203995]
[231.51971436 23.90133858]
[240.97952271 12.26037216]
[250.43933105 0.61940569]
[259.89913940 -11.02156067]
[269.35894775 -22.66252708]
[271.41644287 -38.93209076]
[286.63781738 -45.03470612]
[299.36459351 -34.69252396]
[296.50457764 -18.54469681]
[280.99990845 -13.20272350]
[271.54010010 -1.56175709]
[262.08029175 10.07920933]
[252.62048340 21.72017670]
[243.16069031 33.36114502]
[247.26704407 39.63711166]
[259.81896973 31.42438126]
[272.37091064 23.21165085]
[284.92285156 14.99892044]
[297.47479248 6.78619003]
[312.45141602 5.94941425]
[305.68753052 19.33812523]
[293.13558960 27.55085564]
[280.58364868 35.76358414]
[268.03170776 43.97631454]
[255.47978210 52.18904495]
[259.58615112 58.46501160]
[274.04116821 54.45850372]
[288.49621582 50.45199585]
[302.95123291 46.44548798]
[317.40628052 42.43898010]
[331.86129761 38.43247223]
[335.86779785 52.88750458]
[321.41278076 56.89401245]
[306.95773315 60.90052032]
[292.50271606 64.90702820]
[278.04766846 68.91353607]
[263.59265137 72.92004395]
[250.13656616 79.54828644]
[235.25462341 81.42651367]
[220.57362366 78.34939575]
[207.69844055 70.65332031]
[198.03649902 59.17957306]
[192.64399719 45.18239975]
[192.11094666 30.18780327]
[180.71740723 39.94420242]
[169.32386780 49.70059967]
[157.93032837 59.45700073]
[146.53678894 69.21339417]
[135.20629883 79.04293823]
[146.76898193 126.05138397]
[101.15192413 166.08853149]
[112.16020966 176.27763367]
[124.32942963 185.04747009]
[137.47775269 192.26701355]
[150.62606812 199.48654175]
[163.77438354 206.70608521]
[176.92271423 213.92561340]
[190.07102966 221.14514160]
[203.21934509 228.36468506]
[219.59417725 227.47203064]
[228.32682800 241.35270691]
[220.43386841 255.72744751]
[204.03492737 255.80877686]
[195.99981689 241.51300049]
[182.85148621 234.29347229]
[169.70317078 227.07392883]
[156.55485535 219.85440063]
[143.40653992 212.63487244]
[130.25820923 205.41532898]
[117.10989380 198.19580078]
[125.75392151 210.45471191]
[130.44998169 224.70065308]
[130.79037476 239.69679260]
[126.74552917 254.14114380]
[118.66663361 266.77963257]
[107.25509644 276.51498413]
[93.50169373 282.50195312]
[78.60049438 284.22073364]
[63.84523773 281.52212524]
[50.51699066 274.64044189]
[39.77292633 264.17309570]
[32.54584885 251.02893066]
[29.46322632 236.34909058]
[30.79268837 221.40812683]
[36.41881561 207.50320435]
[45.85313797 195.84158325]
[58.27655792 187.43571472]
[72.61046600 183.01542664]
[87.61038208 182.96446228]
[101.97110748 187.28591919]
[90.96282959 177.09681702]
[83.64176941 178.72535706]
[88.41753387 192.94477844]
[93.19329071 207.16419983]
[97.96904755 221.38363647]
[102.74481201 235.60305786]
[107.52056885 249.82249451]
[117.11161041 261.35556030]
[117.28914642 276.35452271]
[107.97379303 288.11138916]
[93.33161926 291.36819458]
[79.91101074 284.66842651]
] def
/pairs [
[7 23]
[8 22]
[9 21]
[10 20]
[11 19]
[12 18]
[27 42]
[28 41]
[29 40]
[30 39]
[31 38]
[32 37]
[57 88]
[58 87]
[59 86]
[60 85]
[61 84]
[62 83]
[66 79]
[67 78]
[68 77]
[89 116]
[90 115]
[91 114]
[95 111]
[96 110]
[97 109]
[98 108]
[99 107]
[100 106]
[120 190]
[122 189]
[123 188]
[124 187]
[125 186]
[126 185]
[127 138]
[128 137]
[129 136]
[130 135]
[142 155]
[143 154]
[144 153]
[145 152]
[146 151]
[167 178]
[168 177]
[169 176]
[170 175]
[171 174]
[172 173]
[192 232]
[193 231]
[194 211]
[195 210]
[196 209]
[197 208]
[198 207]
[199 206]
[200 205]
] def

init

% switch off outline pairs or bases by removing these lines
drawoutline
drawpairs
drawbases
% show it
showpage
end
%%EOF
