%!PS-Adobe-3.0 EPSF-3.0
%%Creator: PS_dot.c,v 1.38 2007/02/02 15:18:13 ivo Exp $, ViennaRNA-2.0.7
%%CreationDate: Sun Nov  4 18:30:37 2012
%%Title: RNA Secondary Structure Plot
%%BoundingBox: 66 210 518 662
%%DocumentFonts: Helvetica
%%Pages: 1
%%EndComments

%Options: -d2 
% to switch off outline pairs of sequence comment or
% delete the appropriate line near the end of the file

%%BeginProlog
/RNAplot 100 dict def
RNAplot begin
/fsize  14 def
/outlinecolor {0.2 setgray} bind def
/paircolor    {0.2 setgray} bind def
/seqcolor     {0   setgray} bind def
/cshow  { dup stringwidth pop -2 div fsize -3 div rmoveto show} bind def
/min { 2 copy gt { exch } if pop } bind def
/max { 2 copy lt { exch } if pop } bind def
/arccoords { % i j arccoords
  % puts optimal x1 y1 x2 y2 coordinates used in bezier curves from i to j
  % onto the stack
  dup 3 -1 roll dup 4 -1 roll lt dup dup 5 2 roll {exch} if
  dup 3 -1 roll dup 3 -1 roll exch sub 1 sub dup
  4 -2 roll 5 -1 roll {exch} if 4 2 roll
  sequence length dup 2 div exch 3 1 roll lt 
  {exch 5 -1 roll pop 4 -2 roll exch 4 2 roll}
  { 4 2 roll 5 -1 roll dup 6 1 roll {exch} if
    4 -2 roll exch pop dup 3 -1 roll dup 4 1 roll
    exch add 4 -1 roll dup 5 1 roll sub 1 sub
    5 -1 roll not {4 -2 roll exch 4 2 roll} if
  }ifelse
   % compute the scalingfactor and prepare (1-sf) and sf*r
  2 mul exch cpr 3 1 roll div dup
  3 -1 roll mul exch 1 exch sub exch
   % compute the coordinates
  3 -1 roll 1 sub coor exch get aload pop % get coord for i
  4 -1 roll dup 5 1 roll mul 3 -1 roll dup 4 1 roll add exch % calculate y1
  4 -1 roll dup 5 1 roll mul 3 -1 roll dup 4 1 roll add exch % calculate x1
  5 -1 roll 1 sub coor exch get aload pop % get coord for j
  % duplicate j coord
  dup 3 -1 roll dup 4 1 roll exch 8 2 roll
  6 -1 roll dup 7 1 roll mul 5 -1 roll dup 6 1 roll add exch % calculate y2
  6 -1 roll mul 5 -1 roll add exch % calculate x2
  6 -2 roll % reorder
} bind def
/drawoutline {
  gsave outlinecolor newpath
  coor 0 get aload pop 0.8 0 360 arc % draw 5' circle of 1st sequence
  currentdict /cutpoint known        % check if cutpoint is defined
  {coor 0 cutpoint getinterval
   {aload pop lineto} forall         % draw outline of 1st sequence
   coor cutpoint 1 add get aload pop
   2 copy moveto 0.8 0 360 arc       % draw 5' circle of 2nd sequence
   coor cutpoint 1 add coor length cutpoint 1 add sub getinterval
   {aload pop lineto} forall}        % draw outline of 2nd sequence
  {coor {aload pop lineto} forall}   % draw outline as a whole
  ifelse
  stroke grestore
} bind def
/drawpairs {
  paircolor
  0.7 setlinewidth
  [9 3.01] 9 setdash
  newpath
  pairs {aload pop
      currentdict (cpr) known
      { exch dup
        coor  exch 1 sub get aload pop moveto
        exch arccoords curveto
      }
      { coor exch 1 sub get aload pop moveto
        coor exch 1 sub get aload pop lineto
      }ifelse
  } forall
  stroke
} bind def
% draw bases
/drawbases {
  [] 0 setdash
  seqcolor
  0
  coor {
    aload pop moveto
    dup sequence exch 1 getinterval cshow
    1 add
  } forall
  pop
} bind def

/init {
  /Helvetica findfont fsize scalefont setfont
  1 setlinejoin
  1 setlinecap
  0.8 setlinewidth
  72 216 translate
  % find the coordinate range
  /xmax -1000 def /xmin 10000 def
  /ymax -1000 def /ymin 10000 def
  coor {
      aload pop
      dup ymin lt {dup /ymin exch def} if
      dup ymax gt {/ymax exch def} {pop} ifelse
      dup xmin lt {dup /xmin exch def} if
      dup xmax gt {/xmax exch def} {pop} ifelse
  } forall
  /size {xmax xmin sub ymax ymin sub max} bind def
  72 6 mul size div dup scale
  size xmin sub xmax sub 2 div size ymin sub ymax sub 2 div
  translate
} bind def
end
%%EndProlog
RNAplot begin
% data start here
/sequence (\
nnnnnn111111nnnnn111111nnn222222nnnn222222nnnn3333333nnn444444nnn444nnnnnnnn444nnn444444555nnn555555nnnnn555555nn555nnn6n66666<<<<nnnn>>>>nnn<<<<<nnnn>>>>>nnnn3333333777777777777nnnnnn666666n888888888nnnn8888888nnnnnnnnnnnnnnnnnnn88nnnnnnnnnnn\
) def
/coor [
[102.34635162 204.24252319]
[100.64395142 189.33944702]
[98.94155121 174.43637085]
[97.23914337 159.53327942]
[95.53674316 144.63020325]
[93.83433533 129.72712708]
[86.51328278 131.35565186]
[80.86236572 145.25051880]
[75.21144867 159.14537048]
[69.56052399 173.04023743]
[63.90960693 186.93508911]
[58.25868988 200.82995605]
[63.14345169 216.11126709]
[54.12211990 229.37759399]
[38.11509323 230.45211792]
[27.40158844 218.51057434]
[30.20009232 202.71350098]
[44.36383057 195.17903137]
[50.01474762 181.28417969]
[55.66566849 167.38931274]
[61.31658554 153.49446106]
[66.96750641 139.59959412]
[72.61842346 125.70473480]
[66.59077454 121.24184418]
[52.83317184 127.21916962]
[54.53547287 112.31604767]
[48.50782394 107.85315704]
[36.86685562 117.31295776]
[25.22588921 126.77276611]
[13.58492279 136.23257446]
[1.94395602 145.69236755]
[-9.69701099 155.15217590]
[-15.03898430 170.65686035]
[-31.18681145 173.51687622]
[-41.52899170 160.79008484]
[-35.42638016 145.56871033]
[-19.15681458 143.51121521]
[-7.51584816 134.05140686]
[4.12511873 124.59159851]
[15.76608562 115.13179779]
[27.40705299 105.67198944]
[39.04801941 96.21218872]
[48.86186981 79.85980225]
[62.26971054 68.96728516]
[76.95623779 63.99887466]
[90.71425629 64.56010437]
[101.73506927 69.52148438]
[95.90571594 55.70053482]
[90.07637024 41.87958145]
[84.24702454 28.05862999]
[78.41767883 14.23767662]
[72.58833313 0.41672486]
[66.75898743 -13.40422726]
[39.93707657 -8.97730732]
[12.11568546 -22.55308342]
[-4.71691656 -52.95407867]
[-0.83059865 -91.31533051]
[-15.17767715 -95.69269562]
[-29.52475548 -100.07006073]
[-43.87183380 -104.44742584]
[-58.21891403 -108.82479095]
[-72.56599426 -113.20216370]
[-84.94218445 -104.02959442]
[-100.16841125 -103.90479279]
[-112.40378571 -112.66604614]
[-117.07807922 -126.78302002]
[-131.42515564 -131.16038513]
[-145.77223206 -135.53775024]
[-158.07780457 -126.08510590]
[-173.59020996 -125.70444489]
[-186.34461975 -134.54212952]
[-191.43669128 -149.19990540]
[-186.90843201 -164.04154968]
[-174.50103760 -173.36015320]
[-158.98541260 -173.57252502]
[-146.32763672 -164.59698486]
[-141.39486694 -149.88484192]
[-127.04779053 -145.50746155]
[-112.70071411 -141.13009644]
[-100.94184875 -150.23323059]
[-85.89952087 -150.67192078]
[-73.33634186 -142.06843567]
[-68.18862152 -127.54924011]
[-53.84154510 -123.17187500]
[-39.49446869 -118.79450989]
[-25.14739037 -114.41713715]
[-10.80031109 -110.03977203]
[3.54676771 -105.66240692]
[13.00657177 -117.30337524]
[5.78703737 -130.45169067]
[-1.43249726 -143.60002136]
[-14.69957066 -145.84600830]
[-24.11821747 -155.18159485]
[-26.41318321 -168.04541016]
[-20.96826172 -179.70959473]
[-28.01791191 -192.94978333]
[-35.06756210 -206.18995667]
[-42.11721420 -219.43014526]
[-49.16686630 -232.67031860]
[-56.21651840 -245.91050720]
[-71.07988739 -251.94869995]
[-75.48783112 -267.37432861]
[-66.05895233 -280.35412598]
[-50.02627563 -280.93115234]
[-39.68870544 -268.66275024]
[-42.97633362 -252.96015930]
[-35.92668533 -239.71997070]
[-28.87703323 -226.47979736]
[-21.82738113 -213.23960876]
[-14.77773094 -199.99943542]
[-7.72807932 -186.75924683]
[8.56062603 -182.53436279]
[16.90893745 -167.53535461]
[11.71582317 -150.81954956]
[18.93535805 -137.67123413]
[26.15489197 -124.52291107]
[33.60459518 -125.39005280]
[31.87030411 -140.28945923]
[30.13601685 -155.18885803]
[28.40172768 -170.08827209]
[26.66768646 -184.98770142]
[41.56714630 -186.72149658]
[43.30113220 -171.82255554]
[45.03541946 -156.92315674]
[46.76971054 -142.02374268]
[48.50399780 -127.12434387]
[55.95370102 -127.99148560]
[59.96020889 -142.44651794]
[63.96671677 -156.90155029]
[67.97322083 -171.35658264]
[63.34333801 -187.08859253]
[74.84712219 -198.77597046]
[90.65046692 -194.39575195]
[94.49624634 -178.45391846]
[82.42825317 -167.35006714]
[78.42174530 -152.89503479]
[74.41523743 -138.44000244]
[70.40872955 -123.98497772]
[77.07365417 -120.54567719]
[89.69544983 -128.65063477]
[90.40350342 -113.66707611]
[97.06842804 -110.22778320]
[106.52822876 -121.86874390]
[115.98803711 -133.50971985]
[125.44783783 -145.15068054]
[134.90763855 -156.79164124]
[136.96514893 -173.06121826]
[152.18652344 -179.16381836]
[164.91331482 -168.82164001]
[162.05329895 -152.67381287]
[146.54861450 -147.33184814]
[137.08880615 -135.69087219]
[127.62900543 -124.04991150]
[118.16919708 -112.40894318]
[108.70939636 -100.76797485]
[116.36881256 -78.69290161]
[115.71098328 -57.11943436]
[108.02627563 -38.86052322]
[95.45307922 -25.91152382]
[80.57994080 -19.23357391]
[86.40928650 -5.41262197]
[92.23863220 8.40832996]
[98.06797791 22.22928238]
[103.89732361 36.05023575]
[109.72666931 49.87118530]
[115.55601501 63.69213867]
[129.05856323 70.22524261]
[143.51358032 66.21873474]
[157.96861267 62.21222687]
[172.42364502 58.20571899]
[186.87867737 54.19921112]
[201.33370972 50.19270325]
[205.34020996 64.64773560]
[190.88519287 68.65424347]
[176.43016052 72.66075134]
[161.97512817 76.66725922]
[147.52009583 80.67376709]
[133.06506348 84.68027496]
[131.29545593 91.96851349]
[145.90174866 95.38258362]
[160.50805664 98.79665375]
[175.11436462 102.21072388]
[189.72067261 105.62479401]
[204.70472717 104.93328857]
[210.27058411 118.86244202]
[198.93611145 128.68739319]
[185.93858337 121.20149994]
[171.39299011 117.53737640]
[156.84739685 113.87324524]
[142.30181885 110.20912170]
[127.75622559 106.54499817]
[125.98661041 113.83323669]
[136.99488831 124.02233887]
[149.16410828 132.79217529]
[162.31242371 140.01171875]
[175.46075439 147.23124695]
[188.60906982 154.45077515]
[201.75738525 161.67031860]
[214.90571594 168.88984680]
[228.05403137 176.10939026]
[244.42886353 175.21673584]
[253.16149902 189.09741211]
[245.26855469 203.47215271]
[228.86961365 203.55346680]
[220.83450317 189.25770569]
[207.68617249 182.03817749]
[194.53785706 174.81863403]
[181.38954163 167.59910583]
[168.24121094 160.37956238]
[155.09289551 153.16003418]
[141.94458008 145.94049072]
[150.58860779 158.19940186]
[155.28466797 172.44535828]
[155.62504578 187.44148254]
[151.58021545 201.88583374]
[143.50131226 214.52433777]
[132.08978271 224.25967407]
[118.33637238 230.24664307]
[103.43517303 231.96543884]
[88.67992401 229.26684570]
[75.35167694 222.38513184]
[64.60761261 211.91780090]
[57.38053131 198.77362061]
[54.29790878 184.09379578]
[55.62737274 169.15283203]
[61.25349808 155.24790955]
[70.68782043 143.58628845]
[83.11124420 135.18041992]
[97.44515228 130.76011658]
[112.44506836 130.70916748]
[126.80579376 135.03062439]
[115.79750824 124.84152222]
[108.47645569 126.47005463]
[113.25221252 140.68948364]
[118.02797699 154.90890503]
[122.80373383 169.12834167]
[127.57949066 183.34776306]
[132.35525513 197.56718445]
[141.94628906 209.10028076]
[142.12382507 224.09922791]
[132.80847168 235.85609436]
[118.16630554 239.11291504]
[104.74568939 232.41311646]
] def
/pairs [
[7 23]
[8 22]
[9 21]
[10 20]
[11 19]
[12 18]
[27 42]
[28 41]
[29 40]
[30 39]
[31 38]
[32 37]
[47 166]
[48 165]
[49 164]
[50 163]
[51 162]
[52 161]
[53 160]
[57 88]
[58 87]
[59 86]
[60 85]
[61 84]
[62 83]
[66 79]
[67 78]
[68 77]
[89 116]
[90 115]
[91 114]
[95 111]
[96 110]
[97 109]
[98 108]
[99 107]
[100 106]
[127 138]
[128 137]
[129 136]
[130 135]
[142 155]
[143 154]
[144 153]
[145 152]
[146 151]
[167 178]
[168 177]
[169 176]
[170 175]
[171 174]
[172 173]
[192 232]
[193 231]
[194 211]
[195 210]
[196 209]
[197 208]
[198 207]
[199 206]
[200 205]
] def

init

% switch off outline pairs or bases by removing these lines
drawoutline
drawpairs
drawbases
% show it
showpage
end
%%EOF
