%!PS-Adobe-3.0 EPSF-3.0
%%Creator: PS_dot.c,v 1.38 2007/02/02 15:18:13 ivo Exp $, ViennaRNA-2.0.7
%%CreationDate: Sun Nov  4 18:30:37 2012
%%Title: RNA Secondary Structure Plot
%%BoundingBox: 66 210 518 662
%%DocumentFonts: Helvetica
%%Pages: 1
%%EndComments

%Options: -d2 
% to switch off outline pairs of sequence comment or
% delete the appropriate line near the end of the file

%%BeginProlog
/RNAplot 100 dict def
RNAplot begin
/fsize  14 def
/outlinecolor {0.2 setgray} bind def
/paircolor    {0.2 setgray} bind def
/seqcolor     {0   setgray} bind def
/cshow  { dup stringwidth pop -2 div fsize -3 div rmoveto show} bind def
/min { 2 copy gt { exch } if pop } bind def
/max { 2 copy lt { exch } if pop } bind def
/arccoords { % i j arccoords
  % puts optimal x1 y1 x2 y2 coordinates used in bezier curves from i to j
  % onto the stack
  dup 3 -1 roll dup 4 -1 roll lt dup dup 5 2 roll {exch} if
  dup 3 -1 roll dup 3 -1 roll exch sub 1 sub dup
  4 -2 roll 5 -1 roll {exch} if 4 2 roll
  sequence length dup 2 div exch 3 1 roll lt 
  {exch 5 -1 roll pop 4 -2 roll exch 4 2 roll}
  { 4 2 roll 5 -1 roll dup 6 1 roll {exch} if
    4 -2 roll exch pop dup 3 -1 roll dup 4 1 roll
    exch add 4 -1 roll dup 5 1 roll sub 1 sub
    5 -1 roll not {4 -2 roll exch 4 2 roll} if
  }ifelse
   % compute the scalingfactor and prepare (1-sf) and sf*r
  2 mul exch cpr 3 1 roll div dup
  3 -1 roll mul exch 1 exch sub exch
   % compute the coordinates
  3 -1 roll 1 sub coor exch get aload pop % get coord for i
  4 -1 roll dup 5 1 roll mul 3 -1 roll dup 4 1 roll add exch % calculate y1
  4 -1 roll dup 5 1 roll mul 3 -1 roll dup 4 1 roll add exch % calculate x1
  5 -1 roll 1 sub coor exch get aload pop % get coord for j
  % duplicate j coord
  dup 3 -1 roll dup 4 1 roll exch 8 2 roll
  6 -1 roll dup 7 1 roll mul 5 -1 roll dup 6 1 roll add exch % calculate y2
  6 -1 roll mul 5 -1 roll add exch % calculate x2
  6 -2 roll % reorder
} bind def
/drawoutline {
  gsave outlinecolor newpath
  coor 0 get aload pop 0.8 0 360 arc % draw 5' circle of 1st sequence
  currentdict /cutpoint known        % check if cutpoint is defined
  {coor 0 cutpoint getinterval
   {aload pop lineto} forall         % draw outline of 1st sequence
   coor cutpoint 1 add get aload pop
   2 copy moveto 0.8 0 360 arc       % draw 5' circle of 2nd sequence
   coor cutpoint 1 add coor length cutpoint 1 add sub getinterval
   {aload pop lineto} forall}        % draw outline of 2nd sequence
  {coor {aload pop lineto} forall}   % draw outline as a whole
  ifelse
  stroke grestore
} bind def
/drawpairs {
  paircolor
  0.7 setlinewidth
  [9 3.01] 9 setdash
  newpath
  pairs {aload pop
      currentdict (cpr) known
      { exch dup
        coor  exch 1 sub get aload pop moveto
        exch arccoords curveto
      }
      { coor exch 1 sub get aload pop moveto
        coor exch 1 sub get aload pop lineto
      }ifelse
  } forall
  stroke
} bind def
% draw bases
/drawbases {
  [] 0 setdash
  seqcolor
  0
  coor {
    aload pop moveto
    dup sequence exch 1 getinterval cshow
    1 add
  } forall
  pop
} bind def

/init {
  /Helvetica findfont fsize scalefont setfont
  1 setlinejoin
  1 setlinecap
  0.8 setlinewidth
  72 216 translate
  % find the coordinate range
  /xmax -1000 def /xmin 10000 def
  /ymax -1000 def /ymin 10000 def
  coor {
      aload pop
      dup ymin lt {dup /ymin exch def} if
      dup ymax gt {/ymax exch def} {pop} ifelse
      dup xmin lt {dup /xmin exch def} if
      dup xmax gt {/xmax exch def} {pop} ifelse
  } forall
  /size {xmax xmin sub ymax ymin sub max} bind def
  72 6 mul size div dup scale
  size xmin sub xmax sub 2 div size ymin sub ymax sub 2 div
  translate
} bind def
end
%%EndProlog
RNAplot begin
% data start here
/sequence (\
nnnnn111111nnnnnnnnn11111122222222nnnn22222222nnnnnn33333nnnnn444444nnnn444nnn44444nnnnn44444nn444nnn444444555nn55555555nn55555555555nnn6n66666<<<<<nnnnn>>>>>nn<<<<<<<<<nnnn>>>>>>>>>nnnnn3333377777777n7777777n7nnnnnn66666688n8888888nnnn8888888nnnnn88nnnnn\
nnnnnn\
) def
/coor [
[108.54361725 192.98045349]
[106.83862305 178.07766724]
[105.13362122 163.17488098]
[103.42862701 148.27209473]
[101.72362518 133.36932373]
[94.27223206 134.22181702]
[88.65684509 148.13107300]
[83.04145050 162.04032898]
[77.42605591 175.94958496]
[71.81066132 189.85884094]
[66.19527435 203.76809692]
[75.19118500 216.30113220]
[75.96034241 231.70930481]
[68.25730133 245.07592773]
[54.54007339 252.13575745]
[39.18577957 250.63603210]
[27.09391594 241.05529785]
[22.12295532 226.45074463]
[25.85911179 211.48262024]
[37.11019135 200.92720032]
[52.28601456 198.15269470]
[57.90140915 184.24343872]
[63.51680374 170.33418274]
[69.13219452 156.42492676]
[74.74758911 142.51567078]
[80.36298370 128.60643005]
[68.23830414 119.77510071]
[56.72198868 129.38626099]
[45.20566940 138.99742126]
[33.68935394 148.60858154]
[22.17303467 158.21974182]
[10.65671825 167.83090210]
[-0.85959965 177.44206238]
[-12.37591743 187.05323792]
[-17.51476288 202.62641907]
[-33.62382507 205.69726562]
[-44.13148499 193.10675049]
[-38.22835922 177.80691528]
[-21.98707962 175.53691101]
[-10.47076130 165.92575073]
[1.04555631 156.31459045]
[12.56187439 146.70343018]
[24.07819176 137.09226990]
[35.59450912 127.48110199]
[47.11082840 117.86994171]
[58.62714386 108.25878143]
[57.77464676 100.80738831]
[43.06029129 103.72076416]
[28.34593391 106.63413239]
[13.63157845 109.54750061]
[-1.08277786 112.46087646]
[-15.79713345 115.37424469]
[-29.96990395 120.28673553]
[-42.66579819 112.29835510]
[-44.37058258 97.39554596]
[-33.80670166 86.74639893]
[-18.89109039 88.33105469]
[-3.89894295 87.84576416]
[11.09320450 87.36047363]
[26.08535194 86.87518311]
[41.07749939 86.38990021]
[56.06964874 85.90460968]
[55.21714783 78.45321655]
[41.82764053 71.69147491]
[28.43813324 64.92974091]
[15.04862499 58.16800690]
[1.65911698 51.40626907]
[-11.73039150 44.64453506]
[-23.46936798 51.83433914]
[-37.11943054 52.28948975]
[-49.11971283 45.99804688]
[-56.39239502 34.69413757]
[-57.13189697 21.38143539]
[-70.43936920 14.45963860]
[-83.74683380 7.53784180]
[-96.02020264 13.03950310]
[-109.03321075 10.51483917]
[-118.08914948 1.10281968]
[-120.05091095 -11.61360073]
[-133.27442932 -18.69446373]
[-146.49794006 -25.77532578]
[-159.72146606 -32.85618973]
[-172.94497681 -39.93705368]
[-188.65527344 -36.68647003]
[-200.89927673 -47.05295563]
[-200.28443909 -63.08422089]
[-187.28240967 -72.48246002]
[-171.86723328 -68.03813934]
[-165.86412048 -53.16056824]
[-152.64059448 -46.07970428]
[-139.41708374 -38.99884415]
[-126.19356537 -31.91798019]
[-112.97004700 -24.83711624]
[-97.07898712 -30.38614273]
[-81.79743195 -22.55721283]
[-76.82504272 -5.76962709]
[-63.51757050 1.15217018]
[-50.21010208 8.07396698]
[-35.74784088 0.27682906]
[-19.32490921 2.67173862]
[-7.45597410 14.50929928]
[-4.96865511 31.25502586]
[8.42085266 38.01676178]
[21.81036186 44.77849579]
[35.19986725 51.54023361]
[48.58937836 58.30197144]
[61.97888565 65.06370544]
[73.66619873 55.66122055]
[69.92888641 41.13426590]
[66.19156647 26.60730934]
[61.87752151 21.66474724]
[60.83885956 16.11783028]
[62.54326248 11.68716335]
[59.15536880 -2.92523432]
[55.76747513 -17.53763199]
[52.37957764 -32.15002823]
[48.99168396 -46.76242828]
[45.60378647 -61.37482452]
[42.21589279 -75.98722076]
[38.82799911 -90.59961700]
[32.34427643 -108.86465454]
[51.22514343 -113.24219513]
[53.44039536 -93.98751831]
[56.82828903 -79.37511444]
[60.21618652 -64.76271820]
[63.60408020 -50.15032196]
[66.99197388 -35.53792572]
[70.37986755 -20.92552757]
[73.76776886 -6.31312943]
[77.15566254 8.29926872]
[80.71852112 22.86999321]
[84.45584106 37.39694977]
[88.19315338 51.92390442]
[107.71749115 54.77140808]
[123.11811829 64.62410736]
[132.27349854 78.75660706]
[134.49662781 93.99623108]
[141.10833740 87.74062347]
[148.46818542 88.06126404]
[162.30909729 82.27949524]
[176.15002441 76.49772644]
[189.99095154 70.71595764]
[203.83187866 64.93418884]
[214.87414551 54.78192902]
[221.79594421 41.47446060]
[228.71774292 28.16699409]
[235.63952637 14.85952473]
[242.56132507 1.55205584]
[239.12260437 -14.11813068]
[249.34153748 -26.48555374]
[265.37902832 -26.06298256]
[274.93249512 -13.17457962]
[270.67330933 2.29277587]
[255.86880493 8.47385311]
[248.94700623 21.78132248]
[242.02520752 35.08879089]
[235.10340881 48.39625931]
[228.18161011 61.70372772]
[233.79315186 66.67973328]
[245.01622009 76.63175201]
[250.62776184 81.60776520]
[263.01168823 73.14381409]
[275.39559937 64.67986298]
[287.77954102 56.21591568]
[300.16345215 47.75196838]
[312.54736328 39.28801727]
[324.93130493 30.82406998]
[337.31521606 22.36012077]
[349.69915771 13.89617252]
[356.30596924 -1.11322653]
[372.63510132 -2.62704086]
[381.88851929 10.91201210]
[374.54711914 25.57611465]
[358.16308594 26.28009605]
[345.77917480 34.74404526]
[333.39523315 43.20799255]
[321.01132202 51.67194366]
[308.62741089 60.13589096]
[296.24346924 68.59983826]
[283.85955811 77.06378937]
[271.47561646 85.52774048]
[259.09170532 93.99168396]
[260.87313843 101.27704620]
[275.44384766 97.71418762]
[290.01458740 94.15132141]
[304.58529663 90.58846283]
[319.15609741 87.02582550]
[322.71850586 101.59665680]
[308.14816284 105.15918732]
[293.57745361 108.72204590]
[279.00671387 112.28491211]
[264.43600464 115.84777069]
[266.21743774 123.13313293]
[281.12020874 124.83813477]
[296.03295898 126.45375061]
[310.94567871 128.06936646]
[325.85842896 129.68499756]
[340.77117920 131.30061340]
[355.68389893 132.91622925]
[370.59664917 134.53184509]
[393.24853516 144.52980042]
[368.98101807 149.44458008]
[354.06829834 147.82896423]
[339.15554810 146.21334839]
[324.24279785 144.59773254]
[309.33007812 142.98211670]
[294.41732788 141.36648560]
[279.50457764 139.75086975]
[272.53842163 142.14721680]
[264.42312622 138.02543640]
[249.83094788 141.49946594]
[234.93695068 139.71942139]
[221.57446289 132.90443420]
[211.38836670 121.89337921]
[205.63249207 108.04166412]
[205.01538086 93.05436707]
[209.61364746 78.77510834]
[195.77272034 84.55687714]
[181.93179321 90.33864594]
[168.09086609 96.12041473]
[154.24995422 101.90218353]
[140.44393921 107.76683044]
[136.35934448 122.19998932]
[144.97117615 134.48153687]
[165.91081238 142.50242615]
[166.80006409 164.13739014]
[175.99081421 175.99191284]
[185.18157959 187.84645081]
[194.37234497 199.70097351]
[203.56311035 211.55551147]
[212.75387573 223.41003418]
[221.94464111 235.26457214]
[237.32293701 240.96017456]
[239.81243896 257.16925049]
[226.85215759 267.21731567]
[211.77452087 260.76773071]
[210.09010315 244.45533752]
[200.89933777 232.60079956]
[191.70857239 220.74627686]
[182.51782227 208.89173889]
[173.32705688 197.03721619]
[164.13629150 185.18267822]
[154.94552612 173.32815552]
[147.16734314 174.02258301]
[139.65328979 171.57452393]
[133.63591003 166.30816650]
[130.13244629 159.01597595]
[129.77323914 150.84005737]
[132.68963623 143.09336853]
[124.07780457 130.81182861]
[116.62641144 131.66432190]
[118.33140564 146.56710815]
[120.03640747 161.46989441]
[121.74140167 176.37268066]
[123.44640350 191.27545166]
[125.15139771 206.17823792]
[126.85639954 221.08102417]
[133.08314514 234.72755432]
[122.02867126 244.86653137]
[108.96993256 237.48619080]
[111.95361328 222.78602600]
] def
/pairs [
[6 26]
[7 25]
[8 24]
[9 23]
[10 22]
[11 21]
[27 46]
[28 45]
[29 44]
[30 43]
[31 42]
[32 41]
[33 40]
[34 39]
[63 107]
[64 106]
[65 105]
[66 104]
[67 103]
[68 102]
[73 98]
[74 97]
[75 96]
[79 93]
[80 92]
[81 91]
[82 90]
[83 89]
[108 133]
[109 132]
[110 131]
[113 130]
[114 129]
[115 128]
[116 127]
[117 126]
[118 125]
[119 124]
[120 123]
[137 222]
[139 221]
[140 220]
[141 219]
[142 218]
[143 217]
[144 158]
[145 157]
[146 156]
[147 155]
[148 154]
[161 182]
[162 181]
[163 180]
[164 179]
[165 178]
[166 177]
[167 176]
[168 175]
[169 174]
[193 210]
[194 208]
[195 207]
[196 206]
[197 205]
[198 204]
[199 203]
[200 202]
[223 250]
[224 249]
[226 243]
[227 242]
[228 241]
[229 240]
[230 239]
[231 238]
[232 237]
] def

init

% switch off outline pairs or bases by removing these lines
drawoutline
drawpairs
drawbases
% show it
showpage
end
%%EOF
