%!PS-Adobe-3.0 EPSF-3.0
%%Creator: PS_dot.c,v 1.38 2007/02/02 15:18:13 ivo Exp $, ViennaRNA-2.0.7
%%CreationDate: Sun Nov  4 18:30:37 2012
%%Title: RNA Secondary Structure Plot
%%BoundingBox: 66 210 518 662
%%DocumentFonts: Helvetica
%%Pages: 1
%%EndComments

%Options: -d2 
% to switch off outline pairs of sequence comment or
% delete the appropriate line near the end of the file

%%BeginProlog
/RNAplot 100 dict def
RNAplot begin
/fsize  14 def
/outlinecolor {0.2 setgray} bind def
/paircolor    {0.2 setgray} bind def
/seqcolor     {0   setgray} bind def
/cshow  { dup stringwidth pop -2 div fsize -3 div rmoveto show} bind def
/min { 2 copy gt { exch } if pop } bind def
/max { 2 copy lt { exch } if pop } bind def
/arccoords { % i j arccoords
  % puts optimal x1 y1 x2 y2 coordinates used in bezier curves from i to j
  % onto the stack
  dup 3 -1 roll dup 4 -1 roll lt dup dup 5 2 roll {exch} if
  dup 3 -1 roll dup 3 -1 roll exch sub 1 sub dup
  4 -2 roll 5 -1 roll {exch} if 4 2 roll
  sequence length dup 2 div exch 3 1 roll lt 
  {exch 5 -1 roll pop 4 -2 roll exch 4 2 roll}
  { 4 2 roll 5 -1 roll dup 6 1 roll {exch} if
    4 -2 roll exch pop dup 3 -1 roll dup 4 1 roll
    exch add 4 -1 roll dup 5 1 roll sub 1 sub
    5 -1 roll not {4 -2 roll exch 4 2 roll} if
  }ifelse
   % compute the scalingfactor and prepare (1-sf) and sf*r
  2 mul exch cpr 3 1 roll div dup
  3 -1 roll mul exch 1 exch sub exch
   % compute the coordinates
  3 -1 roll 1 sub coor exch get aload pop % get coord for i
  4 -1 roll dup 5 1 roll mul 3 -1 roll dup 4 1 roll add exch % calculate y1
  4 -1 roll dup 5 1 roll mul 3 -1 roll dup 4 1 roll add exch % calculate x1
  5 -1 roll 1 sub coor exch get aload pop % get coord for j
  % duplicate j coord
  dup 3 -1 roll dup 4 1 roll exch 8 2 roll
  6 -1 roll dup 7 1 roll mul 5 -1 roll dup 6 1 roll add exch % calculate y2
  6 -1 roll mul 5 -1 roll add exch % calculate x2
  6 -2 roll % reorder
} bind def
/drawoutline {
  gsave outlinecolor newpath
  coor 0 get aload pop 0.8 0 360 arc % draw 5' circle of 1st sequence
  currentdict /cutpoint known        % check if cutpoint is defined
  {coor 0 cutpoint getinterval
   {aload pop lineto} forall         % draw outline of 1st sequence
   coor cutpoint 1 add get aload pop
   2 copy moveto 0.8 0 360 arc       % draw 5' circle of 2nd sequence
   coor cutpoint 1 add coor length cutpoint 1 add sub getinterval
   {aload pop lineto} forall}        % draw outline of 2nd sequence
  {coor {aload pop lineto} forall}   % draw outline as a whole
  ifelse
  stroke grestore
} bind def
/drawpairs {
  paircolor
  0.7 setlinewidth
  [9 3.01] 9 setdash
  newpath
  pairs {aload pop
      currentdict (cpr) known
      { exch dup
        coor  exch 1 sub get aload pop moveto
        exch arccoords curveto
      }
      { coor exch 1 sub get aload pop moveto
        coor exch 1 sub get aload pop lineto
      }ifelse
  } forall
  stroke
} bind def
% draw bases
/drawbases {
  [] 0 setdash
  seqcolor
  0
  coor {
    aload pop moveto
    dup sequence exch 1 getinterval cshow
    1 add
  } forall
  pop
} bind def

/init {
  /Helvetica findfont fsize scalefont setfont
  1 setlinejoin
  1 setlinecap
  0.8 setlinewidth
  72 216 translate
  % find the coordinate range
  /xmax -1000 def /xmin 10000 def
  /ymax -1000 def /ymin 10000 def
  coor {
      aload pop
      dup ymin lt {dup /ymin exch def} if
      dup ymax gt {/ymax exch def} {pop} ifelse
      dup xmin lt {dup /xmin exch def} if
      dup xmax gt {/xmax exch def} {pop} ifelse
  } forall
  /size {xmax xmin sub ymax ymin sub max} bind def
  72 6 mul size div dup scale
  size xmin sub xmax sub 2 div size ymin sub ymax sub 2 div
  translate
} bind def
end
%%EndProlog
RNAplot begin
% data start here
/sequence (\
nnnnn111111nnnnnnnnn11111122222222nnnn22222222nnnnnn33333nnnnn444444nnnn444nnn44444nnnnn44444nn444nnn444444555nn55555555nn55555555555nnn6n66666<<<<<nnnnn>>>>>nn<<<<<<<<<nnnn>>>>>>>>>nnnnn3333377777777n7777777n7nnnnnn66666688n8888888nnnn8888888nnnnn88nnnnn\
nnnnnn\
) def
/coor [
[93.83631897 188.59558105]
[92.13132477 173.69279480]
[90.42633057 158.79000854]
[88.72132874 143.88722229]
[87.01633453 128.98443604]
[79.56494141 129.83694458]
[73.94954681 143.74618530]
[68.33415222 157.65544128]
[62.71876144 171.56469727]
[57.10336685 185.47395325]
[51.48797607 199.38320923]
[60.48389435 211.91624451]
[61.25304794 227.32443237]
[53.55000305 240.69105530]
[39.83277893 247.75088501]
[24.47848320 246.25115967]
[12.38662148 236.67042542]
[7.41566086 222.06587219]
[11.15181732 207.09774780]
[22.40289688 196.54232788]
[37.57872009 193.76782227]
[43.19411469 179.85856628]
[48.80950546 165.94931030]
[54.42490005 152.04005432]
[60.04029083 138.13079834]
[65.65568542 124.22154236]
[53.53100967 115.39022064]
[42.01469421 125.00138092]
[30.49837494 134.61254883]
[18.98205757 144.22370911]
[7.46574020 153.83486938]
[-4.05057716 163.44602966]
[-15.56689548 173.05718994]
[-27.08321190 182.66835022]
[-32.22205734 198.24154663]
[-48.33112335 201.31239319]
[-58.83877945 188.72187805]
[-52.93565369 173.42202759]
[-36.69437408 171.15203857]
[-25.17805672 161.54087830]
[-13.66173935 151.92971802]
[-2.14542127 142.31855774]
[9.37089634 132.70738220]
[20.88721466 123.09622955]
[32.40353012 113.48506927]
[43.91984940 103.87390137]
[48.47207642 88.24266052]
[56.99296570 75.51065826]
[68.22531891 66.55940247]
[80.76251221 61.80322647]
[93.20680237 61.18379974]
[104.31667328 64.21479034]
[113.12810516 70.06945038]
[110.09158325 55.38001633]
[107.05505371 40.69058228]
[104.01853180 26.00114441]
[100.98200226 11.31170940]
[81.42072296 10.68639469]
[62.81534576 2.33162355]
[48.21278000 -13.06408310]
[40.25158310 -33.62023926]
[40.70183945 -56.48462677]
[50.11688232 -78.22766113]
[36.72737503 -84.98939514]
[23.33786583 -91.75112915]
[9.94835758 -98.51287079]
[-3.44115043 -105.27460480]
[-16.83065796 -112.03633881]
[-28.56963539 -104.84653473]
[-42.21969604 -104.39138031]
[-54.21997833 -110.68283081]
[-61.49266434 -121.98674011]
[-62.23216629 -135.29943848]
[-75.53963470 -142.22123718]
[-88.84710693 -149.14303589]
[-101.12047577 -143.64137268]
[-114.13347626 -146.16603088]
[-123.18942261 -155.57804871]
[-125.15117645 -168.29447937]
[-138.37469482 -175.37533569]
[-151.59820557 -182.45620728]
[-164.82173157 -189.53706360]
[-178.04524231 -196.61791992]
[-193.75553894 -193.36734009]
[-205.99954224 -203.73382568]
[-205.38470459 -219.76509094]
[-192.38267517 -229.16333008]
[-176.96749878 -224.71900940]
[-170.96438599 -209.84144592]
[-157.74085999 -202.76057434]
[-144.51734924 -195.67971802]
[-131.29383850 -188.59884644]
[-118.07032013 -181.51799011]
[-102.17925262 -187.06701660]
[-86.89769745 -179.23808289]
[-81.92530823 -162.45050049]
[-68.61783600 -155.52870178]
[-55.31036758 -148.60690308]
[-40.84810638 -156.40403748]
[-24.42517662 -154.00914001]
[-12.55624104 -142.17156982]
[-10.06892204 -125.42584991]
[3.32058549 -118.66410828]
[16.71009445 -111.90237427]
[30.09960175 -105.14064026]
[43.48910904 -98.37890625]
[56.87861633 -91.61716461]
[68.56593323 -101.01965332]
[64.82861328 -115.54660797]
[61.09130096 -130.07356262]
[56.77725220 -135.01612854]
[55.73859406 -140.56304932]
[57.44299698 -144.99371338]
[54.05509949 -159.60610962]
[50.66720581 -174.21850586]
[47.27931213 -188.83090210]
[43.89141464 -203.44329834]
[40.50352097 -218.05569458]
[37.11562729 -232.66809082]
[33.72772980 -247.28048706]
[27.24401093 -265.54553223]
[46.12487793 -269.92306519]
[48.34012985 -250.66839600]
[51.72802353 -236.05598450]
[55.11591721 -221.44358826]
[58.50381470 -206.83119202]
[61.89170837 -192.21879578]
[65.27960205 -177.60639954]
[68.66749573 -162.99400330]
[72.05539703 -148.38160706]
[75.61825562 -133.81088257]
[79.35557556 -119.28392029]
[83.09288788 -104.75696564]
[90.54428101 -103.90446472]
[92.24927521 -118.80725098]
[93.95427704 -133.71003723]
[95.65927124 -148.61282349]
[97.36451721 -163.51557922]
[112.26725006 -161.81008911]
[110.56205750 -146.90782166]
[108.85706329 -132.00503540]
[107.15206146 -117.10225677]
[105.44706726 -102.19947052]
[112.89846039 -101.34696960]
[119.82025146 -114.65444183]
[126.74205017 -127.96190643]
[133.66384888 -141.26937866]
[140.58564758 -154.57684326]
[137.14692688 -170.24703979]
[147.36584473 -182.61445618]
[163.40333557 -182.19187927]
[172.95680237 -169.30348206]
[168.69763184 -153.83612061]
[153.89311218 -147.65504456]
[146.97131348 -134.34757996]
[140.04951477 -121.04011536]
[133.12771606 -107.73264313]
[126.20592499 -94.42517090]
[130.21522522 -86.94033051]
[132.87379456 -79.35244751]
[134.22024536 -71.87204742]
[146.60417175 -80.33599854]
[158.98809814 -88.79994965]
[171.37202454 -97.26389313]
[183.75593567 -105.72784424]
[196.13986206 -114.19179535]
[208.52378845 -122.65573883]
[220.90771484 -131.11968994]
[233.29164124 -139.58363342]
[239.89845276 -154.59303284]
[256.22756958 -156.10685730]
[265.48101807 -142.56779480]
[258.13961792 -127.90369415]
[241.75558472 -127.19971466]
[229.37165833 -118.73576355]
[216.98773193 -110.27182007]
[204.60382080 -101.80786896]
[192.21989441 -93.34391785]
[179.83596802 -84.87997437]
[167.45204163 -76.41602325]
[155.06811523 -67.95207214]
[142.68418884 -59.48812485]
[146.88392639 -46.58515167]
[147.39666748 -32.99937820]
[144.16903687 -19.76564598]
[137.43309021 -7.89590979]
[127.68972778 1.69816029]
[115.67144012 8.27518368]
[118.70796204 22.96461868]
[121.74449158 37.65405655]
[124.78101349 52.34349060]
[127.81754303 67.03292847]
[138.85980225 77.18518066]
[153.76258850 78.89018250]
[168.67533875 80.50579834]
[183.58807373 82.12142181]
[198.50080872 83.73703766]
[213.41354370 85.35266113]
[228.32629395 86.96827698]
[243.23902893 88.58389282]
[265.89093018 98.58184814]
[241.62341309 103.49663544]
[226.71066284 101.88101196]
[211.79792786 100.26539612]
[196.88519287 98.64978027]
[181.97245789 97.03415680]
[167.05970764 95.41854095]
[152.14697266 93.80291748]
[145.18080139 96.19926453]
[137.06549072 92.07747650]
[133.21212769 98.51188660]
[146.08094788 106.21860504]
[158.94976807 113.92532349]
[171.81858826 121.63204193]
[184.68740845 129.33876038]
[197.55609131 137.04570007]
[189.84895325 149.91426086]
[176.98068237 142.20758057]
[164.11186218 134.50086975]
[151.24305725 126.79414368]
[138.37423706 119.08742523]
[125.50541687 111.38070679]
[121.65205383 117.81510925]
[130.26388550 130.09666443]
[151.20352173 138.11755371]
[152.09275818 159.75251770]
[161.28352356 171.60704041]
[170.47428894 183.46157837]
[179.66505432 195.31610107]
[188.85581970 207.17062378]
[198.04656982 219.02516174]
[207.23733521 230.87968445]
[222.61564636 236.57530212]
[225.10514832 252.78437805]
[212.14486694 262.83242798]
[197.06723022 256.38287354]
[195.38281250 240.07044983]
[186.19204712 228.21592712]
[177.00128174 216.36138916]
[167.81051636 204.50686646]
[158.61975098 192.65232849]
[149.42900085 180.79780579]
[140.23823547 168.94326782]
[132.46005249 169.63771057]
[124.94598389 167.18965149]
[118.92861176 161.92329407]
[115.42514801 154.63110352]
[115.06594849 146.45518494]
[117.98233795 138.70849609]
[109.37050629 126.42694092]
[101.91911316 127.27944183]
[103.62411499 142.18222046]
[105.32910919 157.08500671]
[107.03411102 171.98779297]
[108.73910522 186.89057922]
[110.44410706 201.79336548]
[112.14910126 216.69615173]
[118.37583923 230.34268188]
[107.32137299 240.48164368]
[94.26263428 233.10131836]
[97.24631500 218.40113831]
] def
/pairs [
[6 26]
[7 25]
[8 24]
[9 23]
[10 22]
[11 21]
[27 46]
[28 45]
[29 44]
[30 43]
[31 42]
[32 41]
[33 40]
[34 39]
[53 192]
[54 191]
[55 190]
[56 189]
[57 188]
[63 107]
[64 106]
[65 105]
[66 104]
[67 103]
[68 102]
[73 98]
[74 97]
[75 96]
[79 93]
[80 92]
[81 91]
[82 90]
[83 89]
[108 133]
[109 132]
[110 131]
[113 130]
[114 129]
[115 128]
[116 127]
[117 126]
[118 125]
[119 124]
[120 123]
[144 158]
[145 157]
[146 156]
[147 155]
[148 154]
[161 182]
[162 181]
[163 180]
[164 179]
[165 178]
[166 177]
[167 176]
[168 175]
[169 174]
[193 210]
[194 208]
[195 207]
[196 206]
[197 205]
[198 204]
[199 203]
[200 202]
[223 250]
[224 249]
[226 243]
[227 242]
[228 241]
[229 240]
[230 239]
[231 238]
[232 237]
] def

init

% switch off outline pairs or bases by removing these lines
drawoutline
drawpairs
drawbases
% show it
showpage
end
%%EOF
