%!PS-Adobe-3.0 EPSF-3.0
%%Creator: PS_dot.c,v 1.38 2007/02/02 15:18:13 ivo Exp $, ViennaRNA-2.0.7
%%CreationDate: Sat Nov  3 00:50:22 2012
%%Title: RNA Secondary Structure Plot
%%BoundingBox: 66 210 518 662
%%DocumentFonts: Helvetica
%%Pages: 1
%%EndComments

%Options: -d2 
% to switch off outline pairs of sequence comment or
% delete the appropriate line near the end of the file

%%BeginProlog
/RNAplot 100 dict def
RNAplot begin
/fsize  14 def
/outlinecolor {0.2 setgray} bind def
/paircolor    {0.2 setgray} bind def
/seqcolor     {0   setgray} bind def
/cshow  { dup stringwidth pop -2 div fsize -3 div rmoveto show} bind def
/min { 2 copy gt { exch } if pop } bind def
/max { 2 copy lt { exch } if pop } bind def
/arccoords { % i j arccoords
  % puts optimal x1 y1 x2 y2 coordinates used in bezier curves from i to j
  % onto the stack
  dup 3 -1 roll dup 4 -1 roll lt dup dup 5 2 roll {exch} if
  dup 3 -1 roll dup 3 -1 roll exch sub 1 sub dup
  4 -2 roll 5 -1 roll {exch} if 4 2 roll
  sequence length dup 2 div exch 3 1 roll lt 
  {exch 5 -1 roll pop 4 -2 roll exch 4 2 roll}
  { 4 2 roll 5 -1 roll dup 6 1 roll {exch} if
    4 -2 roll exch pop dup 3 -1 roll dup 4 1 roll
    exch add 4 -1 roll dup 5 1 roll sub 1 sub
    5 -1 roll not {4 -2 roll exch 4 2 roll} if
  }ifelse
   % compute the scalingfactor and prepare (1-sf) and sf*r
  2 mul exch cpr 3 1 roll div dup
  3 -1 roll mul exch 1 exch sub exch
   % compute the coordinates
  3 -1 roll 1 sub coor exch get aload pop % get coord for i
  4 -1 roll dup 5 1 roll mul 3 -1 roll dup 4 1 roll add exch % calculate y1
  4 -1 roll dup 5 1 roll mul 3 -1 roll dup 4 1 roll add exch % calculate x1
  5 -1 roll 1 sub coor exch get aload pop % get coord for j
  % duplicate j coord
  dup 3 -1 roll dup 4 1 roll exch 8 2 roll
  6 -1 roll dup 7 1 roll mul 5 -1 roll dup 6 1 roll add exch % calculate y2
  6 -1 roll mul 5 -1 roll add exch % calculate x2
  6 -2 roll % reorder
} bind def
/drawoutline {
  gsave outlinecolor newpath
  coor 0 get aload pop 0.8 0 360 arc % draw 5' circle of 1st sequence
  currentdict /cutpoint known        % check if cutpoint is defined
  {coor 0 cutpoint getinterval
   {aload pop lineto} forall         % draw outline of 1st sequence
   coor cutpoint 1 add get aload pop
   2 copy moveto 0.8 0 360 arc       % draw 5' circle of 2nd sequence
   coor cutpoint 1 add coor length cutpoint 1 add sub getinterval
   {aload pop lineto} forall}        % draw outline of 2nd sequence
  {coor {aload pop lineto} forall}   % draw outline as a whole
  ifelse
  stroke grestore
} bind def
/drawpairs {
  paircolor
  0.7 setlinewidth
  [9 3.01] 9 setdash
  newpath
  pairs {aload pop
      currentdict (cpr) known
      { exch dup
        coor  exch 1 sub get aload pop moveto
        exch arccoords curveto
      }
      { coor exch 1 sub get aload pop moveto
        coor exch 1 sub get aload pop lineto
      }ifelse
  } forall
  stroke
} bind def
% draw bases
/drawbases {
  [] 0 setdash
  seqcolor
  0
  coor {
    aload pop moveto
    dup sequence exch 1 getinterval cshow
    1 add
  } forall
  pop
} bind def

/init {
  /Helvetica findfont fsize scalefont setfont
  1 setlinejoin
  1 setlinecap
  0.8 setlinewidth
  72 216 translate
  % find the coordinate range
  /xmax -1000 def /xmin 10000 def
  /ymax -1000 def /ymin 10000 def
  coor {
      aload pop
      dup ymin lt {dup /ymin exch def} if
      dup ymax gt {/ymax exch def} {pop} ifelse
      dup xmin lt {dup /xmin exch def} if
      dup xmax gt {/xmax exch def} {pop} ifelse
  } forall
  /size {xmax xmin sub ymax ymin sub max} bind def
  72 6 mul size div dup scale
  size xmin sub xmax sub 2 div size ymin sub ymax sub 2 div
  translate
} bind def
end
%%EndProlog
RNAplot begin
% data start here
/sequence (\
11111111111122222222222222223333344444444444444444444444444445555555555555555555555666666<<<<<>>>>><<<<<<<<<>>>>>>>>>333337777777777777777666666888888888888888888\
) def
/coor [
[101.14995575 125.75572968]
[97.43080902 140.28735352]
[93.71166229 154.81896973]
[89.99251556 169.35058594]
[86.27336884 183.88220215]
[82.55422211 198.41381836]
[68.02260590 194.69467163]
[71.74174500 180.16305542]
[75.46089172 165.63143921]
[79.18003845 151.09982300]
[82.89918518 136.56820679]
[86.61833191 122.03658295]
[73.60392761 114.57834625]
[62.94634247 125.13372040]
[52.28875732 135.68908691]
[41.63117218 146.24446106]
[30.97358704 156.79983521]
[20.31600189 167.35520935]
[9.65841675 177.91058350]
[-0.99916816 188.46595764]
[-11.55454063 177.80836487]
[-0.89695495 167.25299072]
[9.76063061 156.69761658]
[20.41821480 146.14225769]
[31.07579994 135.58688354]
[41.73338699 125.03150940]
[52.39097214 114.47613525]
[63.04855728 103.92076111]
[61.11905289 96.67321014]
[48.52578735 104.82242584]
[36.88401031 95.36361694]
[42.28253555 81.36876678]
[57.26004028 82.17810822]
[55.33053589 74.93055725]
[40.83543396 71.07154846]
[26.34032822 67.21253204]
[11.84522438 63.35352707]
[-2.64987993 59.49451828]
[-17.14498329 55.63550568]
[-31.64008904 51.77649689]
[-46.13519287 47.91748810]
[-60.63029480 44.05847931]
[-75.12540436 40.19946671]
[-89.62050629 36.34045792]
[-104.11560822 32.48144913]
[-118.61071014 28.62244034]
[-133.10581970 24.76342964]
[-129.24681091 10.26832581]
[-114.75170135 14.12733555]
[-100.25659943 17.98634529]
[-85.76149750 21.84535408]
[-71.26638794 25.70436478]
[-56.77128601 29.56337357]
[-42.27618408 33.42238235]
[-27.78107834 37.28139114]
[-13.28597450 41.14040375]
[1.20912981 44.99941254]
[15.70423412 48.85842133]
[30.19933891 52.71743011]
[44.69444275 56.57644272]
[59.18954468 60.43545151]
[69.32636261 49.37900543]
[64.22625732 35.27265930]
[59.12614822 21.16631699]
[54.02604294 7.05997324]
[48.92593765 -7.04637051]
[43.82583618 -21.15271378]
[38.72573090 -35.25905609]
[33.62562561 -49.36540222]
[28.52552032 -63.47174454]
[23.42541504 -77.57808685]
[18.32530975 -91.68443298]
[32.43165207 -96.78453827]
[37.53175735 -82.67819214]
[42.63186264 -68.57184601]
[47.73196793 -54.46550751]
[52.83207321 -40.35916138]
[57.93217850 -26.25281906]
[63.03228378 -12.14647579]
[68.13238525 1.95986807]
[73.23249054 16.06621170]
[78.33259583 30.17255592]
[83.43270111 44.27890015]
[146.84877014 90.85301208]
[161.09664917 86.16279602]
[175.34452820 81.47258759]
[189.59239197 76.78237915]
[203.84027100 72.09216309]
[218.08815002 67.40195465]
[231.37152100 40.42768097]
[243.52374268 31.63430786]
[255.67596436 22.84093475]
[267.82818604 14.04756165]
[279.98040771 5.25418854]
[265.90188599 0.07785325]
[260.98376465 -14.09296894]
[268.82864380 -26.87802696]
[283.69009399 -28.91215515]
[294.68194580 -18.70533752]
[293.75213623 -3.73336768]
[306.69409180 -11.31666946]
[319.63601685 -18.89997101]
[332.57794189 -26.48327255]
[345.51986694 -34.06657410]
[358.46179199 -41.64987564]
[371.40371704 -49.23317719]
[384.34564209 -56.81647873]
[397.28759766 -64.39978027]
[404.87088013 -51.45785141]
[391.92895508 -43.87454987]
[378.98703003 -36.29124832]
[366.04510498 -28.70794678]
[353.10317993 -21.12464523]
[340.16125488 -13.54134369]
[327.21929932 -5.95804167]
[314.27737427 1.62526000]
[301.33544922 9.20856190]
[288.77380371 17.40641403]
[276.62158203 26.19978714]
[264.46936035 34.99316025]
[252.31712341 43.78653336]
[240.16490173 52.57990646]
[242.46856689 67.40195465]
[256.71643066 72.09216309]
[270.96432495 76.78237915]
[285.21218872 81.47258759]
[299.46005249 86.16279602]
[313.70794678 90.85301208]
[327.95581055 95.54322052]
[342.20367432 100.23342896]
[337.51348877 114.48130798]
[323.26559448 109.79109192]
[309.01773071 105.10088348]
[294.76986694 100.41067505]
[280.52197266 95.72045898]
[266.27410889 91.03025055]
[252.02622986 86.34004211]
[237.77836609 81.64982605]
[222.77836609 81.64982605]
[208.53048706 86.34004211]
[194.28260803 91.03025055]
[180.03472900 95.72045898]
[165.78686523 100.41067505]
[151.53898621 105.10088348]
[145.10525513 118.65105438]
[150.47627258 132.65647888]
[155.84729004 146.66191101]
[161.21830750 160.66734314]
[166.58934021 174.67277527]
[171.96035767 188.67820740]
[177.33137512 202.68363953]
[182.70239258 216.68907166]
[188.07341003 230.69450378]
[174.06797791 236.06553650]
[168.69696045 222.06010437]
[163.32594299 208.05467224]
[157.95492554 194.04924011]
[152.58390808 180.04380798]
[147.21287537 166.03837585]
[141.84185791 152.03294373]
[136.47084045 138.02751160]
[131.09982300 124.02207184]
] def
/pairs [
[1 12]
[2 11]
[3 10]
[4 9]
[5 8]
[6 7]
[13 28]
[14 27]
[15 26]
[16 25]
[17 24]
[18 23]
[19 22]
[20 21]
[34 61]
[35 60]
[36 59]
[37 58]
[38 57]
[39 56]
[40 55]
[41 54]
[42 53]
[43 52]
[44 51]
[45 50]
[46 49]
[47 48]
[62 83]
[63 82]
[64 81]
[65 80]
[66 79]
[67 78]
[68 77]
[69 76]
[70 75]
[71 74]
[72 73]
[84 144]
[85 143]
[86 142]
[87 141]
[88 140]
[89 139]
[90 122]
[91 121]
[92 120]
[93 119]
[94 118]
[100 117]
[101 116]
[102 115]
[103 114]
[104 113]
[105 112]
[106 111]
[107 110]
[108 109]
[123 138]
[124 137]
[125 136]
[126 135]
[127 134]
[128 133]
[129 132]
[130 131]
[145 162]
[146 161]
[147 160]
[148 159]
[149 158]
[150 157]
[151 156]
[152 155]
[153 154]
] def

init

% switch off outline pairs or bases by removing these lines
drawoutline
drawpairs
drawbases
% show it
showpage
end
%%EOF
