%!PS-Adobe-3.0 EPSF-3.0
%%Creator: PS_dot.c,v 1.38 2007/02/02 15:18:13 ivo Exp $, ViennaRNA-2.0.7
%%CreationDate: Sat Nov  3 00:50:22 2012
%%Title: RNA Secondary Structure Plot
%%BoundingBox: 66 210 518 662
%%DocumentFonts: Helvetica
%%Pages: 1
%%EndComments

%Options: -d2 
% to switch off outline pairs of sequence comment or
% delete the appropriate line near the end of the file

%%BeginProlog
/RNAplot 100 dict def
RNAplot begin
/fsize  14 def
/outlinecolor {0.2 setgray} bind def
/paircolor    {0.2 setgray} bind def
/seqcolor     {0   setgray} bind def
/cshow  { dup stringwidth pop -2 div fsize -3 div rmoveto show} bind def
/min { 2 copy gt { exch } if pop } bind def
/max { 2 copy lt { exch } if pop } bind def
/arccoords { % i j arccoords
  % puts optimal x1 y1 x2 y2 coordinates used in bezier curves from i to j
  % onto the stack
  dup 3 -1 roll dup 4 -1 roll lt dup dup 5 2 roll {exch} if
  dup 3 -1 roll dup 3 -1 roll exch sub 1 sub dup
  4 -2 roll 5 -1 roll {exch} if 4 2 roll
  sequence length dup 2 div exch 3 1 roll lt 
  {exch 5 -1 roll pop 4 -2 roll exch 4 2 roll}
  { 4 2 roll 5 -1 roll dup 6 1 roll {exch} if
    4 -2 roll exch pop dup 3 -1 roll dup 4 1 roll
    exch add 4 -1 roll dup 5 1 roll sub 1 sub
    5 -1 roll not {4 -2 roll exch 4 2 roll} if
  }ifelse
   % compute the scalingfactor and prepare (1-sf) and sf*r
  2 mul exch cpr 3 1 roll div dup
  3 -1 roll mul exch 1 exch sub exch
   % compute the coordinates
  3 -1 roll 1 sub coor exch get aload pop % get coord for i
  4 -1 roll dup 5 1 roll mul 3 -1 roll dup 4 1 roll add exch % calculate y1
  4 -1 roll dup 5 1 roll mul 3 -1 roll dup 4 1 roll add exch % calculate x1
  5 -1 roll 1 sub coor exch get aload pop % get coord for j
  % duplicate j coord
  dup 3 -1 roll dup 4 1 roll exch 8 2 roll
  6 -1 roll dup 7 1 roll mul 5 -1 roll dup 6 1 roll add exch % calculate y2
  6 -1 roll mul 5 -1 roll add exch % calculate x2
  6 -2 roll % reorder
} bind def
/drawoutline {
  gsave outlinecolor newpath
  coor 0 get aload pop 0.8 0 360 arc % draw 5' circle of 1st sequence
  currentdict /cutpoint known        % check if cutpoint is defined
  {coor 0 cutpoint getinterval
   {aload pop lineto} forall         % draw outline of 1st sequence
   coor cutpoint 1 add get aload pop
   2 copy moveto 0.8 0 360 arc       % draw 5' circle of 2nd sequence
   coor cutpoint 1 add coor length cutpoint 1 add sub getinterval
   {aload pop lineto} forall}        % draw outline of 2nd sequence
  {coor {aload pop lineto} forall}   % draw outline as a whole
  ifelse
  stroke grestore
} bind def
/drawpairs {
  paircolor
  0.7 setlinewidth
  [9 3.01] 9 setdash
  newpath
  pairs {aload pop
      currentdict (cpr) known
      { exch dup
        coor  exch 1 sub get aload pop moveto
        exch arccoords curveto
      }
      { coor exch 1 sub get aload pop moveto
        coor exch 1 sub get aload pop lineto
      }ifelse
  } forall
  stroke
} bind def
% draw bases
/drawbases {
  [] 0 setdash
  seqcolor
  0
  coor {
    aload pop moveto
    dup sequence exch 1 getinterval cshow
    1 add
  } forall
  pop
} bind def

/init {
  /Helvetica findfont fsize scalefont setfont
  1 setlinejoin
  1 setlinecap
  0.8 setlinewidth
  72 216 translate
  % find the coordinate range
  /xmax -1000 def /xmin 10000 def
  /ymax -1000 def /ymin 10000 def
  coor {
      aload pop
      dup ymin lt {dup /ymin exch def} if
      dup ymax gt {/ymax exch def} {pop} ifelse
      dup xmin lt {dup /xmin exch def} if
      dup xmax gt {/xmax exch def} {pop} ifelse
  } forall
  /size {xmax xmin sub ymax ymin sub max} bind def
  72 6 mul size div dup scale
  size xmin sub xmax sub 2 div size ymin sub ymax sub 2 div
  translate
} bind def
end
%%EndProlog
RNAplot begin
% data start here
/sequence (\
11111111111122222222222222223333344444444444444444444444444445555555555555555555555666666<<<<<>>>>><<<<<<<<<>>>>>>>>>333337777777777777777666666888888888888888888\
) def
/coor [
[103.21788025 117.67581177]
[99.49873352 132.20742798]
[95.77959442 146.73905945]
[92.06044769 161.27067566]
[88.34130096 175.80229187]
[84.62215424 190.33390808]
[70.09053040 186.61476135]
[73.80967712 172.08314514]
[77.52882385 157.55152893]
[81.24797058 143.01991272]
[84.96711731 128.48828125]
[88.68626404 113.95667267]
[75.67185974 106.49843597]
[65.01427460 117.05381012]
[54.35668945 127.60917664]
[43.69910431 138.16455078]
[33.04151917 148.71992493]
[22.38393211 159.27529907]
[11.72634697 169.83067322]
[1.06876218 180.38604736]
[-9.48660946 169.72845459]
[1.17097533 159.17308044]
[11.82856083 148.61770630]
[22.48614502 138.06233215]
[33.14373016 127.50696564]
[43.80131531 116.95159149]
[54.45890045 106.39622498]
[65.11648560 95.84085083]
[69.25413513 81.42281342]
[65.81573486 66.82221222]
[62.37734222 52.22161865]
[58.93894577 37.62102127]
[55.50054932 23.02042389]
[-13.50298309 3.53496552]
[-27.99808693 -0.32404405]
[-42.49319077 -4.18305349]
[-56.98829651 -8.04206371]
[-71.48339844 -11.90107250]
[-85.97850800 -15.76008224]
[-100.47360992 -19.61909294]
[-114.96871185 -23.47810173]
[-129.46382141 -27.33711052]
[-143.95892334 -31.19612122]
[-158.45402527 -35.05513000]
[-172.94912720 -38.91413879]
[-187.44422913 -42.77315140]
[-201.93933105 -46.63216019]
[-198.08032227 -61.12726212]
[-183.58522034 -57.26825333]
[-169.09011841 -53.40924454]
[-154.59501648 -49.55023575]
[-140.09991455 -45.69122696]
[-125.60480499 -41.83221436]
[-111.10970306 -37.97320557]
[-96.61460114 -34.11419678]
[-82.11949158 -30.25518608]
[-67.62438965 -26.39617729]
[-53.12928772 -22.53716660]
[-38.63418198 -18.67815781]
[-24.13907814 -14.81914806]
[-9.64397430 -10.96013832]
[0.49283934 -22.01658630]
[-4.60726547 -36.12292862]
[-9.70737076 -50.22927094]
[-14.80747604 -64.33561707]
[-19.90758133 -78.44196320]
[-25.00768661 -92.54830170]
[-30.10778999 -106.65464783]
[-35.20789719 -120.76099396]
[-40.30800247 -134.86734009]
[-45.40810394 -148.97367859]
[-50.50820923 -163.08001709]
[-36.40186691 -168.18013000]
[-31.30176163 -154.07377625]
[-26.20165634 -139.96743774]
[-21.10155296 -125.86109924]
[-16.00144768 -111.75475311]
[-10.90134239 -97.64840698]
[-5.80123711 -83.54206848]
[-0.70113218 -69.43572235]
[4.39897299 -55.32937622]
[9.49907780 -41.22303391]
[14.59918308 -27.11668968]
[22.07690620 -26.53905678]
[23.23217583 -41.49450302]
[24.38769150 -56.44992828]
[39.34310150 -55.29416275]
[38.18762207 -40.33923340]
[37.03235245 -25.38378716]
[44.51007462 -24.80615234]
[51.71610260 -37.96187973]
[58.92213058 -51.11760712]
[66.12815857 -64.27333069]
[73.33419037 -77.42906189]
[86.48991394 -70.22303009]
[79.28388977 -57.06730270]
[72.07785797 -43.91157532]
[64.87182617 -30.75584984]
[57.66580200 -17.60012245]
[68.42460632 -7.14794445]
[81.36653900 -14.73124599]
[94.30847168 -22.31454849]
[107.25039673 -29.89785004]
[120.19232941 -37.48115158]
[133.13426208 -45.06445312]
[146.07618713 -52.64775467]
[159.01811218 -60.23105621]
[171.96003723 -67.81435394]
[179.54335022 -54.87242889]
[166.60140991 -47.28912735]
[153.65948486 -39.70582581]
[140.71755981 -32.12252426]
[127.77562714 -24.53922081]
[114.83370209 -16.95591927]
[101.89176941 -9.37261868]
[88.94983673 -1.78931665]
[76.00791168 5.79398489]
[70.10114288 19.58202744]
[73.53954315 34.18262482]
[76.97793579 48.78322220]
[80.41633606 63.38381958]
[83.85472870 77.98441315]
[172.55941772 74.60520172]
[186.80729675 79.29541016]
[201.05517578 83.98561859]
[215.30303955 88.67583466]
[229.55091858 93.36604309]
[243.79879761 98.05625153]
[258.04666138 102.74646759]
[272.29455566 107.43667603]
[267.60433960 121.68455505]
[253.35646057 116.99433899]
[239.10858154 112.30413055]
[224.86070251 107.61391449]
[210.61283875 102.92370605]
[196.36495972 98.23349762]
[182.11708069 93.54328156]
[167.86921692 88.85307312]
[162.69520569 94.28259277]
[173.55422974 104.63060760]
[184.41311646 114.97879028]
[174.06475830 125.83750153]
[163.20622253 115.48963928]
[152.34718323 105.14162445]
[147.17318726 110.57113647]
[152.54420471 124.57656860]
[157.91522217 138.58200073]
[163.28623962 152.58743286]
[168.65725708 166.59286499]
[174.02828979 180.59829712]
[179.39930725 194.60372925]
[184.77032471 208.60916138]
[190.14134216 222.61459351]
[176.13591003 227.98562622]
[170.76489258 213.98019409]
[165.39387512 199.97476196]
[160.02285767 185.96932983]
[154.65182495 171.96388245]
[149.28080750 157.95845032]
[143.90979004 143.95301819]
[138.53877258 129.94758606]
[133.16775513 115.94216156]
] def
/pairs [
[1 12]
[2 11]
[3 10]
[4 9]
[5 8]
[6 7]
[13 28]
[14 27]
[15 26]
[16 25]
[17 24]
[18 23]
[19 22]
[20 21]
[29 122]
[30 121]
[31 120]
[32 119]
[33 118]
[34 61]
[35 60]
[36 59]
[37 58]
[38 57]
[39 56]
[40 55]
[41 54]
[42 53]
[43 52]
[44 51]
[45 50]
[46 49]
[47 48]
[62 83]
[63 82]
[64 81]
[65 80]
[66 79]
[67 78]
[68 77]
[69 76]
[70 75]
[71 74]
[72 73]
[90 99]
[91 98]
[92 97]
[93 96]
[94 95]
[100 117]
[101 116]
[102 115]
[103 114]
[104 113]
[105 112]
[106 111]
[107 110]
[108 109]
[123 138]
[124 137]
[125 136]
[126 135]
[127 134]
[128 133]
[129 132]
[130 131]
[145 162]
[146 161]
[147 160]
[148 159]
[149 158]
[150 157]
[151 156]
[152 155]
[153 154]
] def

init

% switch off outline pairs or bases by removing these lines
drawoutline
drawpairs
drawbases
% show it
showpage
end
%%EOF
