%!PS-Adobe-3.0 EPSF-3.0
%%Creator: PS_dot.c,v 1.38 2007/02/02 15:18:13 ivo Exp $, ViennaRNA-2.0.7
%%CreationDate: Sun Nov  4 18:30:37 2012
%%Title: RNA Secondary Structure Plot
%%BoundingBox: 66 210 518 662
%%DocumentFonts: Helvetica
%%Pages: 1
%%EndComments

%Options: -d2 
% to switch off outline pairs of sequence comment or
% delete the appropriate line near the end of the file

%%BeginProlog
/RNAplot 100 dict def
RNAplot begin
/fsize  14 def
/outlinecolor {0.2 setgray} bind def
/paircolor    {0.2 setgray} bind def
/seqcolor     {0   setgray} bind def
/cshow  { dup stringwidth pop -2 div fsize -3 div rmoveto show} bind def
/min { 2 copy gt { exch } if pop } bind def
/max { 2 copy lt { exch } if pop } bind def
/arccoords { % i j arccoords
  % puts optimal x1 y1 x2 y2 coordinates used in bezier curves from i to j
  % onto the stack
  dup 3 -1 roll dup 4 -1 roll lt dup dup 5 2 roll {exch} if
  dup 3 -1 roll dup 3 -1 roll exch sub 1 sub dup
  4 -2 roll 5 -1 roll {exch} if 4 2 roll
  sequence length dup 2 div exch 3 1 roll lt 
  {exch 5 -1 roll pop 4 -2 roll exch 4 2 roll}
  { 4 2 roll 5 -1 roll dup 6 1 roll {exch} if
    4 -2 roll exch pop dup 3 -1 roll dup 4 1 roll
    exch add 4 -1 roll dup 5 1 roll sub 1 sub
    5 -1 roll not {4 -2 roll exch 4 2 roll} if
  }ifelse
   % compute the scalingfactor and prepare (1-sf) and sf*r
  2 mul exch cpr 3 1 roll div dup
  3 -1 roll mul exch 1 exch sub exch
   % compute the coordinates
  3 -1 roll 1 sub coor exch get aload pop % get coord for i
  4 -1 roll dup 5 1 roll mul 3 -1 roll dup 4 1 roll add exch % calculate y1
  4 -1 roll dup 5 1 roll mul 3 -1 roll dup 4 1 roll add exch % calculate x1
  5 -1 roll 1 sub coor exch get aload pop % get coord for j
  % duplicate j coord
  dup 3 -1 roll dup 4 1 roll exch 8 2 roll
  6 -1 roll dup 7 1 roll mul 5 -1 roll dup 6 1 roll add exch % calculate y2
  6 -1 roll mul 5 -1 roll add exch % calculate x2
  6 -2 roll % reorder
} bind def
/drawoutline {
  gsave outlinecolor newpath
  coor 0 get aload pop 0.8 0 360 arc % draw 5' circle of 1st sequence
  currentdict /cutpoint known        % check if cutpoint is defined
  {coor 0 cutpoint getinterval
   {aload pop lineto} forall         % draw outline of 1st sequence
   coor cutpoint 1 add get aload pop
   2 copy moveto 0.8 0 360 arc       % draw 5' circle of 2nd sequence
   coor cutpoint 1 add coor length cutpoint 1 add sub getinterval
   {aload pop lineto} forall}        % draw outline of 2nd sequence
  {coor {aload pop lineto} forall}   % draw outline as a whole
  ifelse
  stroke grestore
} bind def
/drawpairs {
  paircolor
  0.7 setlinewidth
  [9 3.01] 9 setdash
  newpath
  pairs {aload pop
      currentdict (cpr) known
      { exch dup
        coor  exch 1 sub get aload pop moveto
        exch arccoords curveto
      }
      { coor exch 1 sub get aload pop moveto
        coor exch 1 sub get aload pop lineto
      }ifelse
  } forall
  stroke
} bind def
% draw bases
/drawbases {
  [] 0 setdash
  seqcolor
  0
  coor {
    aload pop moveto
    dup sequence exch 1 getinterval cshow
    1 add
  } forall
  pop
} bind def

/init {
  /Helvetica findfont fsize scalefont setfont
  1 setlinejoin
  1 setlinecap
  0.8 setlinewidth
  72 216 translate
  % find the coordinate range
  /xmax -1000 def /xmin 10000 def
  /ymax -1000 def /ymin 10000 def
  coor {
      aload pop
      dup ymin lt {dup /ymin exch def} if
      dup ymax gt {/ymax exch def} {pop} ifelse
      dup xmin lt {dup /xmin exch def} if
      dup xmax gt {/xmax exch def} {pop} ifelse
  } forall
  /size {xmax xmin sub ymax ymin sub max} bind def
  72 6 mul size div dup scale
  size xmin sub xmax sub 2 div size ymin sub ymax sub 2 div
  translate
} bind def
end
%%EndProlog
RNAplot begin
% data start here
/sequence (\
nnnnnnn1111nnnnn1111nnn2222222nnnn2222222nnnnnn333333nnnn444444nnn44444nnnnn4444444444444n44nnnnnnnn44n4444nnnn4n44444444n44444nnn444444555nn55n55555nnnnnnnnnnnnnn555nn55n55n555nnn6n66666nnn3333337777777777nnn77n77777777nnnnnn666666nn888888888nnnnnnnnnnnn\
nnnnnn888888888nnnnnnnnnnnnn\
) def
/coor [
[106.13789368 217.76664734]
[103.30110168 203.03733826]
[100.46430206 188.30802917]
[97.62751007 173.57872009]
[94.79071808 158.84941101]
[91.95391846 144.12010193]
[89.11712646 129.39079285]
[81.75721741 130.83361816]
[77.18513489 145.11982727]
[72.61304474 159.40605164]
[68.04096222 173.69227600]
[74.07971191 188.55540466]
[66.09902954 202.47259521]
[50.22099686 204.76776123]
[38.62589264 193.68023682]
[40.20848465 177.71543884]
[53.75474167 169.12017822]
[58.32682800 154.83396912]
[62.89891434 140.54774475]
[67.47100067 126.26152802]
[60.94151688 122.57156372]
[48.02098465 130.19125366]
[47.88255310 115.19162750]
[41.35306931 111.50166321]
[31.47328377 122.78836823]
[21.59349632 134.07507324]
[11.71370983 145.36178589]
[1.83392251 156.64849854]
[-8.04586411 167.93521118]
[-17.92565155 179.22192383]
[-20.57761955 195.40521240]
[-36.01227570 200.94627380]
[-48.35176849 190.14494324]
[-44.90228653 174.11268616]
[-29.21236038 169.34213257]
[-19.33257484 158.05541992]
[-9.45278645 146.76870728]
[0.42700011 135.48199463]
[10.30678749 124.19528961]
[20.18657494 112.90858459]
[30.06636047 101.62187195]
[37.66776276 85.13796997]
[48.67835236 72.53909302]
[61.65671921 64.38240814]
[75.12472534 60.75933075]
[87.70587921 61.31880188]
[98.24814606 65.32919312]
[105.92112732 71.77219391]
[99.49842834 58.21679306]
[93.07572174 44.66139221]
[86.65302277 31.10598946]
[80.23032379 17.55058670]
[73.80762482 3.99518514]
[67.50427246 3.79570270]
[61.49392700 1.85890055]
[56.24646378 -1.66856527]
[52.17341614 -6.51550245]
[49.59573364 -12.30702782]
[37.00965118 -20.46733284]
[24.42357254 -28.62763977]
[11.83749199 -36.78794479]
[-0.74858755 -44.94824982]
[-13.33466721 -53.10855865]
[-27.75883865 -47.70027924]
[-42.43029404 -51.77480698]
[-51.77871323 -63.56764603]
[-52.38322067 -78.42606354]
[-64.96929932 -86.58637238]
[-77.55538177 -94.74667358]
[-90.14146423 -102.90698242]
[-102.72753906 -111.06728363]
[-110.34275055 -107.88082886]
[-118.50395966 -107.93733215]
[-125.90263367 -111.15433502]
[-131.38128662 -116.94852448]
[-134.11441040 -124.34004211]
[-133.73239136 -132.11772156]
[-145.94519043 -140.82675171]
[-158.15800476 -149.53579712]
[-170.37080383 -158.24484253]
[-182.58360291 -166.95388794]
[-194.79640198 -175.66293335]
[-207.00921631 -184.37197876]
[-219.22201538 -193.08102417]
[-231.48280334 -201.72238159]
[-243.97784424 -210.02140808]
[-256.65341187 -218.04199219]
[-269.32901001 -226.06257629]
[-282.00457764 -234.08316040]
[-297.80343628 -234.92387390]
[-304.42129517 -248.26753235]
[-317.09686279 -256.28811646]
[-331.46640015 -250.43182373]
[-346.52575684 -254.17286682]
[-356.48431396 -266.07275391]
[-357.51278687 -281.55569458]
[-349.21569824 -294.66821289]
[-334.78350830 -300.36828613]
[-319.76559448 -296.46408081]
[-309.93673706 -284.45687866]
[-309.07626343 -268.96368408]
[-296.40069580 -260.94311523]
[-281.50848389 -260.67608643]
[-273.98397827 -246.75874329]
[-261.30841064 -238.73815918]
[-248.63284302 -230.71757507]
[-235.95726013 -222.69699097]
[-233.23100281 -223.15051270]
[-230.16421509 -222.57421875]
[-227.14012146 -220.83441162]
[-224.58287048 -217.93563843]
[-222.90937805 -214.03077698]
[-215.65527344 -212.79150391]
[-210.51296997 -205.29382324]
[-198.30017090 -196.58477783]
[-186.08737183 -187.87573242]
[-173.87455750 -179.16668701]
[-161.66175842 -170.45764160]
[-149.44895935 -161.74861145]
[-137.23614502 -153.03956604]
[-125.02334595 -144.33052063]
[-103.36719513 -144.28269958]
[-94.56723785 -123.65336609]
[-81.98115540 -115.49306488]
[-69.39507294 -107.33275604]
[-56.80899429 -99.17244720]
[-44.22291565 -91.01214600]
[-30.41131401 -96.52373505]
[-15.83016968 -92.80161285]
[-6.12317276 -81.07013702]
[-5.17436123 -65.69464111]
[7.41171837 -57.53433228]
[19.99779892 -49.37402725]
[32.58387756 -41.21371841]
[45.16995621 -33.05341339]
[57.75603867 -24.89310837]
[71.93761444 -29.78011703]
[76.82462311 -43.96169281]
[81.71163177 -58.14327240]
[76.77749634 -70.03074646]
[81.10913849 -81.72483826]
[91.88268280 -87.16759491]
[96.92626190 -101.29424286]
[94.27960968 -116.89250946]
[105.84581757 -126.27717590]
[110.88940430 -140.40382385]
[115.77641296 -154.58540344]
[120.50624847 -168.82017517]
[125.23608398 -183.05494690]
[113.72010803 -192.97717285]
[106.88227081 -206.55334473]
[105.76529694 -221.71319580]
[110.53951263 -236.14494324]
[120.47689056 -247.64785767]
[134.06204224 -254.46781921]
[149.22334290 -255.56484985]
[163.64878845 -250.77165222]
[175.13862610 -240.81916809]
[181.94071960 -227.22505188]
[183.01780701 -212.06231689]
[178.20564270 -197.64318848]
[168.23803711 -186.16645813]
[154.63497925 -179.38224792]
[139.47085571 -178.32510376]
[134.74101257 -164.09033203]
[130.01118469 -149.85557556]
[131.29200745 -145.29396057]
[129.75010681 -139.87855530]
[125.01605225 -135.36024475]
[119.97247314 -121.23359680]
[122.97988129 -106.64576721]
[111.05291748 -96.25066376]
[106.00933075 -82.12401581]
[110.07341766 -65.03388977]
[95.89321136 -53.25626373]
[91.00620270 -39.07468414]
[86.11919403 -24.89310837]
[92.69306946 -38.37584305]
[104.04771423 -48.17747498]
[118.34588623 -52.71204376]
[133.27404785 -51.24582291]
[146.41674805 -44.01605988]
[155.64741516 -32.19256973]
[159.47247314 -17.68846893]
[157.27299500 -2.85060167]
[149.40487671 9.92017651]
[137.14123535 18.55747986]
[122.46638489 21.66373825]
[107.75481415 18.73634529]
[95.38693237 10.24896622]
[87.36302948 -2.42751455]
[93.78572845 11.12788773]
[100.20842743 24.68329048]
[106.63112640 38.23869324]
[113.05382538 51.79409409]
[119.47652435 65.34949493]
[132.53549194 72.72943115]
[147.46121216 71.23853302]
[162.38693237 69.74763489]
[177.31266785 68.25673676]
[192.23838806 66.76583862]
[207.16410828 65.27494812]
[222.08982849 63.78404999]
[237.01556396 62.29315186]
[251.93280029 60.71972275]
[266.84112549 59.06381226]
[281.91595459 51.30588531]
[293.54385376 63.64398956]
[284.90682983 78.23297119]
[268.49703979 73.97212982]
[253.58871460 75.62804413]
[247.31413269 79.47349548]
[238.50645447 77.21887207]
[223.58073425 78.70977020]
[208.65501404 80.20066833]
[193.72927856 81.69156647]
[178.80355835 83.18246460]
[163.87783813 84.67336273]
[148.95211792 86.16425323]
[134.02638245 87.65515137]
[131.19462585 94.60002136]
[145.08436584 100.26353455]
[158.97409058 105.92704773]
[172.86381531 111.59056091]
[186.75355530 117.25408173]
[200.64328003 122.91759491]
[214.53292847 128.58132935]
[208.86897278 142.47087097]
[194.97976685 136.80732727]
[181.09004211 131.14381409]
[167.20030212 125.48029327]
[153.31057739 119.81678009]
[139.42085266 114.15326691]
[125.53112030 108.48974609]
[122.69935608 115.43461609]
[132.32704163 126.93712616]
[141.95472717 138.43963623]
[151.58241272 149.94213867]
[161.21009827 161.44465637]
[170.83778381 172.94715881]
[180.46545410 184.44966125]
[190.09313965 195.95217896]
[199.72082520 207.45468140]
[213.74736023 201.78797913]
[228.83863831 200.73506165]
[243.51615906 204.39912415]
[256.34197998 212.42117310]
[266.05957031 224.01530457]
[271.71688843 238.04562378]
[272.75967407 253.13760376]
[269.08578491 267.81268311]
[261.05514526 280.63311768]
[249.45451355 290.34292603]
[235.42041016 295.99084473]
[220.32772827 297.02352905]
[205.65512085 293.33981323]
[192.84005737 285.30056763]
[183.13801575 273.69342041]
[177.49951172 259.65554810]
[176.47694397 244.56217957]
[180.17050171 229.89204407]
[188.21832275 217.08236694]
[178.59063721 205.57986450]
[168.96295166 194.07734680]
[159.33526611 182.57484436]
[149.70758057 171.07232666]
[140.07989502 159.56982422]
[130.45222473 148.06732178]
[120.82453156 136.56480408]
[111.19685364 125.06229401]
[103.83694458 126.50512695]
[106.77143097 141.21528625]
[109.70592499 155.92544556]
[112.64041138 170.63560486]
[115.57490540 185.34576416]
[118.50939941 200.05592346]
[121.44388580 214.76608276]
[124.37837982 229.47624207]
[127.31286621 244.18640137]
[134.30142212 257.45892334]
[124.00489044 268.36679077]
[110.35176849 262.15451050]
[111.81148529 247.22526550]
] def
/pairs [
[8 20]
[9 19]
[10 18]
[11 17]
[24 41]
[25 40]
[26 39]
[27 38]
[28 37]
[29 36]
[30 35]
[48 196]
[49 195]
[50 194]
[51 193]
[52 192]
[53 191]
[58 136]
[59 135]
[60 134]
[61 133]
[62 132]
[63 131]
[67 127]
[68 126]
[69 125]
[70 124]
[71 123]
[77 121]
[78 120]
[79 119]
[80 118]
[81 117]
[82 116]
[83 115]
[84 114]
[85 112]
[86 107]
[87 106]
[88 105]
[89 104]
[91 102]
[92 101]
[137 177]
[138 176]
[139 175]
[142 173]
[143 172]
[145 170]
[146 169]
[147 166]
[148 165]
[149 164]
[197 220]
[198 219]
[199 218]
[200 217]
[201 216]
[202 215]
[203 214]
[204 213]
[205 211]
[206 210]
[235 270]
[236 269]
[237 268]
[238 267]
[239 266]
[240 265]
[241 264]
[242 263]
[243 262]
] def

init

% switch off outline pairs or bases by removing these lines
drawoutline
drawpairs
drawbases
% show it
showpage
end
%%EOF
