%!PS-Adobe-3.0 EPSF-3.0
%%Creator: PS_dot.c,v 1.38 2007/02/02 15:18:13 ivo Exp $, ViennaRNA-2.0.7
%%CreationDate: Sat Nov  3 00:50:23 2012
%%Title: RNA Secondary Structure Plot
%%BoundingBox: 66 210 518 662
%%DocumentFonts: Helvetica
%%Pages: 1
%%EndComments

%Options: -d2 
% to switch off outline pairs of sequence comment or
% delete the appropriate line near the end of the file

%%BeginProlog
/RNAplot 100 dict def
RNAplot begin
/fsize  14 def
/outlinecolor {0.2 setgray} bind def
/paircolor    {0.2 setgray} bind def
/seqcolor     {0   setgray} bind def
/cshow  { dup stringwidth pop -2 div fsize -3 div rmoveto show} bind def
/min { 2 copy gt { exch } if pop } bind def
/max { 2 copy lt { exch } if pop } bind def
/arccoords { % i j arccoords
  % puts optimal x1 y1 x2 y2 coordinates used in bezier curves from i to j
  % onto the stack
  dup 3 -1 roll dup 4 -1 roll lt dup dup 5 2 roll {exch} if
  dup 3 -1 roll dup 3 -1 roll exch sub 1 sub dup
  4 -2 roll 5 -1 roll {exch} if 4 2 roll
  sequence length dup 2 div exch 3 1 roll lt 
  {exch 5 -1 roll pop 4 -2 roll exch 4 2 roll}
  { 4 2 roll 5 -1 roll dup 6 1 roll {exch} if
    4 -2 roll exch pop dup 3 -1 roll dup 4 1 roll
    exch add 4 -1 roll dup 5 1 roll sub 1 sub
    5 -1 roll not {4 -2 roll exch 4 2 roll} if
  }ifelse
   % compute the scalingfactor and prepare (1-sf) and sf*r
  2 mul exch cpr 3 1 roll div dup
  3 -1 roll mul exch 1 exch sub exch
   % compute the coordinates
  3 -1 roll 1 sub coor exch get aload pop % get coord for i
  4 -1 roll dup 5 1 roll mul 3 -1 roll dup 4 1 roll add exch % calculate y1
  4 -1 roll dup 5 1 roll mul 3 -1 roll dup 4 1 roll add exch % calculate x1
  5 -1 roll 1 sub coor exch get aload pop % get coord for j
  % duplicate j coord
  dup 3 -1 roll dup 4 1 roll exch 8 2 roll
  6 -1 roll dup 7 1 roll mul 5 -1 roll dup 6 1 roll add exch % calculate y2
  6 -1 roll mul 5 -1 roll add exch % calculate x2
  6 -2 roll % reorder
} bind def
/drawoutline {
  gsave outlinecolor newpath
  coor 0 get aload pop 0.8 0 360 arc % draw 5' circle of 1st sequence
  currentdict /cutpoint known        % check if cutpoint is defined
  {coor 0 cutpoint getinterval
   {aload pop lineto} forall         % draw outline of 1st sequence
   coor cutpoint 1 add get aload pop
   2 copy moveto 0.8 0 360 arc       % draw 5' circle of 2nd sequence
   coor cutpoint 1 add coor length cutpoint 1 add sub getinterval
   {aload pop lineto} forall}        % draw outline of 2nd sequence
  {coor {aload pop lineto} forall}   % draw outline as a whole
  ifelse
  stroke grestore
} bind def
/drawpairs {
  paircolor
  0.7 setlinewidth
  [9 3.01] 9 setdash
  newpath
  pairs {aload pop
      currentdict (cpr) known
      { exch dup
        coor  exch 1 sub get aload pop moveto
        exch arccoords curveto
      }
      { coor exch 1 sub get aload pop moveto
        coor exch 1 sub get aload pop lineto
      }ifelse
  } forall
  stroke
} bind def
% draw bases
/drawbases {
  [] 0 setdash
  seqcolor
  0
  coor {
    aload pop moveto
    dup sequence exch 1 getinterval cshow
    1 add
  } forall
  pop
} bind def

/init {
  /Helvetica findfont fsize scalefont setfont
  1 setlinejoin
  1 setlinecap
  0.8 setlinewidth
  72 216 translate
  % find the coordinate range
  /xmax -1000 def /xmin 10000 def
  /ymax -1000 def /ymin 10000 def
  coor {
      aload pop
      dup ymin lt {dup /ymin exch def} if
      dup ymax gt {/ymax exch def} {pop} ifelse
      dup xmin lt {dup /xmin exch def} if
      dup xmax gt {/xmax exch def} {pop} ifelse
  } forall
  /size {xmax xmin sub ymax ymin sub max} bind def
  72 6 mul size div dup scale
  size xmin sub xmax sub 2 div size ymin sub ymax sub 2 div
  translate
} bind def
end
%%EndProlog
RNAplot begin
% data start here
/sequence (\
111111112222222222222233333344444444444444444444444444444444444444444444444444444444444444445555555555555555555566666633333377777777777777777777666666888888888888888888888888\
) def
/coor [
[104.82826996 116.99936676]
[102.41528320 131.80401611]
[100.00229645 146.60865784]
[97.58931732 161.41329956]
[82.78466797 159.00032043]
[85.19765472 144.19567871]
[87.61064148 129.39102173]
[90.02362061 114.58638763]
[75.98010254 109.31576538]
[68.05670166 122.05231476]
[60.13330078 134.78886414]
[52.20989990 147.52542114]
[44.28650284 160.26196289]
[36.36310196 172.99851990]
[28.43970299 185.73507690]
[15.70315075 177.81167603]
[23.62655067 165.07511902]
[31.54994965 152.33856201]
[39.47335052 139.60202026]
[47.39675140 126.86546326]
[55.32014847 114.12891388]
[63.24354935 101.39236450]
[63.64741898 86.39780426]
[56.42111588 73.25319672]
[49.19480896 60.10860062]
[41.96850204 46.96400070]
[34.74219894 33.81940079]
[27.51589394 20.67479897]
[5.04752541 -1.16670752]
[-7.32071924 -9.65355206]
[-19.68896294 -18.14039612]
[-32.05720901 -26.62724113]
[-44.42545319 -35.11408615]
[-56.79369736 -43.60092926]
[-69.16194153 -52.08777618]
[-81.53018188 -60.57461929]
[-93.89842987 -69.06146240]
[-106.26667786 -77.54830933]
[-118.63491821 -86.03515625]
[-131.00315857 -94.52199554]
[-143.37141418 -103.00884247]
[-155.73965454 -111.49568939]
[-168.10789490 -119.98252869]
[-180.47613525 -128.46937561]
[-192.84439087 -136.95622253]
[-205.21263123 -145.44306946]
[-217.58087158 -153.92990112]
[-229.94911194 -162.41674805]
[-242.31736755 -170.90359497]
[-254.68560791 -179.39044189]
[-267.05386353 -187.87728882]
[-279.42208862 -196.36413574]
[-291.79034424 -204.85098267]
[-304.15859985 -213.33781433]
[-316.52682495 -221.82466125]
[-328.89508057 -230.31150818]
[-341.26330566 -238.79835510]
[-353.63156128 -247.28520203]
[-365.99981689 -255.77204895]
[-378.36804199 -264.25888062]
[-369.88119507 -276.62713623]
[-357.51296997 -268.14028931]
[-345.14471436 -259.65344238]
[-332.77648926 -251.16659546]
[-320.40823364 -242.67974854]
[-308.03997803 -234.19290161]
[-295.67175293 -225.70606995]
[-283.30349731 -217.21922302]
[-270.93524170 -208.73237610]
[-258.56701660 -200.24552917]
[-246.19876099 -191.75868225]
[-233.83052063 -183.27183533]
[-221.46228027 -174.78500366]
[-209.09402466 -166.29815674]
[-196.72578430 -157.81130981]
[-184.35754395 -149.32446289]
[-171.98930359 -140.83761597]
[-159.62104797 -132.35076904]
[-147.25280762 -123.86392975]
[-134.88456726 -115.37708282]
[-122.51631927 -106.89024353]
[-110.14807129 -98.40339661]
[-97.77983093 -89.91654968]
[-85.41158295 -81.42971039]
[-73.04334259 -72.94286346]
[-60.67509842 -64.45601654]
[-48.30685043 -55.96917343]
[-35.93860626 -47.48233032]
[-23.57036400 -38.99548721]
[-11.20211887 -30.50864029]
[1.16612554 -22.02179718]
[13.53436947 -13.53495216]
[28.18765831 -16.74136925]
[35.88114929 -29.61810112]
[43.57463837 -42.49483490]
[51.26812744 -55.37156677]
[58.96161652 -68.24829865]
[66.65510559 -81.12503052]
[74.34859467 -94.00176239]
[82.04208374 -106.87849426]
[89.73557281 -119.75522614]
[97.42906189 -132.63195801]
[110.30579376 -124.93846893]
[102.61230469 -112.06173706]
[94.91881561 -99.18500519]
[87.22532654 -86.30827332]
[79.53183746 -73.43154144]
[71.83834839 -60.55480957]
[64.14485931 -47.67807770]
[56.45137024 -34.80134583]
[48.75788116 -21.92461205]
[41.06439209 -9.04788017]
[53.30542755 -17.71719551]
[68.19978333 -15.94007969]
[78.05747223 -4.63406372]
[77.78894043 10.36353302]
[67.53284454 21.30941772]
[52.58441544 22.55220413]
[40.66049194 13.44849396]
[47.88679886 26.59309387]
[55.11310577 39.73769379]
[62.33940887 52.88229370]
[69.56571198 66.02689362]
[76.79202271 79.17149353]
[167.19529724 66.87163544]
[182.09329224 68.61798096]
[196.99128723 70.36432648]
[211.88928223 72.11067200]
[226.78727722 73.85701752]
[241.68527222 75.60336304]
[256.58328247 77.34971619]
[271.48126221 79.09606171]
[286.37927246 80.84240723]
[301.27725220 82.58875275]
[299.53091431 97.48674774]
[284.63290405 95.74040222]
[269.73492432 93.99405670]
[254.83692932 92.24771118]
[239.93893433 90.50136566]
[225.04092407 88.75501251]
[210.14292908 87.00866699]
[195.24493408 85.26232147]
[180.34693909 83.51597595]
[165.44894409 81.76963043]
[161.09519958 87.87657928]
[173.33218384 96.55162811]
[185.52293396 105.29151154]
[176.81544495 117.50542450]
[164.57844543 108.83038330]
[152.38769531 100.09048462]
[148.03395081 106.19744110]
[154.54220581 119.71196747]
[161.05046082 133.22650146]
[167.55871582 146.74104309]
[174.06697083 160.25556946]
[180.57522583 173.77009583]
[187.08348083 187.28463745]
[193.59173584 200.79916382]
[200.10000610 214.31370544]
[206.60826111 227.82823181]
[213.11651611 241.34277344]
[219.62477112 254.85729980]
[206.11022949 261.36557007]
[199.60197449 247.85102844]
[193.09371948 234.33648682]
[186.58546448 220.82196045]
[180.07720947 207.30741882]
[173.56895447 193.79289246]
[167.06069946 180.27836609]
[160.55244446 166.76382446]
[154.04418945 153.24929810]
[147.53593445 139.73475647]
[141.02767944 126.22023010]
[134.51942444 112.70569611]
] def
/pairs [
[1 8]
[2 7]
[3 6]
[4 5]
[9 22]
[10 21]
[11 20]
[12 19]
[13 18]
[14 17]
[15 16]
[23 124]
[24 123]
[25 122]
[26 121]
[27 120]
[28 119]
[29 92]
[30 91]
[31 90]
[32 89]
[33 88]
[34 87]
[35 86]
[36 85]
[37 84]
[38 83]
[39 82]
[40 81]
[41 80]
[42 79]
[43 78]
[44 77]
[45 76]
[46 75]
[47 74]
[48 73]
[49 72]
[50 71]
[51 70]
[52 69]
[53 68]
[54 67]
[55 66]
[56 65]
[57 64]
[58 63]
[59 62]
[60 61]
[93 112]
[94 111]
[95 110]
[96 109]
[97 108]
[98 107]
[99 106]
[100 105]
[101 104]
[102 103]
[125 144]
[126 143]
[127 142]
[128 141]
[129 140]
[130 139]
[131 138]
[132 137]
[133 136]
[134 135]
[151 174]
[152 173]
[153 172]
[154 171]
[155 170]
[156 169]
[157 168]
[158 167]
[159 166]
[160 165]
[161 164]
[162 163]
] def

init

% switch off outline pairs or bases by removing these lines
drawoutline
drawpairs
drawbases
% show it
showpage
end
%%EOF
