%!PS-Adobe-3.0 EPSF-3.0
%%Creator: PS_dot.c,v 1.38 2007/02/02 15:18:13 ivo Exp $, ViennaRNA-2.0.7
%%CreationDate: Sun Nov  4 18:30:37 2012
%%Title: RNA Secondary Structure Plot
%%BoundingBox: 66 210 518 662
%%DocumentFonts: Helvetica
%%Pages: 1
%%EndComments

%Options: -d2 
% to switch off outline pairs of sequence comment or
% delete the appropriate line near the end of the file

%%BeginProlog
/RNAplot 100 dict def
RNAplot begin
/fsize  14 def
/outlinecolor {0.2 setgray} bind def
/paircolor    {0.2 setgray} bind def
/seqcolor     {0   setgray} bind def
/cshow  { dup stringwidth pop -2 div fsize -3 div rmoveto show} bind def
/min { 2 copy gt { exch } if pop } bind def
/max { 2 copy lt { exch } if pop } bind def
/arccoords { % i j arccoords
  % puts optimal x1 y1 x2 y2 coordinates used in bezier curves from i to j
  % onto the stack
  dup 3 -1 roll dup 4 -1 roll lt dup dup 5 2 roll {exch} if
  dup 3 -1 roll dup 3 -1 roll exch sub 1 sub dup
  4 -2 roll 5 -1 roll {exch} if 4 2 roll
  sequence length dup 2 div exch 3 1 roll lt 
  {exch 5 -1 roll pop 4 -2 roll exch 4 2 roll}
  { 4 2 roll 5 -1 roll dup 6 1 roll {exch} if
    4 -2 roll exch pop dup 3 -1 roll dup 4 1 roll
    exch add 4 -1 roll dup 5 1 roll sub 1 sub
    5 -1 roll not {4 -2 roll exch 4 2 roll} if
  }ifelse
   % compute the scalingfactor and prepare (1-sf) and sf*r
  2 mul exch cpr 3 1 roll div dup
  3 -1 roll mul exch 1 exch sub exch
   % compute the coordinates
  3 -1 roll 1 sub coor exch get aload pop % get coord for i
  4 -1 roll dup 5 1 roll mul 3 -1 roll dup 4 1 roll add exch % calculate y1
  4 -1 roll dup 5 1 roll mul 3 -1 roll dup 4 1 roll add exch % calculate x1
  5 -1 roll 1 sub coor exch get aload pop % get coord for j
  % duplicate j coord
  dup 3 -1 roll dup 4 1 roll exch 8 2 roll
  6 -1 roll dup 7 1 roll mul 5 -1 roll dup 6 1 roll add exch % calculate y2
  6 -1 roll mul 5 -1 roll add exch % calculate x2
  6 -2 roll % reorder
} bind def
/drawoutline {
  gsave outlinecolor newpath
  coor 0 get aload pop 0.8 0 360 arc % draw 5' circle of 1st sequence
  currentdict /cutpoint known        % check if cutpoint is defined
  {coor 0 cutpoint getinterval
   {aload pop lineto} forall         % draw outline of 1st sequence
   coor cutpoint 1 add get aload pop
   2 copy moveto 0.8 0 360 arc       % draw 5' circle of 2nd sequence
   coor cutpoint 1 add coor length cutpoint 1 add sub getinterval
   {aload pop lineto} forall}        % draw outline of 2nd sequence
  {coor {aload pop lineto} forall}   % draw outline as a whole
  ifelse
  stroke grestore
} bind def
/drawpairs {
  paircolor
  0.7 setlinewidth
  [9 3.01] 9 setdash
  newpath
  pairs {aload pop
      currentdict (cpr) known
      { exch dup
        coor  exch 1 sub get aload pop moveto
        exch arccoords curveto
      }
      { coor exch 1 sub get aload pop moveto
        coor exch 1 sub get aload pop lineto
      }ifelse
  } forall
  stroke
} bind def
% draw bases
/drawbases {
  [] 0 setdash
  seqcolor
  0
  coor {
    aload pop moveto
    dup sequence exch 1 getinterval cshow
    1 add
  } forall
  pop
} bind def

/init {
  /Helvetica findfont fsize scalefont setfont
  1 setlinejoin
  1 setlinecap
  0.8 setlinewidth
  72 216 translate
  % find the coordinate range
  /xmax -1000 def /xmin 10000 def
  /ymax -1000 def /ymin 10000 def
  coor {
      aload pop
      dup ymin lt {dup /ymin exch def} if
      dup ymax gt {/ymax exch def} {pop} ifelse
      dup xmin lt {dup /xmin exch def} if
      dup xmax gt {/xmax exch def} {pop} ifelse
  } forall
  /size {xmax xmin sub ymax ymin sub max} bind def
  72 6 mul size div dup scale
  size xmin sub xmax sub 2 div size ymin sub ymax sub 2 div
  translate
} bind def
end
%%EndProlog
RNAplot begin
% data start here
/sequence (\
nnnnnnn1111nnnnn1111nnn2222222nnnn2222222nnnnnn333333nnnn444444nnn44444nnnnn4444444444444n44nnnnnnnn44n4444nnnn4n44444444n44444nnn444444555nn55n55555nnnnnnnnnnnnnn555nn55n55n555nnn6n66666nnn3333337777777777nnn77n77777777nnnnnn666666nn888888888nnnnnnnnnnnn\
nnnnnn888888888nnnnnnnnnnnnn\
) def
/coor [
[89.00564575 256.75167847]
[86.16885376 242.02235413]
[83.33206177 227.29304504]
[80.49526978 212.56373596]
[77.65847015 197.83442688]
[74.82167816 183.10511780]
[71.98488617 168.37579346]
[64.62497711 169.81863403]
[60.05288696 184.10484314]
[55.48080063 198.39106750]
[50.90871429 212.67727661]
[56.94747162 227.54042053]
[48.96678162 241.45761108]
[33.08875656 243.75277710]
[21.49364853 232.66525269]
[23.07623863 216.70045471]
[36.62249756 208.10519409]
[41.19458389 193.81898499]
[45.76667023 179.53276062]
[50.33875656 165.24653625]
[43.80927277 161.55657959]
[30.88874054 169.17626953]
[30.75030899 154.17663574]
[24.22082710 150.48667908]
[14.34103966 161.77337646]
[4.46125269 173.06008911]
[-5.41853428 184.34680176]
[-15.29832172 195.63351440]
[-25.17810822 206.92022705]
[-35.05789566 218.20692444]
[-37.70986176 234.39022827]
[-53.14451981 239.93128967]
[-65.48401642 229.12995911]
[-62.03453064 213.09770203]
[-46.34460449 208.32714844]
[-36.46481705 197.04043579]
[-26.58503151 185.75372314]
[-16.70524406 174.46701050]
[-6.82545662 163.18031311]
[3.05433035 151.89360046]
[12.93411732 140.60688782]
[11.90036106 133.17846680]
[-2.18110418 138.34686279]
[-16.26256943 143.51527405]
[-30.34403610 148.68367004]
[-41.12501907 159.11297607]
[-55.76843262 162.36418152]
[-69.95001984 157.47718811]
[-79.48189545 145.89517212]
[-81.54925537 131.03831482]
[-75.54159546 117.29393005]
[-63.23300934 108.72079468]
[-48.25827026 107.85058594]
[-35.03990173 114.93988037]
[-20.08231735 116.06713104]
[-5.12473345 117.19438934]
[9.83284950 118.32164001]
[8.79909420 110.89322662]
[-3.78698611 102.73291779]
[-16.37306595 94.57261658]
[-28.95914650 86.41230774]
[-41.54522705 78.25200653]
[-54.13130569 70.09169769]
[-68.55548096 75.49997711]
[-83.22693634 71.42544556]
[-92.57535553 59.63261032]
[-93.17986298 44.77419281]
[-105.76593781 36.61388397]
[-118.35202026 28.45357895]
[-130.93809509 20.29327393]
[-143.52418518 12.13296795]
[-151.13938904 15.31942654]
[-159.30059814 15.26292706]
[-166.69927979 12.04592037]
[-172.17791748 6.25172901]
[-174.91104126 -1.13978648]
[-174.52903748 -8.91746044]
[-186.74183655 -17.62650299]
[-198.95463562 -26.33554649]
[-211.16743469 -35.04459000]
[-223.38024902 -43.75363541]
[-235.59304810 -52.46267700]
[-247.80584717 -61.17171860]
[-260.01864624 -69.88076019]
[-272.27944946 -78.52212524]
[-284.77447510 -86.82115936]
[-297.45007324 -94.84173584]
[-310.12564087 -102.86231995]
[-322.80120850 -110.88290405]
[-338.60006714 -111.72361755]
[-345.21792603 -125.06727600]
[-357.89349365 -133.08786011]
[-372.26303101 -127.23156738]
[-387.32238770 -130.97261047]
[-397.28094482 -142.87248230]
[-398.30941772 -158.35543823]
[-390.01235962 -171.46795654]
[-375.58013916 -177.16802979]
[-360.56225586 -173.26383972]
[-350.73336792 -161.25663757]
[-349.87292480 -145.76344299]
[-337.19732666 -137.74285889]
[-322.30511475 -137.47583008]
[-314.78063965 -123.55847931]
[-302.10504150 -115.53789520]
[-289.42947388 -107.51731873]
[-276.75390625 -99.49673462]
[-274.02764893 -99.95026398]
[-270.96084595 -99.37396240]
[-267.93676758 -97.63416290]
[-265.37951660 -94.73538208]
[-263.70602417 -90.83052063]
[-256.45190430 -89.59124756]
[-251.30961609 -82.09356689]
[-239.09680176 -73.38452148]
[-226.88400269 -64.67548370]
[-214.67120361 -55.96643829]
[-202.45838928 -47.25739288]
[-190.24559021 -38.54835129]
[-178.03279114 -29.83930779]
[-165.81999207 -21.13026428]
[-144.16383362 -21.08243752]
[-135.36387634 -0.45311195]
[-122.77779388 7.70719385]
[-110.19171143 15.86750031]
[-97.60563660 24.02780533]
[-85.01955414 32.18811035]
[-71.20795441 26.67651749]
[-56.62680817 30.39864159]
[-46.91981125 42.13011932]
[-45.97100067 57.50561905]
[-33.38491821 65.66592407]
[-20.79883957 73.82623291]
[-8.21275997 81.98653412]
[4.37332010 90.14684296]
[16.95940018 98.30714417]
[31.14097786 93.42013550]
[36.02798462 79.23856354]
[40.91499329 65.05698395]
[35.98085785 53.16950607]
[40.31249619 41.47541428]
[51.08604431 36.03266144]
[56.12962723 21.90600967]
[53.48297119 6.30774736]
[65.04917908 -3.07692099]
[70.09276581 -17.20357323]
[74.97977448 -31.38515091]
[79.70960999 -45.61991882]
[84.43944550 -59.85468674]
[72.92346954 -69.77692413]
[66.08563232 -83.35309601]
[64.96865845 -98.51293182]
[69.74287415 -112.94467926]
[79.68025208 -124.44759369]
[93.26540375 -131.26756287]
[108.42670441 -132.36459351]
[122.85215759 -127.57140350]
[134.34199524 -117.61890411]
[141.14408875 -104.02478790]
[142.22117615 -88.86206055]
[137.40899658 -74.44292450]
[127.44139862 -62.96619797]
[113.83834839 -56.18199158]
[98.67421722 -55.12485123]
[93.94438171 -40.89008331]
[89.21453857 -26.65531349]
[90.49536133 -22.09370041]
[88.95346069 -16.67830658]
[84.21941376 -12.15999031]
[79.17583466 1.96666121]
[82.18324280 16.55449104]
[70.25627899 26.94959068]
[65.21269226 41.07624435]
[69.27677917 58.16636658]
[55.09657288 69.94399261]
[50.20956421 84.12557220]
[45.32255554 98.30714417]
[62.39137268 66.99917603]
[92.71506500 55.22314072]
[120.50324249 64.84565735]
[133.79968262 87.52742004]
[141.80455017 83.21687317]
[148.82086182 85.43703461]
[163.68890381 83.45172882]
[178.55694580 81.46641541]
[193.42497253 79.48110962]
[208.29301453 77.49580383]
[210.58676147 65.02671814]
[216.27059937 53.71383667]
[224.88128662 44.45685577]
[235.72332764 37.98884583]
[247.92503357 34.81819153]
[260.50866699 35.18864441]
[272.46878052 39.06060791]
[282.85250854 46.11511230]
[290.83557129 55.78006744]
[295.78756714 67.27662659]
[310.71328735 65.78572845]
[325.63900757 64.29483795]
[340.56472778 62.80393600]
[355.49047852 61.31304169]
[370.41619873 59.82214355]
[385.34191895 58.33124542]
[400.26763916 56.84035110]
[415.18487549 55.26692200]
[430.09320068 53.61101151]
[445.16806030 45.85308456]
[456.79592896 58.19118500]
[448.15890503 72.78016663]
[431.74911499 68.51933289]
[416.84078979 70.17523956]
[410.56622314 74.02069092]
[401.75854492 71.76607513]
[386.83282471 73.25697327]
[371.90707397 74.74786377]
[356.98135376 76.23876190]
[342.05563354 77.72966003]
[327.12991333 79.22055817]
[312.20419312 80.71145630]
[297.27847290 82.20235443]
[292.74176025 99.01493073]
[282.05273438 112.80715942]
[266.84219360 121.43023682]
[249.44787598 123.52740479]
[232.55545044 118.74733734]
[218.78363037 107.80265808]
[210.27832031 92.36383820]
[195.41027832 94.34915161]
[180.54225159 96.33445740]
[165.67420959 98.31976318]
[150.80616760 100.30506897]
[135.94934082 102.37258148]
[136.38000488 121.48961639]
[126.14389038 140.82450867]
[105.56711578 154.41963196]
[115.19480133 165.92213440]
[124.82247925 177.42465210]
[134.45016479 188.92715454]
[144.07785034 200.42965698]
[153.70553589 211.93217468]
[163.33322144 223.43467712]
[172.96090698 234.93719482]
[182.58857727 246.43969727]
[196.61511230 240.77297974]
[211.70639038 239.72007751]
[226.38392639 243.38414001]
[239.20974731 251.40618896]
[248.92733765 263.00030518]
[254.58464050 277.03063965]
[255.62744141 292.12261963]
[251.95355225 306.79769897]
[243.92291260 319.61813354]
[232.32226562 329.32794189]
[218.28816223 334.97586060]
[203.19548035 336.00854492]
[188.52288818 332.32482910]
[175.70780945 324.28558350]
[166.00576782 312.67843628]
[160.36726379 298.64056396]
[159.34471130 283.54718018]
[163.03825378 268.87704468]
[171.08607483 256.06738281]
[161.45838928 244.56488037]
[151.83070374 233.06236267]
[142.20301819 221.55986023]
[132.57534790 210.05734253]
[122.94765472 198.55484009]
[113.31997681 187.05232239]
[103.69229126 175.54981995]
[94.06460571 164.04731750]
[86.70469666 165.49014282]
[89.63919067 180.20030212]
[92.57367706 194.91046143]
[95.50817108 209.62062073]
[98.44266510 224.33078003]
[101.37715149 239.04093933]
[104.31164551 253.75109863]
[107.24613190 268.46124268]
[110.18062592 283.17141724]
[117.16917419 296.44393921]
[106.87264252 307.35180664]
[93.21952057 301.13952637]
[94.67923737 286.21029663]
] def
/pairs [
[8 20]
[9 19]
[10 18]
[11 17]
[24 41]
[25 40]
[26 39]
[27 38]
[28 37]
[29 36]
[30 35]
[58 136]
[59 135]
[60 134]
[61 133]
[62 132]
[63 131]
[67 127]
[68 126]
[69 125]
[70 124]
[71 123]
[77 121]
[78 120]
[79 119]
[80 118]
[81 117]
[82 116]
[83 115]
[84 114]
[85 112]
[86 107]
[87 106]
[88 105]
[89 104]
[91 102]
[92 101]
[137 177]
[138 176]
[139 175]
[142 173]
[143 172]
[145 170]
[146 169]
[147 166]
[148 165]
[149 164]
[181 232]
[183 231]
[184 230]
[185 229]
[186 228]
[187 227]
[197 220]
[198 219]
[199 218]
[200 217]
[201 216]
[202 215]
[203 214]
[204 213]
[205 211]
[206 210]
[235 270]
[236 269]
[237 268]
[238 267]
[239 266]
[240 265]
[241 264]
[242 263]
[243 262]
] def

init

% switch off outline pairs or bases by removing these lines
drawoutline
drawpairs
drawbases
% show it
showpage
end
%%EOF
