%!PS-Adobe-3.0 EPSF-3.0
%%Creator: PS_dot.c,v 1.38 2007/02/02 15:18:13 ivo Exp $, ViennaRNA-2.0.7
%%CreationDate: Sun Nov  4 18:30:38 2012
%%Title: RNA Secondary Structure Plot
%%BoundingBox: 66 210 518 662
%%DocumentFonts: Helvetica
%%Pages: 1
%%EndComments

%Options: -d2 
% to switch off outline pairs of sequence comment or
% delete the appropriate line near the end of the file

%%BeginProlog
/RNAplot 100 dict def
RNAplot begin
/fsize  14 def
/outlinecolor {0.2 setgray} bind def
/paircolor    {0.2 setgray} bind def
/seqcolor     {0   setgray} bind def
/cshow  { dup stringwidth pop -2 div fsize -3 div rmoveto show} bind def
/min { 2 copy gt { exch } if pop } bind def
/max { 2 copy lt { exch } if pop } bind def
/arccoords { % i j arccoords
  % puts optimal x1 y1 x2 y2 coordinates used in bezier curves from i to j
  % onto the stack
  dup 3 -1 roll dup 4 -1 roll lt dup dup 5 2 roll {exch} if
  dup 3 -1 roll dup 3 -1 roll exch sub 1 sub dup
  4 -2 roll 5 -1 roll {exch} if 4 2 roll
  sequence length dup 2 div exch 3 1 roll lt 
  {exch 5 -1 roll pop 4 -2 roll exch 4 2 roll}
  { 4 2 roll 5 -1 roll dup 6 1 roll {exch} if
    4 -2 roll exch pop dup 3 -1 roll dup 4 1 roll
    exch add 4 -1 roll dup 5 1 roll sub 1 sub
    5 -1 roll not {4 -2 roll exch 4 2 roll} if
  }ifelse
   % compute the scalingfactor and prepare (1-sf) and sf*r
  2 mul exch cpr 3 1 roll div dup
  3 -1 roll mul exch 1 exch sub exch
   % compute the coordinates
  3 -1 roll 1 sub coor exch get aload pop % get coord for i
  4 -1 roll dup 5 1 roll mul 3 -1 roll dup 4 1 roll add exch % calculate y1
  4 -1 roll dup 5 1 roll mul 3 -1 roll dup 4 1 roll add exch % calculate x1
  5 -1 roll 1 sub coor exch get aload pop % get coord for j
  % duplicate j coord
  dup 3 -1 roll dup 4 1 roll exch 8 2 roll
  6 -1 roll dup 7 1 roll mul 5 -1 roll dup 6 1 roll add exch % calculate y2
  6 -1 roll mul 5 -1 roll add exch % calculate x2
  6 -2 roll % reorder
} bind def
/drawoutline {
  gsave outlinecolor newpath
  coor 0 get aload pop 0.8 0 360 arc % draw 5' circle of 1st sequence
  currentdict /cutpoint known        % check if cutpoint is defined
  {coor 0 cutpoint getinterval
   {aload pop lineto} forall         % draw outline of 1st sequence
   coor cutpoint 1 add get aload pop
   2 copy moveto 0.8 0 360 arc       % draw 5' circle of 2nd sequence
   coor cutpoint 1 add coor length cutpoint 1 add sub getinterval
   {aload pop lineto} forall}        % draw outline of 2nd sequence
  {coor {aload pop lineto} forall}   % draw outline as a whole
  ifelse
  stroke grestore
} bind def
/drawpairs {
  paircolor
  0.7 setlinewidth
  [9 3.01] 9 setdash
  newpath
  pairs {aload pop
      currentdict (cpr) known
      { exch dup
        coor  exch 1 sub get aload pop moveto
        exch arccoords curveto
      }
      { coor exch 1 sub get aload pop moveto
        coor exch 1 sub get aload pop lineto
      }ifelse
  } forall
  stroke
} bind def
% draw bases
/drawbases {
  [] 0 setdash
  seqcolor
  0
  coor {
    aload pop moveto
    dup sequence exch 1 getinterval cshow
    1 add
  } forall
  pop
} bind def

/init {
  /Helvetica findfont fsize scalefont setfont
  1 setlinejoin
  1 setlinecap
  0.8 setlinewidth
  72 216 translate
  % find the coordinate range
  /xmax -1000 def /xmin 10000 def
  /ymax -1000 def /ymin 10000 def
  coor {
      aload pop
      dup ymin lt {dup /ymin exch def} if
      dup ymax gt {/ymax exch def} {pop} ifelse
      dup xmin lt {dup /xmin exch def} if
      dup xmax gt {/xmax exch def} {pop} ifelse
  } forall
  /size {xmax xmin sub ymax ymin sub max} bind def
  72 6 mul size div dup scale
  size xmin sub xmax sub 2 div size ymin sub ymax sub 2 div
  translate
} bind def
end
%%EndProlog
RNAplot begin
% data start here
/sequence (\
nnnn1111111nnnnn1111111nnnnnnn333333nnnn444444nnnn444nnnnn44444444444nnnnn444nnnn4n4444444nnn444nnn4444445555n555nn55nnn5nnn5n555nnnnn555555nnn6n66666nnn33333377777777nnnn77777777nnnnnn66666688888888nnnnnnn888888nnnnnnnnn88nnnnnnnnnnn\
) def
/coor [
[81.95436859 191.26693726]
[80.07408905 176.38523865]
[78.19380951 161.50355530]
[76.31352997 146.62187195]
[68.93534088 147.96809387]
[63.45078278 161.92945862]
[57.96622467 175.89082336]
[52.48166656 189.85218811]
[46.99710464 203.81353760]
[41.51254654 217.77490234]
[36.02798462 231.73626709]
[41.09491348 246.95814514]
[32.23267746 260.33126831]
[16.23962402 261.59689331]
[5.38425827 249.78417969]
[7.99388647 233.95478821]
[22.06662560 226.25170898]
[27.55118561 212.29034424]
[33.03574371 198.32897949]
[38.52030563 184.36761475]
[44.00486374 170.40626526]
[49.48942184 156.44490051]
[54.97398376 142.48353577]
[42.11281586 134.76405334]
[34.13062286 122.06427002]
[32.75184250 107.12777710]
[38.27433395 93.18137360]
[49.50505066 83.23798370]
[64.01776123 79.44572449]
[78.67721558 82.62385559]
[90.31632996 92.08564758]
[81.82712555 79.71901703]
[73.33791351 67.35239410]
[64.84870911 54.98577499]
[56.35950470 42.61915207]
[47.87029648 30.25252724]
[41.85206223 31.10013390]
[35.80176163 30.29937363]
[30.16444588 27.89539146]
[25.35847282 24.05176926]
[21.74445724 19.03944397]
[7.82006788 13.46168709]
[-6.10432148 7.88393021]
[-20.02871132 2.30617261]
[-33.95310211 -3.27158475]
[-47.87749100 -8.84934235]
[-58.95803833 -0.66685361]
[-72.52657318 0.96342087]
[-85.03047180 -4.27776718]
[-93.24888611 -14.92451286]
[-95.12226105 -28.13388252]
[-108.97084045 -33.89728165]
[-122.81941986 -39.66068649]
[-132.52111816 -31.80762291]
[-144.56951904 -28.83532906]
[-156.66900635 -31.24704933]
[-166.54089355 -38.52614594]
[-172.35263062 -49.24526215]
[-173.05778503 -61.34588623]
[-186.74734497 -67.47744751]
[-200.43688965 -73.60901642]
[-214.12644958 -79.74058533]
[-227.81599426 -85.87214661]
[-241.50555420 -92.00371552]
[-255.19511414 -98.13528442]
[-268.92535400 -104.17520905]
[-282.84973145 -109.75296783]
[-296.91827393 -114.95647430]
[-310.98678589 -120.15998840]
[-326.10400391 -114.78886414]
[-339.65213013 -123.38116455]
[-341.23822021 -139.34562683]
[-329.64550781 -150.43566895]
[-313.76699829 -148.14396667]
[-305.78326416 -134.22851562]
[-291.71475220 -129.02500916]
[-277.64620972 -123.82149506]
[-275.05725098 -124.85466003]
[-271.90628052 -124.93319702]
[-268.55178833 -123.83919525]
[-265.42401123 -121.48726654]
[-262.97732544 -117.94550323]
[-255.60284424 -118.17819214]
[-249.06353760 -111.82483673]
[-235.37399292 -105.69326782]
[-221.68443298 -99.56170654]
[-207.99487305 -93.43013763]
[-194.30532837 -87.29856873]
[-180.61576843 -81.16700745]
[-166.92622375 -75.03543854]
[-152.02284241 -84.53391266]
[-134.24545288 -83.15998077]
[-120.74205780 -71.27629089]
[-117.05602264 -53.50926590]
[-103.20744324 -47.74586487]
[-89.35885620 -41.98246384]
[-75.62065887 -50.98182678]
[-59.05986786 -50.00336838]
[-46.22208405 -39.23516846]
[-42.29973221 -22.77373123]
[-28.37534332 -17.19597435]
[-14.45095348 -11.61821651]
[-0.52656406 -6.04045916]
[13.39782524 -0.46270201]
[27.32221413 5.11505556]
[40.32927322 -2.35598254]
[42.52713394 -17.19408989]
[44.72499084 -32.03219604]
[46.92284775 -46.87030411]
[45.08634186 -55.80086136]
[49.25054550 -61.89154816]
[51.64656067 -76.69895172]
[53.54645538 -91.57814026]
[51.15166473 -97.71191406]
[52.06498718 -103.29994965]
[55.19042206 -106.89118958]
[56.99081802 -121.78275299]
[49.80753326 -129.92242432]
[48.31124496 -140.45333862]
[52.75604630 -149.87483215]
[61.46071243 -155.18778992]
[57.80044174 -171.74191284]
[72.69435120 -179.84176636]
[84.60071564 -167.77218628]
[76.29882050 -152.98992920]
[84.69336700 -135.56042480]
[71.88237762 -119.98236084]
[70.08198547 -105.09079742]
[68.48081970 -90.17649841]
[81.47341919 -97.67266083]
[95.48456573 -92.31656647]
[100.16358948 -78.06501007]
[92.05387115 -65.44627380]
[77.14643860 -63.78239822]
[66.45396423 -74.30293274]
[64.05794525 -59.49552917]
[61.76095581 -44.67244720]
[59.56309509 -29.83433914]
[57.36523819 -14.99623203]
[55.16738129 -0.15812470]
[59.33729553 -14.56686497]
[68.84735107 -26.16681862]
[82.15875244 -33.08104706]
[97.11764526 -34.19078064]
[111.30358887 -29.31646538]
[122.42121887 -19.24679184]
[128.67163086 -5.61109018]
[129.04347229 9.38430023]
[123.47658539 23.31303787]
[112.87171173 33.92137146]
[98.94479370 39.49280548]
[83.94928741 39.12585831]
[70.31154633 32.87989426]
[60.23691940 21.76332092]
[68.72612762 34.12994385]
[77.21533203 46.49656677]
[85.70453644 58.86318970]
[94.19374847 71.22981262]
[102.68295288 83.59643555]
[116.53153229 89.35984039]
[131.28791809 86.66739655]
[146.04429626 83.97494507]
[160.80067444 81.28250122]
[175.55705261 78.59005737]
[190.31343079 75.89761353]
[205.06980896 73.20516968]
[219.82618713 70.51271820]
[231.96875000 59.49045563]
[247.50088501 64.75208282]
[250.44447327 80.88488007]
[237.77140808 91.29282379]
[222.51863098 85.26910400]
[207.76225281 87.96154785]
[193.00587463 90.65399170]
[178.24949646 93.34643555]
[163.49311829 96.03887939]
[148.73674011 98.73133087]
[133.98036194 101.42377472]
[119.22397614 104.11621857]
[116.81120300 111.21752167]
[131.05197144 115.92926788]
[145.29273987 120.64100647]
[159.53350830 125.35275269]
[174.29748535 122.70226288]
[184.07998657 134.07339478]
[179.25411987 148.27589417]
[164.56900024 151.33319092]
[154.47627258 140.23725891]
[140.31272888 135.29821777]
[126.14920044 130.35917664]
[111.98565674 125.42012787]
[109.57288361 132.52143860]
[119.63465881 143.64620972]
[130.34706116 154.14593506]
[141.67137146 163.98262024]
[152.99566650 173.81930542]
[164.31996155 183.65599060]
[175.64425659 193.49266052]
[186.96855164 203.32934570]
[202.38330078 200.69882202]
[215.85638428 208.63671875]
[221.02621460 223.39500427]
[215.45176697 238.00524902]
[201.76512146 245.56896973]
[186.42869568 242.51478577]
[176.68388367 230.28480530]
[177.13186646 214.65364075]
[165.80757141 204.81695557]
[154.48327637 194.98028564]
[143.15898132 185.14360046]
[131.83468628 175.30691528]
[120.51038361 165.47024536]
[123.42459106 180.18443298]
[118.01013947 194.17312622]
[105.94895935 203.09097290]
[90.98765564 204.16775513]
[77.77373505 197.06898499]
[70.41190338 183.99981689]
[71.18899536 169.01995850]
[79.86361694 156.78268433]
[93.74113464 151.08930969]
[108.50987244 153.70799255]
[98.44810486 142.58320618]
[91.06991577 143.92942810]
[94.56644440 158.51622009]
[98.06297302 173.10299683]
[101.55950165 187.68978882]
[105.05603790 202.27656555]
[108.55256653 216.86335754]
[115.72106171 230.03956604]
[109.24992371 243.57191467]
[94.49340820 246.26362610]
[83.66116333 235.88757324]
[85.71492767 221.03030396]
] def
/pairs [
[5 23]
[6 22]
[7 21]
[8 20]
[9 19]
[10 18]
[11 17]
[31 159]
[32 158]
[33 157]
[34 156]
[35 155]
[36 154]
[41 105]
[42 104]
[43 103]
[44 102]
[45 101]
[46 100]
[51 96]
[52 95]
[53 94]
[59 90]
[60 89]
[61 88]
[62 87]
[63 86]
[64 85]
[65 84]
[66 82]
[67 77]
[68 76]
[69 75]
[106 140]
[107 139]
[108 138]
[109 137]
[111 136]
[112 135]
[113 129]
[116 128]
[117 127]
[121 125]
[160 179]
[161 178]
[162 177]
[163 176]
[164 175]
[165 174]
[166 173]
[167 172]
[192 223]
[193 222]
[194 212]
[195 211]
[196 210]
[197 209]
[198 208]
[199 207]
] def

init

% switch off outline pairs or bases by removing these lines
drawoutline
drawpairs
drawbases
% show it
showpage
end
%%EOF
