%!PS-Adobe-3.0 EPSF-3.0
%%Creator: PS_dot.c,v 1.38 2007/02/02 15:18:13 ivo Exp $, ViennaRNA-2.0.7
%%CreationDate: Sun Nov  4 18:30:38 2012
%%Title: RNA Secondary Structure Plot
%%BoundingBox: 66 210 518 662
%%DocumentFonts: Helvetica
%%Pages: 1
%%EndComments

%Options: -d2 
% to switch off outline pairs of sequence comment or
% delete the appropriate line near the end of the file

%%BeginProlog
/RNAplot 100 dict def
RNAplot begin
/fsize  14 def
/outlinecolor {0.2 setgray} bind def
/paircolor    {0.2 setgray} bind def
/seqcolor     {0   setgray} bind def
/cshow  { dup stringwidth pop -2 div fsize -3 div rmoveto show} bind def
/min { 2 copy gt { exch } if pop } bind def
/max { 2 copy lt { exch } if pop } bind def
/arccoords { % i j arccoords
  % puts optimal x1 y1 x2 y2 coordinates used in bezier curves from i to j
  % onto the stack
  dup 3 -1 roll dup 4 -1 roll lt dup dup 5 2 roll {exch} if
  dup 3 -1 roll dup 3 -1 roll exch sub 1 sub dup
  4 -2 roll 5 -1 roll {exch} if 4 2 roll
  sequence length dup 2 div exch 3 1 roll lt 
  {exch 5 -1 roll pop 4 -2 roll exch 4 2 roll}
  { 4 2 roll 5 -1 roll dup 6 1 roll {exch} if
    4 -2 roll exch pop dup 3 -1 roll dup 4 1 roll
    exch add 4 -1 roll dup 5 1 roll sub 1 sub
    5 -1 roll not {4 -2 roll exch 4 2 roll} if
  }ifelse
   % compute the scalingfactor and prepare (1-sf) and sf*r
  2 mul exch cpr 3 1 roll div dup
  3 -1 roll mul exch 1 exch sub exch
   % compute the coordinates
  3 -1 roll 1 sub coor exch get aload pop % get coord for i
  4 -1 roll dup 5 1 roll mul 3 -1 roll dup 4 1 roll add exch % calculate y1
  4 -1 roll dup 5 1 roll mul 3 -1 roll dup 4 1 roll add exch % calculate x1
  5 -1 roll 1 sub coor exch get aload pop % get coord for j
  % duplicate j coord
  dup 3 -1 roll dup 4 1 roll exch 8 2 roll
  6 -1 roll dup 7 1 roll mul 5 -1 roll dup 6 1 roll add exch % calculate y2
  6 -1 roll mul 5 -1 roll add exch % calculate x2
  6 -2 roll % reorder
} bind def
/drawoutline {
  gsave outlinecolor newpath
  coor 0 get aload pop 0.8 0 360 arc % draw 5' circle of 1st sequence
  currentdict /cutpoint known        % check if cutpoint is defined
  {coor 0 cutpoint getinterval
   {aload pop lineto} forall         % draw outline of 1st sequence
   coor cutpoint 1 add get aload pop
   2 copy moveto 0.8 0 360 arc       % draw 5' circle of 2nd sequence
   coor cutpoint 1 add coor length cutpoint 1 add sub getinterval
   {aload pop lineto} forall}        % draw outline of 2nd sequence
  {coor {aload pop lineto} forall}   % draw outline as a whole
  ifelse
  stroke grestore
} bind def
/drawpairs {
  paircolor
  0.7 setlinewidth
  [9 3.01] 9 setdash
  newpath
  pairs {aload pop
      currentdict (cpr) known
      { exch dup
        coor  exch 1 sub get aload pop moveto
        exch arccoords curveto
      }
      { coor exch 1 sub get aload pop moveto
        coor exch 1 sub get aload pop lineto
      }ifelse
  } forall
  stroke
} bind def
% draw bases
/drawbases {
  [] 0 setdash
  seqcolor
  0
  coor {
    aload pop moveto
    dup sequence exch 1 getinterval cshow
    1 add
  } forall
  pop
} bind def

/init {
  /Helvetica findfont fsize scalefont setfont
  1 setlinejoin
  1 setlinecap
  0.8 setlinewidth
  72 216 translate
  % find the coordinate range
  /xmax -1000 def /xmin 10000 def
  /ymax -1000 def /ymin 10000 def
  coor {
      aload pop
      dup ymin lt {dup /ymin exch def} if
      dup ymax gt {/ymax exch def} {pop} ifelse
      dup xmin lt {dup /xmin exch def} if
      dup xmax gt {/xmax exch def} {pop} ifelse
  } forall
  /size {xmax xmin sub ymax ymin sub max} bind def
  72 6 mul size div dup scale
  size xmin sub xmax sub 2 div size ymin sub ymax sub 2 div
  translate
} bind def
end
%%EndProlog
RNAplot begin
% data start here
/sequence (\
nnnn1111111nnnnn1111111nnnnnnn333333nnnn444444nnnn444nnnnn44444444444nnnnn444nnnn4n4444444nnn444nnn4444445555n555nn55nnn5nnn5n555nnnnn555555nnn6n66666nnn33333377777777nnnn77777777nnnnnn66666688888888nnnnnnn888888nnnnnnnnn88nnnnnnnnnnn\
) def
/coor [
[109.91511536 171.71220398]
[108.03483582 156.83052063]
[106.15455627 141.94883728]
[104.27427673 127.06715393]
[96.89608765 128.41337585]
[91.41152954 142.37474060]
[85.92696381 156.33610535]
[80.44240570 170.29747009]
[74.95784760 184.25881958]
[69.47328949 198.22018433]
[63.98872757 212.18154907]
[69.05565643 227.40342712]
[60.19341660 240.77655029]
[44.20036697 242.04219055]
[33.34500122 230.22946167]
[35.95462799 214.40007019]
[50.02736664 206.69699097]
[55.51192856 192.73562622]
[60.99648666 178.77426147]
[66.48104858 164.81289673]
[71.96560669 150.85154724]
[77.45016479 136.89018250]
[82.93472290 122.92881775]
[71.42813873 132.55163574]
[59.92155075 142.17443848]
[48.41496277 151.79724121]
[41.23152161 164.96531677]
[29.42900467 174.22277832]
[14.92879486 178.06256104]
[0.09144982 175.85957336]
[-12.66759205 167.97244263]
[-21.27122688 155.68515015]
[-24.31883049 140.99800110]
[-21.31426811 126.30200195]
[-12.74666595 113.98955536]
[-0.01078557 106.06507874]
[14.82004261 103.81862640]
[29.33094025 107.61566925]
[44.22486115 105.83489990]
[59.11878204 104.05413818]
[74.01270294 102.27336884]
[60.08831406 96.69561768]
[46.16392136 91.11785889]
[32.23953247 85.54010010]
[18.31514359 79.96234131]
[4.39075422 74.38458252]
[-6.68979454 82.56707001]
[-20.25832748 84.19734955]
[-32.76222610 78.95616150]
[-40.98063660 68.30941010]
[-42.85401535 55.10004425]
[-56.70259857 49.33664322]
[-70.55117798 43.57324219]
[-80.25287628 51.42630386]
[-92.30127716 54.39859772]
[-104.40075684 51.98687744]
[-114.27265167 44.70778275]
[-120.08438873 33.98866653]
[-120.78954315 21.88804245]
[-134.47909546 15.75647640]
[-148.16865540 9.62491035]
[-161.85820007 3.49334383]
[-175.54776001 -2.63822246]
[-189.23730469 -8.76978874]
[-202.92686462 -14.90135479]
[-216.65710449 -20.94128036]
[-230.58148193 -26.51903725]
[-244.65000916 -31.72254944]
[-258.71853638 -36.92606354]
[-273.83575439 -31.55493546]
[-287.38391113 -40.14723969]
[-288.96997070 -56.11169815]
[-277.37728882 -67.20174408]
[-261.49874878 -64.91004181]
[-253.51502991 -50.99459076]
[-239.44650269 -45.79107666]
[-225.37797546 -40.58756638]
[-222.78900146 -41.62073135]
[-219.63804626 -41.69927216]
[-216.28355408 -40.60527039]
[-213.15576172 -38.25333786]
[-210.70907593 -34.71157837]
[-203.33460999 -34.94426346]
[-196.79530334 -28.59090996]
[-183.10574341 -22.45934296]
[-169.41618347 -16.32777596]
[-155.72663879 -10.19620991]
[-142.03707886 -4.06464386]
[-128.34753418 2.06692219]
[-114.65797424 8.19848824]
[-99.75459290 -1.29998505]
[-81.97721100 0.07394821]
[-68.47380829 11.95763302]
[-64.78778076 29.72466087]
[-50.93919754 35.48806381]
[-37.09061432 41.25146484]
[-23.35241127 32.25210190]
[-6.79162216 33.23055649]
[6.04615879 43.99875641]
[9.96851158 60.46019745]
[23.89290047 66.03795624]
[37.81729126 71.61570740]
[51.74168015 77.19346619]
[65.66606903 82.77122498]
[79.59046173 88.34898376]
[92.59751892 80.87794495]
[94.79537964 66.03984070]
[96.99323273 51.20172882]
[99.19109344 36.36362457]
[97.35458374 27.43306541]
[101.51879120 21.34237862]
[103.91481018 6.53497791]
[105.81469727 -8.34421539]
[103.41990662 -14.47798824]
[104.33322906 -20.06602669]
[107.45867157 -23.65726471]
[109.25906372 -38.54882431]
[102.07577515 -46.68849945]
[100.57949066 -57.21941757]
[105.02429199 -66.64090729]
[113.72895813 -71.95386505]
[110.06868744 -88.50798035]
[124.96259308 -96.60784149]
[136.86895752 -84.53825378]
[128.56706238 -69.75600433]
[136.96160889 -52.32649994]
[124.15061951 -36.74843216]
[122.35022736 -21.85687065]
[120.74906921 -6.94257307]
[133.74166870 -14.43873119]
[147.75280762 -9.08263588]
[152.43182373 5.16891861]
[144.32211304 17.78765297]
[129.41468811 19.45153046]
[118.72220612 8.93099689]
[116.32618713 23.73839569]
[114.02919769 38.56148148]
[111.83134460 53.39958954]
[109.63348389 68.23769379]
[107.43562317 83.07580566]
[113.81056213 80.02706909]
[121.49366760 78.95677185]
[129.93486023 80.22480774]
[138.50045776 84.04879761]
[146.10772705 79.02315521]
[153.31011963 80.62392426]
[167.94668579 77.34199524]
[182.58325195 74.06005859]
[197.21980286 70.77812958]
[211.85636902 67.49619293]
[213.05407715 54.83416748]
[217.74951172 43.03332138]
[225.55619812 33.03786850]
[235.83912659 25.64453125]
[247.76647949 21.43904686]
[260.37683105 20.74976730]
[272.65667725 23.62204361]
[283.62194824 29.81539154]
[292.39672852 38.82358932]
[298.28335571 49.91604233]
[313.03976440 47.22359467]
[327.79614258 44.53115082]
[342.55252075 41.83870697]
[357.30889893 39.14625931]
[372.06527710 36.45381546]
[386.82165527 33.76136780]
[401.57803345 31.06892395]
[413.72058105 20.04665947]
[429.25271606 25.30828094]
[432.19631958 41.44108582]
[419.52322388 51.84902191]
[404.27047729 45.82530212]
[389.51409912 48.51774979]
[374.75772095 51.21019363]
[360.00134277 53.90263748]
[345.24496460 56.59508514]
[330.48858643 59.28752899]
[315.73220825 61.97997665]
[300.97583008 64.67242432]
[297.82855225 81.76949310]
[288.32827759 96.37051392]
[273.91381836 106.21433258]
[256.78744507 109.76403809]
[239.57853699 106.44690704]
[224.93977356 96.74657440]
[215.13830566 82.13275909]
[200.50173950 85.41468811]
[185.86517334 88.69662476]
[171.22862244 91.97855377]
[156.59205627 95.26049042]
[141.97775269 98.64018250]
[137.53363037 112.96672058]
[147.59539795 124.09149933]
[158.30781555 134.59121704]
[169.63211060 144.42790222]
[180.95640564 154.26458740]
[192.28070068 164.10127258]
[203.60499573 173.93794250]
[214.92929077 183.77462769]
[230.34403992 181.14410400]
[243.81712341 189.08200073]
[248.98695374 203.84028625]
[243.41250610 218.45053101]
[229.72586060 226.01425171]
[214.38943481 222.96006775]
[204.64462280 210.73008728]
[205.09262085 195.09892273]
[193.76832581 185.26223755]
[182.44401550 175.42556763]
[171.11972046 165.58888245]
[159.79542542 155.75219727]
[148.47113037 145.91552734]
[151.38533020 160.62971497]
[145.97088623 174.61840820]
[133.90969849 183.53625488]
[118.94839478 184.61303711]
[105.73448181 177.51426697]
[98.37264252 164.44509888]
[99.14973450 149.46524048]
[107.82435608 137.22796631]
[121.70188141 131.53459167]
[136.47061157 134.15327454]
[126.40884399 123.02848816]
[119.03065491 124.37471008]
[122.52718353 138.96150208]
[126.02371216 153.54827881]
[129.52024841 168.13507080]
[133.01676941 182.72184753]
[136.51330566 197.30863953]
[143.68180847 210.48484802]
[137.21066284 224.01719666]
[122.45414734 226.70890808]
[111.62190247 216.33285522]
[113.67567444 201.47558594]
] def
/pairs [
[5 23]
[6 22]
[7 21]
[8 20]
[9 19]
[10 18]
[11 17]
[41 105]
[42 104]
[43 103]
[44 102]
[45 101]
[46 100]
[51 96]
[52 95]
[53 94]
[59 90]
[60 89]
[61 88]
[62 87]
[63 86]
[64 85]
[65 84]
[66 82]
[67 77]
[68 76]
[69 75]
[106 140]
[107 139]
[108 138]
[109 137]
[111 136]
[112 135]
[113 129]
[116 128]
[117 127]
[121 125]
[144 191]
[146 190]
[147 189]
[148 188]
[149 187]
[150 186]
[160 179]
[161 178]
[162 177]
[163 176]
[164 175]
[165 174]
[166 173]
[167 172]
[192 223]
[193 222]
[194 212]
[195 211]
[196 210]
[197 209]
[198 208]
[199 207]
] def

init

% switch off outline pairs or bases by removing these lines
drawoutline
drawpairs
drawbases
% show it
showpage
end
%%EOF
