%!PS-Adobe-3.0 EPSF-3.0
%%Creator: PS_dot.c,v 1.38 2007/02/02 15:18:13 ivo Exp $, ViennaRNA-2.0.7
%%CreationDate: Sun Nov  4 18:30:38 2012
%%Title: RNA Secondary Structure Plot
%%BoundingBox: 66 210 518 662
%%DocumentFonts: Helvetica
%%Pages: 1
%%EndComments

%Options: -d2 
% to switch off outline pairs of sequence comment or
% delete the appropriate line near the end of the file

%%BeginProlog
/RNAplot 100 dict def
RNAplot begin
/fsize  14 def
/outlinecolor {0.2 setgray} bind def
/paircolor    {0.2 setgray} bind def
/seqcolor     {0   setgray} bind def
/cshow  { dup stringwidth pop -2 div fsize -3 div rmoveto show} bind def
/min { 2 copy gt { exch } if pop } bind def
/max { 2 copy lt { exch } if pop } bind def
/arccoords { % i j arccoords
  % puts optimal x1 y1 x2 y2 coordinates used in bezier curves from i to j
  % onto the stack
  dup 3 -1 roll dup 4 -1 roll lt dup dup 5 2 roll {exch} if
  dup 3 -1 roll dup 3 -1 roll exch sub 1 sub dup
  4 -2 roll 5 -1 roll {exch} if 4 2 roll
  sequence length dup 2 div exch 3 1 roll lt 
  {exch 5 -1 roll pop 4 -2 roll exch 4 2 roll}
  { 4 2 roll 5 -1 roll dup 6 1 roll {exch} if
    4 -2 roll exch pop dup 3 -1 roll dup 4 1 roll
    exch add 4 -1 roll dup 5 1 roll sub 1 sub
    5 -1 roll not {4 -2 roll exch 4 2 roll} if
  }ifelse
   % compute the scalingfactor and prepare (1-sf) and sf*r
  2 mul exch cpr 3 1 roll div dup
  3 -1 roll mul exch 1 exch sub exch
   % compute the coordinates
  3 -1 roll 1 sub coor exch get aload pop % get coord for i
  4 -1 roll dup 5 1 roll mul 3 -1 roll dup 4 1 roll add exch % calculate y1
  4 -1 roll dup 5 1 roll mul 3 -1 roll dup 4 1 roll add exch % calculate x1
  5 -1 roll 1 sub coor exch get aload pop % get coord for j
  % duplicate j coord
  dup 3 -1 roll dup 4 1 roll exch 8 2 roll
  6 -1 roll dup 7 1 roll mul 5 -1 roll dup 6 1 roll add exch % calculate y2
  6 -1 roll mul 5 -1 roll add exch % calculate x2
  6 -2 roll % reorder
} bind def
/drawoutline {
  gsave outlinecolor newpath
  coor 0 get aload pop 0.8 0 360 arc % draw 5' circle of 1st sequence
  currentdict /cutpoint known        % check if cutpoint is defined
  {coor 0 cutpoint getinterval
   {aload pop lineto} forall         % draw outline of 1st sequence
   coor cutpoint 1 add get aload pop
   2 copy moveto 0.8 0 360 arc       % draw 5' circle of 2nd sequence
   coor cutpoint 1 add coor length cutpoint 1 add sub getinterval
   {aload pop lineto} forall}        % draw outline of 2nd sequence
  {coor {aload pop lineto} forall}   % draw outline as a whole
  ifelse
  stroke grestore
} bind def
/drawpairs {
  paircolor
  0.7 setlinewidth
  [9 3.01] 9 setdash
  newpath
  pairs {aload pop
      currentdict (cpr) known
      { exch dup
        coor  exch 1 sub get aload pop moveto
        exch arccoords curveto
      }
      { coor exch 1 sub get aload pop moveto
        coor exch 1 sub get aload pop lineto
      }ifelse
  } forall
  stroke
} bind def
% draw bases
/drawbases {
  [] 0 setdash
  seqcolor
  0
  coor {
    aload pop moveto
    dup sequence exch 1 getinterval cshow
    1 add
  } forall
  pop
} bind def

/init {
  /Helvetica findfont fsize scalefont setfont
  1 setlinejoin
  1 setlinecap
  0.8 setlinewidth
  72 216 translate
  % find the coordinate range
  /xmax -1000 def /xmin 10000 def
  /ymax -1000 def /ymin 10000 def
  coor {
      aload pop
      dup ymin lt {dup /ymin exch def} if
      dup ymax gt {/ymax exch def} {pop} ifelse
      dup xmin lt {dup /xmin exch def} if
      dup xmax gt {/xmax exch def} {pop} ifelse
  } forall
  /size {xmax xmin sub ymax ymin sub max} bind def
  72 6 mul size div dup scale
  size xmin sub xmax sub 2 div size ymin sub ymax sub 2 div
  translate
} bind def
end
%%EndProlog
RNAplot begin
% data start here
/sequence (\
nnnn11111111nnnnn11111111nnnnnn333333nnnn444444nnn4444444n444444nnnnnnnnnnnnnnnnnnnnnnnnnnnnnnnnnnnnnn4444444444444nnn444444555nn555n55555555nnnnnn55555555555n555nnn6n66666nnn333333777777777777777777777777nnnnnn666666n8nn888888nnnn888888nnnnnnnnnnnnnnnnnn\
nnnnnnnnnnnnnnnnnnnnnnn8nnnnnnnnnnn\
) def
/coor [
[73.47484589 203.55059814]
[70.84661102 188.78265381]
[68.21838379 174.01469421]
[65.59015656 159.24674988]
[58.40652466 161.40208435]
[53.63288116 175.62222290]
[48.85923386 189.84234619]
[44.08559036 204.06248474]
[39.31194687 218.28262329]
[34.53829956 232.50276184]
[29.76465607 246.72290039]
[24.99101067 260.94305420]
[30.81898880 275.89007568]
[22.64230347 289.69302368]
[6.73340702 291.76345825]
[-4.70375538 280.51306152]
[-2.89557171 264.57223511]
[10.77087402 256.16940308]
[15.54451847 241.94926453]
[20.31816292 227.72912598]
[25.09180832 213.50898743]
[29.86545181 199.28884888]
[34.63909912 185.06871033]
[39.41274261 170.84857178]
[44.18638611 156.62843323]
[40.50672531 150.09313965]
[29.49995995 160.28387451]
[18.49319649 170.47460938]
[7.48643160 180.66534424]
[0.88563526 194.13493347]
[-11.72784233 202.25282288]
[-26.72171974 202.68133545]
[-39.77823639 195.29707336]
[-47.13753510 182.22647095]
[-46.68036270 167.23342896]
[-38.53837585 154.63549805]
[-25.05620956 148.06045532]
[-10.11640835 149.40167236]
[4.30486155 145.27529907]
[18.72613144 141.14892578]
[33.14739990 137.02255249]
[29.46773911 130.48724365]
[14.83359528 127.19455719]
[0.19945054 123.90187073]
[-14.43469429 120.60917664]
[-29.06883812 117.31649017]
[-43.70298386 114.02379608]
[-55.35891724 124.09580994]
[-70.53321075 125.35840607]
[-83.38925171 117.53624725]
[-89.10569763 103.80816650]
[-103.73984528 100.51547241]
[-118.37398529 97.22278595]
[-133.00813293 93.93009186]
[-147.64227295 90.63740540]
[-162.27642822 87.34471130]
[-176.91056824 84.05202484]
[-185.92388916 85.22011566]
[-191.68452454 80.64398956]
[-206.28225708 77.19350433]
[-220.88000488 73.74301910]
[-235.47775269 70.29253387]
[-250.07550049 66.84205627]
[-264.67324829 63.39157104]
[-270.37460327 77.29987335]
[-278.18164062 90.14498138]
[-287.90203857 101.61058807]
[-299.29647827 111.41432190]
[-312.08435059 119.31477356]
[-325.95071411 125.11737823]
[-340.55413818 128.67924500]
[-355.53497314 129.91265869]
[-370.52429199 128.78724670]
[-385.15298462 125.33071136]
[-399.06082153 119.62819672]
[-411.90530396 111.82011414]
[-423.37008667 102.09874725]
[-433.17288208 90.70350647]
[-441.07226562 77.91499329]
[-446.87374878 64.04814148]
[-450.43438721 49.44443512]
[-451.66656494 34.46350479]
[-450.53991699 19.47427177]
[-447.08218384 4.84585524]
[-441.37854004 -9.06150532]
[-433.56939697 -21.90532875]
[-423.84707642 -33.36932373]
[-412.45101929 -43.17118073]
[-399.66186523 -51.06951904]
[-385.79452515 -56.86983490]
[-371.19052124 -60.42929077]
[-356.20950317 -61.66023254]
[-341.22036743 -60.53234482]
[-326.59222412 -57.07340622]
[-312.68533325 -51.36859131]
[-299.84216309 -43.55839157]
[-288.37896729 -33.83513641]
[-278.57803345 -22.43827248]
[-270.68075562 -9.64845467]
[-264.88159180 4.21935272]
[-261.32333374 18.82364464]
[-260.09362793 33.80477524]
[-261.22274780 48.79382324]
[-246.62501526 52.24430847]
[-232.02726746 55.69479370]
[-217.42951965 59.14527512]
[-202.83177185 62.59576035]
[-188.23403931 66.04624176]
[-173.61787415 69.41787720]
[-158.98373413 72.71057129]
[-144.34959412 76.00325775]
[-129.71543884 79.29595184]
[-115.08129883 82.58863831]
[-100.44715118 85.88133240]
[-85.81301117 89.17401886]
[-74.76748657 79.21738434]
[-59.80003738 77.65552521]
[-46.62890625 85.29586029]
[-40.41029358 99.38965607]
[-25.77614784 102.68234253]
[-11.14200401 105.97503662]
[3.49214077 109.26772308]
[18.12628555 112.56041718]
[32.76042938 115.85310364]
[44.26842499 106.23197937]
[43.62087631 91.24596405]
[42.97332764 76.25994873]
[34.02867508 67.00781250]
[33.77400970 54.54171753]
[41.80173492 45.53036880]
[41.31600571 30.53823471]
[40.83028030 15.54610062]
[37.43732452 7.11446953]
[40.42111206 0.38968575]
[40.09726334 -14.60681820]
[39.77341461 -29.60332108]
[39.44956207 -44.59982681]
[39.12571335 -59.59632874]
[38.80186081 -74.59283447]
[38.47801208 -89.58933258]
[38.15415955 -104.58583832]
[26.56824875 -115.33489227]
[26.05999947 -131.13101196]
[36.93094635 -142.60263062]
[52.73155212 -142.94384766]
[64.08759308 -131.95222473]
[64.26174164 -116.14888763]
[53.15066528 -104.90969086]
[53.47451401 -89.91318512]
[53.79836655 -74.91667938]
[54.12221527 -59.92017746]
[54.44606781 -44.92367554]
[54.76991653 -29.92717171]
[55.09376526 -14.93066788]
[55.41761780 0.06583539]
[55.82241440 15.06037235]
[56.30813980 30.05250549]
[56.79386902 45.04463959]
[66.83918762 59.45726776]
[57.95934296 75.61240387]
[58.60689163 90.59841919]
[59.25444412 105.58443451]
[65.51094055 82.04512024]
[83.25617218 67.41056061]
[104.85363007 65.94867706]
[122.09832764 76.64609528]
[127.54808807 69.37254333]
[134.84530640 68.43641663]
[147.49980164 60.38261795]
[160.15429688 52.32881546]
[172.80879211 44.27501297]
[185.46328735 36.22121048]
[182.30146790 23.94829750]
[182.69923401 11.29873466]
[186.61485291 -0.71735406]
[193.72605896 -11.14322376]
[203.45654297 -19.15168762]
[215.02272034 -24.11074257]
[227.49674988 -25.63343430]
[239.88099670 -23.60803986]
[251.18785095 -18.20620155]
[260.51840210 -9.86841679]
[273.42706299 -17.50821877]
[286.33569336 -25.14802170]
[299.24435425 -32.78782272]
[312.15301514 -40.42762756]
[325.06167603 -48.06742859]
[337.97033691 -55.70723343]
[350.87899780 -63.34703445]
[363.78765869 -70.98683929]
[376.69631958 -78.62664032]
[389.60494995 -86.26644135]
[402.51361084 -93.90624237]
[410.15341187 -80.99758911]
[397.24475098 -73.35778809]
[384.33612061 -65.71797943]
[371.42745972 -58.07817841]
[358.51879883 -50.43837738]
[345.61013794 -42.79857635]
[332.70147705 -35.15877151]
[319.79281616 -27.51897049]
[306.88415527 -19.87916756]
[293.97552490 -12.23936558]
[281.06686401 -4.59956264]
[268.15820312 3.04023957]
[271.12557983 20.20292091]
[267.23764038 37.21713257]
[257.06906128 51.44521713]
[242.17033386 60.67063904]
[224.83145142 63.44325638]
[207.72987366 59.30723572]
[193.51708984 48.87570572]
[180.86259460 56.92950821]
[168.20809937 64.98330688]
[155.55360413 73.03710938]
[142.89910889 81.09091949]
[130.28826904 89.21290588]
[128.98188782 122.41602325]
[96.38446808 140.96723938]
[102.72472382 141.15426636]
[107.86411285 143.83972168]
[110.97533417 148.07717896]
[125.53498077 151.68504333]
[140.09461975 155.29292297]
[154.65426636 158.90080261]
[169.21391296 162.50866699]
[183.77355957 166.11654663]
[199.37243652 161.05621338]
[211.37144470 172.23455811]
[207.42704773 188.15228271]
[191.59687805 192.43457031]
[180.16567993 180.67619324]
[165.60603333 177.06831360]
[151.04638672 173.46043396]
[136.48674011 169.85256958]
[121.92710114 166.24468994]
[107.36746216 162.63682556]
[119.45166016 171.52343750]
[130.13098145 182.05682373]
[139.18299866 194.01762390]
[146.41923523 207.15676880]
[151.68899536 221.20062256]
[154.88250732 235.85671997]
[155.93330383 250.81987000]
[154.81948853 265.77847290]
[151.56423950 280.42098999]
[146.23538208 294.44250488]
[138.94384766 307.55102539]
[129.84152222 319.47360229]
[119.11791992 329.96191406]
[106.99639130 338.79754639]
[93.72933960 345.79650879]
[79.59305573 350.81301880]
[64.88193512 353.74267578]
[49.90231705 354.52441406]
[34.96615982 353.14196777]
[20.38449860 349.62411499]
[6.46099615 344.04412842]
[-6.51439381 336.51824951]
[-18.27146149 327.20312500]
[-28.56537056 316.29278564]
[-37.18175125 304.01443481]
[-43.94116974 290.62374878]
[-48.70286560 276.39959717]
[-51.36767197 261.63821411]
[-51.88010025 246.64697266]
[-50.22947693 231.73806763]
[-46.45017624 217.22196960]
[-40.62089920 203.40100098]
[-32.86304092 190.56294250]
[-23.33815765 178.97515869]
[-12.24460220 168.87896729]
[0.18660520 160.48461914]
[13.69658661 153.96691895]
[28.00400162 149.46160889]
[42.81090164 147.06248474]
[57.80893326 146.81953430]
[72.68576813 148.73780823]
[87.14104462 152.78074646]
[79.95741272 154.93608093]
[85.89321136 168.71165466]
[91.82901001 182.48721313]
[97.76480865 196.26278687]
[103.70059967 210.03836060]
[114.49393463 220.45487976]
[116.12581635 235.36584473]
[107.84098816 247.87031555]
[93.47375488 252.18107605]
[79.67342377 246.30307007]
[72.82693481 232.95669556]
] def
/pairs [
[5 25]
[6 24]
[7 23]
[8 22]
[9 21]
[10 20]
[11 19]
[12 18]
[42 124]
[43 123]
[44 122]
[45 121]
[46 120]
[47 119]
[51 115]
[52 114]
[53 113]
[54 112]
[55 111]
[56 110]
[57 109]
[59 108]
[60 107]
[61 106]
[62 105]
[63 104]
[64 103]
[125 162]
[126 161]
[127 160]
[130 158]
[131 157]
[132 156]
[134 155]
[135 154]
[136 153]
[137 152]
[138 151]
[139 150]
[140 149]
[141 148]
[166 217]
[168 216]
[169 215]
[170 214]
[171 213]
[172 212]
[182 205]
[183 204]
[184 203]
[185 202]
[186 201]
[187 200]
[188 199]
[189 198]
[190 197]
[191 196]
[192 195]
[193 194]
[219 279]
[222 237]
[223 236]
[224 235]
[225 234]
[226 233]
[227 232]
] def

init

% switch off outline pairs or bases by removing these lines
drawoutline
drawpairs
drawbases
% show it
showpage
end
%%EOF
