%!PS-Adobe-3.0 EPSF-3.0
%%Creator: PS_dot.c,v 1.38 2007/02/02 15:18:13 ivo Exp $, ViennaRNA-2.0.7
%%CreationDate: Sat Nov  3 00:50:23 2012
%%Title: RNA Secondary Structure Plot
%%BoundingBox: 66 210 518 662
%%DocumentFonts: Helvetica
%%Pages: 1
%%EndComments

%Options: -d2 
% to switch off outline pairs of sequence comment or
% delete the appropriate line near the end of the file

%%BeginProlog
/RNAplot 100 dict def
RNAplot begin
/fsize  14 def
/outlinecolor {0.2 setgray} bind def
/paircolor    {0.2 setgray} bind def
/seqcolor     {0   setgray} bind def
/cshow  { dup stringwidth pop -2 div fsize -3 div rmoveto show} bind def
/min { 2 copy gt { exch } if pop } bind def
/max { 2 copy lt { exch } if pop } bind def
/arccoords { % i j arccoords
  % puts optimal x1 y1 x2 y2 coordinates used in bezier curves from i to j
  % onto the stack
  dup 3 -1 roll dup 4 -1 roll lt dup dup 5 2 roll {exch} if
  dup 3 -1 roll dup 3 -1 roll exch sub 1 sub dup
  4 -2 roll 5 -1 roll {exch} if 4 2 roll
  sequence length dup 2 div exch 3 1 roll lt 
  {exch 5 -1 roll pop 4 -2 roll exch 4 2 roll}
  { 4 2 roll 5 -1 roll dup 6 1 roll {exch} if
    4 -2 roll exch pop dup 3 -1 roll dup 4 1 roll
    exch add 4 -1 roll dup 5 1 roll sub 1 sub
    5 -1 roll not {4 -2 roll exch 4 2 roll} if
  }ifelse
   % compute the scalingfactor and prepare (1-sf) and sf*r
  2 mul exch cpr 3 1 roll div dup
  3 -1 roll mul exch 1 exch sub exch
   % compute the coordinates
  3 -1 roll 1 sub coor exch get aload pop % get coord for i
  4 -1 roll dup 5 1 roll mul 3 -1 roll dup 4 1 roll add exch % calculate y1
  4 -1 roll dup 5 1 roll mul 3 -1 roll dup 4 1 roll add exch % calculate x1
  5 -1 roll 1 sub coor exch get aload pop % get coord for j
  % duplicate j coord
  dup 3 -1 roll dup 4 1 roll exch 8 2 roll
  6 -1 roll dup 7 1 roll mul 5 -1 roll dup 6 1 roll add exch % calculate y2
  6 -1 roll mul 5 -1 roll add exch % calculate x2
  6 -2 roll % reorder
} bind def
/drawoutline {
  gsave outlinecolor newpath
  coor 0 get aload pop 0.8 0 360 arc % draw 5' circle of 1st sequence
  currentdict /cutpoint known        % check if cutpoint is defined
  {coor 0 cutpoint getinterval
   {aload pop lineto} forall         % draw outline of 1st sequence
   coor cutpoint 1 add get aload pop
   2 copy moveto 0.8 0 360 arc       % draw 5' circle of 2nd sequence
   coor cutpoint 1 add coor length cutpoint 1 add sub getinterval
   {aload pop lineto} forall}        % draw outline of 2nd sequence
  {coor {aload pop lineto} forall}   % draw outline as a whole
  ifelse
  stroke grestore
} bind def
/drawpairs {
  paircolor
  0.7 setlinewidth
  [9 3.01] 9 setdash
  newpath
  pairs {aload pop
      currentdict (cpr) known
      { exch dup
        coor  exch 1 sub get aload pop moveto
        exch arccoords curveto
      }
      { coor exch 1 sub get aload pop moveto
        coor exch 1 sub get aload pop lineto
      }ifelse
  } forall
  stroke
} bind def
% draw bases
/drawbases {
  [] 0 setdash
  seqcolor
  0
  coor {
    aload pop moveto
    dup sequence exch 1 getinterval cshow
    1 add
  } forall
  pop
} bind def

/init {
  /Helvetica findfont fsize scalefont setfont
  1 setlinejoin
  1 setlinecap
  0.8 setlinewidth
  72 216 translate
  % find the coordinate range
  /xmax -1000 def /xmin 10000 def
  /ymax -1000 def /ymin 10000 def
  coor {
      aload pop
      dup ymin lt {dup /ymin exch def} if
      dup ymax gt {/ymax exch def} {pop} ifelse
      dup xmin lt {dup /xmin exch def} if
      dup xmax gt {/xmax exch def} {pop} ifelse
  } forall
  /size {xmax xmin sub ymax ymin sub max} bind def
  72 6 mul size div dup scale
  size xmin sub xmax sub 2 div size ymin sub ymax sub 2 div
  translate
} bind def
end
%%EndProlog
RNAplot begin
% data start here
/sequence (\
111111111111111133333344444444444444444444444444444444444444555555555555555555555555555566666633333377777777777777777777777766666688888888888888\
) def
/coor [
[67.38689423 115.06252289]
[61.98610306 129.05650330]
[56.58530807 143.05047607]
[51.18451309 157.04446411]
[45.78371811 171.03843689]
[40.38292313 185.03240967]
[34.98213196 199.02639771]
[29.58133698 213.02037048]
[15.58735847 207.61958313]
[20.98815346 193.62559509]
[26.38894653 179.63162231]
[31.78974152 165.63763428]
[37.19053650 151.64366150]
[42.59133148 137.64968872]
[47.99212265 123.65570831]
[53.39291763 109.66172791]
[51.60968781 94.76810455]
[43.05788040 82.44468689]
[34.50607681 70.12126923]
[25.95427132 57.79785156]
[17.40246582 45.47443390]
[8.85065937 33.15101624]
[-3.56467557 24.73320961]
[-18.17819405 21.35014915]
[-32.79170990 17.96708679]
[-47.40522766 14.58402634]
[-62.01874542 11.20096493]
[-76.63226318 7.81790304]
[-91.24578094 4.43484163]
[-105.85929871 1.05178046]
[-120.47281647 -2.33128095]
[-135.08633423 -5.71434259]
[-149.69984436 -9.09740353]
[-164.31336975 -12.48046494]
[-178.92687988 -15.86352634]
[-193.54040527 -19.24658775]
[-208.15391541 -22.62965012]
[-222.76744080 -26.01271057]
[-237.38095093 -29.39577293]
[-251.99447632 -32.77883530]
[-266.60800171 -36.16189575]
[-263.22494507 -50.77541351]
[-248.61141968 -47.39234924]
[-233.99789429 -44.00928879]
[-219.38438416 -40.62622833]
[-204.77085876 -37.24316788]
[-190.15734863 -33.86010742]
[-175.54382324 -30.47704506]
[-160.93031311 -27.09398270]
[-146.31678772 -23.71092224]
[-131.70327759 -20.32785988]
[-117.08975220 -16.94479942]
[-102.47623444 -13.56173706]
[-87.86271667 -10.17867565]
[-73.24919891 -6.79561424]
[-58.63568497 -3.41255307]
[-44.02216721 -0.02949159]
[-29.40864944 3.35356975]
[-14.79513168 6.73663139]
[-0.18161413 10.11969280]
[11.95364094 1.30291378]
[13.25198364 -13.64079094]
[14.55032635 -28.58449554]
[15.84866905 -43.52819824]
[17.14701080 -58.47190475]
[18.44535446 -73.41561127]
[19.74369621 -88.35931396]
[21.04203987 -103.30301666]
[22.34038162 -118.24671936]
[23.63872528 -133.19042969]
[24.93706703 -148.13412476]
[26.23541069 -163.07783508]
[27.53375244 -178.02154541]
[28.83209610 -192.96524048]
[43.77579880 -191.66690063]
[42.47745895 -176.72320557]
[41.17911530 -161.77949524]
[39.88077164 -146.83578491]
[38.58242798 -131.89208984]
[37.28408813 -116.94837952]
[35.98574448 -102.00467682]
[34.68740082 -87.06097412]
[33.38905716 -72.11726379]
[32.09071732 -57.17356110]
[30.79237366 -42.22985840]
[29.49403000 -27.28615189]
[28.19568825 -12.34244823]
[26.89734459 2.60125661]
[40.85453033 -2.89392638]
[54.90138245 2.36780763]
[61.81350327 15.68030643]
[58.03592300 30.19684601]
[45.51148987 38.45145416]
[30.68161583 36.19871521]
[21.17407608 24.59921074]
[29.72588348 36.92262650]
[38.27768707 49.24604416]
[46.82949448 61.56946182]
[55.38129807 73.89288330]
[63.93310547 86.21630096]
[133.44297791 73.25567627]
[148.24537659 75.68240356]
[163.04776001 78.10913849]
[177.85015869 80.53586578]
[192.65255737 82.96259308]
[207.45495605 85.38932800]
[222.25735474 87.81605530]
[237.05975342 90.24278259]
[251.86215210 92.66951752]
[266.66455078 95.09624481]
[281.46694946 97.52297211]
[296.26934814 99.94970703]
[293.84262085 114.75210571]
[279.04022217 112.32537079]
[264.23782349 109.89864349]
[249.43542480 107.47191620]
[234.63302612 105.04518127]
[219.83062744 102.61845398]
[205.02822876 100.19171906]
[190.22583008 97.76499176]
[175.42343140 95.33826447]
[160.62103271 92.91152954]
[145.81863403 90.48480225]
[131.01623535 88.05807495]
[126.16084290 93.77429199]
[140.91699219 96.46797180]
[145.96217346 110.59405518]
[136.25112915 122.02627563]
[121.49503326 119.33226776]
[116.45005035 105.20671844]
[111.59465027 110.92293549]
[116.38417816 125.13773346]
[121.17369843 139.35252380]
[125.96321869 153.56732178]
[130.75274658 167.78211975]
[135.54226685 181.99691772]
[140.33178711 196.21171570]
[126.11699677 201.00123596]
[121.32746887 186.78643799]
[116.53794861 172.57165527]
[111.74842072 158.35685730]
[106.95890045 144.14205933]
[102.16938019 129.92726135]
[97.37985229 115.71245575]
] def
/pairs [
[1 16]
[2 15]
[3 14]
[4 13]
[5 12]
[6 11]
[7 10]
[8 9]
[17 100]
[18 99]
[19 98]
[20 97]
[21 96]
[22 95]
[23 60]
[24 59]
[25 58]
[26 57]
[27 56]
[28 55]
[29 54]
[30 53]
[31 52]
[32 51]
[33 50]
[34 49]
[35 48]
[36 47]
[37 46]
[38 45]
[39 44]
[40 43]
[41 42]
[61 88]
[62 87]
[63 86]
[64 85]
[65 84]
[66 83]
[67 82]
[68 81]
[69 80]
[70 79]
[71 78]
[72 77]
[73 76]
[74 75]
[101 124]
[102 123]
[103 122]
[104 121]
[105 120]
[106 119]
[107 118]
[108 117]
[109 116]
[110 115]
[111 114]
[112 113]
[131 144]
[132 143]
[133 142]
[134 141]
[135 140]
[136 139]
[137 138]
] def

init

% switch off outline pairs or bases by removing these lines
drawoutline
drawpairs
drawbases
% show it
showpage
end
%%EOF
