%!PS-Adobe-3.0 EPSF-3.0
%%Creator: PS_dot.c,v 1.38 2007/02/02 15:18:13 ivo Exp $, ViennaRNA-2.0.7
%%CreationDate: Sat Nov  3 00:50:23 2012
%%Title: RNA Secondary Structure Plot
%%BoundingBox: 66 210 518 662
%%DocumentFonts: Helvetica
%%Pages: 1
%%EndComments

%Options: -d2 
% to switch off outline pairs of sequence comment or
% delete the appropriate line near the end of the file

%%BeginProlog
/RNAplot 100 dict def
RNAplot begin
/fsize  14 def
/outlinecolor {0.2 setgray} bind def
/paircolor    {0.2 setgray} bind def
/seqcolor     {0   setgray} bind def
/cshow  { dup stringwidth pop -2 div fsize -3 div rmoveto show} bind def
/min { 2 copy gt { exch } if pop } bind def
/max { 2 copy lt { exch } if pop } bind def
/arccoords { % i j arccoords
  % puts optimal x1 y1 x2 y2 coordinates used in bezier curves from i to j
  % onto the stack
  dup 3 -1 roll dup 4 -1 roll lt dup dup 5 2 roll {exch} if
  dup 3 -1 roll dup 3 -1 roll exch sub 1 sub dup
  4 -2 roll 5 -1 roll {exch} if 4 2 roll
  sequence length dup 2 div exch 3 1 roll lt 
  {exch 5 -1 roll pop 4 -2 roll exch 4 2 roll}
  { 4 2 roll 5 -1 roll dup 6 1 roll {exch} if
    4 -2 roll exch pop dup 3 -1 roll dup 4 1 roll
    exch add 4 -1 roll dup 5 1 roll sub 1 sub
    5 -1 roll not {4 -2 roll exch 4 2 roll} if
  }ifelse
   % compute the scalingfactor and prepare (1-sf) and sf*r
  2 mul exch cpr 3 1 roll div dup
  3 -1 roll mul exch 1 exch sub exch
   % compute the coordinates
  3 -1 roll 1 sub coor exch get aload pop % get coord for i
  4 -1 roll dup 5 1 roll mul 3 -1 roll dup 4 1 roll add exch % calculate y1
  4 -1 roll dup 5 1 roll mul 3 -1 roll dup 4 1 roll add exch % calculate x1
  5 -1 roll 1 sub coor exch get aload pop % get coord for j
  % duplicate j coord
  dup 3 -1 roll dup 4 1 roll exch 8 2 roll
  6 -1 roll dup 7 1 roll mul 5 -1 roll dup 6 1 roll add exch % calculate y2
  6 -1 roll mul 5 -1 roll add exch % calculate x2
  6 -2 roll % reorder
} bind def
/drawoutline {
  gsave outlinecolor newpath
  coor 0 get aload pop 0.8 0 360 arc % draw 5' circle of 1st sequence
  currentdict /cutpoint known        % check if cutpoint is defined
  {coor 0 cutpoint getinterval
   {aload pop lineto} forall         % draw outline of 1st sequence
   coor cutpoint 1 add get aload pop
   2 copy moveto 0.8 0 360 arc       % draw 5' circle of 2nd sequence
   coor cutpoint 1 add coor length cutpoint 1 add sub getinterval
   {aload pop lineto} forall}        % draw outline of 2nd sequence
  {coor {aload pop lineto} forall}   % draw outline as a whole
  ifelse
  stroke grestore
} bind def
/drawpairs {
  paircolor
  0.7 setlinewidth
  [9 3.01] 9 setdash
  newpath
  pairs {aload pop
      currentdict (cpr) known
      { exch dup
        coor  exch 1 sub get aload pop moveto
        exch arccoords curveto
      }
      { coor exch 1 sub get aload pop moveto
        coor exch 1 sub get aload pop lineto
      }ifelse
  } forall
  stroke
} bind def
% draw bases
/drawbases {
  [] 0 setdash
  seqcolor
  0
  coor {
    aload pop moveto
    dup sequence exch 1 getinterval cshow
    1 add
  } forall
  pop
} bind def

/init {
  /Helvetica findfont fsize scalefont setfont
  1 setlinejoin
  1 setlinecap
  0.8 setlinewidth
  72 216 translate
  % find the coordinate range
  /xmax -1000 def /xmin 10000 def
  /ymax -1000 def /ymin 10000 def
  coor {
      aload pop
      dup ymin lt {dup /ymin exch def} if
      dup ymax gt {/ymax exch def} {pop} ifelse
      dup xmin lt {dup /xmin exch def} if
      dup xmax gt {/xmax exch def} {pop} ifelse
  } forall
  /size {xmax xmin sub ymax ymin sub max} bind def
  72 6 mul size div dup scale
  size xmin sub xmax sub 2 div size ymin sub ymax sub 2 div
  translate
} bind def
end
%%EndProlog
RNAplot begin
% data start here
/sequence (\
111111111111111133333344444444444444444444444444444444444444555555555555555555555555555566666633333377777777777777777777777766666688888888888888\
) def
/coor [
[98.64646149 124.33740997]
[93.24566650 138.33139038]
[87.84487915 152.32536316]
[82.44408417 166.31935120]
[77.04328918 180.31332397]
[71.64249420 194.30729675]
[66.24169922 208.30128479]
[60.84090424 222.29525757]
[46.84692764 216.89445496]
[52.24771881 202.90048218]
[57.64851379 188.90650940]
[63.04930878 174.91252136]
[68.45010376 160.91854858]
[73.85089874 146.92457581]
[79.25169373 132.93058777]
[84.65248871 118.93661499]
[81.13941956 112.31027222]
[73.17540741 125.02146912]
[58.18517685 124.48011780]
[51.15880585 111.22756958]
[59.12258911 98.51622772]
[74.11329651 99.05759430]
[70.60023499 92.43125153]
[55.98671722 89.04819489]
[41.37319946 85.66513062]
[26.75967979 82.28206635]
[12.14616299 78.89900970]
[-2.46735454 75.51594543]
[-17.08087158 72.13288879]
[-31.69438934 68.74982452]
[-46.30790710 65.36676025]
[-60.92142487 61.98369980]
[-75.53494263 58.60063934]
[-90.14846039 55.21757889]
[-104.76197815 51.83451843]
[-119.37549591 48.45145798]
[-133.98901367 45.06839371]
[-148.60252380 41.68533325]
[-163.21604919 38.30227280]
[-177.82955933 34.91921234]
[-192.44308472 31.53614998]
[-189.06002808 16.92263222]
[-174.44650269 20.30569267]
[-159.83299255 23.68875504]
[-145.21946716 27.07181549]
[-130.60595703 30.45487785]
[-115.99243164 33.83794022]
[-101.37891388 37.22100067]
[-86.76539612 40.60406113]
[-72.15187836 43.98712158]
[-57.53836441 47.37018585]
[-42.92484665 50.75324631]
[-28.31132889 54.13630676]
[-13.69781113 57.51936722]
[0.91570687 60.90243149]
[15.52922440 64.28549194]
[30.14274216 67.66855621]
[44.75625992 71.05161285]
[59.36977768 74.43467712]
[73.98329163 77.81773376]
[86.11855316 69.00096130]
[87.41689301 54.05725479]
[88.71523285 39.11354828]
[90.01358032 24.16984367]
[91.31192017 9.22614002]
[92.61026001 -5.71756506]
[93.90860748 -20.66127014]
[95.20694733 -35.60497284]
[96.50529480 -50.54867935]
[97.80363464 -65.49238586]
[99.10197449 -80.43608856]
[100.40032196 -95.37979126]
[101.69866180 -110.32349396]
[102.99700165 -125.26720428]
[117.94071198 -123.96885681]
[116.64236450 -109.02515411]
[115.34402466 -94.08145142]
[114.04568481 -79.13774872]
[112.74733734 -64.19403839]
[111.44899750 -49.25033569]
[110.15065002 -34.30663300]
[108.85231018 -19.36292648]
[107.55397034 -4.41922235]
[106.25562286 10.52448273]
[104.95728302 25.46818733]
[103.65894318 40.41189194]
[102.36059570 55.35559464]
[101.06225586 70.29930115]
[152.28933716 93.16670990]
[167.28141785 93.65411377]
[182.27349854 94.14151764]
[197.26557922 94.62892151]
[212.25765991 95.11631775]
[227.24974060 95.60372162]
[218.19755554 83.64303589]
[220.05555725 68.75855255]
[231.77020264 59.39014435]
[246.69898987 60.84992599]
[256.37695312 72.31017303]
[255.31642151 87.27263641]
[244.11782837 97.25355530]
[258.92022705 99.68028259]
[273.72262573 102.10701752]
[288.52502441 104.53374481]
[303.32742310 106.96047211]
[318.12982178 109.38720703]
[332.93222046 111.81393433]
[347.73461914 114.24066162]
[362.53701782 116.66739655]
[377.33941650 119.09412384]
[392.14181519 121.52085114]
[406.94421387 123.94758606]
[404.51748657 138.74998474]
[389.71508789 136.32325745]
[374.91268921 133.89651489]
[360.11029053 131.46978760]
[345.30789185 129.04306030]
[330.50549316 126.61633301]
[315.70309448 124.18959808]
[300.90069580 121.76287079]
[286.09829712 119.33614349]
[271.29589844 116.90940857]
[256.49349976 114.48268127]
[241.69110107 112.05595398]
[226.76234436 110.59580231]
[211.77026367 110.10839844]
[196.77818298 109.62099457]
[181.78610229 109.13359070]
[166.79402161 108.64619446]
[151.80194092 108.15879059]
[142.85421753 120.19782257]
[147.64373779 134.41261292]
[152.43327332 148.62741089]
[157.22279358 162.84220886]
[162.01231384 177.05700684]
[166.80183411 191.27180481]
[171.59135437 205.48660278]
[157.37655640 210.27612305]
[152.58703613 196.06132507]
[147.79751587 181.84652710]
[143.00799561 167.63172913]
[138.21847534 153.41694641]
[133.42893982 139.20214844]
[128.63941956 124.98734283]
] def
/pairs [
[1 16]
[2 15]
[3 14]
[4 13]
[5 12]
[6 11]
[7 10]
[8 9]
[23 60]
[24 59]
[25 58]
[26 57]
[27 56]
[28 55]
[29 54]
[30 53]
[31 52]
[32 51]
[33 50]
[34 49]
[35 48]
[36 47]
[37 46]
[38 45]
[39 44]
[40 43]
[41 42]
[61 88]
[62 87]
[63 86]
[64 85]
[65 84]
[66 83]
[67 82]
[68 81]
[69 80]
[70 79]
[71 78]
[72 77]
[73 76]
[74 75]
[89 130]
[90 129]
[91 128]
[92 127]
[93 126]
[94 125]
[101 124]
[102 123]
[103 122]
[104 121]
[105 120]
[106 119]
[107 118]
[108 117]
[109 116]
[110 115]
[111 114]
[112 113]
[131 144]
[132 143]
[133 142]
[134 141]
[135 140]
[136 139]
[137 138]
] def

init

% switch off outline pairs or bases by removing these lines
drawoutline
drawpairs
drawbases
% show it
showpage
end
%%EOF
