%!PS-Adobe-3.0 EPSF-3.0
%%Creator: PS_dot.c,v 1.38 2007/02/02 15:18:13 ivo Exp $, ViennaRNA-2.0.7
%%CreationDate: Sun Nov  4 18:30:38 2012
%%Title: RNA Secondary Structure Plot
%%BoundingBox: 66 210 518 662
%%DocumentFonts: Helvetica
%%Pages: 1
%%EndComments

%Options: -d2 
% to switch off outline pairs of sequence comment or
% delete the appropriate line near the end of the file

%%BeginProlog
/RNAplot 100 dict def
RNAplot begin
/fsize  14 def
/outlinecolor {0.2 setgray} bind def
/paircolor    {0.2 setgray} bind def
/seqcolor     {0   setgray} bind def
/cshow  { dup stringwidth pop -2 div fsize -3 div rmoveto show} bind def
/min { 2 copy gt { exch } if pop } bind def
/max { 2 copy lt { exch } if pop } bind def
/arccoords { % i j arccoords
  % puts optimal x1 y1 x2 y2 coordinates used in bezier curves from i to j
  % onto the stack
  dup 3 -1 roll dup 4 -1 roll lt dup dup 5 2 roll {exch} if
  dup 3 -1 roll dup 3 -1 roll exch sub 1 sub dup
  4 -2 roll 5 -1 roll {exch} if 4 2 roll
  sequence length dup 2 div exch 3 1 roll lt 
  {exch 5 -1 roll pop 4 -2 roll exch 4 2 roll}
  { 4 2 roll 5 -1 roll dup 6 1 roll {exch} if
    4 -2 roll exch pop dup 3 -1 roll dup 4 1 roll
    exch add 4 -1 roll dup 5 1 roll sub 1 sub
    5 -1 roll not {4 -2 roll exch 4 2 roll} if
  }ifelse
   % compute the scalingfactor and prepare (1-sf) and sf*r
  2 mul exch cpr 3 1 roll div dup
  3 -1 roll mul exch 1 exch sub exch
   % compute the coordinates
  3 -1 roll 1 sub coor exch get aload pop % get coord for i
  4 -1 roll dup 5 1 roll mul 3 -1 roll dup 4 1 roll add exch % calculate y1
  4 -1 roll dup 5 1 roll mul 3 -1 roll dup 4 1 roll add exch % calculate x1
  5 -1 roll 1 sub coor exch get aload pop % get coord for j
  % duplicate j coord
  dup 3 -1 roll dup 4 1 roll exch 8 2 roll
  6 -1 roll dup 7 1 roll mul 5 -1 roll dup 6 1 roll add exch % calculate y2
  6 -1 roll mul 5 -1 roll add exch % calculate x2
  6 -2 roll % reorder
} bind def
/drawoutline {
  gsave outlinecolor newpath
  coor 0 get aload pop 0.8 0 360 arc % draw 5' circle of 1st sequence
  currentdict /cutpoint known        % check if cutpoint is defined
  {coor 0 cutpoint getinterval
   {aload pop lineto} forall         % draw outline of 1st sequence
   coor cutpoint 1 add get aload pop
   2 copy moveto 0.8 0 360 arc       % draw 5' circle of 2nd sequence
   coor cutpoint 1 add coor length cutpoint 1 add sub getinterval
   {aload pop lineto} forall}        % draw outline of 2nd sequence
  {coor {aload pop lineto} forall}   % draw outline as a whole
  ifelse
  stroke grestore
} bind def
/drawpairs {
  paircolor
  0.7 setlinewidth
  [9 3.01] 9 setdash
  newpath
  pairs {aload pop
      currentdict (cpr) known
      { exch dup
        coor  exch 1 sub get aload pop moveto
        exch arccoords curveto
      }
      { coor exch 1 sub get aload pop moveto
        coor exch 1 sub get aload pop lineto
      }ifelse
  } forall
  stroke
} bind def
% draw bases
/drawbases {
  [] 0 setdash
  seqcolor
  0
  coor {
    aload pop moveto
    dup sequence exch 1 getinterval cshow
    1 add
  } forall
  pop
} bind def

/init {
  /Helvetica findfont fsize scalefont setfont
  1 setlinejoin
  1 setlinecap
  0.8 setlinewidth
  72 216 translate
  % find the coordinate range
  /xmax -1000 def /xmin 10000 def
  /ymax -1000 def /ymin 10000 def
  coor {
      aload pop
      dup ymin lt {dup /ymin exch def} if
      dup ymax gt {/ymax exch def} {pop} ifelse
      dup xmin lt {dup /xmin exch def} if
      dup xmax gt {/xmax exch def} {pop} ifelse
  } forall
  /size {xmax xmin sub ymax ymin sub max} bind def
  72 6 mul size div dup scale
  size xmin sub xmax sub 2 div size ymin sub ymax sub 2 div
  translate
} bind def
end
%%EndProlog
RNAplot begin
% data start here
/sequence (\
nnnn11111111nnnnn11111111nnnnnn333333nnnn444444nnn4444444n444444nnnnnnnnnnnnnnnnnnnnnnnnnnnnnnnnnnnnnn4444444444444nnn444444555nn555n55555555nnnnnn55555555555n555nnn6n66666nnn333333777777777777777777777777nnnnnn666666n8nn888888nnnn888888nnnnnnnnnnnnnnnnnn\
nnnnnnnnnnnnnnnnnnnnnnn8nnnnnnnnnnn\
) def
/coor [
[95.92983246 188.93638611]
[93.30159760 174.16844177]
[90.67337036 159.40048218]
[88.04513550 144.63253784]
[80.86151123 146.78787231]
[76.08786774 161.00801086]
[71.31421661 175.22814941]
[66.54057312 189.44828796]
[61.76692963 203.66842651]
[56.99328613 217.88854980]
[52.21964264 232.10868835]
[47.44599533 246.32882690]
[53.27397537 261.27587891]
[45.09728622 275.07882690]
[29.18839264 277.14923096]
[17.75123024 265.89886475]
[19.55941391 249.95803833]
[33.22585678 241.55519104]
[37.99950409 227.33505249]
[42.77314758 213.11491394]
[47.54679108 198.89477539]
[52.32043839 184.67463684]
[57.09408188 170.45449829]
[61.86772537 156.23435974]
[66.64137268 142.01422119]
[52.63610840 136.64276123]
[43.38995361 124.83139038]
[41.53793335 109.94615936]
[47.60784149 96.22915649]
[59.86984253 87.58952332]
[74.82944489 86.48942566]
[88.22357178 93.24254608]
[77.03315735 83.25381470]
[65.84274292 73.26509094]
[54.65233612 63.27635956]
[43.46192169 53.28763199]
[32.27151108 43.29890442]
[26.10736656 45.61185455]
[19.54348373 46.06340027]
[13.12926865 44.61828232]
[7.40087700 41.39987183]
[2.83639574 36.67967224]
[-11.79774857 33.38698196]
[-26.43189430 30.09429169]
[-41.06604004 26.80160141]
[-55.70018387 23.50891113]
[-70.33432770 20.21622086]
[-81.99025726 30.28823280]
[-97.16455841 31.55082893]
[-110.02059937 23.72866821]
[-115.73704529 10.00058556]
[-130.37118530 6.70789576]
[-145.00532532 3.41520524]
[-159.63948059 0.12251504]
[-174.27362061 -3.17017531]
[-188.90776062 -6.46286535]
[-203.54191589 -9.75555611]
[-212.55523682 -8.58746243]
[-218.31585693 -13.16359138]
[-232.91360474 -16.61407471]
[-247.51135254 -20.06455803]
[-262.10910034 -23.51504135]
[-276.70684814 -26.96552467]
[-291.30459595 -30.41600800]
[-297.00595093 -16.50770569]
[-304.81298828 -3.66259432]
[-314.53338623 7.80300570]
[-325.92782593 17.60674286]
[-338.71569824 25.50719261]
[-352.58206177 31.30979538]
[-367.18548584 34.87166214]
[-382.16632080 36.10507584]
[-397.15563965 34.97966003]
[-411.78433228 31.52313423]
[-425.69216919 25.82061577]
[-438.53662109 18.01253510]
[-450.00143433 8.29117203]
[-459.80422974 -3.10407495]
[-467.70361328 -15.89258862]
[-473.50509644 -29.75943947]
[-477.06573486 -44.36314392]
[-478.29791260 -59.34407043]
[-477.17126465 -74.33330536]
[-473.71353149 -88.96172333]
[-468.00985718 -102.86908722]
[-460.20074463 -115.71290588]
[-450.47842407 -127.17690277]
[-439.08236694 -136.97875977]
[-426.29321289 -144.87710571]
[-412.42587280 -150.67741394]
[-397.82186890 -154.23687744]
[-382.84085083 -155.46781921]
[-367.85171509 -154.33992004]
[-353.22357178 -150.88098145]
[-339.31668091 -145.17617798]
[-326.47351074 -137.36596680]
[-315.01031494 -127.64271545]
[-305.20938110 -116.24584961]
[-297.31210327 -103.45603180]
[-291.51293945 -89.58822632]
[-287.95468140 -74.98393250]
[-286.72497559 -60.00279999]
[-287.85409546 -45.01375198]
[-273.25634766 -41.56327057]
[-258.65859985 -38.11278534]
[-244.06086731 -34.66230392]
[-229.46311951 -31.21182060]
[-214.86537170 -27.76133728]
[-200.24922180 -24.38969994]
[-185.61508179 -21.09700966]
[-170.98092651 -17.80431938]
[-156.34678650 -14.51163006]
[-141.71264648 -11.21893978]
[-127.07849884 -7.92624903]
[-112.44435120 -4.63355875]
[-101.39883423 -14.59019089]
[-86.43138123 -16.15205002]
[-73.26025391 -8.51171780]
[-67.04163361 5.58207607]
[-52.40749359 8.87476635]
[-37.77334976 12.16745663]
[-23.13920403 15.46014690]
[-8.50505829 18.75283813]
[6.12908602 22.04552841]
[17.63708305 12.42440414]
[16.98953247 -2.56161189]
[16.34198380 -17.54762840]
[7.39733124 -26.79976463]
[7.14266396 -39.26586151]
[15.17039204 -48.27721024]
[14.68466377 -63.26934433]
[14.19893551 -78.26147461]
[10.80598068 -86.69310760]
[13.78977013 -93.41789246]
[13.46591949 -108.41439819]
[13.14206886 -123.41089630]
[12.81821823 -138.40740967]
[12.49436855 -153.40390015]
[12.17051792 -168.40040588]
[11.84666729 -183.39691162]
[11.52281666 -198.39341736]
[-0.06309455 -209.14247131]
[-0.57134402 -224.93858337]
[10.29960442 -236.41020203]
[26.10020828 -236.75141907]
[37.45625305 -225.75979614]
[37.63039398 -209.95646667]
[26.51932144 -198.71726990]
[26.84317017 -183.72076416]
[27.16702080 -168.72425842]
[27.49087143 -153.72775269]
[27.81472206 -138.73124695]
[28.13857269 -123.73474884]
[28.46242332 -108.73824310]
[28.78627396 -93.74174500]
[29.19106865 -78.74720764]
[29.67679787 -63.75507355]
[30.16252518 -48.76293945]
[40.20784378 -34.35031128]
[31.32799911 -18.19517708]
[31.97554970 -3.20916152]
[32.62310028 11.77685452]
[33.61746597 -3.19015026]
[40.42885590 -16.55446815]
[51.95513916 -26.15367508]
[66.33129883 -30.43456078]
[81.23119354 -28.70445251]
[94.24391937 -21.24329567]
[103.26395416 -9.25834465]
[106.83179474 5.31116152]
[104.37014008 20.10779190]
[96.27731323 32.73736572]
[83.86277008 41.15634155]
[69.13526154 44.00247955]
[54.47778702 40.81526184]
[42.26023865 32.10849380]
[53.45065308 42.09722137]
[64.64105988 52.08594894]
[75.83147430 62.07467651]
[87.02188873 72.06340790]
[98.21229553 82.05213165]
[113.14154816 83.50728607]
[126.05020142 75.86747742]
[138.95886230 68.22767639]
[151.86752319 60.58787537]
[164.77616882 52.94807434]
[177.68482971 45.30826950]
[190.59349060 37.66846848]
[203.50215149 30.02866554]
[216.41079712 22.38886261]
[229.31945801 14.74906063]
[242.22811890 7.10925817]
[255.13677979 -0.53054446]
[262.77658081 12.37811184]
[249.86791992 20.01791382]
[236.95925903 27.65771675]
[224.05059814 35.29751968]
[211.14195251 42.93732071]
[198.23329163 50.57712555]
[185.32463074 58.21692657]
[172.41596985 65.85672760]
[159.50732422 73.49652863]
[146.59866333 81.13633728]
[133.69000244 88.77613831]
[120.78134918 96.41593933]
[120.29587555 103.90020752]
[135.28700256 103.38439178]
[150.27813721 102.86857605]
[165.26925659 102.35276031]
[179.02595520 96.37334442]
[192.79330444 102.32817078]
[197.85652161 116.44779968]
[191.01052856 129.79443359]
[176.58891296 133.91957092]
[163.72152710 126.21326447]
[148.92266846 123.76509857]
[134.12379456 121.31692505]
[119.32492828 118.86875153]
[118.83945465 126.35302734]
[125.17970276 126.54006195]
[130.31909180 129.22550964]
[133.43031311 133.46296692]
[147.98995972 137.07083130]
[162.54960632 140.67871094]
[177.10925293 144.28659058]
[191.66889954 147.89445496]
[206.22854614 151.50233459]
[221.82742310 146.44200134]
[233.82643127 157.62034607]
[229.88203430 173.53807068]
[214.05186462 177.82035828]
[202.62066650 166.06198120]
[188.06101990 162.45410156]
[173.50137329 158.84623718]
[158.94172668 155.23835754]
[144.38208008 151.63047791]
[129.82244873 148.02261353]
[141.90664673 156.90922546]
[152.58596802 167.44261169]
[161.63798523 179.40341187]
[168.87422180 192.54255676]
[174.14396667 206.58641052]
[177.33749390 221.24250793]
[178.38829041 236.20565796]
[177.27447510 251.16424561]
[174.01922607 265.80676270]
[168.69036865 279.82830811]
[161.39883423 292.93682861]
[152.29650879 304.85940552]
[141.57290649 315.34768677]
[129.45137024 324.18331909]
[116.18432617 331.18228149]
[102.04804230 336.19882202]
[87.33691406 339.12844849]
[72.35729980 339.91018677]
[57.42114258 338.52774048]
[42.83948135 335.00991821]
[28.91598129 329.42993164]
[15.94059086 321.90402222]
[4.18352270 312.58892822]
[-6.11038637 301.67858887]
[-14.72676754 289.40023804]
[-21.48618698 276.00955200]
[-26.24788094 261.78540039]
[-28.91268730 247.02400208]
[-29.42511559 232.03276062]
[-27.77449226 217.12385559]
[-23.99518967 202.60777283]
[-18.16591263 188.78678894]
[-10.40805626 175.94873047]
[-0.88317269 164.36094666]
[10.21038246 154.26477051]
[22.64159012 145.87040710]
[36.15157318 139.35272217]
[50.45898438 134.84739685]
[65.26588440 132.44828796]
[80.26391602 132.20532227]
[95.14075470 134.12359619]
[109.59603119 138.16653442]
[102.41239929 140.32186890]
[108.34819794 154.09744263]
[114.28399658 167.87300110]
[120.21978760 181.64857483]
[126.15558624 195.42414856]
[136.94892883 205.84066772]
[138.58079529 220.75163269]
[130.29597473 233.25610352]
[115.92874146 237.56686401]
[102.12841034 231.68885803]
[95.28192139 218.34248352]
] def
/pairs [
[5 25]
[6 24]
[7 23]
[8 22]
[9 21]
[10 20]
[11 19]
[12 18]
[32 181]
[33 180]
[34 179]
[35 178]
[36 177]
[37 176]
[42 124]
[43 123]
[44 122]
[45 121]
[46 120]
[47 119]
[51 115]
[52 114]
[53 113]
[54 112]
[55 111]
[56 110]
[57 109]
[59 108]
[60 107]
[61 106]
[62 105]
[63 104]
[64 103]
[125 162]
[126 161]
[127 160]
[130 158]
[131 157]
[132 156]
[134 155]
[135 154]
[136 153]
[137 152]
[138 151]
[139 150]
[140 149]
[141 148]
[182 205]
[183 204]
[184 203]
[185 202]
[186 201]
[187 200]
[188 199]
[189 198]
[190 197]
[191 196]
[192 195]
[193 194]
[219 279]
[222 237]
[223 236]
[224 235]
[225 234]
[226 233]
[227 232]
] def

init

% switch off outline pairs or bases by removing these lines
drawoutline
drawpairs
drawbases
% show it
showpage
end
%%EOF
