%!PS-Adobe-3.0 EPSF-3.0
%%Creator: PS_dot.c,v 1.38 2007/02/02 15:18:13 ivo Exp $, ViennaRNA-2.0.7
%%CreationDate: Sun Nov  4 18:30:38 2012
%%Title: RNA Secondary Structure Plot
%%BoundingBox: 66 210 518 662
%%DocumentFonts: Helvetica
%%Pages: 1
%%EndComments

%Options: -d2 
% to switch off outline pairs of sequence comment or
% delete the appropriate line near the end of the file

%%BeginProlog
/RNAplot 100 dict def
RNAplot begin
/fsize  14 def
/outlinecolor {0.2 setgray} bind def
/paircolor    {0.2 setgray} bind def
/seqcolor     {0   setgray} bind def
/cshow  { dup stringwidth pop -2 div fsize -3 div rmoveto show} bind def
/min { 2 copy gt { exch } if pop } bind def
/max { 2 copy lt { exch } if pop } bind def
/arccoords { % i j arccoords
  % puts optimal x1 y1 x2 y2 coordinates used in bezier curves from i to j
  % onto the stack
  dup 3 -1 roll dup 4 -1 roll lt dup dup 5 2 roll {exch} if
  dup 3 -1 roll dup 3 -1 roll exch sub 1 sub dup
  4 -2 roll 5 -1 roll {exch} if 4 2 roll
  sequence length dup 2 div exch 3 1 roll lt 
  {exch 5 -1 roll pop 4 -2 roll exch 4 2 roll}
  { 4 2 roll 5 -1 roll dup 6 1 roll {exch} if
    4 -2 roll exch pop dup 3 -1 roll dup 4 1 roll
    exch add 4 -1 roll dup 5 1 roll sub 1 sub
    5 -1 roll not {4 -2 roll exch 4 2 roll} if
  }ifelse
   % compute the scalingfactor and prepare (1-sf) and sf*r
  2 mul exch cpr 3 1 roll div dup
  3 -1 roll mul exch 1 exch sub exch
   % compute the coordinates
  3 -1 roll 1 sub coor exch get aload pop % get coord for i
  4 -1 roll dup 5 1 roll mul 3 -1 roll dup 4 1 roll add exch % calculate y1
  4 -1 roll dup 5 1 roll mul 3 -1 roll dup 4 1 roll add exch % calculate x1
  5 -1 roll 1 sub coor exch get aload pop % get coord for j
  % duplicate j coord
  dup 3 -1 roll dup 4 1 roll exch 8 2 roll
  6 -1 roll dup 7 1 roll mul 5 -1 roll dup 6 1 roll add exch % calculate y2
  6 -1 roll mul 5 -1 roll add exch % calculate x2
  6 -2 roll % reorder
} bind def
/drawoutline {
  gsave outlinecolor newpath
  coor 0 get aload pop 0.8 0 360 arc % draw 5' circle of 1st sequence
  currentdict /cutpoint known        % check if cutpoint is defined
  {coor 0 cutpoint getinterval
   {aload pop lineto} forall         % draw outline of 1st sequence
   coor cutpoint 1 add get aload pop
   2 copy moveto 0.8 0 360 arc       % draw 5' circle of 2nd sequence
   coor cutpoint 1 add coor length cutpoint 1 add sub getinterval
   {aload pop lineto} forall}        % draw outline of 2nd sequence
  {coor {aload pop lineto} forall}   % draw outline as a whole
  ifelse
  stroke grestore
} bind def
/drawpairs {
  paircolor
  0.7 setlinewidth
  [9 3.01] 9 setdash
  newpath
  pairs {aload pop
      currentdict (cpr) known
      { exch dup
        coor  exch 1 sub get aload pop moveto
        exch arccoords curveto
      }
      { coor exch 1 sub get aload pop moveto
        coor exch 1 sub get aload pop lineto
      }ifelse
  } forall
  stroke
} bind def
% draw bases
/drawbases {
  [] 0 setdash
  seqcolor
  0
  coor {
    aload pop moveto
    dup sequence exch 1 getinterval cshow
    1 add
  } forall
  pop
} bind def

/init {
  /Helvetica findfont fsize scalefont setfont
  1 setlinejoin
  1 setlinecap
  0.8 setlinewidth
  72 216 translate
  % find the coordinate range
  /xmax -1000 def /xmin 10000 def
  /ymax -1000 def /ymin 10000 def
  coor {
      aload pop
      dup ymin lt {dup /ymin exch def} if
      dup ymax gt {/ymax exch def} {pop} ifelse
      dup xmin lt {dup /xmin exch def} if
      dup xmax gt {/xmax exch def} {pop} ifelse
  } forall
  /size {xmax xmin sub ymax ymin sub max} bind def
  72 6 mul size div dup scale
  size xmin sub xmax sub 2 div size ymin sub ymax sub 2 div
  translate
} bind def
end
%%EndProlog
RNAplot begin
% data start here
/sequence (\
nnnn1111111nnnnnnn1111111nnnnn333334nnnn444444nnnn4444nnn44444444444nnnnnnnnnnnn444nnnn4n4444444nn44444nnn444444555nn55555n555nnnnnnnn5555555nn555nnn6n66666nnn533333777777777nnnn777777777nnnnnn666666n888888888nnnn8888888n<<<<nn>>>>nnnnnnnnn88nnnnnnnnnnn\
) def
/coor [
[92.30580902 188.49212646]
[90.37697601 173.61665344]
[88.44814301 158.74118042]
[86.51931763 143.86570740]
[79.19432068 145.47642517]
[73.75534821 159.45561218]
[68.31637573 173.43479919]
[62.87739944 187.41397095]
[57.43843079 201.39315796]
[51.99945831 215.37234497]
[46.56048584 229.35153198]
[54.23777008 242.97479248]
[51.31124878 258.33609009]
[39.16273499 268.18228149]
[23.52838516 267.86431885]
[11.79026127 257.53228760]
[9.49074650 242.06471252]
[17.71560097 228.76487732]
[32.58130264 223.91255188]
[38.02027130 209.93338013]
[43.45924377 195.95419312]
[48.89821625 181.97500610]
[54.33718872 167.99581909]
[59.77616119 154.01663208]
[65.21513367 140.03746033]
[60.66598892 123.84010315]
[62.11233139 109.04286194]
[68.18381500 97.56759644]
[76.97183990 90.61753082]
[86.33924866 88.55208588]
[94.24887085 90.88171387]
[84.38777161 79.57866669]
[74.52667999 68.27562714]
[64.66558075 56.97257996]
[54.80448914 45.66953659]
[31.20379829 39.93346786]
[27.11268616 41.19157791]
[23.22100067 41.10732269]
[19.92213631 39.90481186]
[17.49788284 37.91190338]
[16.09445000 35.51541138]
[1.80584526 30.95079231]
[-12.48276043 26.38617325]
[-26.77136612 21.82155228]
[-41.05997086 17.25693321]
[-55.43079758 12.95817661]
[-59.53715897 14.16558838]
[-63.42750549 14.03320694]
[-66.71124268 12.78998756]
[-69.11066437 10.76724720]
[-70.48434448 8.35358238]
[-84.71540070 3.61258817]
[-98.94645691 -1.12840617]
[-113.17751312 -5.86940050]
[-124.43430328 1.49640989]
[-137.68486023 1.04952693]
[-148.10943604 -6.82371998]
[-152.04487610 -19.07646561]
[-166.21621704 -23.99310875]
[-180.38754272 -28.90975189]
[-194.55886841 -33.82639694]
[-208.73020935 -38.74303818]
[-222.90153503 -43.65968323]
[-237.07286072 -48.57632828]
[-251.27433777 -53.40523911]
[-265.61828613 -57.79278564]
[-280.06640625 -61.82419968]
[-294.51449585 -65.85561371]
[-304.55041504 -54.35589218]
[-318.58535767 -48.35730362]
[-333.83270264 -49.05087662]
[-347.26507568 -56.29890060]
[-356.21548462 -68.66226959]
[-358.90679932 -83.68624115]
[-354.80468750 -98.38777924]
[-344.72357178 -109.84789276]
[-330.66513062 -115.79116058]
[-315.42062378 -115.03755188]
[-302.01687622 -107.73668671]
[-293.11523438 -95.33816528]
[-290.48309326 -80.30371857]
[-276.03500366 -76.27230072]
[-261.58688354 -72.24089050]
[-259.09802246 -73.47306824]
[-255.97760010 -73.80740356]
[-252.56028748 -73.00089264]
[-249.26158142 -70.93428040]
[-246.53334045 -67.63629913]
[-239.21437073 -68.50149536]
[-232.15621948 -62.74765778]
[-217.98489380 -57.83101273]
[-203.81356812 -52.91437149]
[-189.64222717 -47.99772644]
[-175.47090149 -43.08108139]
[-161.29957581 -38.16444016]
[-147.12823486 -33.24779510]
[-132.30783081 -41.22344208]
[-115.98731995 -35.89489746]
[-108.43652344 -20.10045624]
[-94.20546722 -15.35946274]
[-79.97441101 -10.61846828]
[-65.74335480 -5.87747383]
[-51.39938354 -1.48992717]
[-48.18399048 -2.87259984]
[-44.14400482 -2.78294683]
[-39.97126007 -0.85232544]
[-36.49534988 2.96832800]
[-22.20674515 7.53294754]
[-7.91814041 12.09756756]
[6.37046480 16.66218758]
[20.65907097 21.22680664]
[35.05620956 25.43660927]
[47.93701553 17.74994659]
[50.24687576 2.92886305]
[51.35902023 -12.02985191]
[48.85263824 -18.09986305]
[49.64859390 -23.69198990]
[52.68817139 -27.34332085]
[53.98524094 -42.28713608]
[55.09738159 -57.24585342]
[56.20952225 -72.20456696]
[57.32166290 -87.16328430]
[54.84201431 -95.92543793]
[58.54119110 -102.29975891]
[59.83825684 -117.24357605]
[61.13532639 -132.18739319]
[49.32961273 -142.25738525]
[45.73031998 -157.35124207]
[51.72145081 -171.66508484]
[64.99929810 -179.69493103]
[80.45825195 -178.35314941]
[92.15402985 -168.15568542]
[95.58937073 -153.02366638]
[89.44331360 -138.77566528]
[76.07913971 -130.89031982]
[74.78207397 -115.94650269]
[73.48500824 -101.00269318]
[72.28038025 -86.05113983]
[71.16823578 -71.09242249]
[70.05609131 -56.13370895]
[68.94395447 -41.17499542]
[71.30896759 -37.05456543]
[71.12953186 -31.40892601]
[67.61479950 -25.86152458]
[66.31773376 -10.91771030]
[65.20558929 4.04100418]
[73.71060181 -8.31475735]
[86.47039032 -16.20068359]
[101.32528687 -18.28203392]
[115.76101685 -14.20652962]
[127.33424377 -4.66397238]
[134.08613586 8.73050404]
[134.87388611 23.70980453]
[129.56417847 37.73859406]
[119.05569458 48.44241714]
[105.12706757 54.00959396]
[90.13580322 53.49783707]
[76.61924744 46.99377441]
[66.86517334 35.59824753]
[62.52472687 21.24260712]
[66.10753632 35.80844116]
[75.96862793 47.11148453]
[85.82971954 58.41452789]
[95.69081879 69.71757507]
[105.55191040 81.02061462]
[120.07231903 84.78330231]
[134.18176270 79.69176483]
[148.29119873 74.60021973]
[162.40063477 69.50868225]
[176.51007080 64.41713715]
[190.61950684 59.32559967]
[204.72894287 54.23405838]
[218.83837891 49.14251709]
[232.94781494 44.05097580]
[243.10417175 31.17540359]
[259.29180908 33.80073166]
[264.85827637 49.22624588]
[254.07727051 61.58350372]
[238.03935242 58.16041183]
[223.92991638 63.25195312]
[209.82048035 68.34349060]
[195.71104431 73.43503571]
[181.60160828 78.52657318]
[167.49217224 83.61811829]
[153.38273621 88.70965576]
[139.27330017 93.80120087]
[125.16385651 98.89273834]
[123.59847260 106.22756195]
[138.42167664 108.52373505]
[153.24488831 110.81990814]
[168.06809998 113.11608887]
[182.89131165 115.41226196]
[197.82958984 116.77171326]
[203.01779175 130.84590149]
[192.53610229 141.57597351]
[178.34414673 136.71858215]
[163.87504578 132.76324463]
[149.40592957 128.80789185]
[134.93681335 124.85254669]
[120.46770477 120.89719391]
[118.90231323 128.23200989]
[129.70385742 138.64001465]
[141.70692444 147.63594055]
[154.72811890 155.08232117]
[167.74931335 162.52868652]
[180.77049255 169.97506714]
[193.79168701 177.42144775]
[206.81288147 184.86782837]
[219.83407593 192.31420898]
[236.22192383 191.70555115]
[244.71263123 205.73551941]
[236.57167053 219.97128296]
[220.17378235 219.76831055]
[212.38769531 205.33540344]
[199.36650085 197.88902283]
[186.34530640 190.44264221]
[173.32412720 182.99626160]
[160.30293274 175.54988098]
[147.28173828 168.10350037]
[134.26054382 160.65711975]
[129.40026855 166.36920166]
[114.81945801 183.50541687]
[124.25445557 195.16648865]
[133.68945312 206.82757568]
[143.12445068 218.48864746]
[156.94058228 232.08146667]
[141.87315369 244.27255249]
[131.46337891 227.92366028]
[122.02837372 216.26257324]
[112.59337616 204.60148621]
[103.15837860 192.94041443]
[105.84774780 207.69735718]
[90.89120483 208.83834839]
[77.01599884 203.13934326]
[67.17937469 191.81500244]
[63.47782516 177.27888489]
[66.70027161 162.62911987]
[76.15991974 150.98802185]
[89.84059906 144.83668518]
[104.82674408 145.48622131]
[119.29585266 149.44157410]
[108.49430847 139.03355408]
[101.16931152 140.64427185]
[105.65869904 154.95669556]
[110.14807892 169.26911926]
[114.63746643 183.58154297]
[119.12684631 197.89396667]
[129.80548096 208.42803955]
[130.95462036 223.38395691]
[122.01060486 235.42575073]
[107.36052704 238.64682007]
[94.19035339 231.46723938]
[88.96012878 217.40861511]
] def
/pairs [
[5 25]
[6 24]
[7 23]
[8 22]
[9 21]
[10 20]
[11 19]
[31 165]
[32 164]
[33 163]
[34 162]
[35 161]
[36 112]
[41 111]
[42 110]
[43 109]
[44 108]
[45 107]
[46 103]
[51 102]
[52 101]
[53 100]
[54 99]
[58 96]
[59 95]
[60 94]
[61 93]
[62 92]
[63 91]
[64 90]
[65 88]
[66 83]
[67 82]
[68 81]
[113 160]
[114 146]
[115 145]
[118 144]
[119 141]
[120 140]
[121 139]
[122 138]
[124 137]
[125 136]
[126 135]
[166 187]
[167 186]
[168 185]
[169 184]
[170 183]
[171 182]
[172 181]
[173 180]
[174 179]
[201 242]
[202 241]
[203 220]
[204 219]
[205 218]
[206 217]
[207 216]
[208 215]
[209 214]
[222 231]
[223 230]
[224 229]
[225 228]
] def

init

% switch off outline pairs or bases by removing these lines
drawoutline
drawpairs
drawbases
% show it
showpage
end
%%EOF
