%!PS-Adobe-3.0 EPSF-3.0
%%Creator: PS_dot.c,v 1.38 2007/02/02 15:18:13 ivo Exp $, ViennaRNA-2.0.7
%%CreationDate: Sun Nov  4 18:30:38 2012
%%Title: RNA Secondary Structure Plot
%%BoundingBox: 66 210 518 662
%%DocumentFonts: Helvetica
%%Pages: 1
%%EndComments

%Options: -d2 
% to switch off outline pairs of sequence comment or
% delete the appropriate line near the end of the file

%%BeginProlog
/RNAplot 100 dict def
RNAplot begin
/fsize  14 def
/outlinecolor {0.2 setgray} bind def
/paircolor    {0.2 setgray} bind def
/seqcolor     {0   setgray} bind def
/cshow  { dup stringwidth pop -2 div fsize -3 div rmoveto show} bind def
/min { 2 copy gt { exch } if pop } bind def
/max { 2 copy lt { exch } if pop } bind def
/arccoords { % i j arccoords
  % puts optimal x1 y1 x2 y2 coordinates used in bezier curves from i to j
  % onto the stack
  dup 3 -1 roll dup 4 -1 roll lt dup dup 5 2 roll {exch} if
  dup 3 -1 roll dup 3 -1 roll exch sub 1 sub dup
  4 -2 roll 5 -1 roll {exch} if 4 2 roll
  sequence length dup 2 div exch 3 1 roll lt 
  {exch 5 -1 roll pop 4 -2 roll exch 4 2 roll}
  { 4 2 roll 5 -1 roll dup 6 1 roll {exch} if
    4 -2 roll exch pop dup 3 -1 roll dup 4 1 roll
    exch add 4 -1 roll dup 5 1 roll sub 1 sub
    5 -1 roll not {4 -2 roll exch 4 2 roll} if
  }ifelse
   % compute the scalingfactor and prepare (1-sf) and sf*r
  2 mul exch cpr 3 1 roll div dup
  3 -1 roll mul exch 1 exch sub exch
   % compute the coordinates
  3 -1 roll 1 sub coor exch get aload pop % get coord for i
  4 -1 roll dup 5 1 roll mul 3 -1 roll dup 4 1 roll add exch % calculate y1
  4 -1 roll dup 5 1 roll mul 3 -1 roll dup 4 1 roll add exch % calculate x1
  5 -1 roll 1 sub coor exch get aload pop % get coord for j
  % duplicate j coord
  dup 3 -1 roll dup 4 1 roll exch 8 2 roll
  6 -1 roll dup 7 1 roll mul 5 -1 roll dup 6 1 roll add exch % calculate y2
  6 -1 roll mul 5 -1 roll add exch % calculate x2
  6 -2 roll % reorder
} bind def
/drawoutline {
  gsave outlinecolor newpath
  coor 0 get aload pop 0.8 0 360 arc % draw 5' circle of 1st sequence
  currentdict /cutpoint known        % check if cutpoint is defined
  {coor 0 cutpoint getinterval
   {aload pop lineto} forall         % draw outline of 1st sequence
   coor cutpoint 1 add get aload pop
   2 copy moveto 0.8 0 360 arc       % draw 5' circle of 2nd sequence
   coor cutpoint 1 add coor length cutpoint 1 add sub getinterval
   {aload pop lineto} forall}        % draw outline of 2nd sequence
  {coor {aload pop lineto} forall}   % draw outline as a whole
  ifelse
  stroke grestore
} bind def
/drawpairs {
  paircolor
  0.7 setlinewidth
  [9 3.01] 9 setdash
  newpath
  pairs {aload pop
      currentdict (cpr) known
      { exch dup
        coor  exch 1 sub get aload pop moveto
        exch arccoords curveto
      }
      { coor exch 1 sub get aload pop moveto
        coor exch 1 sub get aload pop lineto
      }ifelse
  } forall
  stroke
} bind def
% draw bases
/drawbases {
  [] 0 setdash
  seqcolor
  0
  coor {
    aload pop moveto
    dup sequence exch 1 getinterval cshow
    1 add
  } forall
  pop
} bind def

/init {
  /Helvetica findfont fsize scalefont setfont
  1 setlinejoin
  1 setlinecap
  0.8 setlinewidth
  72 216 translate
  % find the coordinate range
  /xmax -1000 def /xmin 10000 def
  /ymax -1000 def /ymin 10000 def
  coor {
      aload pop
      dup ymin lt {dup /ymin exch def} if
      dup ymax gt {/ymax exch def} {pop} ifelse
      dup xmin lt {dup /xmin exch def} if
      dup xmax gt {/xmax exch def} {pop} ifelse
  } forall
  /size {xmax xmin sub ymax ymin sub max} bind def
  72 6 mul size div dup scale
  size xmin sub xmax sub 2 div size ymin sub ymax sub 2 div
  translate
} bind def
end
%%EndProlog
RNAplot begin
% data start here
/sequence (\
nnnn1111111nnnnnnn1111111nnnnn333334nnnn444444nnnn4444nnn44444444444nnnnnnnnnnnn444nnnn4n4444444nn44444nnn444444555nn55555n555nnnnnnnn5555555nn555nnn6n66666nnn533333777777777nnnn777777777nnnnnn666666n888888888nnnn8888888n<<<<nn>>>>nnnnnnnnn88nnnnnnnnnnn\
) def
/coor [
[89.47023773 208.68226624]
[87.54141235 193.80679321]
[85.61257935 178.93133545]
[83.68374634 164.05586243]
[76.35874939 165.66658020]
[70.91977692 179.64575195]
[65.48080444 193.62493896]
[60.04183197 207.60412598]
[54.60286331 221.58331299]
[49.16389084 235.56250000]
[43.72491837 249.54167175]
[51.40220261 263.16494751]
[48.47568130 278.52624512]
[36.32716751 288.37243652]
[20.69281769 288.05447388]
[8.95469379 277.72244263]
[6.65517855 262.25485229]
[14.88003349 248.95501709]
[29.74573326 244.10270691]
[35.18470383 230.12351990]
[40.62367630 216.14433289]
[46.06264877 202.16516113]
[51.50162125 188.18597412]
[56.94059372 174.20678711]
[62.37956619 160.22760010]
[58.98290634 153.54084778]
[47.50778198 163.20115662]
[40.93672943 176.68527222]
[26.99547386 182.22073364]
[12.96450138 176.91679382]
[6.17115402 163.54328918]
[10.16309452 149.08422852]
[22.85562706 141.09049988]
[37.62044907 143.73669434]
[52.18958282 140.16734314]
[48.79292297 133.48057556]
[44.70181274 134.73869324]
[40.81012726 134.65443420]
[37.51126099 133.45191956]
[35.08700562 131.45901489]
[33.68357468 129.06253052]
[19.39496994 124.49790192]
[5.10636473 119.93328857]
[-9.18224049 115.36866760]
[-23.47084618 110.80404663]
[-37.84167480 106.50528717]
[-41.94803238 107.71269989]
[-45.83837891 107.58032227]
[-49.12211990 106.33709717]
[-51.52153778 104.31436157]
[-52.89522171 101.90069580]
[-67.12628174 97.15969849]
[-81.35733795 92.41870880]
[-95.58839417 87.67771149]
[-106.84517670 95.04352570]
[-120.09574127 94.59664154]
[-130.52030945 86.72338867]
[-134.45576477 74.47064972]
[-148.62709045 69.55400085]
[-162.79841614 64.63735962]
[-176.96975708 59.72071457]
[-191.14108276 54.80407333]
[-205.31240845 49.88742828]
[-219.48374939 44.97078323]
[-233.68521118 40.14187241]
[-248.02917480 35.75432587]
[-262.47726440 31.72291183]
[-276.92538452 27.69149780]
[-286.96127319 39.19121933]
[-300.99621582 45.18980789]
[-316.24356079 44.49623489]
[-329.67596436 37.24821472]
[-338.62637329 24.88484001]
[-341.31768799 9.86087418]
[-337.21554565 -4.84066534]
[-327.13446045 -16.30077744]
[-313.07598877 -22.24405098]
[-297.83148193 -21.49044037]
[-284.42776489 -14.18957710]
[-275.52609253 -1.79105437]
[-272.89398193 13.24339294]
[-258.44586182 17.27480888]
[-243.99775696 21.30622292]
[-241.50888062 20.07404327]
[-238.38847351 19.73970985]
[-234.97116089 20.54621887]
[-231.67245483 22.61282921]
[-228.94421387 25.91081619]
[-221.62524414 25.04561996]
[-214.56709290 30.79945374]
[-200.39576721 35.71609879]
[-186.22444153 40.63274002]
[-172.05310059 45.54938507]
[-157.88177490 50.46603012]
[-143.71044922 55.38267136]
[-129.53910828 60.29931641]
[-114.71871185 52.32366943]
[-98.39819336 57.65221405]
[-90.84739685 73.44665527]
[-76.61634064 78.18765259]
[-62.38528442 82.92864227]
[-48.15422821 87.66963959]
[-33.81026077 92.05718231]
[-30.59486580 90.67451477]
[-26.55488014 90.76416779]
[-22.38213539 92.69478607]
[-18.90622711 96.51544189]
[-4.61762094 101.08006287]
[9.67098427 105.64467621]
[23.95958900 110.20929718]
[38.24819565 114.77391815]
[52.64533234 118.98371887]
[61.96659088 77.70293427]
[95.21884155 63.15217209]
[96.33097839 48.19345856]
[93.82460022 42.12344742]
[94.62055969 36.53132248]
[97.66013336 32.87998962]
[98.95719910 17.93617439]
[100.06934357 2.97745895]
[101.18148804 -11.98125553]
[102.29362488 -26.93997002]
[99.81398010 -35.70212555]
[103.51315308 -42.07644653]
[104.81021881 -57.02026367]
[106.10729218 -71.96408081]
[94.30157471 -82.03407288]
[90.70227814 -97.12792969]
[96.69341278 -111.44177246]
[109.97126007 -119.47161865]
[125.43021393 -118.12983704]
[137.12599182 -107.93237305]
[140.56134033 -92.80035400]
[134.41526794 -78.55234528]
[121.05110168 -70.66700745]
[119.75403595 -55.72319412]
[118.45697021 -40.77938080]
[117.25234222 -25.82782936]
[116.14019775 -10.86911392]
[115.02806091 4.08960009]
[113.91591644 19.04831505]
[116.28092957 23.16874504]
[116.10149384 28.81438446]
[112.58676147 34.36178589]
[111.28969574 49.30559921]
[110.17755127 64.26431274]
[116.19639587 66.55902863]
[121.72847748 69.85874939]
[126.60755920 74.06431580]
[130.68698120 79.04933167]
[137.37603760 72.87028503]
[144.73448181 73.28149414]
[158.64532471 67.67003632]
[172.55618286 62.05858612]
[186.46702576 56.44713211]
[200.37786865 50.83567810]
[199.50686646 38.16447067]
[202.21820068 25.77441597]
[208.28475952 14.65646744]
[217.21153259 5.69696188]
[228.27590942 -0.39304179]
[240.58621216 -3.13418436]
[253.15359497 -2.31652880]
[264.97137451 1.98439813]
[275.09576416 9.41445827]
[282.72116089 19.37004280]
[296.83059692 14.27850246]
[310.94003296 9.18696117]
[325.04946899 4.09542084]
[339.15890503 -0.99612027]
[353.26834106 -6.08766127]
[367.37777710 -11.17920208]
[381.48721313 -16.27074242]
[395.59664917 -21.36228371]
[405.75302124 -34.23785782]
[421.94067383 -31.61252785]
[427.50711060 -16.18701172]
[416.72610474 -3.82975698]
[400.68820190 -7.25284719]
[386.57876587 -2.16130614]
[372.46932983 2.93023467]
[358.35989380 8.02177525]
[344.25045776 13.11331654]
[330.14102173 18.20485687]
[316.03158569 23.29639816]
[301.92214966 28.38793945]
[287.81271362 33.47948074]
[287.52633667 50.87431335]
[280.55084229 66.85047150]
[267.93670654 78.93405151]
[251.60969543 85.24250031]
[234.07711792 84.77783966]
[218.04261780 77.58448029]
[205.98931885 64.74652100]
[192.07847595 70.35797882]
[178.16763306 75.96942902]
[164.25679016 81.58087921]
[150.34594727 87.19233704]
[136.47006226 92.88970947]
[138.06259155 122.24720764]
[116.06674957 148.42216492]
[126.86829376 158.83016968]
[138.87135315 167.82608032]
[151.89254761 175.27246094]
[164.91374207 182.71884155]
[177.93493652 190.16522217]
[190.95613098 197.61160278]
[203.97731018 205.05798340]
[216.99850464 212.50436401]
[233.38635254 211.89570618]
[241.87705994 225.92567444]
[233.73609924 240.16143799]
[217.33821106 239.95846558]
[209.55212402 225.52555847]
[196.53092957 218.07917786]
[183.50975037 210.63279724]
[170.48855591 203.18641663]
[157.46736145 195.74003601]
[144.44616699 188.29365540]
[131.42497253 180.84727478]
[126.56470490 186.55934143]
[111.98389435 203.69555664]
[121.41889191 215.35664368]
[130.85389709 227.01771545]
[140.28889465 238.67880249]
[154.10501099 252.27162170]
[139.03758240 264.46270752]
[128.62780762 248.11380005]
[119.19281006 236.45272827]
[109.75781250 224.79164124]
[100.32281494 213.13055420]
[103.01218414 227.88749695]
[88.05564117 229.02848816]
[74.18043518 223.32949829]
[64.34380341 212.00515747]
[60.64225769 197.46903992]
[63.86470795 182.81927490]
[73.32434845 171.17817688]
[87.00503540 165.02684021]
[101.99117279 165.67636108]
[116.46028900 169.63171387]
[105.65874481 159.22370911]
[98.33374023 160.83442688]
[102.82312775 175.14685059]
[107.31251526 189.45927429]
[111.80189514 203.77169800]
[116.29128265 218.08410645]
[126.96991730 228.61819458]
[128.11904907 243.57411194]
[119.17503357 255.61589050]
[104.52496338 258.83697510]
[91.35478210 251.65737915]
[86.12456512 237.59877014]
] def
/pairs [
[5 25]
[6 24]
[7 23]
[8 22]
[9 21]
[10 20]
[11 19]
[36 112]
[41 111]
[42 110]
[43 109]
[44 108]
[45 107]
[46 103]
[51 102]
[52 101]
[53 100]
[54 99]
[58 96]
[59 95]
[60 94]
[61 93]
[62 92]
[63 91]
[64 90]
[65 88]
[66 83]
[67 82]
[68 81]
[114 146]
[115 145]
[118 144]
[119 141]
[120 140]
[121 139]
[122 138]
[124 137]
[125 136]
[126 135]
[150 199]
[152 198]
[153 197]
[154 196]
[155 195]
[156 194]
[166 187]
[167 186]
[168 185]
[169 184]
[170 183]
[171 182]
[172 181]
[173 180]
[174 179]
[201 242]
[202 241]
[203 220]
[204 219]
[205 218]
[206 217]
[207 216]
[208 215]
[209 214]
[222 231]
[223 230]
[224 229]
[225 228]
] def

init

% switch off outline pairs or bases by removing these lines
drawoutline
drawpairs
drawbases
% show it
showpage
end
%%EOF
