%!PS-Adobe-3.0 EPSF-3.0
%%Creator: PS_dot.c,v 1.38 2007/02/02 15:18:13 ivo Exp $, ViennaRNA-2.0.7
%%CreationDate: Sat Nov  3 00:50:24 2012
%%Title: RNA Secondary Structure Plot
%%BoundingBox: 66 210 518 662
%%DocumentFonts: Helvetica
%%Pages: 1
%%EndComments

%Options: -d2 
% to switch off outline pairs of sequence comment or
% delete the appropriate line near the end of the file

%%BeginProlog
/RNAplot 100 dict def
RNAplot begin
/fsize  14 def
/outlinecolor {0.2 setgray} bind def
/paircolor    {0.2 setgray} bind def
/seqcolor     {0   setgray} bind def
/cshow  { dup stringwidth pop -2 div fsize -3 div rmoveto show} bind def
/min { 2 copy gt { exch } if pop } bind def
/max { 2 copy lt { exch } if pop } bind def
/arccoords { % i j arccoords
  % puts optimal x1 y1 x2 y2 coordinates used in bezier curves from i to j
  % onto the stack
  dup 3 -1 roll dup 4 -1 roll lt dup dup 5 2 roll {exch} if
  dup 3 -1 roll dup 3 -1 roll exch sub 1 sub dup
  4 -2 roll 5 -1 roll {exch} if 4 2 roll
  sequence length dup 2 div exch 3 1 roll lt 
  {exch 5 -1 roll pop 4 -2 roll exch 4 2 roll}
  { 4 2 roll 5 -1 roll dup 6 1 roll {exch} if
    4 -2 roll exch pop dup 3 -1 roll dup 4 1 roll
    exch add 4 -1 roll dup 5 1 roll sub 1 sub
    5 -1 roll not {4 -2 roll exch 4 2 roll} if
  }ifelse
   % compute the scalingfactor and prepare (1-sf) and sf*r
  2 mul exch cpr 3 1 roll div dup
  3 -1 roll mul exch 1 exch sub exch
   % compute the coordinates
  3 -1 roll 1 sub coor exch get aload pop % get coord for i
  4 -1 roll dup 5 1 roll mul 3 -1 roll dup 4 1 roll add exch % calculate y1
  4 -1 roll dup 5 1 roll mul 3 -1 roll dup 4 1 roll add exch % calculate x1
  5 -1 roll 1 sub coor exch get aload pop % get coord for j
  % duplicate j coord
  dup 3 -1 roll dup 4 1 roll exch 8 2 roll
  6 -1 roll dup 7 1 roll mul 5 -1 roll dup 6 1 roll add exch % calculate y2
  6 -1 roll mul 5 -1 roll add exch % calculate x2
  6 -2 roll % reorder
} bind def
/drawoutline {
  gsave outlinecolor newpath
  coor 0 get aload pop 0.8 0 360 arc % draw 5' circle of 1st sequence
  currentdict /cutpoint known        % check if cutpoint is defined
  {coor 0 cutpoint getinterval
   {aload pop lineto} forall         % draw outline of 1st sequence
   coor cutpoint 1 add get aload pop
   2 copy moveto 0.8 0 360 arc       % draw 5' circle of 2nd sequence
   coor cutpoint 1 add coor length cutpoint 1 add sub getinterval
   {aload pop lineto} forall}        % draw outline of 2nd sequence
  {coor {aload pop lineto} forall}   % draw outline as a whole
  ifelse
  stroke grestore
} bind def
/drawpairs {
  paircolor
  0.7 setlinewidth
  [9 3.01] 9 setdash
  newpath
  pairs {aload pop
      currentdict (cpr) known
      { exch dup
        coor  exch 1 sub get aload pop moveto
        exch arccoords curveto
      }
      { coor exch 1 sub get aload pop moveto
        coor exch 1 sub get aload pop lineto
      }ifelse
  } forall
  stroke
} bind def
% draw bases
/drawbases {
  [] 0 setdash
  seqcolor
  0
  coor {
    aload pop moveto
    dup sequence exch 1 getinterval cshow
    1 add
  } forall
  pop
} bind def

/init {
  /Helvetica findfont fsize scalefont setfont
  1 setlinejoin
  1 setlinecap
  0.8 setlinewidth
  72 216 translate
  % find the coordinate range
  /xmax -1000 def /xmin 10000 def
  /ymax -1000 def /ymin 10000 def
  coor {
      aload pop
      dup ymin lt {dup /ymin exch def} if
      dup ymax gt {/ymax exch def} {pop} ifelse
      dup xmin lt {dup /xmin exch def} if
      dup xmax gt {/xmax exch def} {pop} ifelse
  } forall
  /size {xmax xmin sub ymax ymin sub max} bind def
  72 6 mul size div dup scale
  size xmin sub xmax sub 2 div size ymin sub ymax sub 2 div
  translate
} bind def
end
%%EndProlog
RNAplot begin
% data start here
/sequence (\
1111111111112222666666662222<<<<<<<>>>>>>>333333334444444444444444444444444444444444444444<<<<<<<>>>>>>>444444444444444444444455555555555555555555555566666633333333777777777777777766666688888888888888<<<<<<<>>>>>>>-<<<>>>688\
) def
/coor [
[103.81037140 120.78575897]
[101.10258484 135.53933716]
[98.39479828 150.29290771]
[95.68701172 165.04647827]
[92.97922516 179.80004883]
[90.27143860 194.55361938]
[75.51786041 191.84582520]
[78.22565460 177.09225464]
[80.93344116 162.33868408]
[83.64122772 147.58511353]
[86.34901428 132.83154297]
[89.05680084 118.07797241]
[75.11015320 112.55609894]
[66.98452759 125.16460419]
[58.85890579 137.77310181]
[50.73328400 150.38160706]
[67.43645477 178.98420715]
[60.02732849 192.02662659]
[46.98490524 184.61750793]
[54.39403152 171.57507324]
[41.78553391 163.44946289]
[32.96875381 175.58471680]
[20.83349991 166.76792908]
[29.65027809 154.63267517]
[38.12478256 142.25598145]
[46.25040817 129.64747620]
[54.37602997 117.03897858]
[62.50165176 104.43048096]
[51.85809326 93.86096954]
[39.30662918 102.07441711]
[26.75516319 110.28786469]
[14.20369816 118.50131226]
[1.65223336 126.71475983]
[-10.89923096 134.92820740]
[-23.45069695 143.14166260]
[-31.66414452 130.59019470]
[-19.11268044 122.37673950]
[-6.56121492 114.16329193]
[5.99024963 105.94984436]
[18.54171371 97.73639679]
[31.09317970 89.52294922]
[43.64464188 81.30950165]
[49.06901169 67.32464600]
[45.33866501 52.79589844]
[41.60831451 38.26715088]
[37.87796783 23.73840141]
[34.14761734 9.20965481]
[30.41727066 -5.31909275]
[26.68692207 -19.84783936]
[22.95657349 -34.37658691]
[4.80949402 -61.03656006]
[-4.50772238 -72.79196167]
[-13.82493877 -84.54736328]
[-23.14215660 -96.30276489]
[-32.45937347 -108.05816650]
[-41.77658844 -119.81356812]
[-51.09380722 -131.56896973]
[-60.41102219 -143.32437134]
[-69.72824097 -155.07977295]
[-79.04545593 -166.83517456]
[-88.36267090 -178.59057617]
[-97.67988586 -190.34597778]
[-106.99710846 -202.10137939]
[-116.31432343 -213.85678101]
[-125.63153839 -225.61218262]
[-134.94876099 -237.36758423]
[-144.26597595 -249.12298584]
[-153.58319092 -260.87838745]
[-162.90040588 -272.63378906]
[-172.21762085 -284.38919067]
[-181.53483582 -296.14459229]
[-190.85205078 -307.89999390]
[-222.30300903 -303.53820801]
[-233.72608948 -313.26000977]
[-245.14915466 -322.98181152]
[-256.57223511 -332.70358276]
[-267.99530029 -342.42538452]
[-279.41839600 -352.14718628]
[-290.84146118 -361.86898804]
[-302.26452637 -371.59078979]
[-313.68762207 -381.31259155]
[-303.96582031 -392.73565674]
[-292.54272461 -383.01385498]
[-281.11965942 -373.29205322]
[-269.69659424 -363.57028198]
[-258.27349854 -353.84848022]
[-246.85043335 -344.12667847]
[-235.42736816 -334.40487671]
[-224.00428772 -324.68307495]
[-212.58120728 -314.96127319]
[-200.57023621 -323.94662476]
[-206.67129517 -337.64981079]
[-212.77233887 -351.35299683]
[-218.87339783 -365.05618286]
[-224.97444153 -378.75936890]
[-231.07548523 -392.46252441]
[-237.17654419 -406.16571045]
[-223.47335815 -412.26678467]
[-217.37231445 -398.56359863]
[-211.27125549 -384.86041260]
[-205.17021179 -371.15722656]
[-199.06915283 -357.45404053]
[-192.96810913 -343.75085449]
[-186.86706543 -330.04766846]
[-179.09664917 -317.21722412]
[-169.77943420 -305.46182251]
[-160.46221924 -293.70642090]
[-151.14500427 -281.95101929]
[-141.82778931 -270.19561768]
[-132.51057434 -258.44021606]
[-123.19335175 -246.68479919]
[-113.87613678 -234.92939758]
[-104.55892181 -223.17399597]
[-95.24170685 -211.41859436]
[-85.92448425 -199.66319275]
[-76.60726929 -187.90779114]
[-67.29005432 -176.15238953]
[-57.97283936 -164.39698792]
[-48.65562057 -152.64158630]
[-39.33840561 -140.88618469]
[-30.02118683 -129.13078308]
[-20.70396996 -117.37538147]
[-11.38675404 -105.61997986]
[-2.06953740 -93.86457825]
[7.24767923 -82.10917664]
[16.56489563 -70.35377502]
[31.55904770 -69.93495178]
[41.51794052 -81.15192413]
[51.47683334 -92.36889648]
[61.43572617 -103.58586884]
[71.39462280 -114.80283356]
[81.35351562 -126.01980591]
[91.31240845 -137.23678589]
[101.27130127 -148.45375061]
[111.23019409 -159.67071533]
[121.18908691 -170.88769531]
[131.14797974 -182.10466003]
[141.10687256 -193.32164001]
[152.32383728 -183.36274719]
[142.36494446 -172.14576721]
[132.40605164 -160.92880249]
[122.44716644 -149.71182251]
[112.48827362 -138.49485779]
[102.52938080 -127.27788544]
[92.57048798 -116.06091309]
[82.61159515 -104.84394073]
[72.65270233 -93.62697601]
[62.69380569 -82.41000366]
[52.73491287 -71.19303131]
[42.77602005 -59.97605896]
[56.61051559 -65.77318573]
[70.76098633 -60.79682541]
[77.92150879 -47.61627579]
[74.39509583 -33.03668594]
[62.00243378 -24.58553314]
[47.14188766 -26.62616348]
[37.48532104 -38.10693741]
[41.21567154 -23.57818794]
[44.94601822 -9.04944134]
[48.67636490 5.47930622]
[52.40671539 20.00805283]
[56.13706207 34.53680038]
[59.86741257 49.06554794]
[63.59775925 63.59429550]
[163.79071045 67.35211182]
[178.70854187 68.92003632]
[193.62637329 70.48796844]
[208.54418945 72.05589294]
[223.46202087 73.62381744]
[238.37985229 75.19174957]
[253.29768372 76.75967407]
[268.21551514 78.32759857]
[266.64758301 93.24542999]
[251.72975159 91.67750549]
[236.81192017 90.10957336]
[221.89410400 88.54164886]
[206.97627258 86.97372437]
[192.05844116 85.40579224]
[177.14060974 83.83786774]
[162.22277832 82.26994324]
[158.20408630 88.60240173]
[170.86900330 96.63980103]
[183.53379822 104.67739868]
[175.49600220 117.34207153]
[162.83160400 109.30471802]
[150.16668701 101.26731873]
[146.14797974 107.59977722]
[153.91838074 120.43024445]
[210.21369934 106.93672943]
[221.49992371 116.81707001]
[232.78614807 126.69741821]
[244.07237244 136.57775879]
[255.35859680 146.45809937]
[266.64480591 156.33843994]
[256.76446533 167.62466431]
[245.47825623 157.74432373]
[234.19203186 147.86398315]
[222.90580750 137.98364258]
[211.61958313 128.10330200]
[200.33335876 118.22295380]
[188.57795715 127.54016876]
[195.62002563 140.78439331]
[202.66210938 154.02859497]
[209.70417786 167.27281189]
[216.74624634 180.51702881]
[223.78833008 193.76124573]
[230.83039856 207.00546265]
[217.58618164 214.04753113]
[210.54411316 200.80331421]
[203.50202942 187.55909729]
[196.45996094 174.31488037]
[189.41789246 161.07067871]
[182.37580872 147.82646179]
[175.33374023 134.58224487]
[161.16809082 139.51524353]
[163.87588501 154.26881409]
[166.58367920 169.02238464]
[169.29145813 183.77595520]
[154.53788757 186.48374939]
[151.83009338 171.73017883]
[149.12231445 156.97660828]
[146.41452026 142.22303772]
[141.08792114 128.20065308]
[133.31752014 115.37018585]
] def
/pairs [
[1 12]
[2 11]
[3 10]
[4 9]
[5 8]
[6 7]
[13 28]
[14 27]
[15 26]
[16 25]
[17 20]
[18 19]
[21 24]
[22 23]
[29 42]
[30 41]
[31 40]
[32 39]
[33 38]
[34 37]
[35 36]
[43 164]
[44 163]
[45 162]
[46 161]
[47 160]
[48 159]
[49 158]
[50 157]
[51 126]
[52 125]
[53 124]
[54 123]
[55 122]
[56 121]
[57 120]
[58 119]
[59 118]
[60 117]
[61 116]
[62 115]
[63 114]
[64 113]
[65 112]
[66 111]
[67 110]
[68 109]
[69 108]
[70 107]
[71 106]
[72 105]
[73 90]
[74 89]
[75 88]
[76 87]
[77 86]
[78 85]
[79 84]
[80 83]
[81 82]
[91 104]
[92 103]
[93 102]
[94 101]
[95 100]
[96 99]
[97 98]
[127 150]
[128 149]
[129 148]
[130 147]
[131 146]
[132 145]
[133 144]
[134 143]
[135 142]
[136 141]
[137 140]
[138 139]
[165 180]
[166 179]
[167 178]
[168 177]
[169 176]
[170 175]
[171 174]
[172 173]
[187 224]
[188 223]
[189 200]
[190 199]
[191 198]
[192 197]
[193 196]
[194 195]
[201 214]
[202 213]
[203 212]
[204 211]
[205 210]
[206 209]
[207 208]
[215 222]
[216 221]
[217 220]
[218 219]
] def

init

% switch off outline pairs or bases by removing these lines
drawoutline
drawpairs
drawbases
% show it
showpage
end
%%EOF
