%!PS-Adobe-3.0 EPSF-3.0
%%Creator: PS_dot.c,v 1.38 2007/02/02 15:18:13 ivo Exp $, ViennaRNA-2.0.7
%%CreationDate: Sat Nov  3 00:50:24 2012
%%Title: RNA Secondary Structure Plot
%%BoundingBox: 66 210 518 662
%%DocumentFonts: Helvetica
%%Pages: 1
%%EndComments

%Options: -d2 
% to switch off outline pairs of sequence comment or
% delete the appropriate line near the end of the file

%%BeginProlog
/RNAplot 100 dict def
RNAplot begin
/fsize  14 def
/outlinecolor {0.2 setgray} bind def
/paircolor    {0.2 setgray} bind def
/seqcolor     {0   setgray} bind def
/cshow  { dup stringwidth pop -2 div fsize -3 div rmoveto show} bind def
/min { 2 copy gt { exch } if pop } bind def
/max { 2 copy lt { exch } if pop } bind def
/arccoords { % i j arccoords
  % puts optimal x1 y1 x2 y2 coordinates used in bezier curves from i to j
  % onto the stack
  dup 3 -1 roll dup 4 -1 roll lt dup dup 5 2 roll {exch} if
  dup 3 -1 roll dup 3 -1 roll exch sub 1 sub dup
  4 -2 roll 5 -1 roll {exch} if 4 2 roll
  sequence length dup 2 div exch 3 1 roll lt 
  {exch 5 -1 roll pop 4 -2 roll exch 4 2 roll}
  { 4 2 roll 5 -1 roll dup 6 1 roll {exch} if
    4 -2 roll exch pop dup 3 -1 roll dup 4 1 roll
    exch add 4 -1 roll dup 5 1 roll sub 1 sub
    5 -1 roll not {4 -2 roll exch 4 2 roll} if
  }ifelse
   % compute the scalingfactor and prepare (1-sf) and sf*r
  2 mul exch cpr 3 1 roll div dup
  3 -1 roll mul exch 1 exch sub exch
   % compute the coordinates
  3 -1 roll 1 sub coor exch get aload pop % get coord for i
  4 -1 roll dup 5 1 roll mul 3 -1 roll dup 4 1 roll add exch % calculate y1
  4 -1 roll dup 5 1 roll mul 3 -1 roll dup 4 1 roll add exch % calculate x1
  5 -1 roll 1 sub coor exch get aload pop % get coord for j
  % duplicate j coord
  dup 3 -1 roll dup 4 1 roll exch 8 2 roll
  6 -1 roll dup 7 1 roll mul 5 -1 roll dup 6 1 roll add exch % calculate y2
  6 -1 roll mul 5 -1 roll add exch % calculate x2
  6 -2 roll % reorder
} bind def
/drawoutline {
  gsave outlinecolor newpath
  coor 0 get aload pop 0.8 0 360 arc % draw 5' circle of 1st sequence
  currentdict /cutpoint known        % check if cutpoint is defined
  {coor 0 cutpoint getinterval
   {aload pop lineto} forall         % draw outline of 1st sequence
   coor cutpoint 1 add get aload pop
   2 copy moveto 0.8 0 360 arc       % draw 5' circle of 2nd sequence
   coor cutpoint 1 add coor length cutpoint 1 add sub getinterval
   {aload pop lineto} forall}        % draw outline of 2nd sequence
  {coor {aload pop lineto} forall}   % draw outline as a whole
  ifelse
  stroke grestore
} bind def
/drawpairs {
  paircolor
  0.7 setlinewidth
  [9 3.01] 9 setdash
  newpath
  pairs {aload pop
      currentdict (cpr) known
      { exch dup
        coor  exch 1 sub get aload pop moveto
        exch arccoords curveto
      }
      { coor exch 1 sub get aload pop moveto
        coor exch 1 sub get aload pop lineto
      }ifelse
  } forall
  stroke
} bind def
% draw bases
/drawbases {
  [] 0 setdash
  seqcolor
  0
  coor {
    aload pop moveto
    dup sequence exch 1 getinterval cshow
    1 add
  } forall
  pop
} bind def

/init {
  /Helvetica findfont fsize scalefont setfont
  1 setlinejoin
  1 setlinecap
  0.8 setlinewidth
  72 216 translate
  % find the coordinate range
  /xmax -1000 def /xmin 10000 def
  /ymax -1000 def /ymin 10000 def
  coor {
      aload pop
      dup ymin lt {dup /ymin exch def} if
      dup ymax gt {/ymax exch def} {pop} ifelse
      dup xmin lt {dup /xmin exch def} if
      dup xmax gt {/xmax exch def} {pop} ifelse
  } forall
  /size {xmax xmin sub ymax ymin sub max} bind def
  72 6 mul size div dup scale
  size xmin sub xmax sub 2 div size ymin sub ymax sub 2 div
  translate
} bind def
end
%%EndProlog
RNAplot begin
% data start here
/sequence (\
1111111111112222666666662222<<<<<<<>>>>>>>333333334444444444444444444444444444444444444444<<<<<<<>>>>>>>444444444444444444444455555555555555555555555566666633333333777777777777777766666688888888888888<<<<<<<>>>>>>>-<<<>>>688\
) def
/coor [
[80.08968353 135.73982239]
[77.38189697 150.49340820]
[74.67411041 165.24697876]
[71.96632385 180.00054932]
[69.25853729 194.75411987]
[66.55075073 209.50769043]
[51.79717636 206.79989624]
[54.50496292 192.04632568]
[57.21274948 177.29275513]
[59.92053604 162.53918457]
[62.62832260 147.78561401]
[65.33611298 133.03204346]
[51.38946533 127.51017761]
[43.26383972 140.11866760]
[35.13821793 152.72717285]
[27.01259422 165.33567810]
[43.71576691 193.93827820]
[36.30664062 206.98069763]
[23.26421547 199.57157898]
[30.67334366 186.52915955]
[18.06484604 178.40353394]
[9.24806690 190.53878784]
[-2.88718843 181.72200012]
[5.92959023 169.58674622]
[14.40409565 157.21005249]
[22.52971840 144.60154724]
[30.65534210 131.99305725]
[38.78096390 119.38455200]
[28.13740349 108.81504059]
[15.58593941 117.02848816]
[3.03447437 125.24193573]
[-9.51699066 133.45538330]
[-22.06845474 141.66883850]
[-34.61991882 149.88227844]
[-47.17138290 158.09573364]
[-55.38483429 145.54426575]
[-42.83336639 137.33081055]
[-30.28190422 129.11737061]
[-17.73043823 120.90391541]
[-5.17897367 112.69046783]
[7.37249088 104.47702026]
[19.92395592 96.26357269]
[27.19647026 94.43040466]
[12.24378777 95.62088776]
[14.54806805 80.79893494]
[23.98324203 69.13799286]
[37.99796677 63.79127121]
[52.80256271 66.20455933]
[64.39239502 75.72337341]
[78.20485687 81.57279968]
[85.47737885 79.73963165]
[76.16015625 67.98423004]
[66.84294128 56.22882462]
[57.52572632 44.47342300]
[48.20850754 32.71802139]
[38.89129257 20.96261978]
[29.57407570 9.20721722]
[20.25685883 -2.54818463]
[10.93964195 -14.30358601]
[1.62242556 -26.05898857]
[-7.69479132 -37.81439209]
[-17.01200867 -49.56979370]
[-26.32922363 -61.32519531]
[-35.64644241 -73.08059692]
[-44.96365738 -84.83599854]
[-54.28087616 -96.59140015]
[-63.59809113 -108.34680176]
[-72.91530609 -120.10220337]
[-82.23252106 -131.85760498]
[-91.54974365 -143.61300659]
[-100.86695862 -155.36840820]
[-110.18417358 -167.12380981]
[-141.63513184 -162.76200867]
[-153.05819702 -172.48381042]
[-164.48127747 -182.20561218]
[-175.90435791 -191.92741394]
[-187.32742310 -201.64920044]
[-198.75050354 -211.37100220]
[-210.17358398 -221.09280396]
[-221.59664917 -230.81460571]
[-233.01972961 -240.53640747]
[-223.29792786 -251.95947266]
[-211.87484741 -242.23767090]
[-200.45178223 -232.51588440]
[-189.02870178 -222.79408264]
[-177.60563660 -213.07228088]
[-166.18255615 -203.35047913]
[-154.75947571 -193.62867737]
[-143.33641052 -183.90689087]
[-131.91333008 -174.18508911]
[-119.90235901 -183.17044067]
[-126.00341034 -196.87362671]
[-132.10446167 -210.57681274]
[-138.20550537 -224.27998352]
[-144.30656433 -237.98316956]
[-150.40760803 -251.68635559]
[-156.50865173 -265.38952637]
[-142.80548096 -271.49057007]
[-136.70442200 -257.78741455]
[-130.60337830 -244.08421326]
[-124.50232697 -230.38104248]
[-118.40127563 -216.67785645]
[-112.30022430 -202.97467041]
[-106.19918060 -189.27148438]
[-98.42877197 -176.44102478]
[-89.11155701 -164.68562317]
[-79.79434204 -152.93022156]
[-70.47711945 -141.17481995]
[-61.15990448 -129.41941833]
[-51.84268951 -117.66401672]
[-42.52547455 -105.90861511]
[-33.20825577 -94.15321350]
[-23.89103889 -82.39781189]
[-14.57382298 -70.64241028]
[-5.25660610 -58.88700867]
[4.06061077 -47.13160706]
[13.37782764 -35.37620544]
[22.69504356 -23.62080383]
[32.01226044 -11.86540127]
[41.32947922 -0.10999947]
[50.64669418 11.64540195]
[59.96390915 23.40080452]
[69.28112793 35.15620422]
[78.59834290 46.91160965]
[87.91555786 58.66701126]
[97.23278046 70.42240906]
[112.22692871 70.84123993]
[122.18582153 59.62426376]
[132.14471436 48.40729523]
[142.10360718 37.19032288]
[152.06250000 25.97335052]
[162.02139282 14.75637913]
[171.98028564 3.53940821]
[181.93917847 -7.67756319]
[191.89807129 -18.89453506]
[201.85696411 -30.11150551]
[211.81585693 -41.32847595]
[221.77474976 -52.54544830]
[232.99172974 -42.58655548]
[223.03283691 -31.36958504]
[213.07394409 -20.15261269]
[203.11505127 -8.93564129]
[193.15615845 2.28132987]
[183.19726562 13.49830151]
[173.23837280 24.71527290]
[163.27947998 35.93224335]
[153.32058716 47.14921570]
[143.36169434 58.36618805]
[133.40280151 69.58316040]
[123.44390106 80.80013275]
[129.64047241 94.46038818]
[144.64010620 94.35566711]
[159.63973999 94.25094604]
[174.63937378 94.14622498]
[189.63900757 94.04151154]
[204.63864136 93.93679047]
[193.22451782 84.20447540]
[189.60589600 69.64749908]
[195.13447571 55.70351028]
[207.74508667 47.58118057]
[222.72715759 48.31454086]
[234.48422241 57.62965775]
[238.62452698 72.04693604]
[233.60150146 86.18090820]
[221.29338074 94.75134277]
[236.21121216 96.31926727]
[251.12902832 97.88719940]
[266.04687500 99.45512390]
[280.96469116 101.02304840]
[295.88250732 102.59098053]
[310.80035400 104.15890503]
[325.71817017 105.72682953]
[324.15023804 120.64466095]
[309.23242188 119.07672882]
[294.31460571 117.50880432]
[279.39675903 115.94087982]
[264.47894287 114.37295532]
[249.56111145 112.80502319]
[234.64328003 111.23709869]
[219.72544861 109.66917419]
[204.74336243 108.93642426]
[189.74372864 109.04114532]
[174.74409485 109.14585876]
[159.74446106 109.25057983]
[144.74482727 109.35530090]
[129.74519348 109.46002197]
[122.42729187 122.55384827]
[130.19769287 135.38430786]
[186.49301147 121.89080048]
[197.77923584 131.77114868]
[209.06546021 141.65148926]
[220.35168457 151.53182983]
[231.63790894 161.41217041]
[242.92413330 171.29251099]
[233.04379272 182.57873535]
[221.75756836 172.69839478]
[210.47134399 162.81805420]
[199.18511963 152.93771362]
[187.89889526 143.05737305]
[176.61267090 133.17703247]
[164.85726929 142.49424744]
[171.89933777 155.73846436]
[178.94142151 168.98266602]
[185.98348999 182.22688293]
[193.02555847 195.47109985]
[200.06764221 208.71531677]
[207.10971069 221.95953369]
[193.86549377 229.00160217]
[186.82342529 215.75738525]
[179.78134155 202.51316833]
[172.73927307 189.26895142]
[165.69720459 176.02474976]
[158.65512085 162.78053284]
[151.61305237 149.53631592]
[137.44740295 154.46931458]
[140.15519714 169.22288513]
[142.86297607 183.97645569]
[145.57077026 198.73002625]
[130.81719971 201.43782043]
[128.10940552 186.68424988]
[125.40162659 171.93067932]
[122.69384003 157.17710876]
[117.36723328 143.15472412]
[109.59682465 130.32424927]
] def
/pairs [
[1 12]
[2 11]
[3 10]
[4 9]
[5 8]
[6 7]
[13 28]
[14 27]
[15 26]
[16 25]
[17 20]
[18 19]
[21 24]
[22 23]
[29 42]
[30 41]
[31 40]
[32 39]
[33 38]
[34 37]
[35 36]
[51 126]
[52 125]
[53 124]
[54 123]
[55 122]
[56 121]
[57 120]
[58 119]
[59 118]
[60 117]
[61 116]
[62 115]
[63 114]
[64 113]
[65 112]
[66 111]
[67 110]
[68 109]
[69 108]
[70 107]
[71 106]
[72 105]
[73 90]
[74 89]
[75 88]
[76 87]
[77 86]
[78 85]
[79 84]
[80 83]
[81 82]
[91 104]
[92 103]
[93 102]
[94 101]
[95 100]
[96 99]
[97 98]
[127 150]
[128 149]
[129 148]
[130 147]
[131 146]
[132 145]
[133 144]
[134 143]
[135 142]
[136 141]
[137 140]
[138 139]
[151 186]
[152 185]
[153 184]
[154 183]
[155 182]
[156 181]
[165 180]
[166 179]
[167 178]
[168 177]
[169 176]
[170 175]
[171 174]
[172 173]
[187 224]
[188 223]
[189 200]
[190 199]
[191 198]
[192 197]
[193 196]
[194 195]
[201 214]
[202 213]
[203 212]
[204 211]
[205 210]
[206 209]
[207 208]
[215 222]
[216 221]
[217 220]
[218 219]
] def

init

% switch off outline pairs or bases by removing these lines
drawoutline
drawpairs
drawbases
% show it
showpage
end
%%EOF
