%!PS-Adobe-3.0 EPSF-3.0
%%Creator: PS_dot.c,v 1.38 2007/02/02 15:18:13 ivo Exp $, ViennaRNA-2.0.7
%%CreationDate: Sun Nov  4 18:30:39 2012
%%Title: RNA Secondary Structure Plot
%%BoundingBox: 66 210 518 662
%%DocumentFonts: Helvetica
%%Pages: 1
%%EndComments

%Options: -d2 
% to switch off outline pairs of sequence comment or
% delete the appropriate line near the end of the file

%%BeginProlog
/RNAplot 100 dict def
RNAplot begin
/fsize  14 def
/outlinecolor {0.2 setgray} bind def
/paircolor    {0.2 setgray} bind def
/seqcolor     {0   setgray} bind def
/cshow  { dup stringwidth pop -2 div fsize -3 div rmoveto show} bind def
/min { 2 copy gt { exch } if pop } bind def
/max { 2 copy lt { exch } if pop } bind def
/arccoords { % i j arccoords
  % puts optimal x1 y1 x2 y2 coordinates used in bezier curves from i to j
  % onto the stack
  dup 3 -1 roll dup 4 -1 roll lt dup dup 5 2 roll {exch} if
  dup 3 -1 roll dup 3 -1 roll exch sub 1 sub dup
  4 -2 roll 5 -1 roll {exch} if 4 2 roll
  sequence length dup 2 div exch 3 1 roll lt 
  {exch 5 -1 roll pop 4 -2 roll exch 4 2 roll}
  { 4 2 roll 5 -1 roll dup 6 1 roll {exch} if
    4 -2 roll exch pop dup 3 -1 roll dup 4 1 roll
    exch add 4 -1 roll dup 5 1 roll sub 1 sub
    5 -1 roll not {4 -2 roll exch 4 2 roll} if
  }ifelse
   % compute the scalingfactor and prepare (1-sf) and sf*r
  2 mul exch cpr 3 1 roll div dup
  3 -1 roll mul exch 1 exch sub exch
   % compute the coordinates
  3 -1 roll 1 sub coor exch get aload pop % get coord for i
  4 -1 roll dup 5 1 roll mul 3 -1 roll dup 4 1 roll add exch % calculate y1
  4 -1 roll dup 5 1 roll mul 3 -1 roll dup 4 1 roll add exch % calculate x1
  5 -1 roll 1 sub coor exch get aload pop % get coord for j
  % duplicate j coord
  dup 3 -1 roll dup 4 1 roll exch 8 2 roll
  6 -1 roll dup 7 1 roll mul 5 -1 roll dup 6 1 roll add exch % calculate y2
  6 -1 roll mul 5 -1 roll add exch % calculate x2
  6 -2 roll % reorder
} bind def
/drawoutline {
  gsave outlinecolor newpath
  coor 0 get aload pop 0.8 0 360 arc % draw 5' circle of 1st sequence
  currentdict /cutpoint known        % check if cutpoint is defined
  {coor 0 cutpoint getinterval
   {aload pop lineto} forall         % draw outline of 1st sequence
   coor cutpoint 1 add get aload pop
   2 copy moveto 0.8 0 360 arc       % draw 5' circle of 2nd sequence
   coor cutpoint 1 add coor length cutpoint 1 add sub getinterval
   {aload pop lineto} forall}        % draw outline of 2nd sequence
  {coor {aload pop lineto} forall}   % draw outline as a whole
  ifelse
  stroke grestore
} bind def
/drawpairs {
  paircolor
  0.7 setlinewidth
  [9 3.01] 9 setdash
  newpath
  pairs {aload pop
      currentdict (cpr) known
      { exch dup
        coor  exch 1 sub get aload pop moveto
        exch arccoords curveto
      }
      { coor exch 1 sub get aload pop moveto
        coor exch 1 sub get aload pop lineto
      }ifelse
  } forall
  stroke
} bind def
% draw bases
/drawbases {
  [] 0 setdash
  seqcolor
  0
  coor {
    aload pop moveto
    dup sequence exch 1 getinterval cshow
    1 add
  } forall
  pop
} bind def

/init {
  /Helvetica findfont fsize scalefont setfont
  1 setlinejoin
  1 setlinecap
  0.8 setlinewidth
  72 216 translate
  % find the coordinate range
  /xmax -1000 def /xmin 10000 def
  /ymax -1000 def /ymin 10000 def
  coor {
      aload pop
      dup ymin lt {dup /ymin exch def} if
      dup ymax gt {/ymax exch def} {pop} ifelse
      dup xmin lt {dup /xmin exch def} if
      dup xmax gt {/xmax exch def} {pop} ifelse
  } forall
  /size {xmax xmin sub ymax ymin sub max} bind def
  72 6 mul size div dup scale
  size xmin sub xmax sub 2 div size ymin sub ymax sub 2 div
  translate
} bind def
end
%%EndProlog
RNAplot begin
% data start here
/sequence (\
111111nnnnnnnnnnnnnnnnnnnnnnnnnnnn111111nn2222nnnnnnnnnnnnn2222n<<<<<<<nnnnnnnnn>>>>>>>nn33333333nnn444444nnnn4444nnnnn444444444444n444444444nnnnnn444444444n<<<<<<<nnnnn>>>>>>>nnn4444nnnnn44444444nnnn4444nnn444444555nnn5555nnn55555nnnnnn55555nn5555nn555nn\
n6n66666nn3333333377777777nnnnnn77777777nnnnnnn66666688nn888888nnnn888888n<<<<<<<nnnnnnnnnnnnnnnn>>>>>>><<<>>>nnnnnnn88nnnnnnnnnnn\
) def
/coor [
[100.82358551 120.52256775]
[95.91057587 134.69515991]
[90.99756622 148.86775208]
[86.08455658 163.04034424]
[81.17154694 177.21293640]
[76.25853729 191.38552856]
[89.15104675 199.16221619]
[100.14469147 209.44975281]
[108.75887299 221.79841614]
[114.61701965 235.66838074]
[117.46303558 250.45329285]
[117.17250824 265.50683594]
[113.75814056 280.17092896]
[107.36918640 293.80453491]
[98.28495026 305.81161499]
[86.90254974 315.66732788]
[73.71957397 322.94076538]
[59.31233597 327.31399536]
[44.31064987 328.59582520]
[29.37032700 326.73022461]
[15.14449406 321.79876709]
[2.25504351 314.01699829]
[-8.73455334 303.72512817]
[-17.34387779 291.37307739]
[-23.19656754 277.50082397]
[-26.03676987 262.71478271]
[-25.74032021 247.66134644]
[-22.32017899 232.99859619]
[-15.92586327 219.36752319]
[-6.83690071 207.36399841]
[4.54937601 197.51278687]
[17.73520851 190.24453735]
[32.14416885 185.87696838]
[47.14635849 184.60104370]
[62.08594513 186.47251892]
[66.99895477 172.29992676]
[71.91196442 158.12733459]
[76.82497406 143.95474243]
[81.73799133 129.78215027]
[86.65100098 115.60955811]
[80.45339203 111.38585663]
[68.05817413 102.93846130]
[61.86056137 98.71475983]
[50.46637344 108.47039795]
[39.07218552 118.22603607]
[27.67799759 127.98167419]
[32.06149673 142.56608582]
[30.12757111 157.67170715]
[22.21128654 170.68139648]
[9.68418503 179.34117126]
[-5.28333712 182.15065002]
[-20.09806442 178.62309265]
[-32.19325638 169.36964417]
[-39.47335052 155.99354553]
[-40.67702484 140.81227112]
[-35.59573364 126.45606995]
[-25.10984230 115.41225433]
[-11.03609657 109.59421539]
[4.18714285 110.00997162]
[17.92235947 116.58748627]
[29.31654739 106.83184814]
[40.71073532 97.07621002]
[52.10492325 87.32057190]
[44.63985443 74.30931854]
[37.17546082 61.29921341]
[23.00287247 66.21221924]
[8.83028126 71.12523651]
[-5.34230947 76.03824615]
[-19.51490021 80.95125580]
[-33.68749237 85.86426544]
[-47.86008072 90.77727509]
[-51.38980103 105.79541779]
[-62.49448776 116.50473785]
[-77.63067627 119.48793030]
[-91.96846008 113.79306030]
[-100.93270874 101.23735046]
[-101.66295624 85.82728577]
[-93.92619324 72.48014832]
[-80.19118500 65.45497131]
[-64.84072876 66.99345398]
[-52.77309036 76.60468292]
[-38.60050201 71.69167328]
[-24.42791176 66.77866364]
[-10.25532055 61.86565399]
[3.91727018 56.95264435]
[18.08986092 52.03963089]
[32.26245117 47.12662125]
[84.67125702 36.35797119]
[118.97348022 59.20207214]
[121.93481445 89.02770996]
[123.39747620 74.09918976]
[124.86013794 59.17067719]
[126.32280731 44.24215698]
[127.78546906 29.31364250]
[129.24813843 14.38512516]
[132.43368530 -22.19325066]
[130.36489868 -37.04990387]
[114.89992523 -35.69492340]
[98.30493927 -44.93336868]
[87.48458099 -64.77160645]
[88.66177368 -91.02605438]
[80.36632538 -103.52347565]
[72.07087708 -116.02089691]
[63.77542496 -128.51831055]
[55.47997665 -141.01573181]
[47.18452835 -153.51315308]
[33.44994354 -153.06407166]
[21.37392044 -159.39285278]
[14.04465199 -170.76089478]
[13.27697945 -184.15682983]
[19.16409492 -196.09399414]
[10.97063351 -208.65850830]
[2.77717280 -221.22303772]
[-5.41628838 -233.78755188]
[-19.28484917 -232.30300903]
[-32.38283157 -236.90151978]
[-42.18593597 -246.63671875]
[-46.83077240 -259.57815552]
[-45.46890640 -273.19393921]
[-38.42121887 -284.84603882]
[-46.51214981 -297.47683716]
[-54.60307693 -310.10763550]
[-62.69400787 -322.73840332]
[-70.78494263 -335.36920166]
[-78.87586975 -348.00000000]
[-86.96679688 -360.63079834]
[-95.05773163 -373.26156616]
[-103.40396881 -385.72512817]
[-112.00205994 -398.01629639]
[-120.60014343 -410.30746460]
[-129.19824219 -422.59863281]
[-151.47363281 -420.45062256]
[-169.93692017 -442.15997314]
[-180.58659363 -452.72332764]
[-191.23628235 -463.28668213]
[-201.88595581 -473.85003662]
[-212.53562927 -484.41339111]
[-223.18530273 -494.97674561]
[-233.83497620 -505.54010010]
[-244.48466492 -516.10345459]
[-255.13433838 -526.66680908]
[-270.93548584 -526.35186768]
[-282.27322388 -537.36236572]
[-282.42108154 -553.16595459]
[-271.29135132 -564.38665771]
[-255.48706055 -564.36743164]
[-244.38465881 -553.11962891]
[-244.57098389 -537.31646729]
[-233.92131042 -526.75311279]
[-223.27163696 -516.18975830]
[-212.62194824 -505.62640381]
[-201.97227478 -495.06304932]
[-191.32260132 -484.49969482]
[-180.67292786 -473.93637085]
[-170.02325439 -463.37301636]
[-159.37356567 -452.80966187]
[-147.04696655 -461.35803223]
[-134.72146606 -469.90567017]
[-140.88192749 -483.58221436]
[-147.04240417 -497.25878906]
[-153.20288086 -510.93536377]
[-159.36335754 -524.61193848]
[-165.52383423 -538.28851318]
[-171.68429565 -551.96508789]
[-186.11676025 -558.97106934]
[-189.49705505 -574.65393066]
[-179.23211670 -586.98315430]
[-163.19630432 -586.50085449]
[-153.69094849 -573.57690430]
[-158.00773621 -558.12554932]
[-151.84725952 -544.44897461]
[-145.68678284 -530.77239990]
[-139.52630615 -517.09582520]
[-133.36582947 -503.41928101]
[-127.20536041 -489.74270630]
[-121.04489136 -476.06613159]
[-110.75710297 -464.62850952]
[-107.21772003 -451.27520752]
[-109.90773773 -439.31607056]
[-116.90706635 -431.19674683]
[-108.30897522 -418.90554810]
[-99.71088409 -406.61437988]
[-91.11280060 -394.32321167]
[-86.37292480 -408.55465698]
[-72.32013702 -413.80050659]
[-59.41413498 -406.15621948]
[-57.26105881 -391.31155396]
[-67.46347809 -380.31561279]
[-82.42694092 -381.35250854]
[-74.33600616 -368.72171021]
[-66.24507904 -356.09091187]
[-58.15414810 -343.46014404]
[-50.06321716 -330.82934570]
[-41.97229004 -318.19854736]
[-33.88135910 -305.56777954]
[-25.79042816 -292.93698120]
[-9.63712406 -294.06634521]
[4.95620251 -286.83462524]
[13.94482040 -273.13998413]
[14.78388977 -256.68615723]
[7.14823294 -241.98101807]
[15.34169388 -229.41650391]
[23.53515434 -216.85197449]
[31.72861671 -204.28746033]
[48.17490387 -203.96844482]
[61.30558395 -193.78617859]
[65.79830933 -177.61596680]
[59.68194962 -161.80860901]
[67.97739410 -149.31118774]
[76.27285004 -136.81376648]
[84.56829834 -124.31634521]
[92.86374664 -111.81892395]
[101.15919495 -99.32150269]
[116.14913177 -98.77225494]
[125.33695221 -110.62906647]
[134.52476501 -122.48588562]
[131.30560303 -135.51901245]
[136.08842468 -147.85493469]
[146.92900085 -155.09596252]
[159.76792908 -154.79872131]
[169.05194092 -166.58035278]
[178.33595276 -178.36199951]
[187.61996460 -190.14364624]
[184.50698853 -203.20252991]
[189.39002991 -215.49913025]
[200.28918457 -222.65168762]
[213.12527466 -222.24995422]
[222.50486755 -233.95565796]
[231.88446045 -245.66134644]
[241.26405334 -257.36703491]
[250.64364624 -269.07272339]
[248.66175842 -284.75225830]
[258.41333008 -297.18939209]
[274.11291504 -299.00540161]
[286.44625854 -289.12289429]
[288.09619141 -273.40496826]
[278.08383179 -261.17678833]
[262.34933472 -259.69314575]
[252.96975708 -247.98744202]
[243.59016418 -236.28175354]
[234.21057129 -224.57606506]
[224.83097839 -212.87036133]
[227.37089539 -196.21200562]
[216.84097290 -182.62503052]
[199.40161133 -180.85963440]
[190.11759949 -169.07798767]
[180.83358765 -157.29634094]
[171.54957581 -145.51470947]
[174.22500610 -128.87756348]
[163.80599976 -115.20533752]
[146.38157654 -113.29806519]
[137.19377136 -101.44125366]
[128.00595093 -89.58444214]
[132.62394714 -83.67477417]
[147.47773743 -85.76402283]
[141.85993958 -71.85545349]
[146.47793579 -65.94578552]
[153.00915527 -72.22349548]
[160.34060669 -71.98761749]
[174.11563110 -77.92465973]
[187.89067078 -83.86170197]
[201.66569519 -89.79875183]
[215.44073486 -95.73579407]
[232.25840759 -105.36988831]
[239.92973328 -87.57099152]
[221.37777710 -81.96076202]
[207.60273743 -76.02371979]
[193.82771301 -70.08666992]
[180.05267334 -64.14962769]
[166.27764893 -58.21258163]
[152.52688599 -52.21953201]
[145.22154236 -39.11869049]
[147.29034424 -24.26203918]
[158.99603271 -14.88244724]
[173.94638062 -16.10192680]
[188.89672852 -17.32140541]
[203.84707642 -18.54088402]
[218.79742432 -19.76036263]
[233.74777222 -20.97984123]
[248.69812012 -22.19931984]
[263.64846802 -23.41879845]
[273.68591309 -35.62637711]
[289.42343140 -37.07771301]
[301.52420044 -26.91175079]
[302.80908203 -11.15977669]
[292.51574707 0.83284152]
[276.75106812 1.95109665]
[264.86795044 -8.46845245]
[249.91758728 -7.24897337]
[234.96723938 -6.02949429]
[220.01689148 -4.81001568]
[205.06654358 -3.59053683]
[190.11621094 -2.37105799]
[175.16586304 -1.15157914]
[160.21551514 0.06789961]
[175.18969727 0.94761926]
[186.49214172 10.80939102]
[189.39297485 25.52622414]
[182.67823792 38.93936157]
[169.15792847 45.43562317]
[154.49009705 42.29642868]
[144.81297302 30.83548164]
[144.17665100 15.84778881]
[142.71398926 30.77630615]
[141.25132751 45.70482254]
[139.78865051 60.63333893]
[138.32598877 75.56185913]
[136.86332703 90.49037170]
[141.48696899 104.75998688]
[151.42678833 115.99387360]
[173.53758240 105.42783356]
[201.54901123 112.67788696]
[221.23002625 139.66755676]
[234.36048889 146.91952515]
[247.49095154 154.17149353]
[260.62139893 161.42346191]
[273.75186157 168.67543030]
[286.88232422 175.92739868]
[303.25930786 175.07516479]
[311.95767212 188.97735596]
[304.02926636 203.33258057]
[287.63015747 203.37341309]
[279.63037109 189.05786133]
[266.49990845 181.80589294]
[253.36944580 174.55392456]
[240.23898315 167.30195618]
[227.10852051 160.04998779]
[213.97805786 152.79801941]
[209.14677429 158.53462219]
[194.65290833 175.74444580]
[204.03250122 187.45013428]
[213.41209412 199.15582275]
[222.79168701 210.86152649]
[232.17126465 222.56721497]
[241.55085754 234.27290344]
[250.93045044 245.97859192]
[265.28024292 241.09394836]
[280.43518066 241.41490173]
[294.56530762 246.90267944]
[305.96429443 256.89462280]
[313.25564575 270.18417358]
[315.55892944 285.16650391]
[312.59600830 300.03247070]
[304.72467041 312.98693848]
[292.89538574 322.46554565]
[278.53665161 327.32373047]
[263.38229370 326.97485352]
[249.26232910 321.46102905]
[237.88177490 311.44808960]
[230.61491394 298.14514160]
[228.33923340 283.15859985]
[231.32955933 268.29809570]
[239.22476196 255.35818481]
[229.84516907 243.65249634]
[220.46557617 231.94680786]
[211.08598328 220.24111938]
[201.70639038 208.53541565]
[192.32679749 196.82972717]
[182.94720459 185.12403870]
[169.99771118 192.69441223]
[175.59667969 206.61027527]
[181.19564819 220.52615356]
[167.27978516 226.12512207]
[161.68081665 212.20925903]
[156.08183289 198.29338074]
[144.52200317 191.55625916]
[135.52175903 182.54766846]
[129.45513916 172.08987427]
[126.45560455 161.04217529]
[126.42237854 150.23495483]
[129.04399109 140.40934753]
[133.83650208 132.16709900]
[140.19290161 125.93368530]
[130.25308228 114.69979858]
[122.89571381 116.15548706]
[126.23290253 130.77955627]
[129.57009888 145.40361023]
[132.90728760 160.02767944]
[142.01481628 171.94625854]
[136.70951843 185.97671509]
[121.99462128 188.88737488]
[111.74727631 177.93330383]
[115.63034821 163.44599915]
[113.14722443 148.65295410]
[110.66409302 133.85992432]
] def
/pairs [
[1 40]
[2 39]
[3 38]
[4 37]
[5 36]
[6 35]
[43 63]
[44 62]
[45 61]
[46 60]
[65 87]
[66 86]
[67 85]
[68 84]
[69 83]
[70 82]
[71 81]
[90 308]
[91 307]
[92 306]
[93 305]
[94 304]
[95 303]
[96 273]
[97 272]
[101 213]
[102 212]
[103 211]
[104 210]
[105 209]
[106 208]
[111 204]
[112 203]
[113 202]
[114 201]
[120 196]
[121 195]
[122 194]
[123 193]
[124 192]
[125 191]
[126 190]
[127 189]
[128 183]
[129 182]
[130 181]
[131 180]
[133 156]
[134 155]
[135 154]
[136 153]
[137 152]
[138 151]
[139 150]
[140 149]
[141 148]
[158 176]
[159 175]
[160 174]
[161 173]
[162 172]
[163 171]
[164 170]
[214 253]
[215 252]
[216 251]
[220 248]
[221 247]
[222 246]
[223 245]
[227 242]
[228 241]
[229 240]
[230 239]
[231 238]
[257 271]
[259 270]
[260 269]
[261 268]
[262 267]
[263 266]
[274 295]
[275 294]
[276 293]
[277 292]
[278 291]
[279 290]
[280 289]
[281 288]
[309 374]
[310 373]
[313 328]
[314 327]
[315 326]
[316 325]
[317 324]
[318 323]
[330 359]
[331 358]
[332 357]
[333 356]
[334 355]
[335 354]
[336 353]
[360 365]
[361 364]
[362 363]
] def

init

% switch off outline pairs or bases by removing these lines
drawoutline
drawpairs
drawbases
% show it
showpage
end
%%EOF
