%!PS-Adobe-3.0 EPSF-3.0
%%Creator: PS_dot.c,v 1.38 2007/02/02 15:18:13 ivo Exp $, ViennaRNA-2.0.7
%%CreationDate: Sun Nov  4 18:30:39 2012
%%Title: RNA Secondary Structure Plot
%%BoundingBox: 66 210 518 662
%%DocumentFonts: Helvetica
%%Pages: 1
%%EndComments

%Options: -d2 
% to switch off outline pairs of sequence comment or
% delete the appropriate line near the end of the file

%%BeginProlog
/RNAplot 100 dict def
RNAplot begin
/fsize  14 def
/outlinecolor {0.2 setgray} bind def
/paircolor    {0.2 setgray} bind def
/seqcolor     {0   setgray} bind def
/cshow  { dup stringwidth pop -2 div fsize -3 div rmoveto show} bind def
/min { 2 copy gt { exch } if pop } bind def
/max { 2 copy lt { exch } if pop } bind def
/arccoords { % i j arccoords
  % puts optimal x1 y1 x2 y2 coordinates used in bezier curves from i to j
  % onto the stack
  dup 3 -1 roll dup 4 -1 roll lt dup dup 5 2 roll {exch} if
  dup 3 -1 roll dup 3 -1 roll exch sub 1 sub dup
  4 -2 roll 5 -1 roll {exch} if 4 2 roll
  sequence length dup 2 div exch 3 1 roll lt 
  {exch 5 -1 roll pop 4 -2 roll exch 4 2 roll}
  { 4 2 roll 5 -1 roll dup 6 1 roll {exch} if
    4 -2 roll exch pop dup 3 -1 roll dup 4 1 roll
    exch add 4 -1 roll dup 5 1 roll sub 1 sub
    5 -1 roll not {4 -2 roll exch 4 2 roll} if
  }ifelse
   % compute the scalingfactor and prepare (1-sf) and sf*r
  2 mul exch cpr 3 1 roll div dup
  3 -1 roll mul exch 1 exch sub exch
   % compute the coordinates
  3 -1 roll 1 sub coor exch get aload pop % get coord for i
  4 -1 roll dup 5 1 roll mul 3 -1 roll dup 4 1 roll add exch % calculate y1
  4 -1 roll dup 5 1 roll mul 3 -1 roll dup 4 1 roll add exch % calculate x1
  5 -1 roll 1 sub coor exch get aload pop % get coord for j
  % duplicate j coord
  dup 3 -1 roll dup 4 1 roll exch 8 2 roll
  6 -1 roll dup 7 1 roll mul 5 -1 roll dup 6 1 roll add exch % calculate y2
  6 -1 roll mul 5 -1 roll add exch % calculate x2
  6 -2 roll % reorder
} bind def
/drawoutline {
  gsave outlinecolor newpath
  coor 0 get aload pop 0.8 0 360 arc % draw 5' circle of 1st sequence
  currentdict /cutpoint known        % check if cutpoint is defined
  {coor 0 cutpoint getinterval
   {aload pop lineto} forall         % draw outline of 1st sequence
   coor cutpoint 1 add get aload pop
   2 copy moveto 0.8 0 360 arc       % draw 5' circle of 2nd sequence
   coor cutpoint 1 add coor length cutpoint 1 add sub getinterval
   {aload pop lineto} forall}        % draw outline of 2nd sequence
  {coor {aload pop lineto} forall}   % draw outline as a whole
  ifelse
  stroke grestore
} bind def
/drawpairs {
  paircolor
  0.7 setlinewidth
  [9 3.01] 9 setdash
  newpath
  pairs {aload pop
      currentdict (cpr) known
      { exch dup
        coor  exch 1 sub get aload pop moveto
        exch arccoords curveto
      }
      { coor exch 1 sub get aload pop moveto
        coor exch 1 sub get aload pop lineto
      }ifelse
  } forall
  stroke
} bind def
% draw bases
/drawbases {
  [] 0 setdash
  seqcolor
  0
  coor {
    aload pop moveto
    dup sequence exch 1 getinterval cshow
    1 add
  } forall
  pop
} bind def

/init {
  /Helvetica findfont fsize scalefont setfont
  1 setlinejoin
  1 setlinecap
  0.8 setlinewidth
  72 216 translate
  % find the coordinate range
  /xmax -1000 def /xmin 10000 def
  /ymax -1000 def /ymin 10000 def
  coor {
      aload pop
      dup ymin lt {dup /ymin exch def} if
      dup ymax gt {/ymax exch def} {pop} ifelse
      dup xmin lt {dup /xmin exch def} if
      dup xmax gt {/xmax exch def} {pop} ifelse
  } forall
  /size {xmax xmin sub ymax ymin sub max} bind def
  72 6 mul size div dup scale
  size xmin sub xmax sub 2 div size ymin sub ymax sub 2 div
  translate
} bind def
end
%%EndProlog
RNAplot begin
% data start here
/sequence (\
111111nnnnnnnnnnnnnnnnnnnnnnnnnnnn111111nn2222nnnnnnnnnnnnn2222n<<<<<<<nnnnnnnnn>>>>>>>nn33333333nnn444444nnnn4444nnnnn444444444444n444444444nnnnnn444444444n<<<<<<<nnnnn>>>>>>>nnn4444nnnnn44444444nnnn4444nnn444444555nnn5555nnn55555nnnnnn55555nn5555nn555nn\
n6n66666nn3333333377777777nnnnnn77777777nnnnnnn66666688nn888888nnnn888888n<<<<<<<nnnnnnnnnnnnnnnn>>>>>>><<<>>>nnnnnnn88nnnnnnnnnnn\
) def
/coor [
[84.17816162 132.52015686]
[79.26515198 146.69274902]
[74.35214233 160.86534119]
[69.43913269 175.03793335]
[64.52611542 189.21052551]
[59.61310959 203.38311768]
[72.50561523 211.15979004]
[83.49925995 221.44734192]
[92.11344910 233.79600525]
[97.97159576 247.66596985]
[100.81761169 262.45089722]
[100.52708435 277.50442505]
[97.11271667 292.16851807]
[90.72376251 305.80212402]
[81.63951874 317.80920410]
[70.25711823 327.66491699]
[57.07415009 334.93835449]
[42.66690826 339.31158447]
[27.66522217 340.59341431]
[12.72489929 338.72781372]
[-1.50093317 333.79635620]
[-14.39038372 326.01458740]
[-25.37998009 315.72271729]
[-33.98930359 303.37066650]
[-39.84199524 289.49841309]
[-42.68219757 274.71237183]
[-42.38574600 259.65893555]
[-38.96560669 244.99618530]
[-32.57128906 231.36511230]
[-23.48232841 219.36158752]
[-12.09605122 209.51037598]
[1.08978093 202.24212646]
[15.49874020 197.87455750]
[30.50092888 196.59863281]
[45.44051743 198.47009277]
[50.35352707 184.29751587]
[55.26654053 170.12492371]
[60.17955017 155.95233154]
[65.09255981 141.77973938]
[70.00556946 127.60714722]
[63.80796051 123.38344574]
[51.41274261 114.93605042]
[45.21513367 110.71234894]
[33.82094574 120.46798706]
[22.42675781 130.22363281]
[11.03256989 139.97926331]
[15.41606998 154.56365967]
[13.48214436 169.66929626]
[5.56585932 182.67898560]
[-6.96124220 191.33876038]
[-21.92876434 194.14823914]
[-36.74349213 190.62068176]
[-48.83868408 181.36723328]
[-56.11877823 167.99113464]
[-57.32245255 152.80986023]
[-52.24116135 138.45365906]
[-41.75526810 127.40984344]
[-27.68152428 121.59180450]
[-12.45828438 122.00756073]
[1.27693176 128.58508301]
[12.67111969 118.82943726]
[24.06530762 109.07379913]
[35.45949554 99.31816101]
[27.99442673 86.30690765]
[20.53003502 73.29679871]
[6.35744476 78.20980835]
[-7.81514597 83.12282562]
[-21.98773575 88.03583527]
[-36.16032791 92.94884491]
[-50.33291626 97.86185455]
[-64.50550842 102.77486420]
[-68.03523254 117.79300690]
[-79.13991547 128.50231934]
[-94.27610016 131.48551941]
[-108.61388397 125.79064941]
[-117.57813263 113.23493958]
[-118.30838776 97.82487488]
[-110.57162476 84.47773743]
[-96.83661652 77.45256042]
[-81.48615265 78.99104309]
[-69.41851807 88.60227203]
[-55.24592972 83.68926239]
[-41.07333755 78.77625275]
[-26.90074730 73.86324310]
[-12.72815704 68.95023346]
[1.44443393 64.03722382]
[15.61702442 59.12421036]
[54.62258530 42.02769470]
[88.92738342 47.68095779]
[108.15085602 67.67600250]
[105.35932159 52.93804550]
[102.56779480 38.20008850]
[99.77626038 23.46213150]
[96.98473358 8.72417450]
[94.19319916 -6.01378202]
[91.40167236 -20.75173759]
[88.61014557 -35.48969650]
[80.22331238 -38.37866974]
[73.55194092 -44.34431839]
[69.67913818 -52.50038910]
[69.26535034 -61.59902573]
[60.96989822 -74.09644318]
[52.67444992 -86.59386444]
[44.37899780 -99.09128571]
[36.08354950 -111.58870697]
[27.78810120 -124.08612823]
[14.05351543 -123.63703156]
[1.97749436 -129.96582031]
[-5.35177517 -141.33386230]
[-6.11944675 -154.72981262]
[-0.23233168 -166.66696167]
[-8.42579269 -179.23149109]
[-16.61925316 -191.79600525]
[-24.81271553 -204.36053467]
[-38.68127441 -202.87597656]
[-51.77925873 -207.47448730]
[-61.58236313 -217.20970154]
[-66.22720337 -230.15112305]
[-64.86533356 -243.76690674]
[-57.81764603 -255.41902161]
[-65.90857697 -268.04980469]
[-73.99950409 -280.68060303]
[-82.09043884 -293.31137085]
[-90.18136597 -305.94216919]
[-98.27229309 -318.57296753]
[-106.36322784 -331.20376587]
[-114.45415497 -343.83453369]
[-122.80039215 -356.29809570]
[-131.39848328 -368.58926392]
[-139.99656677 -380.88043213]
[-148.59466553 -393.17160034]
[-170.87005615 -391.02359009]
[-189.33334351 -412.73294067]
[-199.98303223 -423.29629517]
[-210.63270569 -433.85964966]
[-221.28237915 -444.42300415]
[-231.93205261 -454.98635864]
[-242.58172607 -465.54971313]
[-253.23141479 -476.11306763]
[-263.88107300 -486.67639160]
[-274.53076172 -497.23974609]
[-290.33190918 -496.92483521]
[-301.66964722 -507.93530273]
[-301.81753540 -523.73889160]
[-290.68777466 -534.95959473]
[-274.88348389 -534.94036865]
[-263.78109741 -523.69262695]
[-263.96740723 -507.88943481]
[-253.31773376 -497.32608032]
[-242.66806030 -486.76272583]
[-232.01838684 -476.19937134]
[-221.36869812 -465.63601685]
[-210.71902466 -455.07269287]
[-200.06935120 -444.50933838]
[-189.41967773 -433.94598389]
[-178.77000427 -423.38262939]
[-166.44340515 -431.93099976]
[-154.11788940 -440.47863770]
[-160.27836609 -454.15518188]
[-166.43882751 -467.83175659]
[-172.59930420 -481.50833130]
[-178.75978088 -495.18490601]
[-184.92025757 -508.86148071]
[-191.08073425 -522.53802490]
[-205.51318359 -529.54400635]
[-208.89347839 -545.22692871]
[-198.62854004 -557.55615234]
[-182.59272766 -557.07379150]
[-173.08737183 -544.14990234]
[-177.40415955 -528.69854736]
[-171.24368286 -515.02197266]
[-165.08320618 -501.34536743]
[-158.92272949 -487.66882324]
[-152.76226807 -473.99224854]
[-146.60179138 -460.31567383]
[-140.44131470 -446.63909912]
[-130.15353394 -435.20147705]
[-126.61414337 -421.84817505]
[-129.30416870 -409.88903809]
[-136.30349731 -401.76971436]
[-127.70540619 -389.47854614]
[-119.10731506 -377.18737793]
[-110.50922394 -364.89617920]
[-105.76935577 -379.12762451]
[-91.71656036 -384.37347412]
[-78.81056213 -376.72918701]
[-76.65748596 -361.88452148]
[-86.85990143 -350.88858032]
[-101.82336426 -351.92547607]
[-93.73243713 -339.29467773]
[-85.64150238 -326.66387939]
[-77.55057526 -314.03311157]
[-69.45964813 -301.40231323]
[-61.36871719 -288.77151489]
[-53.27778625 -276.14074707]
[-45.18685532 -263.50994873]
[-29.03355026 -264.63931274]
[-14.44022369 -257.40759277]
[-5.45160580 -243.71293640]
[-4.61253738 -227.25910950]
[-12.24819374 -212.55398560]
[-4.05473280 -199.98947144]
[4.13872862 -187.42494202]
[12.33218956 -174.86042786]
[28.77847481 -174.54141235]
[41.90915680 -164.35914612]
[46.40188599 -148.18893433]
[40.28552246 -132.38157654]
[48.58097076 -119.88415527]
[56.87641907 -107.38673401]
[65.17186737 -94.88931274]
[73.46731567 -82.39189911]
[81.76276398 -69.89447784]
[96.75270844 -69.34522247]
[105.94052887 -81.20204163]
[115.12834167 -93.05885315]
[111.90917969 -106.09197235]
[116.69199371 -118.42790222]
[127.53256989 -125.66893005]
[140.37150574 -125.37168121]
[149.65551758 -137.15332031]
[158.93952942 -148.93496704]
[168.22354126 -160.71661377]
[165.11056519 -173.77551270]
[169.99360657 -186.07209778]
[180.89276123 -193.22465515]
[193.72885132 -192.82292175]
[203.10844421 -204.52862549]
[212.48803711 -216.23431396]
[221.86763000 -227.94000244]
[231.24722290 -239.64570618]
[229.26531982 -255.32522583]
[239.01689148 -267.76235962]
[254.71650696 -269.57836914]
[267.04983521 -259.69586182]
[268.69976807 -243.97793579]
[258.68740845 -231.74975586]
[242.95291138 -230.26611328]
[233.57331848 -218.56040955]
[224.19372559 -206.85472107]
[214.81413269 -195.14903259]
[205.43453979 -183.44332886]
[207.97447205 -166.78497314]
[197.44454956 -153.19799805]
[180.00518799 -151.43260193]
[170.72117615 -139.65095520]
[161.43716431 -127.86931610]
[152.15315247 -116.08766937]
[154.82856750 -99.45053864]
[144.40957642 -85.77830505]
[126.98515320 -83.87103271]
[117.79734039 -72.01422119]
[108.60951996 -60.15740967]
[119.16335297 -70.81652069]
[133.21502686 -76.06538391]
[148.17242432 -74.93572998]
[161.27636719 -67.63596344]
[170.10957336 -55.51265335]
[173.04257202 -40.80220032]
[169.53431702 -26.21822929]
[160.23197937 -14.45105171]
[146.85154724 -7.67135429]
[131.86132812 -7.12978840]
[118.02655792 -12.92625618]
[107.89933014 -23.99148369]
[103.34809875 -38.28122330]
[106.13962555 -23.54326820]
[108.93115997 -8.80531216]
[111.72268677 5.93264437]
[114.51422119 20.67060089]
[117.30574799 35.40855789]
[120.09728241 50.14651489]
[122.88880920 64.88446808]
[134.82000732 73.97547913]
[149.77035522 72.75600433]
[164.72070312 71.53652191]
[179.67105103 70.31704712]
[194.62139893 69.09756470]
[209.57174683 67.87808990]
[224.52209473 66.65860748]
[239.47244263 65.43913269]
[249.50988770 53.23155212]
[265.24740601 51.78021622]
[277.34817505 61.94617844]
[278.63305664 77.69815063]
[268.33972168 89.69077301]
[252.57502747 90.80902863]
[240.69190979 80.38948059]
[225.74156189 81.60895538]
[210.79121399 82.82843781]
[195.84086609 84.04791260]
[180.89053345 85.26739502]
[165.94018555 86.48686981]
[150.98983765 87.70635223]
[136.03948975 88.92582703]
[133.24000549 95.88376617]
[147.15586853 101.48273468]
[161.07174683 107.08170319]
[174.98762512 112.68067932]
[188.90348816 118.27964783]
[203.86843872 119.30452728]
[207.51795959 133.85379028]
[194.80845642 141.82049561]
[183.30451965 132.19552612]
[169.38865662 126.59654999]
[155.47277832 120.99758148]
[141.55690002 115.39861298]
[127.64102936 109.79963684]
[124.84154510 116.75757599]
[134.78135681 127.99146271]
[156.89215088 117.42542267]
[184.90359497 124.67546844]
[204.58460999 151.66514587]
[217.71505737 158.91711426]
[230.84552002 166.16908264]
[243.97598267 173.42105103]
[257.10644531 180.67301941]
[270.23690796 187.92498779]
[286.61389160 187.07275391]
[295.31222534 200.97494507]
[287.38385010 215.33016968]
[270.98474121 215.37100220]
[262.98492432 201.05545044]
[249.85447693 193.80348206]
[236.72401428 186.55151367]
[223.59355164 179.29954529]
[210.46308899 172.04757690]
[197.33264160 164.79560852]
[187.66963196 176.26933289]
[178.00747681 187.74203491]
[187.38706970 199.44772339]
[196.76666260 211.15341187]
[206.14625549 222.85911560]
[215.52584839 234.56480408]
[224.90544128 246.27049255]
[234.28503418 257.97619629]
[248.63481140 253.09153748]
[263.78976440 253.41249084]
[277.91986084 258.90026855]
[289.31884766 268.89221191]
[296.61022949 282.18176270]
[298.91351318 297.16409302]
[295.95059204 312.03005981]
[288.07922363 324.98449707]
[276.24996948 334.46313477]
[261.89120483 339.32131958]
[246.73687744 338.97244263]
[232.61689758 333.45861816]
[221.23635864 323.44567871]
[213.96948242 310.14273071]
[211.69381714 295.15618896]
[214.68412781 280.29568481]
[222.57933044 267.35577393]
[213.19973755 255.65008545]
[203.82015991 243.94439697]
[194.44056702 232.23870850]
[185.06097412 220.53300476]
[175.68138123 208.82731628]
[166.30178833 197.12162781]
[153.35227966 204.69200134]
[158.95126343 218.60786438]
[164.55023193 232.52374268]
[150.63435364 238.12271118]
[145.03538513 224.20683289]
[139.43641663 210.29096985]
[127.87657928 203.55384827]
[118.87632751 194.54525757]
[112.80970764 184.08746338]
[109.81017303 173.03976440]
[109.77694702 162.23252869]
[112.39855957 152.40693665]
[117.19107056 144.16468811]
[123.54747009 137.93127441]
[113.60765839 126.69738770]
[106.25028229 128.15307617]
[109.58747864 142.77714539]
[112.92466736 157.40119934]
[116.26185608 172.02526855]
[125.36939240 183.94384766]
[120.06408691 197.97430420]
[105.34918976 200.88496399]
[95.10184479 189.93089294]
[98.98492432 175.44358826]
[96.50179291 160.65054321]
[94.01866913 145.85751343]
] def
/pairs [
[1 40]
[2 39]
[3 38]
[4 37]
[5 36]
[6 35]
[43 63]
[44 62]
[45 61]
[46 60]
[65 87]
[66 86]
[67 85]
[68 84]
[69 83]
[70 82]
[71 81]
[90 273]
[91 272]
[92 271]
[93 270]
[94 269]
[95 268]
[96 267]
[97 266]
[101 213]
[102 212]
[103 211]
[104 210]
[105 209]
[106 208]
[111 204]
[112 203]
[113 202]
[114 201]
[120 196]
[121 195]
[122 194]
[123 193]
[124 192]
[125 191]
[126 190]
[127 189]
[128 183]
[129 182]
[130 181]
[131 180]
[133 156]
[134 155]
[135 154]
[136 153]
[137 152]
[138 151]
[139 150]
[140 149]
[141 148]
[158 176]
[159 175]
[160 174]
[161 173]
[162 172]
[163 171]
[164 170]
[214 253]
[215 252]
[216 251]
[220 248]
[221 247]
[222 246]
[223 245]
[227 242]
[228 241]
[229 240]
[230 239]
[231 238]
[274 295]
[275 294]
[276 293]
[277 292]
[278 291]
[279 290]
[280 289]
[281 288]
[309 374]
[310 373]
[313 328]
[314 327]
[315 326]
[316 325]
[317 324]
[318 323]
[330 359]
[331 358]
[332 357]
[333 356]
[334 355]
[335 354]
[336 353]
[360 365]
[361 364]
[362 363]
] def

init

% switch off outline pairs or bases by removing these lines
drawoutline
drawpairs
drawbases
% show it
showpage
end
%%EOF
