%!PS-Adobe-3.0 EPSF-3.0
%%Creator: PS_dot.c,v 1.38 2007/02/02 15:18:13 ivo Exp $, ViennaRNA-2.0.7
%%CreationDate: Sun Nov  4 18:30:39 2012
%%Title: RNA Secondary Structure Plot
%%BoundingBox: 66 210 518 662
%%DocumentFonts: Helvetica
%%Pages: 1
%%EndComments

%Options: -d2 
% to switch off outline pairs of sequence comment or
% delete the appropriate line near the end of the file

%%BeginProlog
/RNAplot 100 dict def
RNAplot begin
/fsize  14 def
/outlinecolor {0.2 setgray} bind def
/paircolor    {0.2 setgray} bind def
/seqcolor     {0   setgray} bind def
/cshow  { dup stringwidth pop -2 div fsize -3 div rmoveto show} bind def
/min { 2 copy gt { exch } if pop } bind def
/max { 2 copy lt { exch } if pop } bind def
/arccoords { % i j arccoords
  % puts optimal x1 y1 x2 y2 coordinates used in bezier curves from i to j
  % onto the stack
  dup 3 -1 roll dup 4 -1 roll lt dup dup 5 2 roll {exch} if
  dup 3 -1 roll dup 3 -1 roll exch sub 1 sub dup
  4 -2 roll 5 -1 roll {exch} if 4 2 roll
  sequence length dup 2 div exch 3 1 roll lt 
  {exch 5 -1 roll pop 4 -2 roll exch 4 2 roll}
  { 4 2 roll 5 -1 roll dup 6 1 roll {exch} if
    4 -2 roll exch pop dup 3 -1 roll dup 4 1 roll
    exch add 4 -1 roll dup 5 1 roll sub 1 sub
    5 -1 roll not {4 -2 roll exch 4 2 roll} if
  }ifelse
   % compute the scalingfactor and prepare (1-sf) and sf*r
  2 mul exch cpr 3 1 roll div dup
  3 -1 roll mul exch 1 exch sub exch
   % compute the coordinates
  3 -1 roll 1 sub coor exch get aload pop % get coord for i
  4 -1 roll dup 5 1 roll mul 3 -1 roll dup 4 1 roll add exch % calculate y1
  4 -1 roll dup 5 1 roll mul 3 -1 roll dup 4 1 roll add exch % calculate x1
  5 -1 roll 1 sub coor exch get aload pop % get coord for j
  % duplicate j coord
  dup 3 -1 roll dup 4 1 roll exch 8 2 roll
  6 -1 roll dup 7 1 roll mul 5 -1 roll dup 6 1 roll add exch % calculate y2
  6 -1 roll mul 5 -1 roll add exch % calculate x2
  6 -2 roll % reorder
} bind def
/drawoutline {
  gsave outlinecolor newpath
  coor 0 get aload pop 0.8 0 360 arc % draw 5' circle of 1st sequence
  currentdict /cutpoint known        % check if cutpoint is defined
  {coor 0 cutpoint getinterval
   {aload pop lineto} forall         % draw outline of 1st sequence
   coor cutpoint 1 add get aload pop
   2 copy moveto 0.8 0 360 arc       % draw 5' circle of 2nd sequence
   coor cutpoint 1 add coor length cutpoint 1 add sub getinterval
   {aload pop lineto} forall}        % draw outline of 2nd sequence
  {coor {aload pop lineto} forall}   % draw outline as a whole
  ifelse
  stroke grestore
} bind def
/drawpairs {
  paircolor
  0.7 setlinewidth
  [9 3.01] 9 setdash
  newpath
  pairs {aload pop
      currentdict (cpr) known
      { exch dup
        coor  exch 1 sub get aload pop moveto
        exch arccoords curveto
      }
      { coor exch 1 sub get aload pop moveto
        coor exch 1 sub get aload pop lineto
      }ifelse
  } forall
  stroke
} bind def
% draw bases
/drawbases {
  [] 0 setdash
  seqcolor
  0
  coor {
    aload pop moveto
    dup sequence exch 1 getinterval cshow
    1 add
  } forall
  pop
} bind def

/init {
  /Helvetica findfont fsize scalefont setfont
  1 setlinejoin
  1 setlinecap
  0.8 setlinewidth
  72 216 translate
  % find the coordinate range
  /xmax -1000 def /xmin 10000 def
  /ymax -1000 def /ymin 10000 def
  coor {
      aload pop
      dup ymin lt {dup /ymin exch def} if
      dup ymax gt {/ymax exch def} {pop} ifelse
      dup xmin lt {dup /xmin exch def} if
      dup xmax gt {/xmax exch def} {pop} ifelse
  } forall
  /size {xmax xmin sub ymax ymin sub max} bind def
  72 6 mul size div dup scale
  size xmin sub xmax sub 2 div size ymin sub ymax sub 2 div
  translate
} bind def
end
%%EndProlog
RNAplot begin
% data start here
/sequence (\
nnnnnn111111nnnnnnnnnnnnnnnnnnnnnnnnn111111nn3333333nnnn444444nnn4444nnnnn444444444444nnn4444444nnnn4444444nnnnn<<<<nnnnnnnnn>>>>nnn4444nnnn4n4444444nnnn<<nnnn>>nnnnn4444nn44n4444555nnnn55555555nnnnnnnnn55555555nnnn555nnn6n66666nnn33333337777777nnnnnnnnnn\
n7777777nnnnnnn666666n88n888888nnnn888888nnnnn<<<<<<n>>>>>>nnnn88nnnnnnnnnnn\
) def
/coor [
[127.07747650 384.44274902]
[126.67449951 369.44818115]
[126.27151489 354.45358276]
[125.86853790 339.45898438]
[125.46556091 324.46441650]
[125.06257629 309.46981812]
[117.58405304 310.03704834]
[110.74891663 323.38922119]
[103.91378021 336.74142456]
[97.07863617 350.09359741]
[90.24349976 363.44580078]
[83.40836334 376.79797363]
[94.88230896 386.56759644]
[103.79345703 398.72027588]
[109.66124725 412.60067749]
[112.16923523 427.46026611]
[111.18215942 442.49761963]
[106.75325775 456.90185547]
[99.12137604 469.89611816]
[88.69809723 480.77966309]
[76.04552460 488.96557617]
[61.84599686 494.01239014]
[46.86528397 495.64791870]
[31.91127586 493.78399658]
[17.79041672 488.52108765]
[5.26423311 480.14306641]
[-4.99175739 469.10171509]
[-12.42446041 455.99249268]
[-16.63303947 441.52236938]
[-17.39053345 426.47167969]
[-14.65608788 411.65209961]
[-8.57717133 397.86285400]
[0.51838946 385.84756470]
[12.14008236 376.25418091]
[25.66116333 369.60006714]
[40.35245895 366.24411011]
[55.42168427 366.36721802]
[70.05617523 369.96282959]
[76.89131165 356.61065674]
[83.72645569 343.25845337]
[90.56159210 329.90628052]
[97.39672852 316.55407715]
[104.23187256 303.20190430]
[99.34546661 282.92657471]
[106.77912903 266.12185669]
[120.79301453 258.58694458]
[119.37574005 243.65405273]
[117.95845795 228.72114563]
[116.54118347 213.78825378]
[115.12390900 198.85536194]
[113.70662689 183.92247009]
[123.64646912 142.97598267]
[99.45670319 143.04013062]
[81.33307648 131.98674011]
[73.18128967 115.60195923]
[74.98311615 100.28166962]
[83.35713959 90.81309509]
[71.52921295 81.58811188]
[59.70129013 72.36313629]
[47.87336731 63.13816071]
[36.00192642 53.96924973]
[24.08724213 44.85660934]
[11.06591702 48.15866089]
[-1.30581844 43.44507599]
[-8.61116600 32.63746643]
[-8.37996197 19.78875732]
[-20.20788574 10.56378174]
[-32.03581238 1.33880460]
[-43.86373520 -7.88617229]
[-59.12626266 2.06949234]
[-77.79999542 4.57547092]
[-96.32616425 -1.37993753]
[-110.94464874 -15.14415169]
[-118.45497894 -34.43108368]
[-116.90668488 -55.69138336]
[-129.70368958 -63.51675415]
[-142.50071716 -71.34212494]
[-155.29772949 -79.16750336]
[-168.09474182 -86.99287415]
[-180.89175415 -94.81824493]
[-193.68876648 -102.64361572]
[-206.52265930 -110.40835571]
[-219.53663635 -117.86734772]
[-232.68942261 -125.07872009]
[-245.84222412 -132.29010010]
[-258.99502563 -139.50146484]
[-270.40570068 -129.19522095]
[-286.92611694 -125.76151276]
[-304.35702515 -131.57562256]
[-317.52700806 -146.46702576]
[-331.88626099 -150.80432129]
[-346.24551392 -155.14160156]
[-360.60473633 -159.47889709]
[-374.96398926 -163.81617737]
[-389.32324219 -168.15347290]
[-403.68249512 -172.49076843]
[-419.51663208 -168.22325134]
[-430.93685913 -179.99230957]
[-426.19500732 -195.69093323]
[-410.16909790 -199.16972351]
[-399.34518433 -186.85000610]
[-384.98596191 -182.51272583]
[-370.62670898 -178.17543030]
[-356.26745605 -173.83813477]
[-341.90820312 -169.50085449]
[-327.54898071 -165.16355896]
[-313.18972778 -160.82627869]
[-309.55297852 -167.38554382]
[-322.67150879 -174.65905762]
[-330.39596558 -187.51722717]
[-315.39797974 -187.77758789]
[-302.27944946 -180.50407410]
[-298.64266968 -187.06333923]
[-309.92807007 -196.94462585]
[-321.21347046 -206.82591248]
[-332.49887085 -216.70721436]
[-347.29473877 -212.33856201]
[-362.09729004 -216.68461609]
[-372.18304443 -228.35856628]
[-374.33370972 -243.63528442]
[-367.86297607 -257.64004517]
[-354.83563232 -265.90396118]
[-339.40869141 -265.79006958]
[-326.50482178 -257.33468628]
[-320.24157715 -243.23590088]
[-322.61755371 -227.99259949]
[-311.33218384 -218.11131287]
[-300.04678345 -208.23002625]
[-288.76138306 -198.34872437]
[-269.23931885 -195.09095764]
[-255.10391235 -183.47758484]
[-249.21003723 -167.74568176]
[-251.78364563 -152.65426636]
[-238.63084412 -145.44288635]
[-225.47805786 -138.23152161]
[-212.32525635 -131.02014160]
[-209.64665222 -131.63064575]
[-206.57154846 -131.24855042]
[-203.46559143 -129.72019958]
[-200.74255371 -127.02315521]
[-198.81872559 -123.27884674]
[-191.50950623 -122.54385376]
[-185.86338806 -115.44062805]
[-173.06637573 -107.61525726]
[-160.26936340 -99.78988647]
[-147.47235107 -91.96451569]
[-134.67533875 -84.13913727]
[-121.87832642 -76.31376648]
[-109.08131409 -68.48839569]
[-102.85516357 -72.66991425]
[-111.21799469 -85.12234497]
[-98.76541901 -93.48497009]
[-90.40287018 -81.03295135]
[-84.17671967 -85.21446228]
[-86.57929993 -100.02080536]
[-97.36134338 -112.37715912]
[-91.79617310 -127.80313873]
[-75.60874939 -130.42982483]
[-65.45131683 -117.55509186]
[-71.77296448 -102.42337799]
[-69.37038422 -87.61704254]
[-53.71714401 -83.05998230]
[-40.85349655 -73.83213806]
[-32.06250763 -61.23733139]
[-28.09066200 -46.88921738]
[-29.09100914 -32.50780487]
[-34.63875961 -19.71409607]
[-22.81083488 -10.48912048]
[-10.98291016 -1.26414359]
[0.84501511 7.96083307]
[17.46147537 5.19902897]
[31.18729210 15.53625584]
[33.19988251 32.94192123]
[45.11457062 42.05456161]
[52.29344177 43.61301422]
[57.09834290 51.31023788]
[68.92626953 60.53521347]
[80.75419617 69.76019287]
[92.58211517 78.98516846]
[107.43126678 76.86322021]
[116.20205688 64.69467926]
[124.97283936 52.52613831]
[118.79260254 38.53499985]
[120.43443298 23.42866898]
[129.35784912 11.25331974]
[143.08557129 5.21960878]
[157.89051819 6.85630322]
[166.66131592 -5.31223631]
[175.43209839 -17.48077583]
[184.20288086 -29.64931679]
[192.97366333 -41.81785583]
[201.74444580 -53.98639679]
[210.51522827 -66.15493774]
[219.28601074 -78.32347870]
[213.53890991 -92.64040375]
[216.46690369 -107.78736115]
[227.13566589 -118.93101501]
[242.14083862 -122.51546478]
[256.69433594 -117.39691925]
[266.15216064 -105.20869446]
[267.49639893 -89.84000397]
[260.29806519 -76.19494629]
[246.85415649 -68.62760162]
[231.45454407 -69.55269623]
[222.68376160 -57.38415146]
[213.91297913 -45.21561432]
[205.14219666 -33.04707336]
[196.37141418 -20.87853241]
[187.60063171 -8.70999336]
[178.82984924 3.45854664]
[170.05906677 15.62708664]
[176.29322815 29.15486717]
[174.90991211 44.08612442]
[166.18092346 56.40161514]
[152.36886597 62.73593903]
[137.14137268 61.29692078]
[128.37059021 73.46546173]
[119.59980774 85.63400269]
[124.18426514 91.56971741]
[139.04965210 89.56462097]
[133.35317993 103.44115448]
[137.93763733 109.37687683]
[144.76295471 103.39780426]
[152.08580017 103.98171997]
[166.12646484 98.70349884]
[180.16714478 93.42528534]
[194.20780945 88.14707184]
[208.24848938 82.86885834]
[220.94702148 71.63571930]
[235.25646973 80.72836304]
[230.48042297 96.99568176]
[213.52670288 96.90953064]
[199.48602295 102.18774414]
[185.44535828 107.46595764]
[171.40467834 112.74417114]
[157.36401367 118.02238464]
[143.34846497 123.36697388]
[137.47734070 137.17022705]
[149.80969238 145.70916748]
[164.79893494 146.27677917]
[179.78819275 146.84440613]
[194.77745056 147.41203308]
[209.76670837 147.97966003]
[224.75596619 148.54727173]
[239.74522400 149.11489868]
[247.31040955 135.80976868]
[260.19851685 127.55414581]
[275.44793701 126.24510193]
[289.55447388 132.18345642]
[299.27655029 144.00462341]
[302.38012695 158.99217224]
[298.15197754 173.70207214]
[287.56372070 184.75410461]
[273.04846191 189.60859680]
[257.94171143 187.15000916]
[245.71487427 177.94332886]
[239.17759705 164.10415649]
[224.18833923 163.53652954]
[209.19908142 162.96890259]
[194.20983887 162.40129089]
[179.22058105 161.83366394]
[164.23132324 161.26603699]
[149.24206543 160.69842529]
[144.09143066 166.15011597]
[159.03878784 167.40567017]
[167.37681580 179.87472534]
[162.82691956 194.16802979]
[148.81521606 199.52265930]
[135.89256287 191.90655518]
[133.79016113 177.05349731]
[128.63952637 182.50518799]
[130.05679321 197.43809509]
[131.47407532 212.37098694]
[132.89135742 227.30387878]
[134.30862427 242.23677063]
[135.72590637 257.16967773]
[157.41400146 268.87106323]
[159.66667175 298.99740601]
[168.43745422 311.16592407]
[191.72747803 308.85174561]
[210.75653076 331.33572388]
[221.75691223 341.53335571]
[232.75727844 351.73098755]
[243.75765991 361.92861938]
[254.75802612 372.12625122]
[265.75839233 382.32388306]
[281.85949707 385.43627930]
[286.95816040 401.02267456]
[275.80932617 413.04913330]
[259.88195801 409.14385986]
[255.56077576 393.32427979]
[244.56039429 383.12664795]
[233.56002808 372.92898560]
[222.55964661 362.73135376]
[211.55928040 352.53372192]
[200.55889893 342.33609009]
[194.53749084 346.80740356]
[203.48010254 358.85021973]
[205.20352173 373.75088501]
[191.43727112 367.79284668]
[182.49465942 355.75000000]
[176.47325134 360.22131348]
[183.05448914 373.70046997]
[189.63572693 387.17959595]
[196.21696472 400.65875244]
[202.79818726 414.13790894]
[209.37942505 427.61703491]
[212.99301147 452.11212158]
[195.90028381 434.19827271]
[189.31904602 420.71914673]
[182.73780823 407.23999023]
[176.15657043 393.76083374]
[169.57534790 380.28170776]
[162.99411011 366.80255127]
[153.15518188 358.13906860]
[147.77725220 347.30874634]
[147.00697327 336.25619507]
[150.23379517 326.71405029]
[156.26892090 319.93670654]
[147.49813843 307.76818848]
[140.01962280 308.33538818]
[141.88279724 323.21923828]
[143.74597168 338.10305786]
[145.60914612 352.98690796]
[147.47233582 367.87072754]
[149.33551025 382.75457764]
[151.19868469 397.63839722]
[156.75498962 411.57138062]
[148.81500244 424.29760742]
[133.85797119 425.43215942]
[124.08921051 414.04922485]
] def
/pairs [
[7 43]
[8 42]
[9 41]
[10 40]
[11 39]
[12 38]
[46 276]
[47 275]
[48 274]
[49 273]
[50 272]
[51 271]
[52 238]
[57 179]
[58 178]
[59 177]
[60 176]
[61 174]
[62 173]
[66 170]
[67 169]
[68 168]
[69 167]
[75 149]
[76 148]
[77 147]
[78 146]
[79 145]
[80 144]
[81 143]
[82 141]
[83 136]
[84 135]
[85 134]
[86 133]
[90 107]
[91 106]
[92 105]
[93 104]
[94 103]
[95 102]
[96 101]
[113 129]
[114 128]
[115 127]
[116 126]
[154 161]
[155 160]
[180 218]
[181 217]
[182 216]
[187 211]
[188 210]
[189 209]
[190 208]
[191 207]
[192 206]
[193 205]
[194 204]
[222 237]
[224 236]
[225 235]
[226 234]
[227 233]
[228 232]
[239 263]
[240 262]
[241 261]
[242 260]
[243 259]
[244 258]
[245 257]
[278 320]
[279 319]
[281 296]
[282 295]
[283 294]
[284 293]
[285 292]
[286 291]
[302 314]
[303 313]
[304 312]
[305 311]
[306 310]
[307 309]
] def

init

% switch off outline pairs or bases by removing these lines
drawoutline
drawpairs
drawbases
% show it
showpage
end
%%EOF
