%!PS-Adobe-3.0 EPSF-3.0
%%Creator: PS_dot.c,v 1.38 2007/02/02 15:18:13 ivo Exp $, ViennaRNA-2.0.7
%%CreationDate: Sun Nov  4 18:30:39 2012
%%Title: RNA Secondary Structure Plot
%%BoundingBox: 66 210 518 662
%%DocumentFonts: Helvetica
%%Pages: 1
%%EndComments

%Options: -d2 
% to switch off outline pairs of sequence comment or
% delete the appropriate line near the end of the file

%%BeginProlog
/RNAplot 100 dict def
RNAplot begin
/fsize  14 def
/outlinecolor {0.2 setgray} bind def
/paircolor    {0.2 setgray} bind def
/seqcolor     {0   setgray} bind def
/cshow  { dup stringwidth pop -2 div fsize -3 div rmoveto show} bind def
/min { 2 copy gt { exch } if pop } bind def
/max { 2 copy lt { exch } if pop } bind def
/arccoords { % i j arccoords
  % puts optimal x1 y1 x2 y2 coordinates used in bezier curves from i to j
  % onto the stack
  dup 3 -1 roll dup 4 -1 roll lt dup dup 5 2 roll {exch} if
  dup 3 -1 roll dup 3 -1 roll exch sub 1 sub dup
  4 -2 roll 5 -1 roll {exch} if 4 2 roll
  sequence length dup 2 div exch 3 1 roll lt 
  {exch 5 -1 roll pop 4 -2 roll exch 4 2 roll}
  { 4 2 roll 5 -1 roll dup 6 1 roll {exch} if
    4 -2 roll exch pop dup 3 -1 roll dup 4 1 roll
    exch add 4 -1 roll dup 5 1 roll sub 1 sub
    5 -1 roll not {4 -2 roll exch 4 2 roll} if
  }ifelse
   % compute the scalingfactor and prepare (1-sf) and sf*r
  2 mul exch cpr 3 1 roll div dup
  3 -1 roll mul exch 1 exch sub exch
   % compute the coordinates
  3 -1 roll 1 sub coor exch get aload pop % get coord for i
  4 -1 roll dup 5 1 roll mul 3 -1 roll dup 4 1 roll add exch % calculate y1
  4 -1 roll dup 5 1 roll mul 3 -1 roll dup 4 1 roll add exch % calculate x1
  5 -1 roll 1 sub coor exch get aload pop % get coord for j
  % duplicate j coord
  dup 3 -1 roll dup 4 1 roll exch 8 2 roll
  6 -1 roll dup 7 1 roll mul 5 -1 roll dup 6 1 roll add exch % calculate y2
  6 -1 roll mul 5 -1 roll add exch % calculate x2
  6 -2 roll % reorder
} bind def
/drawoutline {
  gsave outlinecolor newpath
  coor 0 get aload pop 0.8 0 360 arc % draw 5' circle of 1st sequence
  currentdict /cutpoint known        % check if cutpoint is defined
  {coor 0 cutpoint getinterval
   {aload pop lineto} forall         % draw outline of 1st sequence
   coor cutpoint 1 add get aload pop
   2 copy moveto 0.8 0 360 arc       % draw 5' circle of 2nd sequence
   coor cutpoint 1 add coor length cutpoint 1 add sub getinterval
   {aload pop lineto} forall}        % draw outline of 2nd sequence
  {coor {aload pop lineto} forall}   % draw outline as a whole
  ifelse
  stroke grestore
} bind def
/drawpairs {
  paircolor
  0.7 setlinewidth
  [9 3.01] 9 setdash
  newpath
  pairs {aload pop
      currentdict (cpr) known
      { exch dup
        coor  exch 1 sub get aload pop moveto
        exch arccoords curveto
      }
      { coor exch 1 sub get aload pop moveto
        coor exch 1 sub get aload pop lineto
      }ifelse
  } forall
  stroke
} bind def
% draw bases
/drawbases {
  [] 0 setdash
  seqcolor
  0
  coor {
    aload pop moveto
    dup sequence exch 1 getinterval cshow
    1 add
  } forall
  pop
} bind def

/init {
  /Helvetica findfont fsize scalefont setfont
  1 setlinejoin
  1 setlinecap
  0.8 setlinewidth
  72 216 translate
  % find the coordinate range
  /xmax -1000 def /xmin 10000 def
  /ymax -1000 def /ymin 10000 def
  coor {
      aload pop
      dup ymin lt {dup /ymin exch def} if
      dup ymax gt {/ymax exch def} {pop} ifelse
      dup xmin lt {dup /xmin exch def} if
      dup xmax gt {/xmax exch def} {pop} ifelse
  } forall
  /size {xmax xmin sub ymax ymin sub max} bind def
  72 6 mul size div dup scale
  size xmin sub xmax sub 2 div size ymin sub ymax sub 2 div
  translate
} bind def
end
%%EndProlog
RNAplot begin
% data start here
/sequence (\
nnnnnn111111nnnnnnnnnnnnnnnnnnnnnnnnn111111nn3333333nnnn444444nnn4444nnnnn444444444444nnn4444444nnnn4444444nnnnn<<<<nnnnnnnnn>>>>nnn4444nnnn4n4444444nnnn<<nnnn>>nnnnn4444nn44n4444555nnnn55555555nnnnnnnnn55555555nnnn555nnn6n66666nnn33333337777777nnnnnnnnnn\
n7777777nnnnnnn666666n88n888888nnnn888888nnnnn<<<<<<n>>>>>>nnnn88nnnnnnnnnnn\
) def
/coor [
[73.52929688 220.16004944]
[73.12631226 205.16546631]
[72.72333527 190.17086792]
[72.32035828 175.17628479]
[71.91737366 160.18170166]
[71.51439667 145.18711853]
[64.03587341 145.75433350]
[57.20073318 159.10652161]
[50.36559677 172.45870972]
[43.53045654 185.81088257]
[36.69531631 199.16307068]
[29.86017799 212.51525879]
[41.33412552 222.28486633]
[50.24527740 234.43757629]
[56.11306763 248.31797791]
[58.62105179 263.17755127]
[57.63397598 278.21490479]
[53.20507812 292.61914062]
[45.57319641 305.61340332]
[35.14991379 316.49697876]
[22.49733925 324.68286133]
[8.29781532 329.72967529]
[-6.68289709 331.36520386]
[-21.63690758 329.50128174]
[-35.75776672 324.23837280]
[-48.28395081 315.86035156]
[-58.53993988 304.81900024]
[-65.97264099 291.70977783]
[-70.18122101 277.23965454]
[-70.93871307 262.18896484]
[-68.20426941 247.36940002]
[-62.12535477 233.58015442]
[-53.02979279 221.56484985]
[-41.40810013 211.97146606]
[-27.88702011 205.31736755]
[-13.19572449 201.96138000]
[1.87350070 202.08451843]
[16.50799179 205.68011475]
[23.34313202 192.32794189]
[30.17827034 178.97575378]
[37.01340866 165.62356567]
[43.84854889 152.27137756]
[50.68368912 138.91918945]
[55.11075211 104.85380554]
[75.28949738 87.98152161]
[94.81041718 91.68032074]
[88.22917938 78.20117950]
[81.64794922 64.72203064]
[75.06671143 51.24288940]
[68.48547363 37.76374435]
[61.90423584 24.28460121]
[55.32299805 10.80545807]
[47.52199554 9.38459778]
[41.01040268 5.53196383]
[36.47124481 -0.06070095]
[34.27865982 -6.54001808]
[34.47334290 -13.01514244]
[22.64541626 -22.24011803]
[10.81749153 -31.46509552]
[-1.01043284 -40.69007111]
[-12.88187122 -49.85898590]
[-24.79655838 -58.97162628]
[-37.81788254 -55.66957092]
[-50.18961716 -60.38315964]
[-57.49496460 -71.19076538]
[-57.26375961 -84.03947449]
[-69.09168243 -93.26445007]
[-80.91960907 -102.48942566]
[-92.74753571 -111.71440887]
[-108.01006317 -101.75874329]
[-126.68379211 -99.25276184]
[-145.20996094 -105.20816803]
[-159.82844543 -118.97238922]
[-167.33877563 -138.25932312]
[-165.79048157 -159.51962280]
[-178.58749390 -167.34498596]
[-191.38450623 -175.17036438]
[-204.18151855 -182.99572754]
[-216.97853088 -190.82110596]
[-229.77554321 -198.64648438]
[-242.57255554 -206.47184753]
[-255.40644836 -214.23658752]
[-268.42044067 -221.69557190]
[-281.57321167 -228.90695190]
[-294.72601318 -236.11833191]
[-307.87881470 -243.32969666]
[-319.28948975 -233.02345276]
[-335.80990601 -229.58973694]
[-353.24081421 -235.40385437]
[-366.41082764 -250.29525757]
[-380.77005005 -254.63255310]
[-395.12930298 -258.96984863]
[-409.48855591 -263.30712891]
[-423.84780884 -267.64440918]
[-438.20703125 -271.98171997]
[-452.56628418 -276.31900024]
[-468.40045166 -272.05148315]
[-479.82064819 -283.82052612]
[-475.07879639 -299.51916504]
[-459.05288696 -302.99795532]
[-448.22900391 -290.67825317]
[-433.86975098 -286.34094238]
[-419.51049805 -282.00366211]
[-405.15127563 -277.66638184]
[-390.79202271 -273.32907104]
[-376.43276978 -268.99179077]
[-362.07351685 -264.65451050]
[-358.43676758 -271.21377563]
[-371.55529785 -278.48730469]
[-379.27978516 -291.34545898]
[-364.28176880 -291.60583496]
[-351.16323853 -284.33230591]
[-347.52648926 -290.89157104]
[-358.81185913 -300.77285767]
[-370.09725952 -310.65414429]
[-381.38265991 -320.53543091]
[-396.17855835 -316.16680908]
[-410.98107910 -320.51284790]
[-421.06686401 -332.18679810]
[-423.21749878 -347.46353149]
[-416.74676514 -361.46826172]
[-403.71945190 -369.73217773]
[-388.29248047 -369.61828613]
[-375.38861084 -361.16290283]
[-369.12536621 -347.06414795]
[-371.50137329 -331.82083130]
[-360.21597290 -321.93954468]
[-348.93057251 -312.05825806]
[-337.64517212 -302.17697144]
[-318.12310791 -298.91918945]
[-303.98770142 -287.30581665]
[-298.09384155 -271.57391357]
[-300.66744995 -256.48251343]
[-287.51464844 -249.27111816]
[-274.36184692 -242.05975342]
[-261.20904541 -234.84837341]
[-258.53045654 -235.45887756]
[-255.45533752 -235.07678223]
[-252.34939575 -233.54844666]
[-249.62635803 -230.85139465]
[-247.70252991 -227.10707092]
[-240.39329529 -226.37208557]
[-234.74719238 -219.26885986]
[-221.95018005 -211.44349670]
[-209.15316772 -203.61811829]
[-196.35615540 -195.79273987]
[-183.55914307 -187.96737671]
[-170.76213074 -180.14199829]
[-157.96510315 -172.31663513]
[-151.73896790 -176.49815369]
[-160.10179138 -188.95057678]
[-147.64921570 -197.31320190]
[-139.28666687 -184.86117554]
[-133.06051636 -189.04269409]
[-135.46310425 -203.84902954]
[-146.24514771 -216.20538330]
[-140.67997742 -231.63137817]
[-124.49255371 -234.25805664]
[-114.33511353 -221.38333130]
[-120.65676117 -206.25161743]
[-118.25418091 -191.44528198]
[-102.60094452 -186.88821411]
[-89.73729706 -177.66036987]
[-80.94630432 -165.06556702]
[-76.97446442 -150.71745300]
[-77.97480774 -136.33604431]
[-83.52256012 -123.54232788]
[-71.69463348 -114.31735229]
[-59.86671066 -105.09237671]
[-48.03878403 -95.86740112]
[-31.42232323 -98.62920380]
[-17.69650841 -88.29197693]
[-15.68391609 -70.88631439]
[-3.76922941 -61.77367020]
[3.40964198 -60.21521759]
[8.21454430 -52.51799774]
[20.04246902 -43.29302216]
[31.87039375 -34.06804276]
[43.69831848 -24.84306717]
[58.54747009 -26.96501732]
[67.31825256 -39.13355637]
[76.08903503 -51.30209732]
[69.90880585 -65.29323578]
[71.55063629 -80.39956665]
[80.47404480 -92.57491302]
[94.20176697 -98.60862732]
[109.00672913 -96.97193146]
[117.77751160 -109.14047241]
[126.54829407 -121.30901337]
[135.31907654 -133.47755432]
[144.08985901 -145.64608765]
[152.86064148 -157.81463623]
[161.63142395 -169.98316956]
[170.40220642 -182.15170288]
[164.65512085 -196.46864319]
[167.58309937 -211.61560059]
[178.25186157 -222.75924683]
[193.25704956 -226.34370422]
[207.81053162 -221.22515869]
[217.26837158 -209.03692627]
[218.61259460 -193.66824341]
[211.41426086 -180.02317810]
[197.97035217 -172.45584106]
[182.57075500 -173.38092041]
[173.79997253 -161.21238708]
[165.02917480 -149.04385376]
[156.25839233 -136.87530518]
[147.48760986 -124.70676422]
[138.71682739 -112.53822327]
[129.94604492 -100.36968994]
[121.17526245 -88.20114899]
[127.40942383 -74.67336273]
[126.02611542 -59.74210739]
[117.29713440 -47.42662048]
[103.48506927 -41.09229279]
[88.25757599 -42.53131485]
[79.48679352 -30.36277390]
[70.71601105 -18.19423294]
[84.24700928 -24.66819382]
[95.66341400 -34.39781952]
[110.09411621 -38.49110413]
[124.91885376 -36.20481491]
[137.44584656 -27.95408249]
[145.40049744 -15.23703098]
[147.33845520 -0.36274788]
[142.90785217 13.96797657]
[132.91314697 25.15305138]
[119.16912842 31.16155052]
[104.17136383 30.90248871]
[90.64306641 24.42290115]
[81.03997040 12.89807034]
[68.80214691 4.22422123]
[75.38337708 17.70336533]
[81.96461487 31.18251038]
[88.54585266 44.66165543]
[95.12709045 58.14079666]
[101.70832825 71.61994171]
[108.28956604 85.09908295]
[120.85930634 93.28453827]
[135.84855652 93.85215759]
[150.83781433 94.41978455]
[165.82707214 94.98740387]
[180.81632996 95.55502319]
[195.80558777 96.12265015]
[210.79484558 96.69026947]
[218.36003113 83.38513947]
[231.24813843 75.12951660]
[246.49755859 73.82048035]
[260.60409546 79.75883484]
[270.32617188 91.57999420]
[273.42971802 106.56754303]
[269.20156860 121.27745056]
[258.61334229 132.32948303]
[244.09808350 137.18397522]
[228.99133301 134.72538757]
[216.76449585 125.51869965]
[210.22721863 111.67952728]
[195.23796082 111.11190033]
[180.24870300 110.54428101]
[165.25944519 109.97666168]
[150.27018738 109.40903473]
[135.28094482 108.84141541]
[120.29167938 108.27379608]
[116.74838257 114.88401794]
[129.96882629 121.97061157]
[143.18927002 129.05720520]
[156.40972900 136.14379883]
[169.63017273 143.23039246]
[182.85061646 150.31698608]
[196.07093811 157.40379333]
[188.98391724 170.62400818]
[175.76402283 163.53742981]
[162.54357910 156.45083618]
[149.32313538 149.36424255]
[136.10267639 142.27764893]
[122.88224030 135.19105530]
[109.66178894 128.10446167]
[106.11849213 134.71469116]
[114.88928223 146.88322449]
[138.17930603 144.56904602]
[157.20835876 167.05300903]
[168.20872498 177.25064087]
[179.20910645 187.44827271]
[190.20947266 197.64591980]
[201.20985413 207.84355164]
[212.21022034 218.04118347]
[228.31130981 221.15357971]
[233.40997314 236.73997498]
[222.26113892 248.76641846]
[206.33377075 244.86114502]
[202.01258850 229.04154968]
[191.01222229 218.84391785]
[180.01184082 208.64628601]
[169.01145935 198.44865417]
[158.01109314 188.25102234]
[147.01071167 178.05337524]
[140.98930359 182.52468872]
[149.93191528 194.56752014]
[151.65505981 209.46821594]
[137.88909912 203.51013184]
[128.94647217 191.46730042]
[122.92506409 195.93861389]
[129.50630188 209.41775513]
[136.08753967 222.89689636]
[142.66877747 236.37603760]
[149.25001526 249.85517883]
[155.83125305 263.33432007]
[159.44482422 287.82940674]
[142.35209656 269.91555786]
[135.77087402 256.43643188]
[129.18963623 242.95727539]
[122.60839081 229.47813416]
[116.02716064 215.99899292]
[109.44592285 202.51983643]
[99.60700226 193.85633850]
[94.22907257 183.02603149]
[93.45879364 171.97348022]
[96.68562317 162.43133545]
[102.72074127 155.65400696]
[93.94995880 143.48547363]
[86.47143555 144.05268860]
[88.33460999 158.93652344]
[90.19779205 173.82035828]
[92.06096649 188.70419312]
[93.92414856 203.58802795]
[95.78732300 218.47186279]
[97.65049744 233.35569763]
[103.20680237 247.28866577]
[95.26682281 260.01489258]
[80.30979156 261.14944458]
[70.54103088 249.76651001]
] def
/pairs [
[7 43]
[8 42]
[9 41]
[10 40]
[11 39]
[12 38]
[46 238]
[47 237]
[48 236]
[49 235]
[50 234]
[51 233]
[52 232]
[57 179]
[58 178]
[59 177]
[60 176]
[61 174]
[62 173]
[66 170]
[67 169]
[68 168]
[69 167]
[75 149]
[76 148]
[77 147]
[78 146]
[79 145]
[80 144]
[81 143]
[82 141]
[83 136]
[84 135]
[85 134]
[86 133]
[90 107]
[91 106]
[92 105]
[93 104]
[94 103]
[95 102]
[96 101]
[113 129]
[114 128]
[115 127]
[116 126]
[154 161]
[155 160]
[180 218]
[181 217]
[182 216]
[187 211]
[188 210]
[189 209]
[190 208]
[191 207]
[192 206]
[193 205]
[194 204]
[239 263]
[240 262]
[241 261]
[242 260]
[243 259]
[244 258]
[245 257]
[278 320]
[279 319]
[281 296]
[282 295]
[283 294]
[284 293]
[285 292]
[286 291]
[302 314]
[303 313]
[304 312]
[305 311]
[306 310]
[307 309]
] def

init

% switch off outline pairs or bases by removing these lines
drawoutline
drawpairs
drawbases
% show it
showpage
end
%%EOF
