%!PS-Adobe-3.0 EPSF-3.0
%%Creator: PS_dot.c,v 1.38 2007/02/02 15:18:13 ivo Exp $, ViennaRNA-2.0.7
%%CreationDate: Sun Nov  4 18:30:39 2012
%%Title: RNA Secondary Structure Plot
%%BoundingBox: 66 210 518 662
%%DocumentFonts: Helvetica
%%Pages: 1
%%EndComments

%Options: -d2 
% to switch off outline pairs of sequence comment or
% delete the appropriate line near the end of the file

%%BeginProlog
/RNAplot 100 dict def
RNAplot begin
/fsize  14 def
/outlinecolor {0.2 setgray} bind def
/paircolor    {0.2 setgray} bind def
/seqcolor     {0   setgray} bind def
/cshow  { dup stringwidth pop -2 div fsize -3 div rmoveto show} bind def
/min { 2 copy gt { exch } if pop } bind def
/max { 2 copy lt { exch } if pop } bind def
/arccoords { % i j arccoords
  % puts optimal x1 y1 x2 y2 coordinates used in bezier curves from i to j
  % onto the stack
  dup 3 -1 roll dup 4 -1 roll lt dup dup 5 2 roll {exch} if
  dup 3 -1 roll dup 3 -1 roll exch sub 1 sub dup
  4 -2 roll 5 -1 roll {exch} if 4 2 roll
  sequence length dup 2 div exch 3 1 roll lt 
  {exch 5 -1 roll pop 4 -2 roll exch 4 2 roll}
  { 4 2 roll 5 -1 roll dup 6 1 roll {exch} if
    4 -2 roll exch pop dup 3 -1 roll dup 4 1 roll
    exch add 4 -1 roll dup 5 1 roll sub 1 sub
    5 -1 roll not {4 -2 roll exch 4 2 roll} if
  }ifelse
   % compute the scalingfactor and prepare (1-sf) and sf*r
  2 mul exch cpr 3 1 roll div dup
  3 -1 roll mul exch 1 exch sub exch
   % compute the coordinates
  3 -1 roll 1 sub coor exch get aload pop % get coord for i
  4 -1 roll dup 5 1 roll mul 3 -1 roll dup 4 1 roll add exch % calculate y1
  4 -1 roll dup 5 1 roll mul 3 -1 roll dup 4 1 roll add exch % calculate x1
  5 -1 roll 1 sub coor exch get aload pop % get coord for j
  % duplicate j coord
  dup 3 -1 roll dup 4 1 roll exch 8 2 roll
  6 -1 roll dup 7 1 roll mul 5 -1 roll dup 6 1 roll add exch % calculate y2
  6 -1 roll mul 5 -1 roll add exch % calculate x2
  6 -2 roll % reorder
} bind def
/drawoutline {
  gsave outlinecolor newpath
  coor 0 get aload pop 0.8 0 360 arc % draw 5' circle of 1st sequence
  currentdict /cutpoint known        % check if cutpoint is defined
  {coor 0 cutpoint getinterval
   {aload pop lineto} forall         % draw outline of 1st sequence
   coor cutpoint 1 add get aload pop
   2 copy moveto 0.8 0 360 arc       % draw 5' circle of 2nd sequence
   coor cutpoint 1 add coor length cutpoint 1 add sub getinterval
   {aload pop lineto} forall}        % draw outline of 2nd sequence
  {coor {aload pop lineto} forall}   % draw outline as a whole
  ifelse
  stroke grestore
} bind def
/drawpairs {
  paircolor
  0.7 setlinewidth
  [9 3.01] 9 setdash
  newpath
  pairs {aload pop
      currentdict (cpr) known
      { exch dup
        coor  exch 1 sub get aload pop moveto
        exch arccoords curveto
      }
      { coor exch 1 sub get aload pop moveto
        coor exch 1 sub get aload pop lineto
      }ifelse
  } forall
  stroke
} bind def
% draw bases
/drawbases {
  [] 0 setdash
  seqcolor
  0
  coor {
    aload pop moveto
    dup sequence exch 1 getinterval cshow
    1 add
  } forall
  pop
} bind def

/init {
  /Helvetica findfont fsize scalefont setfont
  1 setlinejoin
  1 setlinecap
  0.8 setlinewidth
  72 216 translate
  % find the coordinate range
  /xmax -1000 def /xmin 10000 def
  /ymax -1000 def /ymin 10000 def
  coor {
      aload pop
      dup ymin lt {dup /ymin exch def} if
      dup ymax gt {/ymax exch def} {pop} ifelse
      dup xmin lt {dup /xmin exch def} if
      dup xmax gt {/xmax exch def} {pop} ifelse
  } forall
  /size {xmax xmin sub ymax ymin sub max} bind def
  72 6 mul size div dup scale
  size xmin sub xmax sub 2 div size ymin sub ymax sub 2 div
  translate
} bind def
end
%%EndProlog
RNAplot begin
% data start here
/sequence (\
11nnn11nnnn2222222n22nnnn222222222nnnnnn33333nnnn4444n4nnn444nnnnnn444nnn4n4444555nn55555nn555nnnnnnnnnnnnnnnnnnnnnnnnnnnnnn555nn55555n555nnn6n66666nnn33333n777777nnnnnnnnnnnnn777777nnnnnn6666668n88n888n8888nnnnnn8888nnnnnnnnnnnnnnnn888n888nnnnnnnnnn\
) def
/coor [
[104.06913757 134.52513123]
[102.56968689 149.45001221]
[107.00241089 165.81420898]
[92.50482941 174.60377502]
[80.04544067 163.10594177]
[87.64482117 147.95056152]
[89.14427185 133.02569580]
[82.06847382 130.53910828]
[77.09508514 144.69062805]
[62.94364929 139.71701050]
[67.91687775 125.56594086]
[60.84108353 123.07935333]
[52.67412186 135.66111755]
[44.50716019 148.24287415]
[36.34020233 160.82464600]
[28.17324066 173.40640259]
[20.00627899 185.98815918]
[11.83931732 198.56993103]
[9.80041313 207.44670105]
[3.49057555 211.25717163]
[-4.83321905 223.73573303]
[-5.35244226 240.12664795]
[-19.93284607 247.63290405]
[-33.57536316 238.53269958]
[-32.24573898 222.18754578]
[-17.31177902 215.41192627]
[-8.98798370 202.93338013]
[-0.74244469 190.40296936]
[7.42451620 177.82119751]
[15.59147739 165.23944092]
[23.75843811 152.65768433]
[31.92539978 140.07591248]
[40.09236145 127.49415588]
[48.25932312 114.91239166]
[44.82515335 108.24482727]
[31.62594986 115.37091064]
[18.42675018 122.49699402]
[5.22754908 129.62307739]
[-7.97165203 136.74916077]
[-21.17085266 143.87524414]
[-32.58841324 153.60353088]
[-45.78862000 146.47930908]
[-43.92305756 131.59576416]
[-29.37339973 127.94969940]
[-15.90735722 121.34169769]
[-2.44131541 114.73369598]
[11.02472687 108.12569427]
[24.49076843 101.51769257]
[37.95681000 94.90968323]
[34.52264023 88.24211884]
[19.53703117 87.58522034]
[4.55142212 86.92832184]
[-10.43418694 86.27143097]
[-24.55995941 93.39695740]
[-36.93618011 85.10971069]
[-46.63047409 97.08163452]
[-61.34338760 101.00382233]
[-75.37863159 95.57465363]
[-83.42932129 83.07167816]
[-98.41493225 82.41477966]
[-113.40054321 81.75788879]
[-124.88378143 92.61655426]
[-140.67933655 92.09140778]
[-151.41600037 80.49400330]
[-150.72387695 64.70487976]
[-139.01361084 54.09143829]
[-123.23268127 54.95045090]
[-112.74364471 66.77227783]
[-97.75803375 67.42917633]
[-82.77242279 68.08606720]
[-73.65858459 56.33550262]
[-59.20210648 52.15527344]
[-44.88882828 57.34983063]
[-36.27928543 70.12409973]
[-23.22538376 62.95159149]
[-9.77729130 71.28582001]
[5.20831776 71.94271851]
[20.19392776 72.59960938]
[35.17953491 73.25650787]
[43.65885925 60.88310623]
[37.63795471 47.14452362]
[31.61704826 33.40593719]
[19.92265511 28.00530624]
[15.18386459 16.45918655]
[19.43184280 5.15041590]
[13.58335972 -8.66244888]
[7.73487663 -22.47531509]
[1.88639355 -36.28818130]
[-3.96208954 -50.10104370]
[-18.33521461 -56.10529327]
[-24.06963921 -70.19681549]
[-18.25692749 -83.86239624]
[-24.10541153 -97.67526245]
[-29.95389366 -111.48812103]
[-44.68983841 -108.43227386]
[-59.73880386 -108.31028748]
[-74.52234650 -111.12684631]
[-88.47223663 -116.77369690]
[-101.05226135 -125.03379059]
[-111.77889252 -135.58963013]
[-120.23982239 -148.03546143]
[-126.10983276 -161.89292908]
[-129.16329956 -176.62936401]
[-129.28285217 -191.67834473]
[-126.46389771 -206.46144104]
[-120.81478119 -220.41040039]
[-112.55265808 -232.98910522]
[-101.99508667 -243.71401978]
[-89.54788208 -252.17292786]
[-75.68946838 -258.04071045]
[-60.95253754 -261.09176636]
[-45.90353394 -261.20889282]
[-31.12090111 -258.38754272]
[-17.17284393 -252.73617554]
[-4.59548950 -244.47201538]
[6.12772322 -233.91271973]
[14.58462143 -221.46414185]
[20.45014572 -207.60478210]
[23.49884033 -192.86735535]
[23.61352158 -177.81832886]
[20.78978157 -163.03614807]
[15.13615704 -149.08900452]
[6.86995935 -136.51300049]
[-3.69108248 -125.79148865]
[-16.14102936 -117.33660889]
[-10.29254627 -103.52374268]
[-4.44406319 -89.71087646]
[9.41435242 -84.37422180]
[15.54231548 -70.44932556]
[9.85077572 -55.94952774]
[15.69925880 -42.13666153]
[21.54774284 -28.32379723]
[27.39622498 -14.51093197]
[33.24470901 -0.69806707]
[47.80211639 9.12205601]
[45.35563278 27.38503265]
[51.37653732 41.12361526]
[57.39744568 54.86219788]
[84.66961670 45.66399002]
[110.42673492 50.23371124]
[128.72640991 65.05540466]
[136.47889709 84.52397919]
[142.44270325 77.64015198]
[149.80264282 77.23390198]
[163.00648499 70.11642456]
[176.21034241 62.99894714]
[189.41418457 55.88147354]
[202.61802673 48.76399612]
[200.34884644 36.26461792]
[201.67240906 23.64802742]
[206.47264099 11.92475796]
[214.35539246 2.03096390]
[224.68081665 -5.24632931]
[236.61528015 -9.33182621]
[249.19862366 -9.90743351]
[261.42150879 -6.93700457]
[272.30627441 -0.66843206]
[280.98522949 8.38700199]
[294.44696045 1.77021754]
[307.90869141 -4.84656715]
[321.37042236 -11.46335220]
[334.83215332 -18.08013725]
[348.29388428 -24.69692230]
[347.67364502 -39.91320419]
[353.30212402 -54.06383133]
[364.20410156 -64.69712830]
[378.49072266 -69.97080231]
[393.68679810 -68.97116852]
[407.15948486 -61.87141418]
[416.57458496 -49.90161514]
[420.30084229 -35.13560867]
[417.69265747 -20.13169670]
[409.20193481 -7.48939943]
[396.29974365 0.60092992]
[381.22146606 2.73759317]
[366.57949829 -1.44959986]
[354.91064453 -11.23519230]
[341.44891357 -4.61840773]
[327.98718262 1.99837732]
[314.52548218 8.61516190]
[301.06375122 15.23194695]
[287.60202026 21.84873199]
[289.23657227 39.16706085]
[284.06808472 55.81383896]
[272.86715698 69.21540070]
[257.33911133 77.28884125]
[239.86460876 78.76570892]
[223.13447571 73.39125061]
[209.73550415 61.96784210]
[196.53166199 69.08531952]
[183.32781982 76.20279694]
[170.12396240 83.32026672]
[156.92012024 90.43774414]
[143.76107788 97.63771057]
[142.07495117 112.54264069]
[150.52560425 115.93978882]
[153.30635071 122.76629639]
[164.33552551 132.93278503]
[179.72656250 136.59701538]
[183.84056091 150.91218567]
[194.86972046 161.07867432]
[205.89888000 171.24516296]
[216.98600769 174.09553528]
[221.56204224 183.17333984]
[234.29490662 191.10266113]
[247.02777100 199.03198242]
[259.76065063 206.96130371]
[275.09573364 203.13888550]
[288.59890747 211.35105896]
[292.25897217 226.72570801]
[283.90447998 240.14129639]
[268.49200439 243.63861084]
[255.16549683 235.14276123]
[251.83132935 219.69416809]
[239.09844971 211.76484680]
[226.36558533 203.83552551]
[213.63272095 195.90620422]
[220.74569702 209.11247253]
[223.05538940 223.93359375]
[220.29820251 238.67800903]
[212.78880310 251.66296387]
[201.38424683 261.40646362]
[187.38612366 266.79650879]
[172.39204407 267.21792603]
[158.11328125 262.62261963]
[146.17945862 253.53503418]
[137.95260620 240.99235535]
[134.37162781 226.42607117]
[135.84523010 211.49862671]
[142.20523071 197.91369629]
[152.72576904 187.22172546]
[166.20613098 180.64297485]
[181.10780334 178.92828369]
[195.73239136 182.27433777]
[184.70323181 172.10784912]
[173.67405701 161.94134521]
[159.07189941 159.00430298]
[154.16902161 143.96194458]
[143.13986206 133.79545593]
[132.04728699 123.69818878]
[125.05275726 126.40492249]
[130.46623230 140.39399719]
[135.87969971 154.38307190]
[141.29318237 168.37216187]
[150.76441956 180.00381470]
[142.62866211 192.60578918]
[128.12944031 188.76226807]
[127.30410004 173.78562927]
[121.89062500 159.79655457]
[116.47714996 145.80747986]
] def
/pairs [
[1 7]
[2 6]
[12 34]
[13 33]
[14 32]
[15 31]
[16 30]
[17 29]
[18 28]
[20 27]
[21 26]
[50 79]
[51 78]
[52 77]
[53 76]
[55 74]
[59 70]
[60 69]
[61 68]
[80 138]
[81 137]
[82 136]
[85 134]
[86 133]
[87 132]
[88 131]
[89 130]
[92 127]
[93 126]
[94 125]
[142 194]
[144 193]
[145 192]
[146 191]
[147 190]
[148 189]
[158 182]
[159 181]
[160 180]
[161 179]
[162 178]
[163 177]
[195 240]
[197 239]
[198 238]
[200 236]
[201 235]
[202 234]
[204 217]
[205 216]
[206 215]
[207 214]
] def

init

% switch off outline pairs or bases by removing these lines
drawoutline
drawpairs
drawbases
% show it
showpage
end
%%EOF
