%!PS-Adobe-3.0 EPSF-3.0
%%Creator: PS_dot.c,v 1.38 2007/02/02 15:18:13 ivo Exp $, ViennaRNA-2.0.7
%%CreationDate: Sat Nov  3 00:50:24 2012
%%Title: RNA Secondary Structure Plot
%%BoundingBox: 66 210 518 662
%%DocumentFonts: Helvetica
%%Pages: 1
%%EndComments

%Options: -d2 
% to switch off outline pairs of sequence comment or
% delete the appropriate line near the end of the file

%%BeginProlog
/RNAplot 100 dict def
RNAplot begin
/fsize  14 def
/outlinecolor {0.2 setgray} bind def
/paircolor    {0.2 setgray} bind def
/seqcolor     {0   setgray} bind def
/cshow  { dup stringwidth pop -2 div fsize -3 div rmoveto show} bind def
/min { 2 copy gt { exch } if pop } bind def
/max { 2 copy lt { exch } if pop } bind def
/arccoords { % i j arccoords
  % puts optimal x1 y1 x2 y2 coordinates used in bezier curves from i to j
  % onto the stack
  dup 3 -1 roll dup 4 -1 roll lt dup dup 5 2 roll {exch} if
  dup 3 -1 roll dup 3 -1 roll exch sub 1 sub dup
  4 -2 roll 5 -1 roll {exch} if 4 2 roll
  sequence length dup 2 div exch 3 1 roll lt 
  {exch 5 -1 roll pop 4 -2 roll exch 4 2 roll}
  { 4 2 roll 5 -1 roll dup 6 1 roll {exch} if
    4 -2 roll exch pop dup 3 -1 roll dup 4 1 roll
    exch add 4 -1 roll dup 5 1 roll sub 1 sub
    5 -1 roll not {4 -2 roll exch 4 2 roll} if
  }ifelse
   % compute the scalingfactor and prepare (1-sf) and sf*r
  2 mul exch cpr 3 1 roll div dup
  3 -1 roll mul exch 1 exch sub exch
   % compute the coordinates
  3 -1 roll 1 sub coor exch get aload pop % get coord for i
  4 -1 roll dup 5 1 roll mul 3 -1 roll dup 4 1 roll add exch % calculate y1
  4 -1 roll dup 5 1 roll mul 3 -1 roll dup 4 1 roll add exch % calculate x1
  5 -1 roll 1 sub coor exch get aload pop % get coord for j
  % duplicate j coord
  dup 3 -1 roll dup 4 1 roll exch 8 2 roll
  6 -1 roll dup 7 1 roll mul 5 -1 roll dup 6 1 roll add exch % calculate y2
  6 -1 roll mul 5 -1 roll add exch % calculate x2
  6 -2 roll % reorder
} bind def
/drawoutline {
  gsave outlinecolor newpath
  coor 0 get aload pop 0.8 0 360 arc % draw 5' circle of 1st sequence
  currentdict /cutpoint known        % check if cutpoint is defined
  {coor 0 cutpoint getinterval
   {aload pop lineto} forall         % draw outline of 1st sequence
   coor cutpoint 1 add get aload pop
   2 copy moveto 0.8 0 360 arc       % draw 5' circle of 2nd sequence
   coor cutpoint 1 add coor length cutpoint 1 add sub getinterval
   {aload pop lineto} forall}        % draw outline of 2nd sequence
  {coor {aload pop lineto} forall}   % draw outline as a whole
  ifelse
  stroke grestore
} bind def
/drawpairs {
  paircolor
  0.7 setlinewidth
  [9 3.01] 9 setdash
  newpath
  pairs {aload pop
      currentdict (cpr) known
      { exch dup
        coor  exch 1 sub get aload pop moveto
        exch arccoords curveto
      }
      { coor exch 1 sub get aload pop moveto
        coor exch 1 sub get aload pop lineto
      }ifelse
  } forall
  stroke
} bind def
% draw bases
/drawbases {
  [] 0 setdash
  seqcolor
  0
  coor {
    aload pop moveto
    dup sequence exch 1 getinterval cshow
    1 add
  } forall
  pop
} bind def

/init {
  /Helvetica findfont fsize scalefont setfont
  1 setlinejoin
  1 setlinecap
  0.8 setlinewidth
  72 216 translate
  % find the coordinate range
  /xmax -1000 def /xmin 10000 def
  /ymax -1000 def /ymin 10000 def
  coor {
      aload pop
      dup ymin lt {dup /ymin exch def} if
      dup ymax gt {/ymax exch def} {pop} ifelse
      dup xmin lt {dup /xmin exch def} if
      dup xmax gt {/xmax exch def} {pop} ifelse
  } forall
  /size {xmax xmin sub ymax ymin sub max} bind def
  72 6 mul size div dup scale
  size xmin sub xmax sub 2 div size ymin sub ymax sub 2 div
  translate
} bind def
end
%%EndProlog
RNAplot begin
% data start here
/sequence (\
11112222222222222222223333344444444444444444455555555555555555555556666663333377777777777766666688888888888888888888\
) def
/coor [
[103.75881958 128.20260620]
[101.75102234 143.06762695]
[86.88600159 141.05982971]
[88.89379883 126.19481659]
[75.25693512 119.94693756]
[65.31009674 131.17460632]
[55.36325455 142.40226746]
[45.41641617 153.62992859]
[35.46957397 164.85758972]
[25.52273560 176.08525085]
[15.57589531 187.31291199]
[5.62905550 198.54057312]
[-4.31778431 209.76823425]
[-15.54544544 199.82139587]
[-5.59860563 188.59373474]
[4.34823418 177.36607361]
[14.29507446 166.13841248]
[24.24191475 154.91075134]
[34.18875504 143.68309021]
[44.13559341 132.45542908]
[54.08243179 121.22776031]
[64.02927399 110.00009918]
[62.33233261 102.69459534]
[49.48519135 110.43740082]
[38.15137863 100.61168671]
[43.99386978 86.79628754]
[58.93844604 88.08358765]
[57.24150467 80.77808380]
[43.36412048 75.08438110]
[29.48674011 69.39067841]
[15.60935879 63.69696808]
[1.73197734 58.00326538]
[-12.14540386 52.30955887]
[-26.02278519 46.61585236]
[-39.90016556 40.92214584]
[-53.77754974 35.22844315]
[-48.08384323 21.35106087]
[-34.20646286 27.04476547]
[-20.32908058 32.73847198]
[-6.45169878 38.43217850]
[7.42568302 44.12588120]
[21.30306435 49.81958771]
[35.18044662 55.51329422]
[49.05782700 61.20700073]
[62.93520737 66.90070343]
[74.92684937 57.88957214]
[73.31887054 42.97600555]
[71.71089172 28.06244087]
[70.10292053 13.14887714]
[68.49494171 -1.76468778]
[66.88696289 -16.67825317]
[65.27898407 -31.59181595]
[63.67100906 -46.50538254]
[62.06303024 -61.41894531]
[60.45505524 -76.33251190]
[58.84707642 -91.24607849]
[73.76064301 -92.85404968]
[75.36861420 -77.94049072]
[76.97659302 -63.02692413]
[78.58457184 -48.11335754]
[80.19255066 -33.19979477]
[81.80052948 -18.28623009]
[83.40850830 -3.37266517]
[85.01647949 11.54089928]
[86.62445831 26.45446396]
[88.23243713 41.36802673]
[89.84041595 56.28159332]
[146.31890869 85.40485382]
[160.60943604 80.84627533]
[174.89996338 76.28769684]
[189.19050598 71.72911835]
[203.48103333 67.17054749]
[217.77157593 62.61196899]
[206.31564331 52.92889786]
[206.46881104 37.92967987]
[218.12007141 28.48255920]
[232.82707214 31.43280029]
[239.93331909 44.64269638]
[234.28955078 58.54064941]
[249.06167603 55.93592834]
[263.83380127 53.33120346]
[278.60589600 50.72648239]
[293.37802124 48.12176132]
[308.15014648 45.51703644]
[310.75485229 60.28915405]
[295.98275757 62.89387512]
[281.21063232 65.49859619]
[266.43850708 68.10332489]
[251.66639709 70.70804596]
[236.89427185 73.31276703]
[222.33015442 76.90250397]
[208.03961182 81.46108246]
[193.74908447 86.01965332]
[179.45854187 90.57823181]
[165.16801453 95.13681030]
[150.87747192 99.69538879]
[145.74717712 113.79077911]
[153.76416016 126.46862793]
[161.78115845 139.14648438]
[169.79814148 151.82432556]
[177.81512451 164.50218201]
[185.83210754 177.18003845]
[193.84910583 189.85787964]
[201.86608887 202.53573608]
[209.88307190 215.21359253]
[217.90007019 227.89143372]
[205.22221375 235.90843201]
[197.20523071 223.23057556]
[189.18823242 210.55271912]
[181.17124939 197.87487793]
[173.15426636 185.19702148]
[165.13726807 172.51916504]
[157.12028503 159.84132385]
[149.10330200 147.16346741]
[141.08631897 134.48561096]
[133.06932068 121.80776215]
] def
/pairs [
[1 4]
[2 3]
[5 22]
[6 21]
[7 20]
[8 19]
[9 18]
[10 17]
[11 16]
[12 15]
[13 14]
[28 45]
[29 44]
[30 43]
[31 42]
[32 41]
[33 40]
[34 39]
[35 38]
[36 37]
[46 67]
[47 66]
[48 65]
[49 64]
[50 63]
[51 62]
[52 61]
[53 60]
[54 59]
[55 58]
[56 57]
[68 96]
[69 95]
[70 94]
[71 93]
[72 92]
[73 91]
[79 90]
[80 89]
[81 88]
[82 87]
[83 86]
[84 85]
[97 116]
[98 115]
[99 114]
[100 113]
[101 112]
[102 111]
[103 110]
[104 109]
[105 108]
[106 107]
] def

init

% switch off outline pairs or bases by removing these lines
drawoutline
drawpairs
drawbases
% show it
showpage
end
%%EOF
