%!PS-Adobe-3.0 EPSF-3.0
%%Creator: PS_dot.c,v 1.38 2007/02/02 15:18:13 ivo Exp $, ViennaRNA-2.0.7
%%CreationDate: Sun Nov  4 18:30:39 2012
%%Title: RNA Secondary Structure Plot
%%BoundingBox: 66 210 518 662
%%DocumentFonts: Helvetica
%%Pages: 1
%%EndComments

%Options: -d2 
% to switch off outline pairs of sequence comment or
% delete the appropriate line near the end of the file

%%BeginProlog
/RNAplot 100 dict def
RNAplot begin
/fsize  14 def
/outlinecolor {0.2 setgray} bind def
/paircolor    {0.2 setgray} bind def
/seqcolor     {0   setgray} bind def
/cshow  { dup stringwidth pop -2 div fsize -3 div rmoveto show} bind def
/min { 2 copy gt { exch } if pop } bind def
/max { 2 copy lt { exch } if pop } bind def
/arccoords { % i j arccoords
  % puts optimal x1 y1 x2 y2 coordinates used in bezier curves from i to j
  % onto the stack
  dup 3 -1 roll dup 4 -1 roll lt dup dup 5 2 roll {exch} if
  dup 3 -1 roll dup 3 -1 roll exch sub 1 sub dup
  4 -2 roll 5 -1 roll {exch} if 4 2 roll
  sequence length dup 2 div exch 3 1 roll lt 
  {exch 5 -1 roll pop 4 -2 roll exch 4 2 roll}
  { 4 2 roll 5 -1 roll dup 6 1 roll {exch} if
    4 -2 roll exch pop dup 3 -1 roll dup 4 1 roll
    exch add 4 -1 roll dup 5 1 roll sub 1 sub
    5 -1 roll not {4 -2 roll exch 4 2 roll} if
  }ifelse
   % compute the scalingfactor and prepare (1-sf) and sf*r
  2 mul exch cpr 3 1 roll div dup
  3 -1 roll mul exch 1 exch sub exch
   % compute the coordinates
  3 -1 roll 1 sub coor exch get aload pop % get coord for i
  4 -1 roll dup 5 1 roll mul 3 -1 roll dup 4 1 roll add exch % calculate y1
  4 -1 roll dup 5 1 roll mul 3 -1 roll dup 4 1 roll add exch % calculate x1
  5 -1 roll 1 sub coor exch get aload pop % get coord for j
  % duplicate j coord
  dup 3 -1 roll dup 4 1 roll exch 8 2 roll
  6 -1 roll dup 7 1 roll mul 5 -1 roll dup 6 1 roll add exch % calculate y2
  6 -1 roll mul 5 -1 roll add exch % calculate x2
  6 -2 roll % reorder
} bind def
/drawoutline {
  gsave outlinecolor newpath
  coor 0 get aload pop 0.8 0 360 arc % draw 5' circle of 1st sequence
  currentdict /cutpoint known        % check if cutpoint is defined
  {coor 0 cutpoint getinterval
   {aload pop lineto} forall         % draw outline of 1st sequence
   coor cutpoint 1 add get aload pop
   2 copy moveto 0.8 0 360 arc       % draw 5' circle of 2nd sequence
   coor cutpoint 1 add coor length cutpoint 1 add sub getinterval
   {aload pop lineto} forall}        % draw outline of 2nd sequence
  {coor {aload pop lineto} forall}   % draw outline as a whole
  ifelse
  stroke grestore
} bind def
/drawpairs {
  paircolor
  0.7 setlinewidth
  [9 3.01] 9 setdash
  newpath
  pairs {aload pop
      currentdict (cpr) known
      { exch dup
        coor  exch 1 sub get aload pop moveto
        exch arccoords curveto
      }
      { coor exch 1 sub get aload pop moveto
        coor exch 1 sub get aload pop lineto
      }ifelse
  } forall
  stroke
} bind def
% draw bases
/drawbases {
  [] 0 setdash
  seqcolor
  0
  coor {
    aload pop moveto
    dup sequence exch 1 getinterval cshow
    1 add
  } forall
  pop
} bind def

/init {
  /Helvetica findfont fsize scalefont setfont
  1 setlinejoin
  1 setlinecap
  0.8 setlinewidth
  72 216 translate
  % find the coordinate range
  /xmax -1000 def /xmin 10000 def
  /ymax -1000 def /ymin 10000 def
  coor {
      aload pop
      dup ymin lt {dup /ymin exch def} if
      dup ymax gt {/ymax exch def} {pop} ifelse
      dup xmin lt {dup /xmin exch def} if
      dup xmax gt {/xmax exch def} {pop} ifelse
  } forall
  /size {xmax xmin sub ymax ymin sub max} bind def
  72 6 mul size div dup scale
  size xmin sub xmax sub 2 div size ymin sub ymax sub 2 div
  translate
} bind def
end
%%EndProlog
RNAplot begin
% data start here
/sequence (\
11nnn11nnnn2222222n22nnnn222222222nnnnnn33333nnnn4444n4nnn444nnnnnn444nnn4n4444555nn55555nn555nnnnnnnnnnnnnnnnnnnnnnnnnnnnnn555nn55555n555nnn6n66666nnn33333n777777nnnnnnnnnnnnn777777nnnnnn6666668n88n888n8888nnnnnn8888nnnnnnnnnnnnnnnn888n888nnnnnnnnnn\
) def
/coor [
[127.52132416 177.21002197]
[126.02188110 192.13488770]
[130.45460510 208.49909973]
[115.95701599 217.28865051]
[103.49762726 205.79083252]
[111.09700775 190.63543701]
[112.59645844 175.71057129]
[105.52066040 173.22398376]
[100.54725647 187.37550354]
[86.39582825 182.40187073]
[91.36907196 168.25082397]
[84.29327393 165.76423645]
[76.12631226 178.34600830]
[67.95935059 190.92776489]
[59.79238892 203.50952148]
[51.62542725 216.09129333]
[43.45846558 228.67304993]
[35.29150391 241.25480652]
[33.25260162 250.13157654]
[26.94276237 253.94204712]
[18.61896896 266.42062378]
[18.09974480 282.81152344]
[3.51934099 290.31777954]
[-10.12317467 281.21759033]
[-8.79355145 264.87243652]
[6.14040899 258.09683228]
[14.46420383 245.61825562]
[22.70974350 233.08784485]
[30.87670326 220.50608826]
[39.04366684 207.92433167]
[47.21062469 195.34255981]
[55.37758636 182.76080322]
[63.54454803 170.17904663]
[71.71150970 157.59727478]
[60.25572968 145.69554138]
[52.85371017 131.95234680]
[49.64239502 117.60409546]
[50.40908051 103.82521057]
[54.63422775 91.63526917]
[61.55751038 81.82421875]
[70.26060486 74.90126801]
[60.87684250 63.19892120]
[51.49307251 51.49657440]
[42.10930634 39.79422760]
[32.72554016 28.09188080]
[14.70655918 34.01500702]
[-4.45303202 31.56108665]
[-20.98395348 20.91081238]
[-31.50499153 3.88615537]
[-33.71279144 -16.35567284]
[-48.69840240 -17.01256943]
[-63.68400955 -17.66946411]
[-78.66961670 -18.32636070]
[-92.79539490 -11.20083523]
[-105.17161560 -19.48807907]
[-114.86590576 -7.51615858]
[-129.57882690 -3.59396815]
[-143.61407471 -9.02313328]
[-151.66474915 -21.52610970]
[-166.65036011 -22.18300629]
[-181.63597107 -22.83990288]
[-193.11921692 -11.98123264]
[-208.91477966 -12.50637913]
[-219.65142822 -24.10378265]
[-218.95932007 -39.89291000]
[-207.24903870 -50.50635147]
[-191.46812439 -49.64733887]
[-180.97908020 -37.82551193]
[-165.99346924 -37.16861725]
[-151.00785828 -36.51171875]
[-141.89401245 -48.26228714]
[-127.43753815 -52.44251633]
[-113.12425995 -47.24795914]
[-104.51471710 -34.47368622]
[-91.46081543 -41.64619827]
[-78.01272583 -33.31196976]
[-63.02711487 -32.65507507]
[-48.04150391 -31.99817848]
[-33.05589676 -31.34128189]
[-24.57657242 -43.71468353]
[-30.59747887 -57.45326614]
[-36.61838531 -71.19184875]
[-48.31277847 -76.59248352]
[-53.05156708 -88.13860321]
[-48.80358887 -99.44737244]
[-54.65207291 -113.26023865]
[-60.50055695 -127.07310486]
[-66.34903717 -140.88597107]
[-72.19752502 -154.69883728]
[-86.57064819 -160.70307922]
[-92.30506897 -174.79460144]
[-86.49236298 -188.46018982]
[-92.34084320 -202.27305603]
[-98.18932343 -216.08590698]
[-112.92527008 -213.03005981]
[-127.97423553 -212.90808105]
[-142.75778198 -215.72463989]
[-156.70767212 -221.37149048]
[-169.28768921 -229.63157654]
[-180.01432800 -240.18740845]
[-188.47525024 -252.63325500]
[-194.34526062 -266.49072266]
[-197.39872742 -281.22714233]
[-197.51828003 -296.27612305]
[-194.69932556 -311.05923462]
[-189.05021667 -325.00820923]
[-180.78808594 -337.58688354]
[-170.23051453 -348.31179810]
[-157.78330994 -356.77072144]
[-143.92489624 -362.63848877]
[-129.18797302 -365.68957520]
[-114.13896942 -365.80670166]
[-99.35633087 -362.98535156]
[-85.40827942 -357.33398438]
[-72.83092499 -349.06982422]
[-62.10770798 -338.51049805]
[-53.65081024 -326.06192017]
[-47.78528595 -312.20257568]
[-44.73659134 -297.46514893]
[-44.62191010 -282.41610718]
[-47.44565201 -267.63394165]
[-53.09927368 -253.68679810]
[-61.36547470 -241.11077881]
[-71.92651367 -230.38928223]
[-84.37646484 -221.93440247]
[-78.52797699 -208.12153625]
[-72.67949677 -194.30867004]
[-58.82107925 -188.97201538]
[-52.69311523 -175.04711914]
[-58.38465500 -160.54731750]
[-52.53617477 -146.73445129]
[-46.68769073 -132.92158508]
[-40.83920670 -119.10871887]
[-34.99072266 -105.29586029]
[-20.43331528 -95.47573090]
[-22.87980080 -77.21276093]
[-16.85889435 -63.47417450]
[-10.83798885 -49.73559189]
[-2.22998118 -53.27471161]
[6.85544872 -55.01461792]
[16.04872894 -54.90752792]
[24.98045540 -52.98031235]
[33.29622650 -49.33253860]
[40.67070770 -44.13156509]
[46.82035828 -37.60499191]
[51.51429749 -30.03076172]
[54.58294678 -21.72537231]
[55.92406464 -13.03066063]
[55.50603104 -4.29975128]
[53.36819839 4.11728859]
[49.61843491 11.88748169]
[44.42788696 18.70811272]
[53.81165314 30.41045952]
[63.19541931 42.11280823]
[72.57918549 53.81515121]
[81.96295166 65.51750183]
[130.73434448 58.62382889]
[163.02769470 112.04968262]
[176.48942566 105.43289948]
[189.95115662 98.81611633]
[203.41288757 92.19933319]
[216.87461853 85.58254242]
[230.33633423 78.96575928]
[229.71612549 63.74947739]
[235.34458923 49.59885025]
[246.24656677 38.96555328]
[260.53320312 33.69187546]
[275.72927856 34.69150925]
[289.20196533 41.79126740]
[298.61703491 53.76106644]
[302.34329224 68.52707672]
[299.73513794 83.53098297]
[291.24441528 96.17327881]
[278.34222412 104.26361084]
[263.26394653 106.40027618]
[248.62197876 102.21308136]
[236.95312500 92.42749023]
[223.49139404 99.04427338]
[210.02966309 105.66105652]
[196.56793213 112.27784729]
[183.10620117 118.89463043]
[169.64448547 125.51141357]
[168.61514282 132.94044495]
[183.60118103 133.58757019]
[198.58721924 134.23468018]
[213.57324219 134.88180542]
[228.34866333 132.29591370]
[239.14241028 142.71200562]
[237.08415222 157.57011414]
[223.86537170 164.65980530]
[210.34873962 158.15402222]
[195.75131226 154.70217896]
[181.15390015 151.25033569]
[166.55647278 147.79849243]
[165.52713013 155.22752380]
[173.97778320 158.62467957]
[176.75854492 165.45117188]
[187.78770447 175.61767578]
[203.17874146 179.28189087]
[207.29273987 193.59707642]
[218.32189941 203.76356506]
[229.35107422 213.93005371]
[240.43820190 216.78042603]
[245.01423645 225.85823059]
[257.74710083 233.78755188]
[270.47994995 241.71687317]
[283.21282959 249.64619446]
[298.54791260 245.82377625]
[312.05108643 254.03594971]
[315.71115112 269.41058350]
[307.35665894 282.82617188]
[291.94418335 286.32348633]
[278.61767578 277.82763672]
[275.28350830 262.37905884]
[262.55065918 254.44973755]
[249.81777954 246.52041626]
[237.08491516 238.59109497]
[244.19789124 251.79736328]
[246.50758362 266.61846924]
[243.75039673 281.36288452]
[236.24098206 294.34783936]
[224.83642578 304.09133911]
[210.83830261 309.48138428]
[195.84422302 309.90280151]
[181.56546021 305.30749512]
[169.63165283 296.21990967]
[161.40478516 283.67724609]
[157.82380676 269.11096191]
[159.29740906 254.18351746]
[165.65742493 240.59858704]
[176.17794800 229.90660095]
[189.65830994 223.32786560]
[204.55998230 221.61317444]
[219.18458557 224.95921326]
[208.15541077 214.79272461]
[197.12625122 204.62623596]
[182.52409363 201.68917847]
[177.62121582 186.64683533]
[166.59205627 176.48034668]
[155.49948120 166.38307190]
[148.50494385 169.08981323]
[153.91841125 183.07888794]
[159.33189392 197.06796265]
[164.74536133 211.05703735]
[174.21673584 222.68859863]
[166.08125305 235.29074097]
[151.58190918 231.44769287]
[150.75628662 216.47052002]
[145.34281921 202.48144531]
[139.92933655 188.49235535]
] def
/pairs [
[1 7]
[2 6]
[12 34]
[13 33]
[14 32]
[15 31]
[16 30]
[17 29]
[18 28]
[20 27]
[21 26]
[41 156]
[42 155]
[43 154]
[44 153]
[45 152]
[50 79]
[51 78]
[52 77]
[53 76]
[55 74]
[59 70]
[60 69]
[61 68]
[80 138]
[81 137]
[82 136]
[85 134]
[86 133]
[87 132]
[88 131]
[89 130]
[92 127]
[93 126]
[94 125]
[158 182]
[159 181]
[160 180]
[161 179]
[162 178]
[163 177]
[195 240]
[197 239]
[198 238]
[200 236]
[201 235]
[202 234]
[204 217]
[205 216]
[206 215]
[207 214]
] def

init

% switch off outline pairs or bases by removing these lines
drawoutline
drawpairs
drawbases
% show it
showpage
end
%%EOF
