%!PS-Adobe-3.0 EPSF-3.0
%%Creator: PS_dot.c,v 1.38 2007/02/02 15:18:13 ivo Exp $, ViennaRNA-2.0.7
%%CreationDate: Sat Nov  3 00:50:25 2012
%%Title: RNA Secondary Structure Plot
%%BoundingBox: 66 210 518 662
%%DocumentFonts: Helvetica
%%Pages: 1
%%EndComments

%Options: -d2 
% to switch off outline pairs of sequence comment or
% delete the appropriate line near the end of the file

%%BeginProlog
/RNAplot 100 dict def
RNAplot begin
/fsize  14 def
/outlinecolor {0.2 setgray} bind def
/paircolor    {0.2 setgray} bind def
/seqcolor     {0   setgray} bind def
/cshow  { dup stringwidth pop -2 div fsize -3 div rmoveto show} bind def
/min { 2 copy gt { exch } if pop } bind def
/max { 2 copy lt { exch } if pop } bind def
/arccoords { % i j arccoords
  % puts optimal x1 y1 x2 y2 coordinates used in bezier curves from i to j
  % onto the stack
  dup 3 -1 roll dup 4 -1 roll lt dup dup 5 2 roll {exch} if
  dup 3 -1 roll dup 3 -1 roll exch sub 1 sub dup
  4 -2 roll 5 -1 roll {exch} if 4 2 roll
  sequence length dup 2 div exch 3 1 roll lt 
  {exch 5 -1 roll pop 4 -2 roll exch 4 2 roll}
  { 4 2 roll 5 -1 roll dup 6 1 roll {exch} if
    4 -2 roll exch pop dup 3 -1 roll dup 4 1 roll
    exch add 4 -1 roll dup 5 1 roll sub 1 sub
    5 -1 roll not {4 -2 roll exch 4 2 roll} if
  }ifelse
   % compute the scalingfactor and prepare (1-sf) and sf*r
  2 mul exch cpr 3 1 roll div dup
  3 -1 roll mul exch 1 exch sub exch
   % compute the coordinates
  3 -1 roll 1 sub coor exch get aload pop % get coord for i
  4 -1 roll dup 5 1 roll mul 3 -1 roll dup 4 1 roll add exch % calculate y1
  4 -1 roll dup 5 1 roll mul 3 -1 roll dup 4 1 roll add exch % calculate x1
  5 -1 roll 1 sub coor exch get aload pop % get coord for j
  % duplicate j coord
  dup 3 -1 roll dup 4 1 roll exch 8 2 roll
  6 -1 roll dup 7 1 roll mul 5 -1 roll dup 6 1 roll add exch % calculate y2
  6 -1 roll mul 5 -1 roll add exch % calculate x2
  6 -2 roll % reorder
} bind def
/drawoutline {
  gsave outlinecolor newpath
  coor 0 get aload pop 0.8 0 360 arc % draw 5' circle of 1st sequence
  currentdict /cutpoint known        % check if cutpoint is defined
  {coor 0 cutpoint getinterval
   {aload pop lineto} forall         % draw outline of 1st sequence
   coor cutpoint 1 add get aload pop
   2 copy moveto 0.8 0 360 arc       % draw 5' circle of 2nd sequence
   coor cutpoint 1 add coor length cutpoint 1 add sub getinterval
   {aload pop lineto} forall}        % draw outline of 2nd sequence
  {coor {aload pop lineto} forall}   % draw outline as a whole
  ifelse
  stroke grestore
} bind def
/drawpairs {
  paircolor
  0.7 setlinewidth
  [9 3.01] 9 setdash
  newpath
  pairs {aload pop
      currentdict (cpr) known
      { exch dup
        coor  exch 1 sub get aload pop moveto
        exch arccoords curveto
      }
      { coor exch 1 sub get aload pop moveto
        coor exch 1 sub get aload pop lineto
      }ifelse
  } forall
  stroke
} bind def
% draw bases
/drawbases {
  [] 0 setdash
  seqcolor
  0
  coor {
    aload pop moveto
    dup sequence exch 1 getinterval cshow
    1 add
  } forall
  pop
} bind def

/init {
  /Helvetica findfont fsize scalefont setfont
  1 setlinejoin
  1 setlinecap
  0.8 setlinewidth
  72 216 translate
  % find the coordinate range
  /xmax -1000 def /xmin 10000 def
  /ymax -1000 def /ymin 10000 def
  coor {
      aload pop
      dup ymin lt {dup /ymin exch def} if
      dup ymax gt {/ymax exch def} {pop} ifelse
      dup xmin lt {dup /xmin exch def} if
      dup xmax gt {/xmax exch def} {pop} ifelse
  } forall
  /size {xmax xmin sub ymax ymin sub max} bind def
  72 6 mul size div dup scale
  size xmin sub xmax sub 2 div size ymin sub ymax sub 2 div
  translate
} bind def
end
%%EndProlog
RNAplot begin
% data start here
/sequence (\
111111111111111122222222222222222222222222333333334444444444444444444455555555555555666666333333337777777777777766666688888888888888\
) def
/coor [
[69.93794250 120.71812439]
[64.07515717 134.52493286]
[58.21238327 148.33172607]
[52.34960175 162.13853455]
[46.48682404 175.94534302]
[40.62404633 189.75213623]
[34.76126480 203.55894470]
[28.89848709 217.36575317]
[15.09168434 211.50297546]
[20.95446205 197.69616699]
[26.81724167 183.88935852]
[32.68001938 170.08256531]
[38.54280090 156.27575684]
[44.40557861 142.46894836]
[50.26835632 128.66215515]
[56.13113403 114.85534668]
[46.77878952 103.12786865]
[32.01356125 105.77135468]
[17.24833107 108.41484070]
[2.48310113 111.05832672]
[-12.28212833 113.70180511]
[-27.04735756 116.34529114]
[-41.81258774 118.98877716]
[-56.57781601 121.63225555]
[-71.34304810 124.27574158]
[-86.10827637 126.91922760]
[-100.87350464 129.56271362]
[-115.63873291 132.20619202]
[-130.40396118 134.84968567]
[-133.04743958 120.08444977]
[-118.28221893 117.44096375]
[-103.51699066 114.79747772]
[-88.75175476 112.15399933]
[-73.98652649 109.51051331]
[-59.22129822 106.86702728]
[-44.45606995 104.22354889]
[-29.69084167 101.58006287]
[-14.92561150 98.93657684]
[-0.16038264 96.29309082]
[14.60484695 93.64961243]
[29.37007523 91.00612640]
[44.13530350 88.36264038]
[115.70265961 64.13532257]
[118.52033997 49.40234756]
[121.33802032 34.66936874]
[124.15570068 19.93638802]
[126.97338104 5.20340824]
[129.79106140 -9.52957058]
[132.60873413 -24.26255035]
[135.42642212 -38.99552917]
[134.71804810 -53.97879410]
[130.52297974 -68.38023376]
[126.32791138 -82.78166962]
[122.13283539 -97.18310547]
[117.93775940 -111.58454132]
[113.74269104 -125.98597717]
[109.54761505 -140.38740540]
[105.35254669 -154.78884888]
[101.15747070 -169.19027710]
[96.96239471 -183.59172058]
[111.36383057 -187.78678894]
[115.55890656 -173.38536072]
[119.75398254 -158.98391724]
[123.94905090 -144.58248901]
[128.14411926 -130.18104553]
[132.33920288 -115.77960968]
[136.53427124 -101.37817383]
[140.72933960 -86.97673798]
[144.92442322 -72.57530212]
[149.11949158 -58.17386627]
[164.01499939 -56.40640640]
[171.46379089 -69.42621613]
[178.91259766 -82.44602203]
[186.36140442 -95.46582794]
[193.81019592 -108.48563385]
[201.25900269 -121.50543976]
[208.70780945 -134.52525330]
[221.72761536 -127.07644653]
[214.27880859 -114.05664062]
[206.83000183 -101.03683472]
[199.38121033 -88.01702881]
[191.93240356 -74.99722290]
[184.48359680 -61.97741318]
[177.03480530 -48.95760727]
[189.12564087 -40.08001709]
[192.82701111 -25.54385948]
[186.45433044 -11.96486759]
[172.90795898 -5.52314425]
[158.35314941 -9.15046215]
[149.41412354 -21.19594765]
[150.15939331 -36.17784882]
[147.34172058 -21.44487000]
[144.52403259 -6.71189070]
[141.70635986 8.02108860]
[138.88867188 22.75406837]
[136.07099915 37.48704529]
[133.25332642 52.22002792]
[130.43563843 66.95300293]
[138.34097290 79.70077515]
[152.79095459 83.72547150]
[167.24093628 87.75016785]
[181.69090271 91.77486420]
[196.14088440 95.79956055]
[210.59086609 99.82425690]
[225.04083252 103.84895325]
[221.01614380 118.29892731]
[206.56616211 114.27423096]
[192.11619568 110.24953461]
[177.66621399 106.22483826]
[163.21623230 102.20014191]
[148.76626587 98.17544556]
[134.31628418 94.15074921]
[129.23667908 99.66867828]
[140.27253723 109.82790375]
[151.30822754 119.98731232]
[141.14863586 131.02282715]
[130.11331177 120.86376190]
[119.07744598 110.70453644]
[113.99783325 116.22246552]
[119.20205688 130.29072571]
[124.40627289 144.35899353]
[129.61048889 158.42726135]
[134.81471252 172.49552917]
[140.01893616 186.56379700]
[145.22315979 200.63206482]
[131.15489197 205.83628845]
[125.95066833 191.76802063]
[120.74644470 177.69975281]
[115.54222870 163.63148499]
[110.33801270 149.56321716]
[105.13378906 135.49494934]
[99.92957306 121.42668915]
] def
/pairs [
[1 16]
[2 15]
[3 14]
[4 13]
[5 12]
[6 11]
[7 10]
[8 9]
[17 42]
[18 41]
[19 40]
[20 39]
[21 38]
[22 37]
[23 36]
[24 35]
[25 34]
[26 33]
[27 32]
[28 31]
[29 30]
[43 98]
[44 97]
[45 96]
[46 95]
[47 94]
[48 93]
[49 92]
[50 91]
[51 70]
[52 69]
[53 68]
[54 67]
[55 66]
[56 65]
[57 64]
[58 63]
[59 62]
[60 61]
[71 84]
[72 83]
[73 82]
[74 81]
[75 80]
[76 79]
[77 78]
[99 112]
[100 111]
[101 110]
[102 109]
[103 108]
[104 107]
[105 106]
[119 132]
[120 131]
[121 130]
[122 129]
[123 128]
[124 127]
[125 126]
] def

init

% switch off outline pairs or bases by removing these lines
drawoutline
drawpairs
drawbases
% show it
showpage
end
%%EOF
