%!PS-Adobe-3.0 EPSF-3.0
%%Creator: PS_dot.c,v 1.38 2007/02/02 15:18:13 ivo Exp $, ViennaRNA-2.0.7
%%CreationDate: Sat Nov  3 00:50:25 2012
%%Title: RNA Secondary Structure Plot
%%BoundingBox: 66 210 518 662
%%DocumentFonts: Helvetica
%%Pages: 1
%%EndComments

%Options: -d2 
% to switch off outline pairs of sequence comment or
% delete the appropriate line near the end of the file

%%BeginProlog
/RNAplot 100 dict def
RNAplot begin
/fsize  14 def
/outlinecolor {0.2 setgray} bind def
/paircolor    {0.2 setgray} bind def
/seqcolor     {0   setgray} bind def
/cshow  { dup stringwidth pop -2 div fsize -3 div rmoveto show} bind def
/min { 2 copy gt { exch } if pop } bind def
/max { 2 copy lt { exch } if pop } bind def
/arccoords { % i j arccoords
  % puts optimal x1 y1 x2 y2 coordinates used in bezier curves from i to j
  % onto the stack
  dup 3 -1 roll dup 4 -1 roll lt dup dup 5 2 roll {exch} if
  dup 3 -1 roll dup 3 -1 roll exch sub 1 sub dup
  4 -2 roll 5 -1 roll {exch} if 4 2 roll
  sequence length dup 2 div exch 3 1 roll lt 
  {exch 5 -1 roll pop 4 -2 roll exch 4 2 roll}
  { 4 2 roll 5 -1 roll dup 6 1 roll {exch} if
    4 -2 roll exch pop dup 3 -1 roll dup 4 1 roll
    exch add 4 -1 roll dup 5 1 roll sub 1 sub
    5 -1 roll not {4 -2 roll exch 4 2 roll} if
  }ifelse
   % compute the scalingfactor and prepare (1-sf) and sf*r
  2 mul exch cpr 3 1 roll div dup
  3 -1 roll mul exch 1 exch sub exch
   % compute the coordinates
  3 -1 roll 1 sub coor exch get aload pop % get coord for i
  4 -1 roll dup 5 1 roll mul 3 -1 roll dup 4 1 roll add exch % calculate y1
  4 -1 roll dup 5 1 roll mul 3 -1 roll dup 4 1 roll add exch % calculate x1
  5 -1 roll 1 sub coor exch get aload pop % get coord for j
  % duplicate j coord
  dup 3 -1 roll dup 4 1 roll exch 8 2 roll
  6 -1 roll dup 7 1 roll mul 5 -1 roll dup 6 1 roll add exch % calculate y2
  6 -1 roll mul 5 -1 roll add exch % calculate x2
  6 -2 roll % reorder
} bind def
/drawoutline {
  gsave outlinecolor newpath
  coor 0 get aload pop 0.8 0 360 arc % draw 5' circle of 1st sequence
  currentdict /cutpoint known        % check if cutpoint is defined
  {coor 0 cutpoint getinterval
   {aload pop lineto} forall         % draw outline of 1st sequence
   coor cutpoint 1 add get aload pop
   2 copy moveto 0.8 0 360 arc       % draw 5' circle of 2nd sequence
   coor cutpoint 1 add coor length cutpoint 1 add sub getinterval
   {aload pop lineto} forall}        % draw outline of 2nd sequence
  {coor {aload pop lineto} forall}   % draw outline as a whole
  ifelse
  stroke grestore
} bind def
/drawpairs {
  paircolor
  0.7 setlinewidth
  [9 3.01] 9 setdash
  newpath
  pairs {aload pop
      currentdict (cpr) known
      { exch dup
        coor  exch 1 sub get aload pop moveto
        exch arccoords curveto
      }
      { coor exch 1 sub get aload pop moveto
        coor exch 1 sub get aload pop lineto
      }ifelse
  } forall
  stroke
} bind def
% draw bases
/drawbases {
  [] 0 setdash
  seqcolor
  0
  coor {
    aload pop moveto
    dup sequence exch 1 getinterval cshow
    1 add
  } forall
  pop
} bind def

/init {
  /Helvetica findfont fsize scalefont setfont
  1 setlinejoin
  1 setlinecap
  0.8 setlinewidth
  72 216 translate
  % find the coordinate range
  /xmax -1000 def /xmin 10000 def
  /ymax -1000 def /ymin 10000 def
  coor {
      aload pop
      dup ymin lt {dup /ymin exch def} if
      dup ymax gt {/ymax exch def} {pop} ifelse
      dup xmin lt {dup /xmin exch def} if
      dup xmax gt {/xmax exch def} {pop} ifelse
  } forall
  /size {xmax xmin sub ymax ymin sub max} bind def
  72 6 mul size div dup scale
  size xmin sub xmax sub 2 div size ymin sub ymax sub 2 div
  translate
} bind def
end
%%EndProlog
RNAplot begin
% data start here
/sequence (\
111111111111111122222222222222222222222222333333334444444444444444444455555555555555666666333333337777777777777766666688888888888888\
) def
/coor [
[94.40309143 131.15255737]
[88.54031372 144.95935059]
[82.67753601 158.76615906]
[76.81475067 172.57296753]
[70.95197296 186.37976074]
[65.08919525 200.18656921]
[59.22641754 213.99337769]
[53.36363983 227.80017090]
[39.55683517 221.93739319]
[45.41961288 208.13059998]
[51.28239441 194.32379150]
[57.14517212 180.51698303]
[63.00794983 166.71017456]
[68.87072754 152.90338135]
[74.73350525 139.09657288]
[80.59628296 125.28977203]
[71.24394226 113.56230164]
[56.47871017 116.20578003]
[41.71348190 118.84926605]
[26.94825172 121.49275208]
[12.18302250 124.13623810]
[-2.58220625 126.77971649]
[-17.34743500 129.42320251]
[-32.11266327 132.06668091]
[-46.87789536 134.71017456]
[-61.64312363 137.35365295]
[-76.40835571 139.99713135]
[-91.17358398 142.64062500]
[-105.93881226 145.28410339]
[-108.58229828 130.51887512]
[-93.81706238 127.87538910]
[-79.05183411 125.23191071]
[-64.28660583 122.58842468]
[-49.52137756 119.94493866]
[-34.75614929 117.30146027]
[-19.99091911 114.65797424]
[-5.22569036 112.01448822]
[9.53953934 109.37100220]
[24.30476761 106.72752380]
[39.06999588 104.08403778]
[53.83522797 101.44055176]
[68.60045624 98.79707336]
[72.55312347 92.42318726]
[58.32806396 87.66423035]
[43.64212036 84.61087036]
[37.72677231 70.82650757]
[45.63182831 58.07856750]
[60.60890961 57.24969482]
[69.87252808 69.04819489]
[80.45846558 79.67541504]
[84.41114044 73.30153656]
[80.21606445 58.90009689]
[76.02098846 44.49866104]
[71.82592010 30.09722519]
[67.63084412 15.69578934]
[63.43577194 1.29435289]
[59.24069977 -13.10708332]
[55.04562759 -27.50852013]
[50.85055542 -41.90995407]
[46.65547943 -56.31138992]
[61.05691528 -60.50646591]
[65.25199127 -46.10503006]
[69.44705963 -31.70359230]
[73.64213562 -17.30215645]
[77.83721161 -2.90072012]
[82.03227997 11.50071621]
[86.22735596 25.90215302]
[90.42242432 40.30358887]
[94.61750031 54.70502472]
[98.81257629 69.10646057]
[113.70807648 70.87391663]
[121.15688324 57.85411453]
[128.60568237 44.83430481]
[136.05448914 31.81450081]
[143.50328064 18.79469299]
[150.95208740 5.77488708]
[158.40087891 -7.24491978]
[171.42068481 0.20388146]
[163.97189331 13.22368813]
[156.52308655 26.24349403]
[149.07429504 39.26330185]
[141.62548828 52.28310776]
[134.17668152 65.30291748]
[126.72788239 78.32272339]
[133.71080017 91.59822083]
[148.65956116 92.83691406]
[163.60833740 94.07559967]
[178.55709839 95.31429291]
[193.50585938 96.55298615]
[208.45463562 97.79167175]
[198.60021973 86.48280334]
[197.09390259 71.55863190]
[204.48974609 58.50866699]
[218.06735229 52.13305283]
[232.83251953 54.77690506]
[243.35420227 65.46775055]
[245.76223755 80.27320099]
[239.17089844 93.74740601]
[226.00587463 100.93394470]
[240.45584106 104.95864105]
[254.90582275 108.98333740]
[269.35580444 113.00803375]
[283.80578613 117.03273010]
[298.25573730 121.05742645]
[312.70571899 125.08212280]
[308.68103027 139.53210449]
[294.23104858 135.50740051]
[279.78106689 131.48271179]
[265.33111572 127.45801544]
[250.88111877 123.43331909]
[236.43115234 119.40862274]
[221.98117065 115.38392639]
[207.21594238 112.74044037]
[192.26718140 111.50174713]
[177.31840515 110.26306152]
[162.36964417 109.02436829]
[147.42086792 107.78568268]
[132.47210693 106.54698944]
[123.39936066 118.49208069]
[128.60357666 132.56034851]
[133.80780029 146.62861633]
[139.01200867 160.69688416]
[144.21623230 174.76515198]
[149.42045593 188.83340454]
[154.62467957 202.90167236]
[140.55641174 208.10589600]
[135.35218811 194.03762817]
[130.14796448 179.96936035]
[124.94374847 165.90109253]
[119.73953247 151.83283997]
[114.53530884 137.76457214]
[109.33109283 123.69630432]
] def
/pairs [
[1 16]
[2 15]
[3 14]
[4 13]
[5 12]
[6 11]
[7 10]
[8 9]
[17 42]
[18 41]
[19 40]
[20 39]
[21 38]
[22 37]
[23 36]
[24 35]
[25 34]
[26 33]
[27 32]
[28 31]
[29 30]
[51 70]
[52 69]
[53 68]
[54 67]
[55 66]
[56 65]
[57 64]
[58 63]
[59 62]
[60 61]
[71 84]
[72 83]
[73 82]
[74 81]
[75 80]
[76 79]
[77 78]
[85 118]
[86 117]
[87 116]
[88 115]
[89 114]
[90 113]
[99 112]
[100 111]
[101 110]
[102 109]
[103 108]
[104 107]
[105 106]
[119 132]
[120 131]
[121 130]
[122 129]
[123 128]
[124 127]
[125 126]
] def

init

% switch off outline pairs or bases by removing these lines
drawoutline
drawpairs
drawbases
% show it
showpage
end
%%EOF
