%!PS-Adobe-3.0 EPSF-3.0
%%Creator: PS_dot.c,v 1.38 2007/02/02 15:18:13 ivo Exp $, ViennaRNA-2.0.7
%%CreationDate: Sun Nov  4 18:30:40 2012
%%Title: RNA Secondary Structure Plot
%%BoundingBox: 66 210 518 662
%%DocumentFonts: Helvetica
%%Pages: 1
%%EndComments

%Options: -d2 
% to switch off outline pairs of sequence comment or
% delete the appropriate line near the end of the file

%%BeginProlog
/RNAplot 100 dict def
RNAplot begin
/fsize  14 def
/outlinecolor {0.2 setgray} bind def
/paircolor    {0.2 setgray} bind def
/seqcolor     {0   setgray} bind def
/cshow  { dup stringwidth pop -2 div fsize -3 div rmoveto show} bind def
/min { 2 copy gt { exch } if pop } bind def
/max { 2 copy lt { exch } if pop } bind def
/arccoords { % i j arccoords
  % puts optimal x1 y1 x2 y2 coordinates used in bezier curves from i to j
  % onto the stack
  dup 3 -1 roll dup 4 -1 roll lt dup dup 5 2 roll {exch} if
  dup 3 -1 roll dup 3 -1 roll exch sub 1 sub dup
  4 -2 roll 5 -1 roll {exch} if 4 2 roll
  sequence length dup 2 div exch 3 1 roll lt 
  {exch 5 -1 roll pop 4 -2 roll exch 4 2 roll}
  { 4 2 roll 5 -1 roll dup 6 1 roll {exch} if
    4 -2 roll exch pop dup 3 -1 roll dup 4 1 roll
    exch add 4 -1 roll dup 5 1 roll sub 1 sub
    5 -1 roll not {4 -2 roll exch 4 2 roll} if
  }ifelse
   % compute the scalingfactor and prepare (1-sf) and sf*r
  2 mul exch cpr 3 1 roll div dup
  3 -1 roll mul exch 1 exch sub exch
   % compute the coordinates
  3 -1 roll 1 sub coor exch get aload pop % get coord for i
  4 -1 roll dup 5 1 roll mul 3 -1 roll dup 4 1 roll add exch % calculate y1
  4 -1 roll dup 5 1 roll mul 3 -1 roll dup 4 1 roll add exch % calculate x1
  5 -1 roll 1 sub coor exch get aload pop % get coord for j
  % duplicate j coord
  dup 3 -1 roll dup 4 1 roll exch 8 2 roll
  6 -1 roll dup 7 1 roll mul 5 -1 roll dup 6 1 roll add exch % calculate y2
  6 -1 roll mul 5 -1 roll add exch % calculate x2
  6 -2 roll % reorder
} bind def
/drawoutline {
  gsave outlinecolor newpath
  coor 0 get aload pop 0.8 0 360 arc % draw 5' circle of 1st sequence
  currentdict /cutpoint known        % check if cutpoint is defined
  {coor 0 cutpoint getinterval
   {aload pop lineto} forall         % draw outline of 1st sequence
   coor cutpoint 1 add get aload pop
   2 copy moveto 0.8 0 360 arc       % draw 5' circle of 2nd sequence
   coor cutpoint 1 add coor length cutpoint 1 add sub getinterval
   {aload pop lineto} forall}        % draw outline of 2nd sequence
  {coor {aload pop lineto} forall}   % draw outline as a whole
  ifelse
  stroke grestore
} bind def
/drawpairs {
  paircolor
  0.7 setlinewidth
  [9 3.01] 9 setdash
  newpath
  pairs {aload pop
      currentdict (cpr) known
      { exch dup
        coor  exch 1 sub get aload pop moveto
        exch arccoords curveto
      }
      { coor exch 1 sub get aload pop moveto
        coor exch 1 sub get aload pop lineto
      }ifelse
  } forall
  stroke
} bind def
% draw bases
/drawbases {
  [] 0 setdash
  seqcolor
  0
  coor {
    aload pop moveto
    dup sequence exch 1 getinterval cshow
    1 add
  } forall
  pop
} bind def

/init {
  /Helvetica findfont fsize scalefont setfont
  1 setlinejoin
  1 setlinecap
  0.8 setlinewidth
  72 216 translate
  % find the coordinate range
  /xmax -1000 def /xmin 10000 def
  /ymax -1000 def /ymin 10000 def
  coor {
      aload pop
      dup ymin lt {dup /ymin exch def} if
      dup ymax gt {/ymax exch def} {pop} ifelse
      dup xmin lt {dup /xmin exch def} if
      dup xmax gt {/xmax exch def} {pop} ifelse
  } forall
  /size {xmax xmin sub ymax ymin sub max} bind def
  72 6 mul size div dup scale
  size xmin sub xmax sub 2 div size ymin sub ymax sub 2 div
  translate
} bind def
end
%%EndProlog
RNAplot begin
% data start here
/sequence (\
nnnn11111111nnnnnnnnn11111111nnnnnnnnnn2222nnnnnnnnnnnnn2222222nnnnn22nnnnnn22nnn2222222nnnnnnnnn2222nnn33333333nn444444nnn4444nnnnnnn4444nnn444444555555nnnnnnnn555555nnn6n66666nn333333337777777nnnnnn7777777nnnnnn6666668888888nnnn8888888nnnnnnnnnnn\
) def
/coor [
[89.28195953 178.29298401]
[88.61979675 163.30760193]
[87.95762634 148.32223511]
[87.29545593 133.33685303]
[79.80276489 133.66793823]
[73.56372070 147.30883789]
[67.32466888 160.94973755]
[61.08562088 174.59065247]
[54.84657288 188.23155212]
[48.60752106 201.87245178]
[42.36847305 215.51336670]
[36.12942505 229.15426636]
[44.54899216 242.08154297]
[44.62012482 257.50872803]
[36.32011795 270.51309204]
[22.29747581 276.94497681]
[7.02677441 274.75198364]
[-4.61916304 264.63391113]
[-8.92416000 249.81936646]
[-4.51450682 235.03564453]
[7.20269108 225.00016785]
[22.48851967 222.91522217]
[28.72756767 209.27430725]
[34.96661758 195.63340759]
[41.20566559 181.99250793]
[47.44471741 168.35159302]
[53.68376541 154.71069336]
[59.92281342 141.06979370]
[66.16186523 127.42888641]
[62.78647614 120.73136902]
[50.77140045 129.71122742]
[38.75632095 138.69108582]
[27.57764626 148.69294739]
[12.83924198 145.90379333]
[6.08828449 132.50885010]
[12.61398411 119.00272369]
[27.30406761 115.96726227]
[41.66988754 111.65179443]
[56.03570557 107.33632660]
[52.66032028 100.63880920]
[37.98418045 97.53865051]
[23.30804443 94.43848419]
[8.63190746 91.33832550]
[3.17070055 102.97768402]
[-4.59676743 113.21428680]
[-14.32561588 121.59840393]
[-25.58487511 127.76245117]
[-37.87657166 131.43708801]
[-50.65776825 132.46304321]
[-63.36451721 130.79791260]
[-75.43677521 126.51801300]
[-86.34307098 119.81483459]
[-95.60389709 110.98647308]
[-102.81280518 100.42439270]
[-107.65424347 88.59605408]
[-109.91734314 76.02423096]
[-109.50514221 63.26390457]
[-124.00620270 59.42734146]
[-138.50726318 55.59077454]
[-153.00831604 51.75421143]
[-167.50938416 47.91764450]
[-182.01043701 44.08107758]
[-196.51150513 40.24451447]
[-205.05424500 49.33190536]
[-216.57939148 53.90762711]
[-228.88507080 53.16331100]
[-239.64808655 47.30077362]
[-246.86247253 37.48229980]
[-249.21337891 25.60072517]
[-263.61300659 21.39950562]
[-277.34881592 29.21636200]
[-292.56652832 24.95052719]
[-300.23770142 11.13284588]
[-295.81121826 -4.03889656]
[-281.91320801 -11.56357479]
[-266.78912354 -6.97693062]
[-259.41180420 6.99986124]
[-245.01214600 11.20108128]
[-231.54075623 -0.24794587]
[-213.73541260 -1.30888963]
[-198.73704529 8.63351822]
[-192.67494202 25.74345207]
[-178.17387390 29.58001900]
[-163.67282104 33.41658401]
[-149.17175293 37.25315094]
[-134.67070007 41.08971405]
[-120.16963196 44.92628098]
[-105.66857147 48.76284409]
[-97.07482147 33.82113647]
[-84.62371826 21.88263702]
[-69.31093597 13.91220284]
[-52.36387634 10.55697441]
[-35.14324188 12.09382439]
[-19.03380203 18.40653419]
[-5.33304596 28.99454880]
[4.85333586 43.01264954]
[10.70067024 59.33843613]
[11.73206902 76.66218567]
[26.40820503 79.76235199]
[41.08434296 82.86251068]
[55.76047897 85.96266937]
[67.66675568 67.53776550]
[86.49476624 56.84206772]
[107.85152435 56.07022476]
[126.89102173 65.13558197]
[134.63551331 52.28945923]
[142.38000488 39.44333649]
[150.12448120 26.59721375]
[157.86897278 13.75108910]
[165.61346436 0.90496564]
[173.35795593 -11.94115829]
[181.10244751 -24.78728294]
[173.47090149 -31.07387733]
[169.05795288 -41.81220245]
[170.16201782 -55.14539719]
[172.61128235 -69.94408417]
[175.06054688 -84.74276733]
[177.50982666 -99.54145050]
[179.95909119 -114.34013367]
[182.40835571 -129.13882446]
[171.68539429 -140.19885254]
[169.55592346 -155.27595520]
[176.62904358 -168.55882263]
[190.00724792 -175.05203247]
[192.45652771 -189.85070801]
[194.90579224 -204.64939880]
[197.35505676 -219.44808960]
[187.04133606 -231.20228577]
[186.74769592 -246.83711243]
[196.61279297 -258.97027588]
[211.97862244 -261.87289429]
[225.58992004 -254.17439270]
[231.01983643 -239.50981140]
[225.70454407 -224.80329895]
[212.15374756 -216.99880981]
[209.70446777 -202.20013428]
[207.25520325 -187.40144348]
[204.80593872 -172.60276794]
[215.37875366 -162.14553833]
[217.79515076 -147.29208374]
[210.92160034 -133.70504761]
[197.20704651 -126.68955231]
[194.75776672 -111.89086914]
[192.30850220 -97.09218597]
[189.85923767 -82.29350281]
[187.40997314 -67.49481201]
[184.96070862 -52.69612885]
[198.13618469 -45.52627563]
[209.23255920 -55.61936569]
[220.32893372 -65.71245575]
[231.42530823 -75.80554199]
[242.52169800 -85.89862823]
[253.61807251 -95.99171448]
[251.78443909 -111.40007019]
[259.38717651 -124.92700958]
[273.50286865 -131.37113953]
[288.70373535 -128.25457764]
[299.14474487 -116.77568817]
[300.81112671 -101.34835052]
[293.06210327 -87.90467834]
[278.87731934 -81.61405182]
[263.71115112 -84.89533997]
[252.61477661 -74.80225372]
[241.51840210 -64.70915985]
[230.42202759 -54.61607361]
[219.32565308 -44.52298737]
[208.22927856 -34.42990112]
[222.37673950 -39.41481018]
[237.31036377 -38.00537109]
[250.27537537 -30.46158791]
[258.88009644 -18.17505836]
[261.53720093 -3.41227651]
[257.75659180 11.10346699]
[248.23559570 22.69445419]
[234.73060608 29.22249603]
[219.73287964 29.48336792]
[206.00903320 23.42894363]
[196.09071350 12.17608452]
[191.80754089 -2.19939709]
[193.94856262 -17.04279327]
[186.20407104 -4.19666958]
[178.45959473 8.64945412]
[170.71510315 21.49557877]
[162.97061157 34.34170151]
[155.22612000 47.18782425]
[147.48162842 60.03395081]
[139.73715210 72.88007355]
[145.28012085 86.81834412]
[159.73162842 90.83755493]
[174.18313599 94.85677338]
[188.63462830 98.87598419]
[203.08613586 102.89519501]
[217.53764343 106.91440582]
[231.98913574 110.93362427]
[245.62522888 102.94409180]
[260.89553833 107.01759338]
[268.74044800 120.73738861]
[264.50573730 135.96377563]
[250.70375061 143.66319275]
[235.52299500 139.26773071]
[227.96992493 125.38512421]
[213.51841736 121.36591339]
[199.06692505 117.34669495]
[184.61541748 113.32748413]
[170.16390991 109.30827332]
[155.71241760 105.28906250]
[141.26091003 101.26984406]
[136.64842224 107.18380737]
[148.47634888 116.40878296]
[160.30427551 125.63376617]
[172.13220215 134.85873413]
[183.96012878 144.08370972]
[195.78790283 153.30886841]
[186.56256104 165.13652039]
[174.73513794 155.91163635]
[162.90722656 146.68666077]
[151.07929993 137.46168518]
[139.25137329 128.23670959]
[127.42344666 119.01173401]
[122.81095886 124.92569733]
[130.22886658 137.96313477]
[137.64675903 151.00056458]
[145.06466675 164.03800964]
[152.48257446 177.07543945]
[159.90046692 190.11286926]
[167.31837463 203.15031433]
[181.73423767 210.96792603]
[181.90136719 227.36621094]
[167.64784241 235.47602844]
[153.63647461 226.95469666]
[154.28094482 210.56820679]
[146.86303711 197.53077698]
[139.44512939 184.49334717]
[132.02723694 171.45590210]
[124.60932922 158.41847229]
[117.19142151 145.38102722]
[109.77352142 132.34359741]
[102.28083038 132.67468262]
[102.94300079 147.66006470]
[103.60517120 162.64543152]
[104.26734161 177.63081360]
[104.92951202 192.61619568]
[105.59167480 207.60156250]
[106.25384521 222.58694458]
[106.91578674 237.57234192]
[91.93038940 238.23403931]
[91.26847076 223.24911499]
[90.60630035 208.26373291]
] def
/pairs [
[5 29]
[6 28]
[7 27]
[8 26]
[9 25]
[10 24]
[11 23]
[12 22]
[40 101]
[41 100]
[42 99]
[43 98]
[57 88]
[58 87]
[59 86]
[60 85]
[61 84]
[62 83]
[63 82]
[69 78]
[70 77]
[105 187]
[106 186]
[107 185]
[108 184]
[109 183]
[110 182]
[111 181]
[112 180]
[115 147]
[116 146]
[117 145]
[118 144]
[119 143]
[120 142]
[124 138]
[125 137]
[126 136]
[127 135]
[148 167]
[149 166]
[150 165]
[151 164]
[152 163]
[153 162]
[188 207]
[189 206]
[190 205]
[191 204]
[192 203]
[193 202]
[194 201]
[220 237]
[221 236]
[222 235]
[223 234]
[224 233]
[225 232]
[226 231]
] def

init

% switch off outline pairs or bases by removing these lines
drawoutline
drawpairs
drawbases
% show it
showpage
end
%%EOF
