%!PS-Adobe-3.0 EPSF-3.0
%%Creator: PS_dot.c,v 1.38 2007/02/02 15:18:13 ivo Exp $, ViennaRNA-2.0.7
%%CreationDate: Sun Nov  4 18:30:40 2012
%%Title: RNA Secondary Structure Plot
%%BoundingBox: 66 210 518 662
%%DocumentFonts: Helvetica
%%Pages: 1
%%EndComments

%Options: -d2 
% to switch off outline pairs of sequence comment or
% delete the appropriate line near the end of the file

%%BeginProlog
/RNAplot 100 dict def
RNAplot begin
/fsize  14 def
/outlinecolor {0.2 setgray} bind def
/paircolor    {0.2 setgray} bind def
/seqcolor     {0   setgray} bind def
/cshow  { dup stringwidth pop -2 div fsize -3 div rmoveto show} bind def
/min { 2 copy gt { exch } if pop } bind def
/max { 2 copy lt { exch } if pop } bind def
/arccoords { % i j arccoords
  % puts optimal x1 y1 x2 y2 coordinates used in bezier curves from i to j
  % onto the stack
  dup 3 -1 roll dup 4 -1 roll lt dup dup 5 2 roll {exch} if
  dup 3 -1 roll dup 3 -1 roll exch sub 1 sub dup
  4 -2 roll 5 -1 roll {exch} if 4 2 roll
  sequence length dup 2 div exch 3 1 roll lt 
  {exch 5 -1 roll pop 4 -2 roll exch 4 2 roll}
  { 4 2 roll 5 -1 roll dup 6 1 roll {exch} if
    4 -2 roll exch pop dup 3 -1 roll dup 4 1 roll
    exch add 4 -1 roll dup 5 1 roll sub 1 sub
    5 -1 roll not {4 -2 roll exch 4 2 roll} if
  }ifelse
   % compute the scalingfactor and prepare (1-sf) and sf*r
  2 mul exch cpr 3 1 roll div dup
  3 -1 roll mul exch 1 exch sub exch
   % compute the coordinates
  3 -1 roll 1 sub coor exch get aload pop % get coord for i
  4 -1 roll dup 5 1 roll mul 3 -1 roll dup 4 1 roll add exch % calculate y1
  4 -1 roll dup 5 1 roll mul 3 -1 roll dup 4 1 roll add exch % calculate x1
  5 -1 roll 1 sub coor exch get aload pop % get coord for j
  % duplicate j coord
  dup 3 -1 roll dup 4 1 roll exch 8 2 roll
  6 -1 roll dup 7 1 roll mul 5 -1 roll dup 6 1 roll add exch % calculate y2
  6 -1 roll mul 5 -1 roll add exch % calculate x2
  6 -2 roll % reorder
} bind def
/drawoutline {
  gsave outlinecolor newpath
  coor 0 get aload pop 0.8 0 360 arc % draw 5' circle of 1st sequence
  currentdict /cutpoint known        % check if cutpoint is defined
  {coor 0 cutpoint getinterval
   {aload pop lineto} forall         % draw outline of 1st sequence
   coor cutpoint 1 add get aload pop
   2 copy moveto 0.8 0 360 arc       % draw 5' circle of 2nd sequence
   coor cutpoint 1 add coor length cutpoint 1 add sub getinterval
   {aload pop lineto} forall}        % draw outline of 2nd sequence
  {coor {aload pop lineto} forall}   % draw outline as a whole
  ifelse
  stroke grestore
} bind def
/drawpairs {
  paircolor
  0.7 setlinewidth
  [9 3.01] 9 setdash
  newpath
  pairs {aload pop
      currentdict (cpr) known
      { exch dup
        coor  exch 1 sub get aload pop moveto
        exch arccoords curveto
      }
      { coor exch 1 sub get aload pop moveto
        coor exch 1 sub get aload pop lineto
      }ifelse
  } forall
  stroke
} bind def
% draw bases
/drawbases {
  [] 0 setdash
  seqcolor
  0
  coor {
    aload pop moveto
    dup sequence exch 1 getinterval cshow
    1 add
  } forall
  pop
} bind def

/init {
  /Helvetica findfont fsize scalefont setfont
  1 setlinejoin
  1 setlinecap
  0.8 setlinewidth
  72 216 translate
  % find the coordinate range
  /xmax -1000 def /xmin 10000 def
  /ymax -1000 def /ymin 10000 def
  coor {
      aload pop
      dup ymin lt {dup /ymin exch def} if
      dup ymax gt {/ymax exch def} {pop} ifelse
      dup xmin lt {dup /xmin exch def} if
      dup xmax gt {/xmax exch def} {pop} ifelse
  } forall
  /size {xmax xmin sub ymax ymin sub max} bind def
  72 6 mul size div dup scale
  size xmin sub xmax sub 2 div size ymin sub ymax sub 2 div
  translate
} bind def
end
%%EndProlog
RNAplot begin
% data start here
/sequence (\
nnnn11111111nnnnnnnnn11111111nnnnnnnnnn2222nnnnnnnnnnnnn2222222nnnnn22nnnnnn22nnn2222222nnnnnnnnn2222nnn33333333nn444444nnn4444nnnnnnn4444nnn444444555555nnnnnnnn555555nnn6n66666nn333333337777777nnnnnn7777777nnnnnn6666668888888nnnn8888888nnnnnnnnnnn\
) def
/coor [
[100.73942566 181.76504517]
[100.07726288 166.77967834]
[99.41509247 151.79429626]
[98.75292206 136.80891418]
[91.26023102 137.13999939]
[85.02118683 150.78091431]
[78.78213501 164.42181396]
[72.54308319 178.06271362]
[66.30403900 191.70362854]
[60.06498718 205.34452820]
[53.82593918 218.98542786]
[47.58689117 232.62632751]
[56.00645828 245.55360413]
[56.07759094 260.98080444]
[47.77758408 273.98516846]
[33.75494385 280.41705322]
[18.48423958 278.22406006]
[6.83830261 268.10595703]
[2.53330612 253.29142761]
[6.94295883 238.50770569]
[18.66015625 228.47222900]
[33.94598389 226.38728333]
[40.18503571 212.74638367]
[46.42408371 199.10546875]
[52.66313171 185.46456909]
[58.90218353 171.82366943]
[65.14122772 158.18276978]
[71.38027954 144.54185486]
[77.61933136 130.90095520]
[74.24394226 124.20343781]
[62.22886658 133.18328857]
[50.21378708 142.16316223]
[39.03511429 152.16502380]
[24.29670715 149.37585449]
[17.54574966 135.98091125]
[24.07145119 122.47479248]
[38.76153564 119.43933105]
[53.12735367 115.12386322]
[67.49317169 110.80839539]
[64.11778259 104.11087799]
[49.44164658 101.01071930]
[34.76551056 97.91055298]
[20.08937263 94.81039429]
[14.62816620 106.44975281]
[6.86069870 116.68635559]
[-2.86815000 125.07047272]
[-14.12740803 131.23451233]
[-26.41910744 134.90916443]
[-39.20030212 135.93510437]
[-51.90705109 134.26997375]
[-63.97931290 129.99008179]
[-74.88560486 123.28690338]
[-84.14643097 114.45854187]
[-91.35533905 103.89646149]
[-96.19677734 92.06812286]
[-98.45987701 79.49629974]
[-98.04767609 66.73597717]
[-112.54873657 62.89941025]
[-127.04979706 59.06284332]
[-141.55085754 55.22627640]
[-156.05191040 51.38971329]
[-170.55297852 47.55314636]
[-185.05404663 43.71658325]
[-193.59678650 52.80397415]
[-205.12193298 57.37969589]
[-217.42761230 56.63537979]
[-228.19061279 50.77284241]
[-235.40501404 40.95436859]
[-237.75590515 29.07279396]
[-252.15554810 24.87157249]
[-265.89135742 32.68843079]
[-281.10903931 28.42259407]
[-288.78024292 14.60491371]
[-284.35375977 -0.56682855]
[-270.45574951 -8.09150696]
[-255.33164978 -3.50486255]
[-247.95433044 10.47192860]
[-233.55468750 14.67314911]
[-220.08329773 3.22412205]
[-202.27795410 2.16317821]
[-187.27958679 12.10558605]
[-181.21746826 29.21552086]
[-166.71641541 33.05208588]
[-152.21534729 36.88865280]
[-137.71429443 40.72521591]
[-123.21323395 44.56178284]
[-108.71217346 48.39834976]
[-94.21110535 52.23491287]
[-85.61735535 37.29320526]
[-73.16625214 25.35470390]
[-57.85346985 17.38427162]
[-40.90641022 14.02904224]
[-23.68577385 15.56589222]
[-7.57633638 21.87860298]
[6.12441969 32.46661758]
[16.31080055 46.48471832]
[22.15813637 62.81050491]
[23.18953514 80.13425446]
[37.86567307 83.23442078]
[52.54180908 86.33457947]
[67.21794891 89.43473816]
[73.41092682 85.20425415]
[62.01770020 75.44749451]
[50.62447739 65.69073486]
[36.69083405 60.13612366]
[28.55255318 47.53579330]
[29.22001076 32.55065155]
[38.44631577 20.72376060]
[52.81861877 16.42993927]
[67.02054596 21.25748444]
[75.79875183 33.42067337]
[75.90602112 48.42066956]
[80.85145569 62.58198166]
[85.79689026 76.74329376]
[91.98986816 72.51280975]
[94.43913269 57.71412277]
[96.88840485 42.91543579]
[99.33766937 28.11675072]
[101.78693390 13.31806564]
[104.23620605 -1.48062027]
[93.51324463 -12.54065514]
[91.38377380 -27.61774826]
[98.45689392 -40.90062714]
[111.83510590 -47.39382553]
[114.28437042 -62.19251251]
[116.73363495 -76.99119568]
[119.18290710 -91.78987885]
[108.86917877 -103.54407501]
[108.57553864 -119.17890167]
[118.44064331 -131.31207275]
[133.80647278 -134.21467590]
[147.41777039 -126.51618958]
[152.84768677 -111.85160828]
[147.53237915 -97.14509583]
[133.98158264 -89.34061432]
[131.53231812 -74.54193115]
[129.08305359 -59.74324417]
[126.63378906 -44.94455719]
[137.20660400 -34.48732758]
[139.62300110 -19.63387871]
[132.74945068 -6.04683876]
[119.03488922 0.96864682]
[116.58562469 15.76733208]
[114.13635254 30.56601715]
[111.68708801 45.36470413]
[109.23782349 60.16338730]
[106.78855133 74.96207428]
[119.96403503 82.13192749]
[131.06040955 72.03884125]
[142.15678406 61.94575119]
[153.25315857 51.85266113]
[164.34953308 41.75957489]
[175.44592285 31.66648674]
[173.61228943 16.25813103]
[181.21502686 2.73119330]
[195.33071899 -3.71294236]
[210.53158569 -0.59637451]
[220.97261047 10.88251305]
[222.63897705 26.30985451]
[214.88993835 39.75352097]
[200.70516968 46.04414749]
[185.53900146 42.76286316]
[174.44262695 52.85595322]
[163.34625244 62.94903946]
[152.24987793 73.04212952]
[141.15350342 83.13521576]
[130.05711365 93.22830200]
[134.23976135 94.56228638]
[138.35929871 96.40676880]
[142.36738586 98.75812531]
[146.21595764 101.60865784]
[155.23358154 100.32144928]
[161.05715942 104.84162140]
[175.69300842 108.12670135]
[190.32887268 111.41177368]
[204.96472168 114.69685364]
[219.60058594 117.98192596]
[225.57804871 107.48121643]
[234.04890442 98.88512421]
[244.43598938 92.76877594]
[256.03436279 89.53869629]
[268.05899048 89.40582275]
[279.69802856 92.37171173]
[290.16757202 98.22896576]
[298.76443481 106.57570648]
[304.91345215 116.84313965]
[308.20578003 128.33430481]
[308.42633057 140.27140808]
[322.87780762 144.29061890]
[337.32931519 148.30984497]
[351.78082275 152.32905579]
[366.23233032 156.34826660]
[380.68383789 160.36747742]
[395.13534546 164.38668823]
[408.77142334 156.39715576]
[424.04171753 160.47065735]
[431.88662720 174.19046021]
[427.65191650 189.41683960]
[413.84994507 197.11625671]
[398.66918945 192.72079468]
[391.11611938 178.83819580]
[376.66461182 174.81898499]
[362.21310425 170.79975891]
[347.76162720 166.78054810]
[333.31011963 162.76133728]
[318.85861206 158.74212646]
[304.40710449 154.72291565]
[293.80633545 169.32029724]
[278.37518311 178.73156738]
[260.47695923 181.48466492]
[242.86456299 177.12954712]
[228.25726318 166.31158447]
[218.92066956 150.67601013]
[216.31550598 132.61778259]
[201.67965698 129.33270264]
[187.04379272 126.04763031]
[172.40794373 122.76255798]
[157.77207947 119.47747803]
[143.11579895 116.28479767]
[134.26841736 128.39776611]
[141.68632507 141.43519592]
[149.10423279 154.47264099]
[156.52212524 167.51007080]
[163.94003296 180.54750061]
[171.35794067 193.58494568]
[178.77583313 206.62237549]
[193.19169617 214.43998718]
[193.35884094 230.83828735]
[179.10531616 238.94810486]
[165.09393311 230.42675781]
[165.73840332 214.04028320]
[158.32049561 201.00283813]
[150.90260315 187.96540833]
[143.48469543 174.92797852]
[136.06678772 161.89053345]
[128.64889526 148.85310364]
[121.23098755 135.81567383]
[113.73829651 136.14675903]
[114.40046692 151.13212585]
[115.06263733 166.11750793]
[115.72480774 181.10289001]
[116.38697815 196.08825684]
[117.04914093 211.07363892]
[117.71131134 226.05902100]
[118.37322998 241.04440308]
[103.38783264 241.70606995]
[102.72593689 226.72119141]
[102.06376648 211.73580933]
] def
/pairs [
[5 29]
[6 28]
[7 27]
[8 26]
[9 25]
[10 24]
[11 23]
[12 22]
[40 101]
[41 100]
[42 99]
[43 98]
[57 88]
[58 87]
[59 86]
[60 85]
[61 84]
[62 83]
[63 82]
[69 78]
[70 77]
[115 147]
[116 146]
[117 145]
[118 144]
[119 143]
[120 142]
[124 138]
[125 137]
[126 136]
[127 135]
[148 167]
[149 166]
[150 165]
[151 164]
[152 163]
[153 162]
[171 219]
[173 218]
[174 217]
[175 216]
[176 215]
[177 214]
[188 207]
[189 206]
[190 205]
[191 204]
[192 203]
[193 202]
[194 201]
[220 237]
[221 236]
[222 235]
[223 234]
[224 233]
[225 232]
[226 231]
] def

init

% switch off outline pairs or bases by removing these lines
drawoutline
drawpairs
drawbases
% show it
showpage
end
%%EOF
