%!PS-Adobe-3.0 EPSF-3.0
%%Creator: PS_dot.c,v 1.38 2007/02/02 15:18:13 ivo Exp $, ViennaRNA-2.0.7
%%CreationDate: Sat Nov  3 00:50:25 2012
%%Title: RNA Secondary Structure Plot
%%BoundingBox: 66 210 518 662
%%DocumentFonts: Helvetica
%%Pages: 1
%%EndComments

%Options: -d2 
% to switch off outline pairs of sequence comment or
% delete the appropriate line near the end of the file

%%BeginProlog
/RNAplot 100 dict def
RNAplot begin
/fsize  14 def
/outlinecolor {0.2 setgray} bind def
/paircolor    {0.2 setgray} bind def
/seqcolor     {0   setgray} bind def
/cshow  { dup stringwidth pop -2 div fsize -3 div rmoveto show} bind def
/min { 2 copy gt { exch } if pop } bind def
/max { 2 copy lt { exch } if pop } bind def
/arccoords { % i j arccoords
  % puts optimal x1 y1 x2 y2 coordinates used in bezier curves from i to j
  % onto the stack
  dup 3 -1 roll dup 4 -1 roll lt dup dup 5 2 roll {exch} if
  dup 3 -1 roll dup 3 -1 roll exch sub 1 sub dup
  4 -2 roll 5 -1 roll {exch} if 4 2 roll
  sequence length dup 2 div exch 3 1 roll lt 
  {exch 5 -1 roll pop 4 -2 roll exch 4 2 roll}
  { 4 2 roll 5 -1 roll dup 6 1 roll {exch} if
    4 -2 roll exch pop dup 3 -1 roll dup 4 1 roll
    exch add 4 -1 roll dup 5 1 roll sub 1 sub
    5 -1 roll not {4 -2 roll exch 4 2 roll} if
  }ifelse
   % compute the scalingfactor and prepare (1-sf) and sf*r
  2 mul exch cpr 3 1 roll div dup
  3 -1 roll mul exch 1 exch sub exch
   % compute the coordinates
  3 -1 roll 1 sub coor exch get aload pop % get coord for i
  4 -1 roll dup 5 1 roll mul 3 -1 roll dup 4 1 roll add exch % calculate y1
  4 -1 roll dup 5 1 roll mul 3 -1 roll dup 4 1 roll add exch % calculate x1
  5 -1 roll 1 sub coor exch get aload pop % get coord for j
  % duplicate j coord
  dup 3 -1 roll dup 4 1 roll exch 8 2 roll
  6 -1 roll dup 7 1 roll mul 5 -1 roll dup 6 1 roll add exch % calculate y2
  6 -1 roll mul 5 -1 roll add exch % calculate x2
  6 -2 roll % reorder
} bind def
/drawoutline {
  gsave outlinecolor newpath
  coor 0 get aload pop 0.8 0 360 arc % draw 5' circle of 1st sequence
  currentdict /cutpoint known        % check if cutpoint is defined
  {coor 0 cutpoint getinterval
   {aload pop lineto} forall         % draw outline of 1st sequence
   coor cutpoint 1 add get aload pop
   2 copy moveto 0.8 0 360 arc       % draw 5' circle of 2nd sequence
   coor cutpoint 1 add coor length cutpoint 1 add sub getinterval
   {aload pop lineto} forall}        % draw outline of 2nd sequence
  {coor {aload pop lineto} forall}   % draw outline as a whole
  ifelse
  stroke grestore
} bind def
/drawpairs {
  paircolor
  0.7 setlinewidth
  [9 3.01] 9 setdash
  newpath
  pairs {aload pop
      currentdict (cpr) known
      { exch dup
        coor  exch 1 sub get aload pop moveto
        exch arccoords curveto
      }
      { coor exch 1 sub get aload pop moveto
        coor exch 1 sub get aload pop lineto
      }ifelse
  } forall
  stroke
} bind def
% draw bases
/drawbases {
  [] 0 setdash
  seqcolor
  0
  coor {
    aload pop moveto
    dup sequence exch 1 getinterval cshow
    1 add
  } forall
  pop
} bind def

/init {
  /Helvetica findfont fsize scalefont setfont
  1 setlinejoin
  1 setlinecap
  0.8 setlinewidth
  72 216 translate
  % find the coordinate range
  /xmax -1000 def /xmin 10000 def
  /ymax -1000 def /ymin 10000 def
  coor {
      aload pop
      dup ymin lt {dup /ymin exch def} if
      dup ymax gt {/ymax exch def} {pop} ifelse
      dup xmin lt {dup /xmin exch def} if
      dup xmax gt {/xmax exch def} {pop} ifelse
  } forall
  /size {xmax xmin sub ymax ymin sub max} bind def
  72 6 mul size div dup scale
  size xmin sub xmax sub 2 div size ymin sub ymax sub 2 div
  translate
} bind def
end
%%EndProlog
RNAplot begin
% data start here
/sequence (\
11111111111111222222222222<<<<<<<<<<>>>>>>>>>>33333334444444444444444444444444444555555555555555555666666333333377777777777777777777666666888888888888<<<<<<<<<<<<<>>>>>>>>>>>>><<<<<<>>>>>>88\
) def
/coor [
[120.05716705 162.28607178]
[116.39376831 176.83184814]
[112.73036957 191.37762451]
[109.06697845 205.92340088]
[105.40357971 220.46916199]
[101.74018097 235.01493835]
[98.07678223 249.56071472]
[83.53101349 245.89732361]
[87.19441223 231.35154724]
[90.85780334 216.80577087]
[94.52120209 202.25999451]
[98.18460083 187.71421814]
[101.84799957 173.16845703]
[105.51139069 158.62268066]
[92.07425690 151.95610046]
[82.70813751 163.67257690]
[73.34201813 175.38905334]
[63.97589874 187.10552979]
[54.60977936 198.82200623]
[45.24365997 210.53848267]
[33.52718353 201.17236328]
[42.89330292 189.45588684]
[52.25942230 177.73941040]
[61.62554169 166.02293396]
[70.99166107 154.30645752]
[80.35778046 142.58998108]
[71.48122406 130.49838257]
[57.49676514 135.92376709]
[43.51230621 141.34915161]
[29.52784538 146.77455139]
[15.54338551 152.19993591]
[1.55892515 157.62533569]
[-12.42553520 163.05072021]
[-26.40999603 168.47612000]
[-40.39445496 173.90150452]
[-54.37891769 179.32688904]
[-59.80430603 165.34243774]
[-45.81984711 159.91703796]
[-31.83538628 154.49165344]
[-17.85092545 149.06626892]
[-3.86646581 143.64086914]
[10.11799431 138.21548462]
[24.10245514 132.79008484]
[38.08691406 127.36470032]
[52.07137680 121.93930817]
[66.05583954 116.51391602]
[67.10099030 109.08709717]
[52.22740173 107.14382172]
[37.43294144 109.61846924]
[30.43132401 96.35282135]
[40.82209015 85.53469086]
[54.35906601 91.99632263]
[69.19130707 94.23345947]
[70.23645782 86.80664062]
[58.29248810 77.73241425]
[46.34851837 68.65818787]
[34.40454865 59.58395767]
[22.46057892 50.50973129]
[10.51661015 41.43550491]
[-1.42736006 32.36127853]
[-13.37133026 23.28705406]
[-25.31529999 14.21282673]
[-37.25926971 5.13860083]
[-49.20323944 -3.93562579]
[-61.14720917 -13.00985241]
[-73.09117889 -22.08407784]
[-85.03514862 -31.15830421]
[-75.96092224 -43.10227585]
[-64.01695251 -34.02804947]
[-52.07298279 -24.95382118]
[-40.12901306 -15.87959576]
[-28.18504333 -6.80536890]
[-16.24107361 2.26885724]
[-4.29710340 11.34308338]
[7.64686632 20.41731071]
[19.59083557 29.49153709]
[31.53480530 38.56576157]
[43.47877502 47.63998795]
[55.42274475 56.71421432]
[67.36671448 65.78844452]
[79.31068420 74.86267090]
[92.15476227 67.11478424]
[89.69865417 52.31723404]
[87.24254608 37.51968384]
[84.78643036 22.72213173]
[82.33032227 7.92458057]
[79.87421417 -6.87297058]
[77.41810608 -21.67052269]
[74.96199799 -36.46807480]
[72.50588226 -51.26562500]
[87.30343628 -53.72173309]
[89.75954437 -38.92418289]
[92.21565247 -24.12663078]
[94.67176819 -9.32908058]
[97.12787628 5.46847105]
[99.58398438 20.26602173]
[102.04009247 35.06357193]
[104.49620056 49.86112595]
[106.95231628 64.65867615]
[121.26321411 69.15292358]
[131.73815918 58.41628647]
[142.21311951 47.67964935]
[152.68807983 36.94301224]
[163.16302490 26.20637894]
[173.63798523 15.46974277]
[158.63868713 15.61485863]
[146.96766663 6.19215250]
[143.94798279 -8.50075531]
[150.95689392 -21.76254845]
[164.79769897 -27.54463005]
[179.15769958 -23.20983887]
[187.48742676 -10.73523903]
[185.98780823 4.18948793]
[197.62686157 -5.27266979]
[209.26591492 -14.73482800]
[220.90496826 -24.19698524]
[232.54402161 -33.65914536]
[244.18307495 -43.12130356]
[255.82212830 -52.58346176]
[267.46118164 -62.04561615]
[279.10025024 -71.50777435]
[290.73928833 -80.96993256]
[300.20144653 -69.33087921]
[288.56240845 -59.86872101]
[276.92333984 -50.40656281]
[265.28430176 -40.94440460]
[253.64523315 -31.48224831]
[242.00617981 -22.02009010]
[230.36712646 -12.55793285]
[218.72807312 -3.09577441]
[207.08901978 6.36638355]
[195.44996643 15.82854176]
[184.37461853 25.94469643]
[173.89965820 36.68133163]
[163.42471313 47.41796875]
[152.94975281 58.15460205]
[142.47479248 68.89123535]
[131.99984741 79.62787628]
[132.73971558 94.60961914]
[144.22155762 104.26192474]
[158.11489868 109.91658783]
[173.07382202 111.02582550]
[188.03276062 112.13506317]
[202.99168396 113.24429321]
[217.95062256 114.35353088]
[216.84138489 129.31246948]
[201.88246155 128.20323181]
[186.92352295 127.09399414]
[171.96459961 125.98475647]
[157.00566101 124.87551880]
[151.58027649 138.85998535]
[163.37338257 148.12942505]
[175.16648865 157.39888000]
[186.95959473 166.66831970]
[198.75270081 175.93775940]
[210.54580688 185.20721436]
[222.33891296 194.47665405]
[234.13201904 203.74610901]
[245.92512512 213.01554871]
[257.71823120 222.28500366]
[269.51135254 231.55444336]
[281.30444336 240.82388306]
[293.09756470 250.09333801]
[283.82809448 261.88644409]
[272.03500366 252.61698914]
[260.24188232 243.34754944]
[248.44879150 234.07810974]
[236.65568542 224.80865479]
[224.86257935 215.53921509]
[213.06947327 206.26976013]
[201.27636719 197.00032043]
[189.48324585 187.73086548]
[177.69013977 178.46142578]
[165.89703369 169.19198608]
[154.10392761 159.92253113]
[142.31082153 150.65309143]
[129.86454773 159.02507019]
[134.00437927 173.44247437]
[138.14419556 187.85989380]
[142.28402710 202.27731323]
[146.42385864 216.69471741]
[150.56369019 231.11213684]
[136.14628601 235.25196838]
[132.00645447 220.83454895]
[127.86662292 206.41712952]
[123.72679138 191.99972534]
[119.58695984 177.58230591]
[115.44712830 163.16490173]
[134.56925964 115.74377441]
[123.08740234 106.09146881]
] def
/pairs [
[1 14]
[2 13]
[3 12]
[4 11]
[5 10]
[6 9]
[7 8]
[15 26]
[16 25]
[17 24]
[18 23]
[19 22]
[20 21]
[27 46]
[28 45]
[29 44]
[30 43]
[31 42]
[32 41]
[33 40]
[34 39]
[35 38]
[36 37]
[54 81]
[55 80]
[56 79]
[57 78]
[58 77]
[59 76]
[60 75]
[61 74]
[62 73]
[63 72]
[64 71]
[65 70]
[66 69]
[67 68]
[82 99]
[83 98]
[84 97]
[85 96]
[86 95]
[87 94]
[88 93]
[89 92]
[90 91]
[100 138]
[101 137]
[102 136]
[103 135]
[104 134]
[105 133]
[113 132]
[114 131]
[115 130]
[116 129]
[117 128]
[118 127]
[119 126]
[120 125]
[121 124]
[122 123]
[139 190]
[140 189]
[141 150]
[142 149]
[143 148]
[144 147]
[145 146]
[151 176]
[152 175]
[153 174]
[154 173]
[155 172]
[156 171]
[157 170]
[158 169]
[159 168]
[160 167]
[161 166]
[162 165]
[163 164]
[177 188]
[178 187]
[179 186]
[180 185]
[181 184]
[182 183]
] def

init

% switch off outline pairs or bases by removing these lines
drawoutline
drawpairs
drawbases
% show it
showpage
end
%%EOF
