%!PS-Adobe-3.0 EPSF-3.0
%%Creator: PS_dot.c,v 1.38 2007/02/02 15:18:13 ivo Exp $, ViennaRNA-2.0.7
%%CreationDate: Fri Nov  2 16:08:44 2012
%%Title: RNA Secondary Structure Plot
%%BoundingBox: 66 210 518 662
%%DocumentFonts: Helvetica
%%Pages: 1
%%EndComments

%Options: -d2 
% to switch off outline pairs of sequence comment or
% delete the appropriate line near the end of the file

%%BeginProlog
/RNAplot 100 dict def
RNAplot begin
/fsize  14 def
/outlinecolor {0.2 setgray} bind def
/paircolor    {0.2 setgray} bind def
/seqcolor     {0   setgray} bind def
/cshow  { dup stringwidth pop -2 div fsize -3 div rmoveto show} bind def
/min { 2 copy gt { exch } if pop } bind def
/max { 2 copy lt { exch } if pop } bind def
/arccoords { % i j arccoords
  % puts optimal x1 y1 x2 y2 coordinates used in bezier curves from i to j
  % onto the stack
  dup 3 -1 roll dup 4 -1 roll lt dup dup 5 2 roll {exch} if
  dup 3 -1 roll dup 3 -1 roll exch sub 1 sub dup
  4 -2 roll 5 -1 roll {exch} if 4 2 roll
  sequence length dup 2 div exch 3 1 roll lt 
  {exch 5 -1 roll pop 4 -2 roll exch 4 2 roll}
  { 4 2 roll 5 -1 roll dup 6 1 roll {exch} if
    4 -2 roll exch pop dup 3 -1 roll dup 4 1 roll
    exch add 4 -1 roll dup 5 1 roll sub 1 sub
    5 -1 roll not {4 -2 roll exch 4 2 roll} if
  }ifelse
   % compute the scalingfactor and prepare (1-sf) and sf*r
  2 mul exch cpr 3 1 roll div dup
  3 -1 roll mul exch 1 exch sub exch
   % compute the coordinates
  3 -1 roll 1 sub coor exch get aload pop % get coord for i
  4 -1 roll dup 5 1 roll mul 3 -1 roll dup 4 1 roll add exch % calculate y1
  4 -1 roll dup 5 1 roll mul 3 -1 roll dup 4 1 roll add exch % calculate x1
  5 -1 roll 1 sub coor exch get aload pop % get coord for j
  % duplicate j coord
  dup 3 -1 roll dup 4 1 roll exch 8 2 roll
  6 -1 roll dup 7 1 roll mul 5 -1 roll dup 6 1 roll add exch % calculate y2
  6 -1 roll mul 5 -1 roll add exch % calculate x2
  6 -2 roll % reorder
} bind def
/drawoutline {
  gsave outlinecolor newpath
  coor 0 get aload pop 0.8 0 360 arc % draw 5' circle of 1st sequence
  currentdict /cutpoint known        % check if cutpoint is defined
  {coor 0 cutpoint getinterval
   {aload pop lineto} forall         % draw outline of 1st sequence
   coor cutpoint 1 add get aload pop
   2 copy moveto 0.8 0 360 arc       % draw 5' circle of 2nd sequence
   coor cutpoint 1 add coor length cutpoint 1 add sub getinterval
   {aload pop lineto} forall}        % draw outline of 2nd sequence
  {coor {aload pop lineto} forall}   % draw outline as a whole
  ifelse
  stroke grestore
} bind def
/drawpairs {
  paircolor
  0.7 setlinewidth
  [9 3.01] 9 setdash
  newpath
  pairs {aload pop
      currentdict (cpr) known
      { exch dup
        coor  exch 1 sub get aload pop moveto
        exch arccoords curveto
      }
      { coor exch 1 sub get aload pop moveto
        coor exch 1 sub get aload pop lineto
      }ifelse
  } forall
  stroke
} bind def
% draw bases
/drawbases {
  [] 0 setdash
  seqcolor
  0
  coor {
    aload pop moveto
    dup sequence exch 1 getinterval cshow
    1 add
  } forall
  pop
} bind def

/init {
  /Helvetica findfont fsize scalefont setfont
  1 setlinejoin
  1 setlinecap
  0.8 setlinewidth
  72 216 translate
  % find the coordinate range
  /xmax -1000 def /xmin 10000 def
  /ymax -1000 def /ymin 10000 def
  coor {
      aload pop
      dup ymin lt {dup /ymin exch def} if
      dup ymax gt {/ymax exch def} {pop} ifelse
      dup xmin lt {dup /xmin exch def} if
      dup xmax gt {/xmax exch def} {pop} ifelse
  } forall
  /size {xmax xmin sub ymax ymin sub max} bind def
  72 6 mul size div dup scale
  size xmin sub xmax sub 2 div size ymin sub ymax sub 2 div
  translate
} bind def
end
%%EndProlog
RNAplot begin
% data start here
/sequence (\
nnn1111111nnnnnnnnnnn1111111nnn222222nnnnnnnnn222222n<<<<n<<<<<<nnnnnnnnnnnnn>>>>>>>>>>nn3333n333nnn444444nn444nnn44444nnnnnn44444nn444nn4444445555n55555nnnnnnnnnnnnnn555555555nnnAnAAAAAnnn33333337777777777nnnn7777777777nnnnnnnaaaaaan88nn88888nnnn88888<<<\
<<<<<<nnnn<<<<nnnnnn>>>>nnn>>>>>>>>>n<<<<<<nnnnnnn>>>>>>nnnnnnnnnnnnnnn88nnnnnnnnnnn\
) def
/coor [
[163.62011719 199.75601196]
[160.57658386 185.06802368]
[157.53305054 170.38003540]
[150.60395813 173.25016785]
[146.23310852 187.59922791]
[141.86225891 201.94830322]
[137.49142456 216.29736328]
[133.12057495 230.64643860]
[128.74972534 244.99549866]
[124.37888336 259.34457397]
[135.31523132 270.05224609]
[140.01174927 284.61938477]
[137.38919067 299.69854736]
[128.05021667 311.82464600]
[114.14083862 318.21118164]
[98.85734558 317.39059448]
[85.71176147 309.55145264]
[77.72485352 296.49511719]
[76.73194885 281.22183228]
[82.96121216 267.24133301]
[94.98120117 257.76617432]
[110.02981567 254.97372437]
[114.40065765 240.62464905]
[118.77150726 226.27558899]
[123.14234924 211.92651367]
[127.51319885 197.57745361]
[131.88404846 183.22839355]
[136.25489807 168.87931824]
[129.80639648 165.04959106]
[116.72475433 172.38925171]
[116.90939331 157.39012146]
[110.46089935 153.56037903]
[99.95275116 164.26454163]
[89.44460297 174.96868896]
[78.93646240 185.67283630]
[68.42831421 196.37699890]
[57.92016983 207.08114624]
[61.43883514 222.10188293]
[56.25657272 236.63281250]
[44.02702713 246.03715515]
[28.65259361 247.31402588]
[15.03920460 240.05598450]
[7.53084135 226.57904053]
[8.52339458 211.18363953]
[17.70014381 198.78239441]
[32.13282394 193.33250427]
[47.21601486 196.57299805]
[57.72416306 185.86885071]
[68.23230743 175.16470337]
[78.74045563 164.46054077]
[89.24859619 153.75639343]
[99.75674438 143.05224609]
[79.64179230 133.43106079]
[68.79077148 116.34643555]
[54.32607269 120.31790161]
[39.86137390 124.28936768]
[25.39667511 128.26083374]
[18.00501060 133.51939392]
[10.77996254 132.20149231]
[-3.72081351 136.03913879]
[-18.22159004 139.87678528]
[-32.72236633 143.71443176]
[-47.22314072 147.55206299]
[-61.72391891 151.38970947]
[-64.11089325 166.43038940]
[-72.41454315 179.19633484]
[-85.19621277 187.47575378]
[-100.24140167 189.83419800]
[-114.94343567 185.86303711]
[-126.75509644 176.25032043]
[-133.62995911 162.66148376]
[-134.37689209 147.45089722]
[-128.86648560 133.25387573]
[-118.05346680 122.53015137]
[-103.81124878 117.13765717]
[-88.60737610 118.01068115]
[-75.07601929 124.99797058]
[-65.56156158 136.88893127]
[-51.06078339 133.05128479]
[-36.56000900 129.21365356]
[-22.05923080 125.37600708]
[-7.55845499 121.53836823]
[6.94232082 117.70072174]
[21.42521286 113.79612732]
[35.88991165 109.82466888]
[50.35460663 105.85320282]
[64.81930542 101.88174438]
[83.81633759 65.79727936]
[127.28174591 70.14110565]
[140.41595459 114.83596039]
[133.23828125 101.66474152]
[126.06060028 88.49352264]
[118.88292694 75.32230377]
[112.07171631 69.33092499]
[111.70042419 61.99605560]
[104.64476013 48.75907898]
[97.58908844 35.52210236]
[73.01633453 36.71899033]
[51.52762985 23.35039139]
[41.17878723 -0.51620990]
[46.38028336 -26.72471428]
[34.75222397 -36.20037842]
[23.12416458 -45.67604446]
[11.49610519 -55.15171051]
[-0.13195433 -64.62737274]
[-11.76001358 -74.10304260]
[-27.27266502 -72.69046021]
[-38.93018723 -82.46577454]
[-40.18127060 -97.26342010]
[-51.80932999 -106.73908997]
[-63.43738937 -116.21475220]
[-76.55284882 -113.31578827]
[-88.77243805 -118.40705109]
[-95.74185181 -129.43258667]
[-95.11719513 -142.26676941]
[-106.65720367 -151.84947205]
[-118.19721985 -161.43217468]
[-129.73722839 -171.01487732]
[-141.27723694 -180.59757996]
[-156.98899841 -178.88996887]
[-169.25384521 -188.85737610]
[-170.79525757 -204.58631897]
[-160.69873047 -216.74508667]
[-144.95437622 -218.12011719]
[-132.90301514 -207.89561462]
[-131.69453430 -192.13758850]
[-120.15452576 -182.55488586]
[-108.61451721 -172.97218323]
[-97.07450867 -163.38948059]
[-85.53449249 -153.80677795]
[-68.84011078 -156.05809021]
[-55.43748474 -145.30334473]
[-53.96172333 -127.84281158]
[-42.33366394 -118.36714935]
[-30.70560455 -108.89147949]
[-15.96007252 -110.65354156]
[-4.03258228 -101.20951843]
[-2.28434896 -85.73110199]
[9.34371090 -76.25543213]
[20.97177124 -66.77976990]
[32.59983063 -57.30410385]
[44.22789001 -47.82843781]
[55.85594940 -38.35277557]
[68.75294495 -46.01224136]
[65.99670410 -60.75683975]
[63.24046326 -75.50143433]
[60.48421860 -90.24603271]
[55.85780716 -98.04895020]
[57.77128601 -105.13955688]
[55.15140152 -119.90899658]
[52.53151321 -134.67842102]
[49.91162491 -149.44786072]
[47.29173660 -164.21730042]
[32.44025421 -167.45796204]
[19.96227837 -176.13946533]
[11.76060867 -188.93794250]
[9.08593941 -203.90171814]
[12.34613991 -218.74893188]
[21.04405212 -231.21546936]
[33.85330582 -239.40029907]
[48.82058716 -242.05528259]
[63.66349411 -238.77555847]
[76.11858368 -230.06124878]
[84.28656006 -217.24124146]
[86.92185211 -202.27047729]
[83.62259674 -187.43190002]
[74.89191437 -174.98828125]
[62.06117249 -166.83718872]
[64.68106079 -152.06774902]
[67.30094910 -137.29830933]
[69.92083740 -122.52888489]
[72.54071808 -107.75944519]
[75.22881317 -93.00227356]
[77.98506165 -78.25767517]
[80.74130249 -63.51308060]
[83.49754333 -48.76848602]
[91.57770538 -48.04030609]
[99.33963013 -45.89767456]
[106.53976440 -42.43025589]
[112.95620728 -37.76891327]
[118.39554596 -32.08087540]
[122.69866180 -25.56381989]
[125.74536133 -18.43903732]
[127.45762634 -10.94394112]
[127.80152130 -3.32417297]
[126.78759766 4.17444515]
[124.46986389 11.31384087]
[120.94335938 17.87125015]
[116.34048462 23.64616013]
[110.82606506 28.46643448]
[117.88173676 41.70341110]
[124.93740082 54.94038773]
[132.05415344 68.14463043]
[139.23182678 81.31584930]
[146.40950012 94.48706818]
[153.58717346 107.65828705]
[168.50256348 109.24918365]
[178.29687500 97.88822174]
[188.09118652 86.52725983]
[197.88549805 75.16629791]
[207.67980957 63.80533600]
[217.47412109 52.44437790]
[227.26843262 41.08341599]
[237.06275940 29.72245407]
[246.85707092 18.36149216]
[256.65136719 7.00053120]
[259.18112183 -9.20232201]
[274.57351685 -14.85973263]
[286.99417114 -4.15184069]
[283.66580200 11.90599155]
[268.01232910 16.79484367]
[258.21801758 28.15580559]
[248.42370605 39.51676559]
[238.62939453 50.87772751]
[228.83508301 62.23868942]
[219.04077148 73.59964752]
[209.24645996 84.96060944]
[199.45214844 96.32157135]
[189.65783691 107.68253326]
[179.86352539 119.04349518]
[181.24165344 126.41579437]
[195.28370667 121.14125824]
[209.32575989 115.86671448]
[223.36781311 110.59217834]
[235.20091248 101.37384796]
[250.19766235 101.68581390]
[261.63717651 111.38828278]
[264.39270020 126.13301086]
[257.22937012 139.31204224]
[243.35748291 145.01908875]
[228.99551392 140.69775391]
[213.99630737 140.85195923]
[198.99710083 141.00617981]
[183.99789429 141.16038513]
[185.37600708 148.53268433]
[198.61299133 155.58834839]
[199.41932678 135.46725464]
[213.71803284 116.00382233]
[240.29458618 104.36437988]
[255.06401062 101.74449158]
[269.83343506 99.12460327]
[284.60287476 96.50471497]
[299.37231445 93.88482666]
[311.56890869 82.92237854]
[327.07498169 88.26026917]
[329.93927002 104.40734863]
[317.21517944 114.75287628]
[301.99221802 108.65425873]
[287.22277832 111.27414703]
[272.45333862 113.89403534]
[257.68389893 116.51392365]
[242.91447449 119.13381195]
[241.87580872 134.09780884]
[256.14166260 138.73306274]
[270.40750122 143.36831665]
[284.67333984 148.00357056]
[298.93917847 152.63882446]
[313.20504761 157.27407837]
[327.47088623 161.90933228]
[341.73672485 166.54458618]
[356.00259399 171.17984009]
[366.48947144 162.28863525]
[379.89083862 159.74461365]
[392.70187378 164.10467529]
[401.62542725 174.13415527]
[404.42053223 187.15409851]
[418.64294434 191.92097473]
[432.86535645 196.68783569]
[447.08776855 201.45471191]
[461.12170410 194.18666077]
[476.15896606 199.05041504]
[483.27822876 213.16040039]
[478.25576782 228.14540100]
[464.07128906 235.11509705]
[449.14022827 229.93447876]
[442.32089233 215.67712402]
[428.09848022 210.91024780]
[413.87606812 206.14337158]
[399.65365601 201.37651062]
[386.56594849 211.33210754]
[369.95632935 211.50431824]
[356.39566040 201.62609863]
[351.36734009 185.44569397]
[337.10147095 180.81044006]
[322.83563232 176.17518616]
[308.56979370 171.53993225]
[294.30392456 166.90467834]
[280.03808594 162.26942444]
[265.77224731 157.63417053]
[251.50639343 152.99891663]
[237.24055481 148.36364746]
[228.87783813 160.81697083]
[220.51586914 173.26918030]
[230.20478821 184.72015381]
[239.89370728 196.17112732]
[249.58262634 207.62210083]
[259.27154541 219.07307434]
[268.96047974 230.52404785]
[284.59613037 230.27890015]
[296.69863892 240.18157959]
[299.55358887 255.55635071]
[291.81292725 269.14370728]
[277.13156128 274.52810669]
[262.44158936 269.16723633]
[254.67918396 255.59228516]
[257.50949097 240.21296692]
[247.82057190 228.76199341]
[238.13165283 217.31101990]
[228.44273376 205.86004639]
[218.75381470 194.40907288]
[209.06489563 182.95809937]
[215.47105408 196.52131653]
[216.70608521 211.47039795]
[212.61265564 225.90104675]
[203.71221924 237.97508240]
[191.13851929 246.15444946]
[176.49324036 249.39724731]
[161.64193726 247.29040527]
[148.47640991 240.10227966]
[138.67373657 228.74853516]
[133.48258972 214.67544556]
[133.56425476 199.67565918]
[138.90830994 185.65992737]
[148.83403015 174.41357422]
[162.07702637 167.36923218]
[176.95039368 165.42420959]
[191.55732727 168.82533264]
[178.32034302 161.76966858]
[171.39125061 164.63978577]
[179.62512207 177.17787170]
[187.85899353 189.71594238]
[196.09286499 202.25401306]
[208.41098022 210.81344604]
[213.57727051 224.89569092]
[209.71691895 239.39044189]
[198.23081970 249.03770447]
[183.28717041 250.33657837]
[170.30885315 242.81573486]
[164.00556946 229.20439148]
] def
/pairs [
[4 28]
[5 27]
[6 26]
[7 25]
[8 24]
[9 23]
[10 22]
[32 52]
[33 51]
[34 50]
[35 49]
[36 48]
[37 47]
[54 87]
[55 86]
[56 85]
[57 84]
[59 83]
[60 82]
[61 81]
[62 80]
[63 79]
[64 78]
[90 196]
[91 195]
[92 194]
[93 193]
[95 192]
[96 191]
[97 190]
[101 143]
[102 142]
[103 141]
[104 140]
[105 139]
[106 138]
[109 135]
[110 134]
[111 133]
[115 130]
[116 129]
[117 128]
[118 127]
[119 126]
[144 176]
[145 175]
[146 174]
[147 173]
[149 172]
[150 171]
[151 170]
[152 169]
[153 168]
[197 220]
[198 219]
[199 218]
[200 217]
[201 216]
[202 215]
[203 214]
[204 213]
[205 212]
[206 211]
[235 328]
[236 327]
[239 252]
[240 251]
[241 250]
[242 249]
[243 248]
[253 291]
[254 290]
[255 289]
[256 288]
[257 287]
[258 286]
[259 285]
[260 284]
[261 283]
[266 279]
[267 278]
[268 277]
[269 276]
[293 311]
[294 310]
[295 309]
[296 308]
[297 307]
[298 306]
] def

init

% switch off outline pairs or bases by removing these lines
drawoutline
drawpairs
drawbases
% show it
showpage
end
%%EOF
