%!PS-Adobe-3.0 EPSF-3.0
%%Creator: PS_dot.c,v 1.38 2007/02/02 15:18:13 ivo Exp $, ViennaRNA-2.0.7
%%CreationDate: Sun Nov  4 18:30:40 2012
%%Title: RNA Secondary Structure Plot
%%BoundingBox: 66 210 518 662
%%DocumentFonts: Helvetica
%%Pages: 1
%%EndComments

%Options: -d2 
% to switch off outline pairs of sequence comment or
% delete the appropriate line near the end of the file

%%BeginProlog
/RNAplot 100 dict def
RNAplot begin
/fsize  14 def
/outlinecolor {0.2 setgray} bind def
/paircolor    {0.2 setgray} bind def
/seqcolor     {0   setgray} bind def
/cshow  { dup stringwidth pop -2 div fsize -3 div rmoveto show} bind def
/min { 2 copy gt { exch } if pop } bind def
/max { 2 copy lt { exch } if pop } bind def
/arccoords { % i j arccoords
  % puts optimal x1 y1 x2 y2 coordinates used in bezier curves from i to j
  % onto the stack
  dup 3 -1 roll dup 4 -1 roll lt dup dup 5 2 roll {exch} if
  dup 3 -1 roll dup 3 -1 roll exch sub 1 sub dup
  4 -2 roll 5 -1 roll {exch} if 4 2 roll
  sequence length dup 2 div exch 3 1 roll lt 
  {exch 5 -1 roll pop 4 -2 roll exch 4 2 roll}
  { 4 2 roll 5 -1 roll dup 6 1 roll {exch} if
    4 -2 roll exch pop dup 3 -1 roll dup 4 1 roll
    exch add 4 -1 roll dup 5 1 roll sub 1 sub
    5 -1 roll not {4 -2 roll exch 4 2 roll} if
  }ifelse
   % compute the scalingfactor and prepare (1-sf) and sf*r
  2 mul exch cpr 3 1 roll div dup
  3 -1 roll mul exch 1 exch sub exch
   % compute the coordinates
  3 -1 roll 1 sub coor exch get aload pop % get coord for i
  4 -1 roll dup 5 1 roll mul 3 -1 roll dup 4 1 roll add exch % calculate y1
  4 -1 roll dup 5 1 roll mul 3 -1 roll dup 4 1 roll add exch % calculate x1
  5 -1 roll 1 sub coor exch get aload pop % get coord for j
  % duplicate j coord
  dup 3 -1 roll dup 4 1 roll exch 8 2 roll
  6 -1 roll dup 7 1 roll mul 5 -1 roll dup 6 1 roll add exch % calculate y2
  6 -1 roll mul 5 -1 roll add exch % calculate x2
  6 -2 roll % reorder
} bind def
/drawoutline {
  gsave outlinecolor newpath
  coor 0 get aload pop 0.8 0 360 arc % draw 5' circle of 1st sequence
  currentdict /cutpoint known        % check if cutpoint is defined
  {coor 0 cutpoint getinterval
   {aload pop lineto} forall         % draw outline of 1st sequence
   coor cutpoint 1 add get aload pop
   2 copy moveto 0.8 0 360 arc       % draw 5' circle of 2nd sequence
   coor cutpoint 1 add coor length cutpoint 1 add sub getinterval
   {aload pop lineto} forall}        % draw outline of 2nd sequence
  {coor {aload pop lineto} forall}   % draw outline as a whole
  ifelse
  stroke grestore
} bind def
/drawpairs {
  paircolor
  0.7 setlinewidth
  [9 3.01] 9 setdash
  newpath
  pairs {aload pop
      currentdict (cpr) known
      { exch dup
        coor  exch 1 sub get aload pop moveto
        exch arccoords curveto
      }
      { coor exch 1 sub get aload pop moveto
        coor exch 1 sub get aload pop lineto
      }ifelse
  } forall
  stroke
} bind def
% draw bases
/drawbases {
  [] 0 setdash
  seqcolor
  0
  coor {
    aload pop moveto
    dup sequence exch 1 getinterval cshow
    1 add
  } forall
  pop
} bind def

/init {
  /Helvetica findfont fsize scalefont setfont
  1 setlinejoin
  1 setlinecap
  0.8 setlinewidth
  72 216 translate
  % find the coordinate range
  /xmax -1000 def /xmin 10000 def
  /ymax -1000 def /ymin 10000 def
  coor {
      aload pop
      dup ymin lt {dup /ymin exch def} if
      dup ymax gt {/ymax exch def} {pop} ifelse
      dup xmin lt {dup /xmin exch def} if
      dup xmax gt {/xmax exch def} {pop} ifelse
  } forall
  /size {xmax xmin sub ymax ymin sub max} bind def
  72 6 mul size div dup scale
  size xmin sub xmax sub 2 div size ymin sub ymax sub 2 div
  translate
} bind def
end
%%EndProlog
RNAplot begin
% data start here
/sequence (\
nnn1111111nnnnnnnnnnnnnnnnnnnn1111111nn2222222222222nnnnn222222nnnn2222222<<<nn<<<<<<<nnnnnnnnnnnnnn>>>>>>>>>>nn3333n333nnn444444nn4444nnnn444444nnnnnn444444nn4444nn4444445555n55555555555nnnn5555555nn55555555nnn6n66666nnn3333333777777777nnnnnn777777777nnn\
nnnn666666n88nn88888nnnn88888<<<<<<<<nnnn<<<nnnnnnn>>>nnnn>>>>>>>><<<<<nnn<<<<<nnnnnnnnnn>>>>>nn>>>>>nnnnnnnn88nnnnnnnnnnnnnnn\
) def
/coor [
[111.51539612 161.11679077]
[109.08397675 146.31515503]
[106.65254974 131.51353455]
[99.66031647 134.22622681]
[94.69781494 148.38156128]
[89.73531342 162.53689575]
[84.77281189 176.69224548]
[79.81031036 190.84757996]
[74.84780884 205.00291443]
[69.88530731 219.15824890]
[82.16290283 227.95809937]
[91.46288300 239.86132812]
[97.03133392 253.90301514]
[98.41685486 268.94485474]
[95.50711823 283.76748657]
[88.53800201 297.16928101]
[78.07447052 308.06384277]
[64.96475220 315.56796265]
[50.27159500 319.07333374]
[35.18610001 318.29580688]
[20.93118668 313.29840088]
[8.66243553 304.48623657]
[-0.62558085 292.57363892]
[-6.17992449 278.52636719]
[-7.55032921 263.48315430]
[-4.62570286 248.66345215]
[2.35686851 235.26867676]
[12.83133888 224.38464355]
[25.94858932 216.89367676]
[40.64526367 213.40306091]
[55.72996902 214.19575500]
[60.69247055 200.04040527]
[65.65497589 185.88507080]
[70.61747742 171.72973633]
[75.57997894 157.57440186]
[80.54248047 143.41906738]
[85.50498199 129.26371765]
[79.47748566 124.80062866]
[67.42248535 115.87442780]
[61.39498520 111.41133118]
[49.30338287 120.28787994]
[37.21178055 129.16442871]
[25.12018013 138.04098511]
[13.02857971 146.91754150]
[0.93697774 155.79408264]
[-11.15462399 164.67063904]
[-23.09859276 173.74487305]
[-34.89170074 183.01431274]
[-46.68480682 192.28375244]
[-58.47791290 201.55320740]
[-70.27101898 210.82264709]
[-82.06412506 220.09210205]
[-85.39269257 235.78605652]
[-99.80197906 242.83956909]
[-114.23841095 235.84178162]
[-117.62760162 220.16081238]
[-107.36964417 207.82574463]
[-91.33357239 208.29899597]
[-79.54046631 199.02954102]
[-67.74736023 189.76010132]
[-55.95425415 180.49064636]
[-44.16114807 171.22120667]
[-32.36803818 161.95176697]
[-31.87404442 159.26216125]
[-30.32362366 156.59851074]
[-27.71900749 154.35043335]
[-24.19862175 152.90054321]
[-20.03117561 152.57904053]
[-7.93957424 143.70248413]
[4.15202761 134.82592773]
[16.24362946 125.94937897]
[28.33522987 117.07283020]
[40.42683029 108.19628143]
[52.51843262 99.31972504]
[47.49776459 85.18491364]
[32.51602554 85.92478180]
[17.53428268 86.66464996]
[11.88250828 89.86408997]
[6.29101229 89.79345703]
[2.30045104 87.29141998]
[-12.69143391 87.78477478]
[-27.68331718 88.27812958]
[-42.67520142 88.77148438]
[-57.66708755 89.26483917]
[-72.65897369 89.75819397]
[-87.65085602 90.25154877]
[-92.97018433 104.49139404]
[-103.33760834 115.60826874]
[-117.17218018 121.90692902]
[-132.36421204 122.42687988]
[-146.59704590 117.08882904]
[-157.70028687 106.70678711]
[-163.98074341 92.86394501]
[-164.48069763 77.67123413]
[-159.12393188 63.44543076]
[-148.72729492 52.35586929]
[-134.87620544 46.09362793]
[-119.68284607 45.61365128]
[-105.46410370 50.98912811]
[-94.38822937 61.40034485]
[-88.14421082 75.25966644]
[-73.15232849 74.76631165]
[-58.16044235 74.27295685]
[-43.16855621 73.77960205]
[-28.17667198 73.28624725]
[-13.18478870 72.79289246]
[1.80709612 72.29953766]
[16.79441643 71.68290710]
[31.77615929 70.94303894]
[46.75790024 70.20317078]
[63.63267136 64.61073303]
[79.27757263 65.23129272]
[91.77030182 70.93556976]
[86.80780029 56.78023148]
[81.84529877 42.62489700]
[76.88279724 28.46955872]
[71.13182831 21.46883774]
[71.93820953 14.17735386]
[67.09229279 -0.01831577]
[62.24636841 -14.21398544]
[37.78850555 -16.99921608]
[18.75595474 -33.70773697]
[12.48295879 -58.97710037]
[21.99548149 -83.97495270]
[12.15563011 -95.29650116]
[2.31577945 -106.61804199]
[-7.52407169 -117.93958282]
[-17.36392212 -129.26112366]
[-27.20377350 -140.58267212]
[-42.72986984 -141.83889771]
[-52.54759598 -153.46072388]
[-51.25429916 -168.25474548]
[-61.09414673 -179.57627869]
[-70.93399811 -190.89782715]
[-80.77384949 -202.21936035]
[-92.48081970 -200.72801208]
[-103.35494232 -204.99732971]
[-110.76705933 -213.87191772]
[-112.98446655 -225.09841919]
[-109.57492828 -235.89692688]
[-119.22724152 -247.37876892]
[-128.87954712 -258.86062622]
[-138.53186035 -270.34246826]
[-148.18417358 -281.82434082]
[-157.83648682 -293.30618286]
[-173.60151672 -294.41937256]
[-183.89871216 -306.40866089]
[-182.61891174 -322.16104126]
[-170.52142334 -332.33090210]
[-154.78344727 -330.88464355]
[-144.74205017 -318.68029785]
[-146.35462952 -302.95849609]
[-136.70231628 -291.47665405]
[-127.05001068 -279.99478149]
[-117.39769745 -268.51293945]
[-107.74539185 -257.03109741]
[-98.09307861 -245.54924011]
[-79.74259949 -245.02003479]
[-67.45073700 -230.95457458]
[-69.45230865 -212.05921936]
[-59.61245728 -200.73767090]
[-49.77260590 -189.41613770]
[-39.93275452 -178.09458923]
[-25.10286140 -177.31365967]
[-14.96257305 -165.97218323]
[-15.88223076 -150.42251587]
[-6.04237938 -139.10098267]
[3.79747128 -127.77943420]
[13.63732243 -116.45789337]
[23.47717285 -105.13635254]
[33.31702423 -93.81480408]
[47.32367706 -99.18264771]
[47.07696533 -114.18061829]
[46.83025360 -129.17858887]
[46.58354187 -144.17655945]
[43.33295441 -152.63336182]
[46.39698410 -159.29876709]
[46.27362442 -174.29826355]
[46.15026474 -189.29776001]
[46.02690506 -204.29724121]
[45.78019333 -219.29521179]
[45.41014862 -234.29064941]
[45.04010391 -249.28608704]
[44.67005920 -264.28152466]
[44.30001450 -279.27694702]
[43.92996979 -294.27239990]
[43.55992126 -309.26782227]
[34.55536270 -322.97366333]
[42.16341400 -337.50122070]
[58.55757141 -337.90576172]
[66.87292480 -323.77117920]
[58.55535889 -309.63787842]
[58.92540359 -294.64242554]
[59.29544830 -279.64700317]
[59.66549301 -264.65158081]
[60.03553772 -249.65612793]
[60.40558624 -234.66070557]
[60.77563095 -219.66526794]
[63.50312805 -215.82527161]
[63.89535904 -210.24710083]
[61.02639771 -204.42060852]
[61.14975739 -189.42111206]
[61.27311707 -174.42161560]
[61.39647675 -159.42213440]
[61.58151245 -144.42326355]
[61.82822418 -129.42529297]
[62.07493591 -114.42733002]
[62.32164764 -99.42935944]
[70.11061096 -97.34837341]
[77.35086060 -93.94194794]
[83.82099915 -89.33799744]
[89.32743835 -83.70066833]
[93.71018219 -77.22452545]
[96.84746552 -70.12787628]
[98.65901947 -62.64545441]
[99.10803223 -55.02066040]
[98.20166779 -47.49765015]
[95.99014282 -40.31351852]
[92.56446838 -33.69081497]
[88.05287933 -27.83067894]
[82.61618042 -22.90671921]
[76.44203949 -19.05990791]
[81.28796387 -4.86423683]
[86.13388062 9.33143330]
[91.03813171 23.50705719]
[96.00063324 37.66239548]
[100.96314240 51.81772995]
[105.92564392 65.97306824]
[120.50105286 69.51671600]
[131.40852356 59.21976852]
[142.31599426 48.92282104]
[153.22344971 38.62587357]
[164.13092041 28.32892799]
[175.03839111 18.03198051]
[185.94586182 7.73503304]
[196.85333252 -2.56191421]
[207.76080322 -12.85886192]
[207.96507263 -28.66183090]
[219.34204102 -39.63179016]
[235.14196777 -39.26045609]
[245.99102783 -27.76813889]
[245.45266724 -11.97302151]
[233.84628296 -1.24606967]
[218.05775452 -1.95139289]
[207.15028381 8.34555435]
[196.24281311 18.64250183]
[185.33534241 28.93944931]
[174.42787170 39.23639679]
[163.52040100 49.53334427]
[152.61293030 59.83029175]
[141.70545959 70.12723541]
[130.79800415 80.42418671]
[131.78204346 87.85935211]
[146.29086304 84.05224609]
[160.79968262 80.24514771]
[175.30851746 76.43804169]
[186.84765625 66.85430145]
[201.84532166 67.11947632]
[213.03845215 77.10514832]
[215.00648499 91.97548676]
[206.79634094 104.52911377]
[192.38401794 108.68659210]
[178.74916077 102.43465424]
[163.74948120 102.53299713]
[148.74980164 102.63134003]
[133.75012207 102.72967529]
[134.73416138 110.16484070]
[147.94476318 117.26976776]
[167.95614624 100.31950378]
[197.06341553 99.75195312]
[222.33137512 119.39745331]
[237.16732788 117.18505859]
[252.00328064 114.97266388]
[266.83923340 112.76026154]
[281.67517090 110.54786682]
[294.16885376 99.92525482]
[309.52215576 105.68790436]
[311.94091797 121.90769196]
[298.93692017 131.89909363]
[283.88757324 125.38381195]
[269.05160522 127.59621429]
[254.21566772 129.80860901]
[239.37973022 132.02101135]
[224.54377747 134.23339844]
[223.61915588 149.20487976]
[238.07012939 153.22599792]
[252.52110291 157.24711609]
[266.97207642 161.26823425]
[281.42303467 165.28936768]
[295.87402344 169.31048584]
[310.32498169 173.33160400]
[324.77597046 177.35272217]
[335.76632690 166.71510315]
[350.50827026 163.03117371]
[365.01843262 167.19314575]
[375.42749023 177.98701477]
[379.01199341 192.44442749]
[393.46298218 196.46556091]
[407.91394043 200.48667908]
[420.70574951 191.49203491]
[436.28201294 192.87565613]
[447.28805542 203.98423767]
[448.52722168 219.57264709]
[439.41436768 232.28051758]
[424.25231934 236.10757446]
[410.20013428 229.24679565]
[403.89282227 214.93765259]
[389.44186401 210.91651917]
[374.99087524 206.89540100]
[364.45391846 217.42337036]
[349.96563721 221.28933716]
[335.39123535 217.35826111]
[324.67095947 206.58920288]
[320.75482178 191.80369568]
[306.30386353 187.78257751]
[291.85290527 183.76145935]
[277.40191650 179.74034119]
[262.95095825 175.71920776]
[248.49998474 171.69808960]
[234.04901123 167.67697144]
[219.59803772 163.65585327]
[211.53564453 176.30487061]
[221.28205872 187.70695496]
[231.02847290 199.10903931]
[240.77488708 210.51112366]
[250.52128601 221.91320801]
[263.93704224 221.40499878]
[275.04644775 228.59150696]
[279.93731689 240.67637634]
[277.04064941 253.18836975]
[286.69296265 264.67022705]
[296.34527588 276.15206909]
[305.99758911 287.63391113]
[315.64990234 299.11578369]
[330.75878906 296.35592651]
[345.21801758 301.53540039]
[355.13806152 313.26095581]
[357.85052490 328.37841797]
[352.62576294 342.82131958]
[340.86917114 352.70455933]
[325.74328613 355.36962891]
[311.31683350 350.09960938]
[301.47045898 338.31213379]
[298.85284424 323.17794800]
[304.16806030 308.76806641]
[294.51574707 297.28622437]
[284.86343384 285.80438232]
[275.21112061 274.32254028]
[265.55880737 262.84066772]
[248.72532654 262.08428955]
[237.45182800 249.10818481]
[239.11920166 231.65962219]
[229.37280273 220.25753784]
[219.62638855 208.85545349]
[209.87997437 197.45336914]
[200.13357544 186.05128479]
[187.44789124 189.15739441]
[174.77500916 188.85433960]
[162.98913574 185.36088562]
[152.85282898 179.10926819]
[144.96777344 170.70280457]
[139.73982239 160.86283875]
[137.36001587 150.36972046]
[137.80270386 140.00224304]
[140.83984375 130.48037720]
[127.62924194 123.37544250]
[120.63700867 126.08814240]
[128.82412720 138.65679932]
[137.01123047 151.22546387]
[145.19834900 163.79411316]
[153.38545227 176.36277771]
[166.01309204 184.45861816]
[173.35533142 197.53881836]
[173.68986511 212.53507996]
[166.93823242 225.92968750]
[154.68417358 234.58058167]
[139.80218506 236.45849609]
[125.78321075 231.12292480]
[115.91574097 219.82543945]
[112.51442719 205.21617126]
[116.37825012 190.72004700]
] def
/pairs [
[4 37]
[5 36]
[6 35]
[7 34]
[8 33]
[9 32]
[10 31]
[40 74]
[41 73]
[42 72]
[43 71]
[44 70]
[45 69]
[46 68]
[47 63]
[48 62]
[49 61]
[50 60]
[51 59]
[52 58]
[75 110]
[76 109]
[77 108]
[80 107]
[81 106]
[82 105]
[83 104]
[84 103]
[85 102]
[86 101]
[113 228]
[114 227]
[115 226]
[116 225]
[118 224]
[119 223]
[120 222]
[124 171]
[125 170]
[126 169]
[127 168]
[128 167]
[129 166]
[132 163]
[133 162]
[134 161]
[135 160]
[140 157]
[141 156]
[142 155]
[143 154]
[144 153]
[145 152]
[172 208]
[173 207]
[174 206]
[175 205]
[177 204]
[178 203]
[179 202]
[180 201]
[181 198]
[182 197]
[183 196]
[184 195]
[185 194]
[186 193]
[187 192]
[229 252]
[230 251]
[231 250]
[232 249]
[233 248]
[234 247]
[235 246]
[236 245]
[237 244]
[267 366]
[268 365]
[271 284]
[272 283]
[273 282]
[274 281]
[275 280]
[285 321]
[286 320]
[287 319]
[288 318]
[289 317]
[290 316]
[291 315]
[292 314]
[297 309]
[298 308]
[299 307]
[322 356]
[323 355]
[324 354]
[325 353]
[326 352]
[330 349]
[331 348]
[332 347]
[333 346]
[334 345]
] def

init

% switch off outline pairs or bases by removing these lines
drawoutline
drawpairs
drawbases
% show it
showpage
end
%%EOF
