%!PS-Adobe-3.0 EPSF-3.0
%%Creator: PS_dot.c,v 1.38 2007/02/02 15:18:13 ivo Exp $, ViennaRNA-2.0.7
%%CreationDate: Sun Nov  4 18:30:40 2012
%%Title: RNA Secondary Structure Plot
%%BoundingBox: 66 210 518 662
%%DocumentFonts: Helvetica
%%Pages: 1
%%EndComments

%Options: -d2 
% to switch off outline pairs of sequence comment or
% delete the appropriate line near the end of the file

%%BeginProlog
/RNAplot 100 dict def
RNAplot begin
/fsize  14 def
/outlinecolor {0.2 setgray} bind def
/paircolor    {0.2 setgray} bind def
/seqcolor     {0   setgray} bind def
/cshow  { dup stringwidth pop -2 div fsize -3 div rmoveto show} bind def
/min { 2 copy gt { exch } if pop } bind def
/max { 2 copy lt { exch } if pop } bind def
/arccoords { % i j arccoords
  % puts optimal x1 y1 x2 y2 coordinates used in bezier curves from i to j
  % onto the stack
  dup 3 -1 roll dup 4 -1 roll lt dup dup 5 2 roll {exch} if
  dup 3 -1 roll dup 3 -1 roll exch sub 1 sub dup
  4 -2 roll 5 -1 roll {exch} if 4 2 roll
  sequence length dup 2 div exch 3 1 roll lt 
  {exch 5 -1 roll pop 4 -2 roll exch 4 2 roll}
  { 4 2 roll 5 -1 roll dup 6 1 roll {exch} if
    4 -2 roll exch pop dup 3 -1 roll dup 4 1 roll
    exch add 4 -1 roll dup 5 1 roll sub 1 sub
    5 -1 roll not {4 -2 roll exch 4 2 roll} if
  }ifelse
   % compute the scalingfactor and prepare (1-sf) and sf*r
  2 mul exch cpr 3 1 roll div dup
  3 -1 roll mul exch 1 exch sub exch
   % compute the coordinates
  3 -1 roll 1 sub coor exch get aload pop % get coord for i
  4 -1 roll dup 5 1 roll mul 3 -1 roll dup 4 1 roll add exch % calculate y1
  4 -1 roll dup 5 1 roll mul 3 -1 roll dup 4 1 roll add exch % calculate x1
  5 -1 roll 1 sub coor exch get aload pop % get coord for j
  % duplicate j coord
  dup 3 -1 roll dup 4 1 roll exch 8 2 roll
  6 -1 roll dup 7 1 roll mul 5 -1 roll dup 6 1 roll add exch % calculate y2
  6 -1 roll mul 5 -1 roll add exch % calculate x2
  6 -2 roll % reorder
} bind def
/drawoutline {
  gsave outlinecolor newpath
  coor 0 get aload pop 0.8 0 360 arc % draw 5' circle of 1st sequence
  currentdict /cutpoint known        % check if cutpoint is defined
  {coor 0 cutpoint getinterval
   {aload pop lineto} forall         % draw outline of 1st sequence
   coor cutpoint 1 add get aload pop
   2 copy moveto 0.8 0 360 arc       % draw 5' circle of 2nd sequence
   coor cutpoint 1 add coor length cutpoint 1 add sub getinterval
   {aload pop lineto} forall}        % draw outline of 2nd sequence
  {coor {aload pop lineto} forall}   % draw outline as a whole
  ifelse
  stroke grestore
} bind def
/drawpairs {
  paircolor
  0.7 setlinewidth
  [9 3.01] 9 setdash
  newpath
  pairs {aload pop
      currentdict (cpr) known
      { exch dup
        coor  exch 1 sub get aload pop moveto
        exch arccoords curveto
      }
      { coor exch 1 sub get aload pop moveto
        coor exch 1 sub get aload pop lineto
      }ifelse
  } forall
  stroke
} bind def
% draw bases
/drawbases {
  [] 0 setdash
  seqcolor
  0
  coor {
    aload pop moveto
    dup sequence exch 1 getinterval cshow
    1 add
  } forall
  pop
} bind def

/init {
  /Helvetica findfont fsize scalefont setfont
  1 setlinejoin
  1 setlinecap
  0.8 setlinewidth
  72 216 translate
  % find the coordinate range
  /xmax -1000 def /xmin 10000 def
  /ymax -1000 def /ymin 10000 def
  coor {
      aload pop
      dup ymin lt {dup /ymin exch def} if
      dup ymax gt {/ymax exch def} {pop} ifelse
      dup xmin lt {dup /xmin exch def} if
      dup xmax gt {/xmax exch def} {pop} ifelse
  } forall
  /size {xmax xmin sub ymax ymin sub max} bind def
  72 6 mul size div dup scale
  size xmin sub xmax sub 2 div size ymin sub ymax sub 2 div
  translate
} bind def
end
%%EndProlog
RNAplot begin
% data start here
/sequence (\
nnn1111111nnnnnnnnnnnnnnnnnnnn1111111nn2222222222222nnnnn222222nnnn2222222<<<nn<<<<<<<nnnnnnnnnnnnnn>>>>>>>>>>nn3333n333nnn444444nn4444nnnn444444nnnnnn444444nn4444nn4444445555n55555555555nnnn5555555nn55555555nnn6n66666nnn3333333777777777nnnnnn777777777nnn\
nnnn666666n88nn88888nnnn88888<<<<<<<<nnnn<<<nnnnnnn>>>nnnn>>>>>>>><<<<<nnn<<<<<nnnnnnnnnn>>>>>nn>>>>>nnnnnnnn88nnnnnnnnnnnnnnn\
) def
/coor [
[117.25357056 182.27734375]
[114.82214355 167.47570801]
[112.39071655 152.67408752]
[105.39849091 155.38677979]
[100.43598938 169.54211426]
[95.47348022 183.69746399]
[90.51097870 197.85279846]
[85.54847717 212.00813293]
[80.58597565 226.16346741]
[75.62347412 240.31880188]
[87.90107727 249.11865234]
[97.20104980 261.02188110]
[102.76950836 275.06356812]
[104.15502167 290.10540771]
[101.24528503 304.92803955]
[94.27617645 318.32983398]
[83.81264496 329.22439575]
[70.70292664 336.72851562]
[56.00976181 340.23388672]
[40.92426682 339.45635986]
[26.66935539 334.45895386]
[14.40060329 325.64678955]
[5.11258745 313.73422241]
[-0.44175598 299.68692017]
[-1.81216073 284.64370728]
[1.11246562 269.82400513]
[8.09503651 256.42922974]
[18.56950760 245.54519653]
[31.68675804 238.05424500]
[46.38343430 234.56361389]
[61.46813965 235.35630798]
[66.43064117 221.20097351]
[71.39314270 207.04562378]
[76.35564423 192.89028931]
[81.31814575 178.73495483]
[86.28064728 164.57962036]
[91.24314880 150.42428589]
[73.11249542 148.35415649]
[55.59328079 139.56369019]
[41.20961380 124.32126617]
[29.11801147 133.19781494]
[17.02641106 142.07437134]
[4.93480921 150.95091248]
[-7.15679216 159.82746887]
[-19.24839401 168.70402527]
[-31.33999443 177.58056641]
[-43.28396606 186.65480042]
[-55.07707214 195.92424011]
[-66.87017822 205.19369507]
[-78.66328430 214.46313477]
[-90.45639038 223.73258972]
[-102.24949646 233.00202942]
[-105.57806396 248.69598389]
[-119.98735046 255.74949646]
[-134.42378235 248.75172424]
[-137.81297302 233.07073975]
[-127.55501556 220.73567200]
[-111.51894379 221.20892334]
[-99.72583771 211.93948364]
[-87.93273163 202.67002869]
[-76.13962555 193.40058899]
[-64.34651947 184.13113403]
[-52.55340958 174.86169434]
[-52.05941772 172.17208862]
[-50.50899506 169.50843811]
[-47.90438080 167.26036072]
[-44.38399124 165.81048584]
[-40.21654892 165.48896790]
[-28.12494469 156.61242676]
[-16.03334427 147.73587036]
[-3.94174266 138.85931396]
[8.14985847 129.98275757]
[20.24146080 121.10621643]
[32.33306122 112.22966003]
[27.31239510 98.09484863]
[12.33065224 98.83471680]
[-2.65108967 99.57457733]
[-8.30286312 102.77402496]
[-13.89435959 102.70339203]
[-17.88492012 100.20135498]
[-32.87680435 100.69470978]
[-47.86869049 101.18806458]
[-62.86057281 101.68141937]
[-77.85245514 102.17477417]
[-92.84434509 102.66812897]
[-107.83622742 103.16148376]
[-113.15555573 117.40132904]
[-123.52297974 128.51820374]
[-137.35754395 134.81686401]
[-152.54959106 135.33682251]
[-166.78242493 129.99876404]
[-177.88565063 119.61672211]
[-184.16610718 105.77388000]
[-184.66607666 90.58116913]
[-179.30929565 76.35536194]
[-168.91265869 65.26580048]
[-155.06156921 59.00356293]
[-139.86820984 58.52358246]
[-125.64947510 63.89906311]
[-114.57360077 74.31027985]
[-108.32958221 88.16960144]
[-93.33769989 87.67624664]
[-78.34580994 87.18289185]
[-63.35392761 86.68953705]
[-48.36204529 86.19618225]
[-33.37015915 85.70282745]
[-18.37827492 85.20947266]
[-3.39095521 84.59283447]
[11.59078693 83.85297394]
[26.57252884 83.11310577]
[29.51373291 76.21388245]
[15.71528244 70.33147430]
[1.91683066 64.44906616]
[-11.88162041 58.56665421]
[-25.68007278 52.68424606]
[-40.62092590 51.35351181]
[-43.97211838 36.73265457]
[-31.10233688 29.02754593]
[-19.79766273 38.88579559]
[-5.99921179 44.76820374]
[7.79923964 50.65061188]
[21.59769058 56.53302002]
[35.39614105 62.41542816]
[38.33734894 55.51620483]
[28.49749565 44.19466019]
[18.65764618 32.87311935]
[8.81779480 21.55157471]
[-1.02205646 10.23003197]
[-10.86190701 -1.09151053]
[-26.38800240 -2.34773540]
[-36.20573044 -13.96956253]
[-34.91242981 -28.76358032]
[-44.75228119 -40.08512115]
[-54.59213257 -51.40666580]
[-64.43198395 -62.72821045]
[-76.13895416 -61.23686218]
[-87.01306915 -65.50616455]
[-94.42519379 -74.38076019]
[-96.64260101 -85.60725403]
[-93.23306274 -96.40576172]
[-102.88537598 -107.88761902]
[-112.53768158 -119.36946869]
[-122.18999481 -130.85131836]
[-131.84230042 -142.33317566]
[-141.49461365 -153.81501770]
[-157.25965881 -154.92819214]
[-167.55683899 -166.91749573]
[-166.27705383 -182.66989136]
[-154.17955017 -192.83975220]
[-138.44157410 -191.39347839]
[-128.40019226 -179.18913269]
[-130.01275635 -163.46733093]
[-120.36045074 -151.98547363]
[-110.70814514 -140.50363159]
[-101.05583191 -129.02177429]
[-91.40352631 -117.53992462]
[-81.75121307 -106.05807495]
[-63.40073395 -105.52887726]
[-51.10886765 -91.46341705]
[-53.11044312 -72.56806183]
[-43.27059174 -61.24651718]
[-33.43074036 -49.92497253]
[-23.59088898 -38.60343170]
[-8.76099491 -37.82250595]
[1.37929296 -26.48102379]
[0.45963547 -10.93136120]
[10.29948616 0.39018142]
[20.13933754 11.71172428]
[29.97918892 23.03326797]
[39.81903839 34.35480881]
[49.65888977 45.67635345]
[63.66554260 40.30851364]
[63.41883087 25.31054115]
[63.17211914 10.31257057]
[62.92540741 -4.68540049]
[59.67481995 -13.14219952]
[62.73884964 -19.80760956]
[62.61548996 -34.80710220]
[62.49213028 -49.80659485]
[62.36877060 -64.80609131]
[62.12206268 -79.80406189]
[61.75201416 -94.79949188]
[61.38196945 -109.79492950]
[61.01192474 -124.79036713]
[60.64188004 -139.78579712]
[60.27183533 -154.78123474]
[59.90179062 -169.77667236]
[50.89722824 -183.48249817]
[58.50528336 -198.01004028]
[74.89943695 -198.41461182]
[83.21479034 -184.28001404]
[74.89722443 -170.14671326]
[75.26727295 -155.15127563]
[75.63731384 -140.15583801]
[76.00736237 -125.16040802]
[76.37740326 -110.16497803]
[76.74745178 -95.16954041]
[77.11749268 -80.17410278]
[79.84499359 -76.33411407]
[80.23722076 -70.75594330]
[77.36826324 -64.92945099]
[77.49162292 -49.92995453]
[77.61498260 -34.93046188]
[77.73834229 -19.93096924]
[77.92337799 -4.93211126]
[78.17008972 10.06585979]
[78.41680145 25.06383133]
[78.66351318 40.06180191]
[93.89995575 41.64021301]
[107.16239929 46.74663925]
[117.71230316 54.54075623]
[125.09388733 64.04840088]
[128.87707520 55.81607056]
[135.78771973 53.35457230]
[146.43783569 42.79167175]
[157.08796692 32.22877502]
[167.73809814 21.66587830]
[178.38822937 11.10298061]
[172.26103210 -0.22809541]
[169.25761414 -12.74086380]
[169.57331848 -25.59173584]
[173.18000793 -37.91615677]
[179.82838440 -48.88676453]
[189.06513977 -57.76893616]
[200.26397705 -63.96997070]
[212.66798401 -67.07865143]
[225.44082642 -66.89248657]
[237.72312927 -63.43091965]
[248.69029236 -56.93352127]
[259.59774780 -67.23046875]
[270.50521851 -77.52742004]
[281.41268921 -87.82436371]
[292.32015991 -98.12131500]
[303.22763062 -108.41825867]
[314.13510132 -118.71520996]
[325.04257202 -129.01216125]
[335.95004272 -139.30909729]
[336.15429688 -155.11207581]
[347.53128052 -166.08203125]
[363.33120728 -165.71069336]
[374.18026733 -154.21838379]
[373.64190674 -138.42326355]
[362.03552246 -127.69631195]
[346.24697876 -128.40162659]
[335.33950806 -118.10468292]
[324.43203735 -107.80773926]
[313.52456665 -97.51078796]
[302.61712646 -87.21384430]
[291.70965576 -76.91689301]
[280.80218506 -66.61994934]
[269.89471436 -56.32300186]
[258.98724365 -46.02605438]
[266.17819214 -30.41393089]
[267.55581665 -13.25565147]
[262.93457031 3.35174823]
[252.86305237 17.37263298]
[238.55911255 27.08229065]
[221.76242065 31.27907753]
[204.52304077 29.43311119]
[188.95112610 21.75310707]
[178.30099487 32.31600571]
[167.65086365 42.87890244]
[157.00073242 53.44179916]
[146.35061646 64.00469971]
[135.74401855 74.61129761]
[147.50105286 100.97585297]
[140.47233582 131.32539368]
[153.68293762 138.43032837]
[173.69432068 121.48006439]
[202.80157471 120.91251373]
[228.06954956 140.55801392]
[242.90550232 138.34561157]
[257.74145508 136.13322449]
[272.57739258 133.92082214]
[287.41333008 131.70841980]
[299.90701294 121.08581543]
[315.26031494 126.84845734]
[317.67907715 143.06825256]
[304.67507935 153.05966187]
[289.62573242 146.54437256]
[274.78979492 148.75677490]
[259.95382690 150.96916199]
[245.11788940 153.18156433]
[230.28195190 155.39395142]
[229.35733032 170.36543274]
[243.80830383 174.38655090]
[258.25927734 178.40766907]
[272.71023560 182.42880249]
[287.16122437 186.44992065]
[301.61218262 190.47103882]
[316.06314087 194.49215698]
[330.51412964 198.51329041]
[341.50448608 187.87565613]
[356.24645996 184.19172668]
[370.75659180 188.35369873]
[381.16564941 199.14758301]
[384.75018311 213.60498047]
[399.20114136 217.62611389]
[413.65209961 221.64723206]
[426.44393921 212.65258789]
[442.02017212 214.03620911]
[453.02624512 225.14480591]
[454.26538086 240.73321533]
[445.15252686 253.44107056]
[429.99047852 257.26812744]
[415.93829346 250.40736389]
[409.63098145 236.09820557]
[395.18002319 232.07708740]
[380.72903442 228.05595398]
[370.19210815 238.58393860]
[355.70382690 242.44989014]
[341.12942505 238.51881409]
[330.40914917 227.74975586]
[326.49301147 212.96426392]
[312.04202271 208.94313049]
[297.59106445 204.92201233]
[283.14007568 200.90089417]
[268.68911743 196.87977600]
[254.23814392 192.85864258]
[239.78717041 188.83752441]
[225.33619690 184.81640625]
[217.27381897 197.46543884]
[227.02023315 208.86752319]
[236.76663208 220.26959229]
[246.51304626 231.67167664]
[256.25946045 243.07376099]
[269.67520142 242.56556702]
[280.78460693 249.75205994]
[285.67550659 261.83694458]
[282.77883911 274.34890747]
[292.43115234 285.83078003]
[302.08343506 297.31262207]
[311.73574829 308.79446411]
[321.38806152 320.27633667]
[336.49697876 317.51647949]
[350.95617676 322.69598389]
[360.87622070 334.42150879]
[363.58868408 349.53897095]
[358.36392212 363.98187256]
[346.60736084 373.86514282]
[331.48144531 376.53018188]
[317.05499268 371.26016235]
[307.20864868 359.47268677]
[304.59100342 344.33850098]
[309.90621948 329.92864990]
[300.25390625 318.44677734]
[290.60159302 306.96493530]
[280.94927979 295.48309326]
[271.29696655 284.00122070]
[254.46350098 283.24484253]
[243.19000244 270.26873779]
[244.85737610 252.82017517]
[235.11096191 241.41809082]
[225.36456299 230.01600647]
[215.61814880 218.61392212]
[205.87173462 207.21183777]
[193.18605042 210.31794739]
[180.51318359 210.01489258]
[168.72731018 206.52143860]
[158.59098816 200.26982117]
[150.70594788 191.86335754]
[145.47798157 182.02339172]
[143.09817505 171.53027344]
[143.54087830 161.16281128]
[146.57801819 151.64093018]
[133.36741638 144.53599548]
[126.37517548 147.24870300]
[134.56228638 159.81735229]
[142.74940491 172.38601685]
[150.93650818 184.95468140]
[159.12362671 197.52333069]
[171.75126648 205.61917114]
[179.09350586 218.69937134]
[179.42803955 233.69564819]
[172.67639160 247.09024048]
[160.42233276 255.74113464]
[145.54034424 257.61904907]
[131.52137756 252.28347778]
[121.65390778 240.98600769]
[118.25259399 226.37672424]
[122.11641693 211.88059998]
] def
/pairs [
[4 37]
[5 36]
[6 35]
[7 34]
[8 33]
[9 32]
[10 31]
[40 74]
[41 73]
[42 72]
[43 71]
[44 70]
[45 69]
[46 68]
[47 63]
[48 62]
[49 61]
[50 60]
[51 59]
[52 58]
[75 110]
[76 109]
[77 108]
[80 107]
[81 106]
[82 105]
[83 104]
[84 103]
[85 102]
[86 101]
[124 171]
[125 170]
[126 169]
[127 168]
[128 167]
[129 166]
[132 163]
[133 162]
[134 161]
[135 160]
[140 157]
[141 156]
[142 155]
[143 154]
[144 153]
[145 152]
[172 208]
[173 207]
[174 206]
[175 205]
[177 204]
[178 203]
[179 202]
[180 201]
[181 198]
[182 197]
[183 196]
[184 195]
[185 194]
[186 193]
[187 192]
[212 265]
[214 264]
[215 263]
[216 262]
[217 261]
[218 260]
[229 252]
[230 251]
[231 250]
[232 249]
[233 248]
[234 247]
[235 246]
[236 245]
[237 244]
[267 366]
[268 365]
[271 284]
[272 283]
[273 282]
[274 281]
[275 280]
[285 321]
[286 320]
[287 319]
[288 318]
[289 317]
[290 316]
[291 315]
[292 314]
[297 309]
[298 308]
[299 307]
[322 356]
[323 355]
[324 354]
[325 353]
[326 352]
[330 349]
[331 348]
[332 347]
[333 346]
[334 345]
] def

init

% switch off outline pairs or bases by removing these lines
drawoutline
drawpairs
drawbases
% show it
showpage
end
%%EOF
