%!PS-Adobe-3.0 EPSF-3.0
%%Creator: PS_dot.c,v 1.38 2007/02/02 15:18:13 ivo Exp $, ViennaRNA-2.0.7
%%CreationDate: Sat Nov  3 00:50:25 2012
%%Title: RNA Secondary Structure Plot
%%BoundingBox: 66 210 518 662
%%DocumentFonts: Helvetica
%%Pages: 1
%%EndComments

%Options: -d2 
% to switch off outline pairs of sequence comment or
% delete the appropriate line near the end of the file

%%BeginProlog
/RNAplot 100 dict def
RNAplot begin
/fsize  14 def
/outlinecolor {0.2 setgray} bind def
/paircolor    {0.2 setgray} bind def
/seqcolor     {0   setgray} bind def
/cshow  { dup stringwidth pop -2 div fsize -3 div rmoveto show} bind def
/min { 2 copy gt { exch } if pop } bind def
/max { 2 copy lt { exch } if pop } bind def
/arccoords { % i j arccoords
  % puts optimal x1 y1 x2 y2 coordinates used in bezier curves from i to j
  % onto the stack
  dup 3 -1 roll dup 4 -1 roll lt dup dup 5 2 roll {exch} if
  dup 3 -1 roll dup 3 -1 roll exch sub 1 sub dup
  4 -2 roll 5 -1 roll {exch} if 4 2 roll
  sequence length dup 2 div exch 3 1 roll lt 
  {exch 5 -1 roll pop 4 -2 roll exch 4 2 roll}
  { 4 2 roll 5 -1 roll dup 6 1 roll {exch} if
    4 -2 roll exch pop dup 3 -1 roll dup 4 1 roll
    exch add 4 -1 roll dup 5 1 roll sub 1 sub
    5 -1 roll not {4 -2 roll exch 4 2 roll} if
  }ifelse
   % compute the scalingfactor and prepare (1-sf) and sf*r
  2 mul exch cpr 3 1 roll div dup
  3 -1 roll mul exch 1 exch sub exch
   % compute the coordinates
  3 -1 roll 1 sub coor exch get aload pop % get coord for i
  4 -1 roll dup 5 1 roll mul 3 -1 roll dup 4 1 roll add exch % calculate y1
  4 -1 roll dup 5 1 roll mul 3 -1 roll dup 4 1 roll add exch % calculate x1
  5 -1 roll 1 sub coor exch get aload pop % get coord for j
  % duplicate j coord
  dup 3 -1 roll dup 4 1 roll exch 8 2 roll
  6 -1 roll dup 7 1 roll mul 5 -1 roll dup 6 1 roll add exch % calculate y2
  6 -1 roll mul 5 -1 roll add exch % calculate x2
  6 -2 roll % reorder
} bind def
/drawoutline {
  gsave outlinecolor newpath
  coor 0 get aload pop 0.8 0 360 arc % draw 5' circle of 1st sequence
  currentdict /cutpoint known        % check if cutpoint is defined
  {coor 0 cutpoint getinterval
   {aload pop lineto} forall         % draw outline of 1st sequence
   coor cutpoint 1 add get aload pop
   2 copy moveto 0.8 0 360 arc       % draw 5' circle of 2nd sequence
   coor cutpoint 1 add coor length cutpoint 1 add sub getinterval
   {aload pop lineto} forall}        % draw outline of 2nd sequence
  {coor {aload pop lineto} forall}   % draw outline as a whole
  ifelse
  stroke grestore
} bind def
/drawpairs {
  paircolor
  0.7 setlinewidth
  [9 3.01] 9 setdash
  newpath
  pairs {aload pop
      currentdict (cpr) known
      { exch dup
        coor  exch 1 sub get aload pop moveto
        exch arccoords curveto
      }
      { coor exch 1 sub get aload pop moveto
        coor exch 1 sub get aload pop lineto
      }ifelse
  } forall
  stroke
} bind def
% draw bases
/drawbases {
  [] 0 setdash
  seqcolor
  0
  coor {
    aload pop moveto
    dup sequence exch 1 getinterval cshow
    1 add
  } forall
  pop
} bind def

/init {
  /Helvetica findfont fsize scalefont setfont
  1 setlinejoin
  1 setlinecap
  0.8 setlinewidth
  72 216 translate
  % find the coordinate range
  /xmax -1000 def /xmin 10000 def
  /ymax -1000 def /ymin 10000 def
  coor {
      aload pop
      dup ymin lt {dup /ymin exch def} if
      dup ymax gt {/ymax exch def} {pop} ifelse
      dup xmin lt {dup /xmin exch def} if
      dup xmax gt {/xmax exch def} {pop} ifelse
  } forall
  /size {xmax xmin sub ymax ymin sub max} bind def
  72 6 mul size div dup scale
  size xmin sub xmax sub 2 div size ymin sub ymax sub 2 div
  translate
} bind def
end
%%EndProlog
RNAplot begin
% data start here
/sequence (\
111111111111112222222222222222222222222222<<<<<<<<<<>>>>>>>>>>3333333444444444444444444444444444444445555555555555555555555555555556666663333333777777777777777777666666888888888888<<<<<<<<<<<>>>>>>>>>>><<<<<<<<<<>>>>>>>>>>88\
) def
/coor [
[85.80477142 133.39151001]
[82.68609619 148.06372070]
[79.56742096 162.73593140]
[76.44874573 177.40815735]
[73.33007050 192.08036804]
[70.21139526 206.75257874]
[67.09272003 221.42478943]
[52.42050552 218.30612183]
[55.53918076 203.63389587]
[58.65785599 188.96168518]
[61.77653122 174.28947449]
[64.89521027 159.61726379]
[68.01388550 144.94505310]
[71.13256073 130.27282715]
[57.98795700 123.04653168]
[47.27087021 133.54147339]
[36.55377960 144.03642273]
[25.83668900 154.53137207]
[15.11959839 165.02632141]
[4.40250778 175.52128601]
[-6.31458235 186.01623535]
[-17.03167343 196.51118469]
[-27.74876213 207.00613403]
[-38.46585464 217.50108337]
[-49.18294144 227.99603271]
[-59.90003204 238.49098206]
[-70.61712646 248.98593140]
[-81.33421326 259.48086548]
[-91.82916260 248.76379395]
[-81.11207581 238.26884460]
[-70.39498138 227.77389526]
[-59.67789459 217.27894592]
[-48.96080399 206.78398132]
[-38.24371338 196.28903198]
[-27.52662277 185.79408264]
[-16.80953217 175.29913330]
[-6.09244251 164.80418396]
[4.62464809 154.30923462]
[15.34173775 143.81428528]
[26.05882835 133.31933594]
[36.77591705 122.82438660]
[47.49300766 112.32943726]
[41.10631943 98.75703430]
[26.18848991 100.32495880]
[11.27066231 101.89288330]
[-3.64716601 103.46081543]
[-18.56499481 105.02873993]
[-33.48282242 106.59666443]
[-48.40065002 108.16459656]
[-63.31848145 109.73252106]
[-78.23630524 111.30044556]
[-93.15413666 112.86837769]
[-94.72206116 97.95054626]
[-79.80423737 96.38262177]
[-64.88640594 94.81468964]
[-49.96857834 93.24676514]
[-35.05075073 91.67884064]
[-20.13292122 90.11090851]
[-5.21509314 88.54298401]
[9.70273590 86.97505951]
[24.62056351 85.40712738]
[39.53839111 83.83920288]
[95.97595215 68.04804230]
[92.24560547 53.51929092]
[88.51525116 38.99054337]
[84.78490448 24.46179581]
[81.05455780 9.93304920]
[77.32421112 -4.59569836]
[73.59386444 -19.12444496]
[66.36755371 -32.26904678]
[56.09934998 -43.20357513]
[45.83114243 -54.13810349]
[35.56293869 -65.07263184]
[25.29473114 -76.00716400]
[15.02652359 -86.94169617]
[4.75831699 -97.87622070]
[-5.50988960 -108.81075287]
[-15.77809620 -119.74527740]
[-26.04630280 -130.67980957]
[-36.31451035 -141.61433411]
[-46.58271408 -152.54887390]
[-56.85092163 -163.48339844]
[-67.11912537 -174.41792297]
[-77.38733673 -185.35246277]
[-87.65554047 -196.28698730]
[-76.72101593 -206.55519104]
[-66.45280457 -195.62066650]
[-56.18460083 -184.68614197]
[-45.91639328 -173.75160217]
[-35.64818573 -162.81707764]
[-25.37998009 -151.88255310]
[-15.11177349 -140.94801331]
[-4.84356689 -130.01348877]
[5.42463970 -119.07895660]
[15.69284630 -108.14443207]
[25.96105385 -97.20989990]
[36.22925949 -86.27536774]
[46.49746704 -75.34084320]
[56.76567459 -64.40631104]
[67.03388214 -53.47178268]
[77.30208588 -42.53725433]
[91.53522491 -47.27198792]
[93.20726013 -62.17850494]
[94.87929535 -77.08502197]
[96.55133057 -91.99154663]
[98.22336578 -106.89806366]
[99.89539337 -121.80458069]
[101.56742859 -136.71110535]
[103.23946381 -151.61761475]
[104.91149902 -166.52413940]
[106.58353424 -181.43066406]
[108.25556946 -196.33717346]
[109.92759705 -211.24369812]
[111.59963226 -226.15020752]
[113.27166748 -241.05673218]
[114.94370270 -255.96325684]
[129.85021973 -254.29121399]
[128.17819214 -239.38470459]
[126.50614929 -224.47817993]
[124.83412170 -209.57165527]
[123.16208649 -194.66514587]
[121.49005127 -179.75862122]
[119.81801605 -164.85211182]
[118.14598083 -149.94558716]
[116.47394562 -135.03906250]
[114.80191803 -120.13254547]
[113.12988281 -105.22602844]
[111.45784760 -90.31951141]
[109.78581238 -75.41299438]
[108.11377716 -60.50647354]
[106.44174194 -45.59995270]
[121.21564484 -43.00536346]
[130.93960571 -31.58412552]
[131.14440918 -16.58552361]
[121.73594666 -4.90302467]
[107.03840637 -1.90598810]
[93.80688477 -8.97187424]
[88.12261200 -22.85479355]
[91.85295868 -8.32604694]
[95.58330536 6.20270061]
[99.31365204 20.73144913]
[103.04399872 35.26019669]
[106.77435303 49.78894424]
[110.50469971 64.31768799]
[124.03218842 70.79897308]
[137.69244385 64.60240936]
[151.35269165 58.40584564]
[165.01295471 52.20927811]
[178.67320251 46.01271057]
[192.33346558 39.81614304]
[205.99371338 33.61957932]
[219.65397644 27.42301178]
[233.31422424 21.22644424]
[239.51078796 34.88669968]
[225.85054016 41.08326721]
[212.19027710 47.27983475]
[198.53002930 53.47639847]
[184.86976624 59.67296600]
[171.20951843 65.86952972]
[157.54927063 72.06610107]
[143.88900757 78.26266479]
[130.22875977 84.45922852]
[128.92639160 91.84529114]
[143.02182007 86.71508789]
[154.51234436 96.35707092]
[151.90730286 111.12912750]
[137.81176758 116.25902557]
[126.32167053 106.61740875]
[125.01931000 114.00346375]
[135.73640442 124.49841309]
[149.02944946 131.44786072]
[163.76376343 134.25857544]
[178.49806213 137.06929016]
[193.23237610 139.88002014]
[207.96669006 142.69073486]
[205.15596008 157.42504883]
[190.42166138 154.61431885]
[175.68734741 151.80360413]
[160.95303345 148.99288940]
[146.21873474 146.18215942]
[140.21350098 159.92759705]
[152.28691101 168.82888794]
[164.36030579 177.73016357]
[176.43371582 186.63145447]
[188.50712585 195.53274536]
[200.58053589 204.43402100]
[212.65394592 213.33531189]
[224.72734070 222.23658752]
[236.80075073 231.13787842]
[248.87416077 240.03915405]
[260.94757080 248.94044495]
[252.04627991 261.01385498]
[239.97286987 252.11256409]
[227.89947510 243.21127319]
[215.82606506 234.30999756]
[203.75265503 225.40870667]
[191.67924500 216.50743103]
[179.60583496 207.60614014]
[167.53244019 198.70486450]
[155.45903015 189.80357361]
[143.38562012 180.90229797]
[131.31221008 172.00100708]
[119.30123901 180.98635864]
[124.43154144 195.08175659]
[129.56184387 209.17713928]
[134.69215393 223.27253723]
[139.82244873 237.36791992]
[144.95275879 251.46331787]
[150.08305359 265.55871582]
[155.21336365 279.65408325]
[160.34365845 293.74948120]
[165.47396851 307.84487915]
[151.37857056 312.97515869]
[146.24827576 298.87979126]
[141.11796570 284.78439331]
[135.98767090 270.68899536]
[130.85736084 256.59362793]
[125.72705841 242.49822998]
[120.59676361 228.40283203]
[115.46646118 214.30744934]
[110.33615875 200.21205139]
[105.20585632 186.11666870]
[125.24144745 135.21549988]
[114.52436066 124.72055817]
] def
/pairs [
[1 14]
[2 13]
[3 12]
[4 11]
[5 10]
[6 9]
[7 8]
[15 42]
[16 41]
[17 40]
[18 39]
[19 38]
[20 37]
[21 36]
[22 35]
[23 34]
[24 33]
[25 32]
[26 31]
[27 30]
[28 29]
[43 62]
[44 61]
[45 60]
[46 59]
[47 58]
[48 57]
[49 56]
[50 55]
[51 54]
[52 53]
[63 144]
[64 143]
[65 142]
[66 141]
[67 140]
[68 139]
[69 138]
[70 101]
[71 100]
[72 99]
[73 98]
[74 97]
[75 96]
[76 95]
[77 94]
[78 93]
[79 92]
[80 91]
[81 90]
[82 89]
[83 88]
[84 87]
[85 86]
[102 131]
[103 130]
[104 129]
[105 128]
[106 127]
[107 126]
[108 125]
[109 124]
[110 123]
[111 122]
[112 121]
[113 120]
[114 119]
[115 118]
[116 117]
[145 162]
[146 161]
[147 160]
[148 159]
[149 158]
[150 157]
[151 156]
[152 155]
[153 154]
[169 224]
[170 223]
[171 180]
[172 179]
[173 178]
[174 177]
[175 176]
[181 202]
[182 201]
[183 200]
[184 199]
[185 198]
[186 197]
[187 196]
[188 195]
[189 194]
[190 193]
[191 192]
[203 222]
[204 221]
[205 220]
[206 219]
[207 218]
[208 217]
[209 216]
[210 215]
[211 214]
[212 213]
] def

init

% switch off outline pairs or bases by removing these lines
drawoutline
drawpairs
drawbases
% show it
showpage
end
%%EOF
