%!PS-Adobe-3.0 EPSF-3.0
%%Creator: PS_dot.c,v 1.38 2007/02/02 15:18:13 ivo Exp $, ViennaRNA-2.0.7
%%CreationDate: Sat Nov  3 00:50:25 2012
%%Title: RNA Secondary Structure Plot
%%BoundingBox: 66 210 518 662
%%DocumentFonts: Helvetica
%%Pages: 1
%%EndComments

%Options: -d2 
% to switch off outline pairs of sequence comment or
% delete the appropriate line near the end of the file

%%BeginProlog
/RNAplot 100 dict def
RNAplot begin
/fsize  14 def
/outlinecolor {0.2 setgray} bind def
/paircolor    {0.2 setgray} bind def
/seqcolor     {0   setgray} bind def
/cshow  { dup stringwidth pop -2 div fsize -3 div rmoveto show} bind def
/min { 2 copy gt { exch } if pop } bind def
/max { 2 copy lt { exch } if pop } bind def
/arccoords { % i j arccoords
  % puts optimal x1 y1 x2 y2 coordinates used in bezier curves from i to j
  % onto the stack
  dup 3 -1 roll dup 4 -1 roll lt dup dup 5 2 roll {exch} if
  dup 3 -1 roll dup 3 -1 roll exch sub 1 sub dup
  4 -2 roll 5 -1 roll {exch} if 4 2 roll
  sequence length dup 2 div exch 3 1 roll lt 
  {exch 5 -1 roll pop 4 -2 roll exch 4 2 roll}
  { 4 2 roll 5 -1 roll dup 6 1 roll {exch} if
    4 -2 roll exch pop dup 3 -1 roll dup 4 1 roll
    exch add 4 -1 roll dup 5 1 roll sub 1 sub
    5 -1 roll not {4 -2 roll exch 4 2 roll} if
  }ifelse
   % compute the scalingfactor and prepare (1-sf) and sf*r
  2 mul exch cpr 3 1 roll div dup
  3 -1 roll mul exch 1 exch sub exch
   % compute the coordinates
  3 -1 roll 1 sub coor exch get aload pop % get coord for i
  4 -1 roll dup 5 1 roll mul 3 -1 roll dup 4 1 roll add exch % calculate y1
  4 -1 roll dup 5 1 roll mul 3 -1 roll dup 4 1 roll add exch % calculate x1
  5 -1 roll 1 sub coor exch get aload pop % get coord for j
  % duplicate j coord
  dup 3 -1 roll dup 4 1 roll exch 8 2 roll
  6 -1 roll dup 7 1 roll mul 5 -1 roll dup 6 1 roll add exch % calculate y2
  6 -1 roll mul 5 -1 roll add exch % calculate x2
  6 -2 roll % reorder
} bind def
/drawoutline {
  gsave outlinecolor newpath
  coor 0 get aload pop 0.8 0 360 arc % draw 5' circle of 1st sequence
  currentdict /cutpoint known        % check if cutpoint is defined
  {coor 0 cutpoint getinterval
   {aload pop lineto} forall         % draw outline of 1st sequence
   coor cutpoint 1 add get aload pop
   2 copy moveto 0.8 0 360 arc       % draw 5' circle of 2nd sequence
   coor cutpoint 1 add coor length cutpoint 1 add sub getinterval
   {aload pop lineto} forall}        % draw outline of 2nd sequence
  {coor {aload pop lineto} forall}   % draw outline as a whole
  ifelse
  stroke grestore
} bind def
/drawpairs {
  paircolor
  0.7 setlinewidth
  [9 3.01] 9 setdash
  newpath
  pairs {aload pop
      currentdict (cpr) known
      { exch dup
        coor  exch 1 sub get aload pop moveto
        exch arccoords curveto
      }
      { coor exch 1 sub get aload pop moveto
        coor exch 1 sub get aload pop lineto
      }ifelse
  } forall
  stroke
} bind def
% draw bases
/drawbases {
  [] 0 setdash
  seqcolor
  0
  coor {
    aload pop moveto
    dup sequence exch 1 getinterval cshow
    1 add
  } forall
  pop
} bind def

/init {
  /Helvetica findfont fsize scalefont setfont
  1 setlinejoin
  1 setlinecap
  0.8 setlinewidth
  72 216 translate
  % find the coordinate range
  /xmax -1000 def /xmin 10000 def
  /ymax -1000 def /ymin 10000 def
  coor {
      aload pop
      dup ymin lt {dup /ymin exch def} if
      dup ymax gt {/ymax exch def} {pop} ifelse
      dup xmin lt {dup /xmin exch def} if
      dup xmax gt {/xmax exch def} {pop} ifelse
  } forall
  /size {xmax xmin sub ymax ymin sub max} bind def
  72 6 mul size div dup scale
  size xmin sub xmax sub 2 div size ymin sub ymax sub 2 div
  translate
} bind def
end
%%EndProlog
RNAplot begin
% data start here
/sequence (\
111111111111112222222222222222222222222222<<<<<<<<<<>>>>>>>>>>3333333444444444444444444444444444444445555555555555555555555555555556666663333333777777777777777777666666888888888888<<<<<<<<<<<>>>>>>>>>>><<<<<<<<<<>>>>>>>>>>88\
) def
/coor [
[107.23693085 158.20051575]
[104.11825562 172.87272644]
[100.99958038 187.54493713]
[97.88090515 202.21716309]
[94.76222992 216.88937378]
[91.64355469 231.56158447]
[88.52487946 246.23379517]
[73.85266113 243.11512756]
[76.97133636 228.44290161]
[80.09001160 213.77069092]
[83.20868683 199.09848022]
[86.32736206 184.42626953]
[89.44603729 169.75405884]
[92.56471252 155.08183289]
[79.42011261 147.85552979]
[68.70302582 158.35047913]
[57.98593521 168.84542847]
[47.26884460 179.34037781]
[36.55175400 189.83532715]
[25.83466339 200.33029175]
[15.11757374 210.82524109]
[4.40048313 221.32019043]
[-6.31660700 231.81513977]
[-17.03369713 242.31008911]
[-27.75078773 252.80503845]
[-38.46787643 263.29998779]
[-49.18496704 273.79492188]
[-59.90205765 284.28988647]
[-70.39701080 273.57278442]
[-59.67991638 263.07785034]
[-48.96282578 252.58290100]
[-38.24573898 242.08795166]
[-27.52864647 231.59300232]
[-16.81155777 221.09803772]
[-6.09446669 210.60308838]
[4.62262344 200.10813904]
[15.33971310 189.61318970]
[26.05680275 179.11824036]
[36.77389526 168.62329102]
[47.49098587 158.12834167]
[58.20807266 147.63339233]
[68.92516327 137.13844299]
[62.53847504 123.56604004]
[47.62064743 125.13396454]
[32.70281982 126.70188904]
[17.78499031 128.26982117]
[2.86716127 129.83775330]
[-12.05066681 131.40567017]
[-26.96849632 132.97360229]
[-41.88632202 134.54151917]
[-56.80415344 136.10945129]
[-71.72197723 137.67738342]
[-73.28990936 122.75955200]
[-58.37207794 121.19162750]
[-43.45425034 119.62369537]
[-28.53642273 118.05577087]
[-13.61859417 116.48784637]
[1.29923439 114.91991425]
[16.21706200 113.35198975]
[31.13489151 111.78406525]
[46.05271912 110.21613312]
[60.97054672 108.64820862]
[63.58483887 101.61859131]
[49.52560806 96.39001465]
[34.53876877 95.76185608]
[30.50501633 81.31439972]
[42.99887466 73.01358795]
[54.75418854 82.33078766]
[68.81341553 87.55936432]
[71.42771149 80.52974701]
[61.15950394 69.59522247]
[50.89129639 58.66069031]
[40.62308884 47.72616196]
[30.35488319 36.79163361]
[20.08667755 25.85710335]
[9.81847000 14.92257309]
[-0.44973654 3.98804402]
[-10.71794319 -6.94648552]
[-20.98614883 -17.88101387]
[-31.25435638 -28.81554413]
[-41.52256393 -39.75007248]
[-51.79076767 -50.68460464]
[-62.05897522 -61.61913300]
[-72.32717896 -72.55366516]
[-82.59539032 -83.48818970]
[-71.66085815 -93.75640106]
[-61.39265442 -82.82186890]
[-51.12444687 -71.88733673]
[-40.85623932 -60.95280838]
[-30.58803368 -50.01828003]
[-20.31982613 -39.08375168]
[-10.05162048 -28.14922142]
[0.21658628 -17.21469116]
[10.48479271 -6.28016233]
[20.75300026 4.65436697]
[31.02120590 15.58889675]
[41.28941345 26.52342606]
[51.55762100 37.45795441]
[61.82582474 48.39248276]
[72.09403229 59.32701492]
[82.36223602 70.26154327]
[96.59538269 65.52680969]
[98.26741028 50.62028885]
[99.93944550 35.71377182]
[101.61148071 20.80725098]
[103.28351593 5.90073252]
[104.95555115 -9.00578594]
[106.62758636 -23.91230583]
[108.29961395 -38.81882477]
[109.97164917 -53.72534180]
[111.64368439 -68.63185883]
[113.31571960 -83.53838348]
[114.98775482 -98.44490051]
[116.65979004 -113.35141754]
[118.33181763 -128.25793457]
[120.00385284 -143.16445923]
[134.91036987 -141.49241638]
[133.23834229 -126.58589935]
[131.56629944 -111.67938232]
[129.89427185 -96.77286530]
[128.22224426 -81.86634827]
[126.55020142 -66.95982361]
[124.87816620 -52.05331039]
[123.20613861 -37.14678955]
[121.53410339 -22.24027061]
[119.86206818 -7.33375216]
[118.19003296 7.57276678]
[116.51799774 22.47928619]
[114.84596252 37.38580322]
[113.17393494 52.29232407]
[111.50189972 67.19884491]
[124.05335999 75.41229248]
[137.04374695 67.91229248]
[150.03411865 60.41228867]
[163.02450562 52.91228867]
[176.01489258 45.41228867]
[189.00526428 37.91228867]
[174.47494507 34.18805695]
[165.64248657 22.06421471]
[166.55192566 7.09180880]
[176.78686523 -3.87386203]
[191.66111755 -5.81203318]
[204.36433411 2.16471004]
[209.08018494 16.40411949]
[203.64994812 30.38594818]
[217.31019592 24.18938065]
[230.97045898 17.99281502]
[244.63070679 11.79624844]
[258.29095459 5.59968138]
[271.95123291 -0.59688485]
[285.61148071 -6.79345131]
[299.27172852 -12.99001789]
[312.93197632 -19.18658447]
[319.12854004 -5.52632952]
[305.46829224 0.67023712]
[291.80804443 6.86680365]
[278.14779663 13.06336975]
[264.48751831 19.25993729]
[250.82728577 25.45650291]
[237.16702271 31.65306854]
[223.50677490 37.84963608]
[209.84651184 44.04620361]
[196.50526428 50.90267181]
[183.51489258 58.40267181]
[170.52450562 65.90267181]
[157.53411865 73.40267181]
[144.54374695 80.90267181]
[131.55335999 88.40267181]
[129.67337036 103.28439331]
[140.39045715 113.77934265]
[153.68350220 120.72878265]
[168.41781616 123.53950500]
[183.15213013 126.35021973]
[197.88642883 129.16093445]
[212.62074280 131.97166443]
[209.81002808 146.70596313]
[195.07571411 143.89524841]
[180.34140015 141.08453369]
[165.60710144 138.27380371]
[150.87278748 135.46308899]
[144.86755371 149.20852661]
[156.94096375 158.10981750]
[169.01437378 167.01109314]
[181.08776855 175.91238403]
[193.16117859 184.81365967]
[205.23458862 193.71495056]
[217.30799866 202.61622620]
[229.38140869 211.51751709]
[241.45480347 220.41879272]
[253.52821350 229.32008362]
[265.60162354 238.22135925]
[256.70034790 250.29476929]
[244.62693787 241.39349365]
[232.55352783 232.49220276]
[220.48011780 223.59092712]
[208.40670776 214.68963623]
[196.33329773 205.78836060]
[184.25990295 196.88706970]
[172.18649292 187.98579407]
[160.11308289 179.08450317]
[148.03967285 170.18322754]
[135.96626282 161.28193665]
[123.95529938 170.26728821]
[129.08560181 184.36268616]
[134.21589661 198.45806885]
[139.34620667 212.55346680]
[144.47650146 226.64884949]
[149.60681152 240.74423218]
[154.73710632 254.83963013]
[159.86741638 268.93502808]
[164.99771118 283.03039551]
[170.12802124 297.12579346]
[156.03262329 302.25610352]
[150.90232849 288.16070557]
[145.77201843 274.06530762]
[140.64172363 259.96994019]
[135.51141357 245.87454224]
[130.38111877 231.77915955]
[125.25081635 217.68376160]
[120.12051392 203.58837891]
[114.99021149 189.49298096]
[109.85990906 175.39759827]
[129.89550781 124.49642944]
[119.17841339 114.00148010]
] def
/pairs [
[1 14]
[2 13]
[3 12]
[4 11]
[5 10]
[6 9]
[7 8]
[15 42]
[16 41]
[17 40]
[18 39]
[19 38]
[20 37]
[21 36]
[22 35]
[23 34]
[24 33]
[25 32]
[26 31]
[27 30]
[28 29]
[43 62]
[44 61]
[45 60]
[46 59]
[47 58]
[48 57]
[49 56]
[50 55]
[51 54]
[52 53]
[70 101]
[71 100]
[72 99]
[73 98]
[74 97]
[75 96]
[76 95]
[77 94]
[78 93]
[79 92]
[80 91]
[81 90]
[82 89]
[83 88]
[84 87]
[85 86]
[102 131]
[103 130]
[104 129]
[105 128]
[106 127]
[107 126]
[108 125]
[109 124]
[110 123]
[111 122]
[112 121]
[113 120]
[114 119]
[115 118]
[116 117]
[132 168]
[133 167]
[134 166]
[135 165]
[136 164]
[137 163]
[145 162]
[146 161]
[147 160]
[148 159]
[149 158]
[150 157]
[151 156]
[152 155]
[153 154]
[169 224]
[170 223]
[171 180]
[172 179]
[173 178]
[174 177]
[175 176]
[181 202]
[182 201]
[183 200]
[184 199]
[185 198]
[186 197]
[187 196]
[188 195]
[189 194]
[190 193]
[191 192]
[203 222]
[204 221]
[205 220]
[206 219]
[207 218]
[208 217]
[209 216]
[210 215]
[211 214]
[212 213]
] def

init

% switch off outline pairs or bases by removing these lines
drawoutline
drawpairs
drawbases
% show it
showpage
end
%%EOF
