%!PS-Adobe-3.0 EPSF-3.0
%%Creator: PS_dot.c,v 1.38 2007/02/02 15:18:13 ivo Exp $, ViennaRNA-2.0.7
%%CreationDate: Sat Nov  3 00:50:25 2012
%%Title: RNA Secondary Structure Plot
%%BoundingBox: 66 210 518 662
%%DocumentFonts: Helvetica
%%Pages: 1
%%EndComments

%Options: -d2 
% to switch off outline pairs of sequence comment or
% delete the appropriate line near the end of the file

%%BeginProlog
/RNAplot 100 dict def
RNAplot begin
/fsize  14 def
/outlinecolor {0.2 setgray} bind def
/paircolor    {0.2 setgray} bind def
/seqcolor     {0   setgray} bind def
/cshow  { dup stringwidth pop -2 div fsize -3 div rmoveto show} bind def
/min { 2 copy gt { exch } if pop } bind def
/max { 2 copy lt { exch } if pop } bind def
/arccoords { % i j arccoords
  % puts optimal x1 y1 x2 y2 coordinates used in bezier curves from i to j
  % onto the stack
  dup 3 -1 roll dup 4 -1 roll lt dup dup 5 2 roll {exch} if
  dup 3 -1 roll dup 3 -1 roll exch sub 1 sub dup
  4 -2 roll 5 -1 roll {exch} if 4 2 roll
  sequence length dup 2 div exch 3 1 roll lt 
  {exch 5 -1 roll pop 4 -2 roll exch 4 2 roll}
  { 4 2 roll 5 -1 roll dup 6 1 roll {exch} if
    4 -2 roll exch pop dup 3 -1 roll dup 4 1 roll
    exch add 4 -1 roll dup 5 1 roll sub 1 sub
    5 -1 roll not {4 -2 roll exch 4 2 roll} if
  }ifelse
   % compute the scalingfactor and prepare (1-sf) and sf*r
  2 mul exch cpr 3 1 roll div dup
  3 -1 roll mul exch 1 exch sub exch
   % compute the coordinates
  3 -1 roll 1 sub coor exch get aload pop % get coord for i
  4 -1 roll dup 5 1 roll mul 3 -1 roll dup 4 1 roll add exch % calculate y1
  4 -1 roll dup 5 1 roll mul 3 -1 roll dup 4 1 roll add exch % calculate x1
  5 -1 roll 1 sub coor exch get aload pop % get coord for j
  % duplicate j coord
  dup 3 -1 roll dup 4 1 roll exch 8 2 roll
  6 -1 roll dup 7 1 roll mul 5 -1 roll dup 6 1 roll add exch % calculate y2
  6 -1 roll mul 5 -1 roll add exch % calculate x2
  6 -2 roll % reorder
} bind def
/drawoutline {
  gsave outlinecolor newpath
  coor 0 get aload pop 0.8 0 360 arc % draw 5' circle of 1st sequence
  currentdict /cutpoint known        % check if cutpoint is defined
  {coor 0 cutpoint getinterval
   {aload pop lineto} forall         % draw outline of 1st sequence
   coor cutpoint 1 add get aload pop
   2 copy moveto 0.8 0 360 arc       % draw 5' circle of 2nd sequence
   coor cutpoint 1 add coor length cutpoint 1 add sub getinterval
   {aload pop lineto} forall}        % draw outline of 2nd sequence
  {coor {aload pop lineto} forall}   % draw outline as a whole
  ifelse
  stroke grestore
} bind def
/drawpairs {
  paircolor
  0.7 setlinewidth
  [9 3.01] 9 setdash
  newpath
  pairs {aload pop
      currentdict (cpr) known
      { exch dup
        coor  exch 1 sub get aload pop moveto
        exch arccoords curveto
      }
      { coor exch 1 sub get aload pop moveto
        coor exch 1 sub get aload pop lineto
      }ifelse
  } forall
  stroke
} bind def
% draw bases
/drawbases {
  [] 0 setdash
  seqcolor
  0
  coor {
    aload pop moveto
    dup sequence exch 1 getinterval cshow
    1 add
  } forall
  pop
} bind def

/init {
  /Helvetica findfont fsize scalefont setfont
  1 setlinejoin
  1 setlinecap
  0.8 setlinewidth
  72 216 translate
  % find the coordinate range
  /xmax -1000 def /xmin 10000 def
  /ymax -1000 def /ymin 10000 def
  coor {
      aload pop
      dup ymin lt {dup /ymin exch def} if
      dup ymax gt {/ymax exch def} {pop} ifelse
      dup xmin lt {dup /xmin exch def} if
      dup xmax gt {/xmax exch def} {pop} ifelse
  } forall
  /size {xmax xmin sub ymax ymin sub max} bind def
  72 6 mul size div dup scale
  size xmin sub xmax sub 2 div size ymin sub ymax sub 2 div
  translate
} bind def
end
%%EndProlog
RNAplot begin
% data start here
/sequence (\
111111111111112222222222(((((((((<<<<<<<<<<<>>>>>>>>>>><<<<<<>>>>>>)))))))))3333333444444444444444444444444555555555555555555556666663333333777777777777777777666666888888888888<<<<<<<<<<<>>>>>>>>>>><<<<<<<<<<>>>>>>>>>><<<<<<<<<>>>>>>>>>88\
) def
/coor [
[119.34327698 148.74819946]
[116.40483856 163.45756531]
[113.46640015 178.16694641]
[110.52796173 192.87631226]
[107.58951569 207.58567810]
[104.65107727 222.29504395]
[101.71263885 237.00442505]
[87.00326538 234.06597900]
[89.94171143 219.35661316]
[92.88014984 204.64723206]
[95.81858826 189.93786621]
[98.75702667 175.22850037]
[101.69547272 160.51913452]
[104.63391113 145.80975342]
[90.56873322 140.59719849]
[83.21147156 153.66894531]
[75.85421753 166.74070740]
[68.49696350 179.81245422]
[61.13970566 192.88421631]
[48.06795120 185.52696228]
[55.42520523 172.45520020]
[62.78246307 159.38345337]
[70.13971710 146.31169128]
[77.49697876 133.23994446]
[68.41124725 121.30471802]
[53.85258102 124.91654205]
[39.29391479 128.52836609]
[24.73524857 132.14018250]
[10.17658329 135.75199890]
[-4.38208246 139.36381531]
[-18.94074821 142.97564697]
[-33.49941254 146.58746338]
[-48.05807877 150.19927979]
[-58.78515244 180.67614746]
[-72.59571838 186.53004456]
[-86.40628815 192.38395691]
[-100.21685028 198.23786926]
[-114.02742004 204.09178162]
[-127.83798981 209.94567871]
[-141.64855957 215.79959106]
[-155.45912170 221.65350342]
[-169.26968384 227.50740051]
[-183.08026123 233.36131287]
[-196.89082336 239.21522522]
[-202.74473572 225.40466309]
[-188.93415833 219.55075073]
[-175.12359619 213.69683838]
[-161.31303406 207.84292603]
[-147.50245667 201.98902893]
[-133.69189453 196.13511658]
[-119.88132477 190.28120422]
[-106.07076263 184.42730713]
[-92.26019287 178.57339478]
[-78.44963074 172.71948242]
[-64.63906097 166.86557007]
[-67.28691864 152.10113525]
[-82.27104950 151.41127014]
[-97.25518036 150.72142029]
[-112.23930359 150.03157043]
[-127.22343445 149.34170532]
[-142.20756531 148.65185547]
[-141.51770020 133.66772461]
[-126.53357697 134.35758972]
[-111.54945374 135.04743958]
[-96.56532288 135.73728943]
[-81.58119202 136.42715454]
[-66.59706879 137.11700439]
[-51.66989899 135.64060974]
[-37.11123276 132.02879333]
[-22.55256844 128.41697693]
[-7.99390268 124.80515289]
[6.56476307 121.19333649]
[21.12342834 117.58151245]
[35.68209457 113.96969604]
[50.24076080 110.35787201]
[64.79943085 106.74605560]
[67.35942841 99.69648743]
[52.85140228 95.88636017]
[37.94762802 94.19001007]
[34.18452072 79.66971588]
[46.38835526 70.94810486]
[58.90719604 79.21031189]
[72.47943878 85.59735870]
[75.03944397 78.54779053]
[66.19078827 66.43575287]
[57.34214020 54.32371902]
[48.49348831 42.21168518]
[39.64483643 30.09965324]
[30.79618645 17.98761749]
[21.94753456 5.87558413]
[13.09888363 -6.23644972]
[4.25023222 -18.34848404]
[-4.59841919 -30.46051788]
[-13.44707012 -42.57255173]
[-22.29572105 -54.68458557]
[-10.18368721 -63.53323746]
[-1.33503616 -51.42120361]
[7.51361513 -39.30916977]
[16.36226654 -27.19713593]
[25.21091843 -15.08510113]
[34.05957031 -2.97306705]
[42.90821838 9.13896751]
[51.75687027 21.25100136]
[60.60552216 33.36303711]
[69.45417023 45.47507095]
[78.30282593 57.58710480]
[87.15147400 69.69913483]
[101.28395081 64.67190552]
[100.49563599 49.69263458]
[99.70731354 34.71336365]
[98.91899109 19.73409271]
[98.13066864 4.75482225]
[97.34234619 -10.22444820]
[96.55403137 -25.20371819]
[95.76570892 -40.18299103]
[94.97738647 -55.16226196]
[94.18906403 -70.14153290]
[109.16833496 -70.92985535]
[109.95665741 -55.95058060]
[110.74497986 -40.97130966]
[111.53330231 -25.99204063]
[112.32161713 -11.01276875]
[113.10993958 3.96650147]
[113.89826202 18.94577217]
[114.68658447 33.92504120]
[115.47490692 48.90431213]
[116.26322174 63.88358307]
[130.49206543 68.63120270]
[140.11709595 57.12646866]
[149.74211121 45.62173462]
[159.36714172 34.11699677]
[168.99215698 22.61226082]
[178.61717224 11.10752392]
[163.69836426 12.66600132]
[151.20632935 4.36242723]
[146.86796570 -9.99649334]
[152.67214966 -23.82803154]
[165.95800781 -30.79123306]
[180.63473511 -27.69387245]
[189.97392273 -15.95591354]
[189.69416809 -0.95875949]
[200.33557129 -11.53044891]
[210.97697449 -22.10213852]
[221.61836243 -32.67382812]
[232.25976562 -43.24551773]
[242.90116882 -53.81720734]
[253.54257202 -64.38889313]
[264.18395996 -74.96058655]
[274.82537842 -85.53227234]
[285.39706421 -74.89087677]
[274.75564575 -64.31918335]
[264.11425781 -53.74749374]
[253.47285461 -43.17580795]
[242.83145142 -32.60411835]
[232.19006348 -22.03242683]
[221.54866028 -11.46073818]
[210.90725708 -0.88904911]
[200.26585388 9.68264008]
[190.12191772 20.73254585]
[180.49688721 32.23728180]
[170.87187195 43.74201965]
[161.24685669 55.24675369]
[151.62182617 66.75148773]
[141.99681091 78.25622559]
[144.15814209 93.09970093]
[156.66430664 101.38195038]
[171.39266968 104.22365570]
[186.08241272 101.18859863]
[200.77215576 98.15354919]
[215.46189880 95.11849976]
[230.15164185 92.08345032]
[233.18669128 106.77318573]
[218.49694824 109.80823517]
[203.80720520 112.84329224]
[189.11746216 115.87834167]
[174.42773438 118.91339111]
[174.32914734 133.91307068]
[188.97772217 137.14094543]
[203.62629700 140.36882019]
[218.27487183 143.59669495]
[232.92344666 146.82456970]
[247.57202148 150.05244446]
[262.22061157 153.28033447]
[276.86917114 156.50820923]
[291.51776123 159.73608398]
[306.16635132 162.96395874]
[320.81491089 166.19183350]
[317.58703613 180.84040833]
[302.93844604 177.61253357]
[288.28988647 174.38465881]
[273.64129639 171.15678406]
[258.99273682 167.92890930]
[244.34414673 164.70103455]
[229.69557190 161.47314453]
[215.04699707 158.24526978]
[200.39842224 155.01739502]
[185.74984741 151.78952026]
[171.10127258 148.56164551]
[164.00315857 161.77590942]
[174.78259277 172.20681763]
[185.56204224 182.63771057]
[196.34147644 193.06861877]
[207.12091064 203.49952698]
[217.90034485 213.93041992]
[228.67979431 224.36132812]
[239.45922852 234.79222107]
[250.23866272 245.22312927]
[261.01809692 255.65402222]
[250.58720398 266.43347168]
[239.80776978 256.00256348]
[229.02832031 245.57167053]
[218.24888611 235.14076233]
[207.46945190 224.70985413]
[196.69001770 214.27896118]
[185.91056824 203.84805298]
[175.13113403 193.41716003]
[164.35169983 182.98625183]
[153.57226562 172.55535889]
[140.80072021 180.42222595]
[145.26689148 194.74191284]
[149.73304749 209.06159973]
[154.19921875 223.38128662]
[158.66537476 237.70097351]
[163.13154602 252.02066040]
[167.59771729 266.34033203]
[172.06387329 280.66003418]
[176.53004456 294.97970581]
[162.21035767 299.44586182]
[157.74420166 285.12619019]
[153.27803040 270.80648804]
[148.81185913 256.48681641]
[144.34570312 242.16712952]
[139.87953186 227.84744263]
[135.41336060 213.52777100]
[130.94720459 199.20808411]
[126.48103333 184.88839722]
[148.38206482 113.88812256]
[135.87588501 105.60587311]
] def
/pairs [
[1 14]
[2 13]
[3 12]
[4 11]
[5 10]
[6 9]
[7 8]
[15 24]
[16 23]
[17 22]
[18 21]
[19 20]
[25 76]
[26 75]
[27 74]
[28 73]
[29 72]
[30 71]
[31 70]
[32 69]
[33 68]
[34 55]
[35 54]
[36 53]
[37 52]
[38 51]
[39 50]
[40 49]
[41 48]
[42 47]
[43 46]
[44 45]
[56 67]
[57 66]
[58 65]
[59 64]
[60 63]
[61 62]
[84 107]
[85 106]
[86 105]
[87 104]
[88 103]
[89 102]
[90 101]
[91 100]
[92 99]
[93 98]
[94 97]
[95 96]
[108 127]
[109 126]
[110 125]
[111 124]
[112 123]
[113 122]
[114 121]
[115 120]
[116 119]
[117 118]
[128 164]
[129 163]
[130 162]
[131 161]
[132 160]
[133 159]
[141 158]
[142 157]
[143 156]
[144 155]
[145 154]
[146 153]
[147 152]
[148 151]
[149 150]
[165 238]
[166 237]
[167 176]
[168 175]
[169 174]
[170 173]
[171 172]
[177 198]
[178 197]
[179 196]
[180 195]
[181 194]
[182 193]
[183 192]
[184 191]
[185 190]
[186 189]
[187 188]
[199 218]
[200 217]
[201 216]
[202 215]
[203 214]
[204 213]
[205 212]
[206 211]
[207 210]
[208 209]
[219 236]
[220 235]
[221 234]
[222 233]
[223 232]
[224 231]
[225 230]
[226 229]
[227 228]
] def

init

% switch off outline pairs or bases by removing these lines
drawoutline
drawpairs
drawbases
% show it
showpage
end
%%EOF
