%!PS-Adobe-3.0 EPSF-3.0
%%Creator: PS_dot.c,v 1.38 2007/02/02 15:18:13 ivo Exp $, ViennaRNA-2.0.7
%%CreationDate: Sun Nov  4 18:30:41 2012
%%Title: RNA Secondary Structure Plot
%%BoundingBox: 66 210 518 662
%%DocumentFonts: Helvetica
%%Pages: 1
%%EndComments

%Options: -d2 
% to switch off outline pairs of sequence comment or
% delete the appropriate line near the end of the file

%%BeginProlog
/RNAplot 100 dict def
RNAplot begin
/fsize  14 def
/outlinecolor {0.2 setgray} bind def
/paircolor    {0.2 setgray} bind def
/seqcolor     {0   setgray} bind def
/cshow  { dup stringwidth pop -2 div fsize -3 div rmoveto show} bind def
/min { 2 copy gt { exch } if pop } bind def
/max { 2 copy lt { exch } if pop } bind def
/arccoords { % i j arccoords
  % puts optimal x1 y1 x2 y2 coordinates used in bezier curves from i to j
  % onto the stack
  dup 3 -1 roll dup 4 -1 roll lt dup dup 5 2 roll {exch} if
  dup 3 -1 roll dup 3 -1 roll exch sub 1 sub dup
  4 -2 roll 5 -1 roll {exch} if 4 2 roll
  sequence length dup 2 div exch 3 1 roll lt 
  {exch 5 -1 roll pop 4 -2 roll exch 4 2 roll}
  { 4 2 roll 5 -1 roll dup 6 1 roll {exch} if
    4 -2 roll exch pop dup 3 -1 roll dup 4 1 roll
    exch add 4 -1 roll dup 5 1 roll sub 1 sub
    5 -1 roll not {4 -2 roll exch 4 2 roll} if
  }ifelse
   % compute the scalingfactor and prepare (1-sf) and sf*r
  2 mul exch cpr 3 1 roll div dup
  3 -1 roll mul exch 1 exch sub exch
   % compute the coordinates
  3 -1 roll 1 sub coor exch get aload pop % get coord for i
  4 -1 roll dup 5 1 roll mul 3 -1 roll dup 4 1 roll add exch % calculate y1
  4 -1 roll dup 5 1 roll mul 3 -1 roll dup 4 1 roll add exch % calculate x1
  5 -1 roll 1 sub coor exch get aload pop % get coord for j
  % duplicate j coord
  dup 3 -1 roll dup 4 1 roll exch 8 2 roll
  6 -1 roll dup 7 1 roll mul 5 -1 roll dup 6 1 roll add exch % calculate y2
  6 -1 roll mul 5 -1 roll add exch % calculate x2
  6 -2 roll % reorder
} bind def
/drawoutline {
  gsave outlinecolor newpath
  coor 0 get aload pop 0.8 0 360 arc % draw 5' circle of 1st sequence
  currentdict /cutpoint known        % check if cutpoint is defined
  {coor 0 cutpoint getinterval
   {aload pop lineto} forall         % draw outline of 1st sequence
   coor cutpoint 1 add get aload pop
   2 copy moveto 0.8 0 360 arc       % draw 5' circle of 2nd sequence
   coor cutpoint 1 add coor length cutpoint 1 add sub getinterval
   {aload pop lineto} forall}        % draw outline of 2nd sequence
  {coor {aload pop lineto} forall}   % draw outline as a whole
  ifelse
  stroke grestore
} bind def
/drawpairs {
  paircolor
  0.7 setlinewidth
  [9 3.01] 9 setdash
  newpath
  pairs {aload pop
      currentdict (cpr) known
      { exch dup
        coor  exch 1 sub get aload pop moveto
        exch arccoords curveto
      }
      { coor exch 1 sub get aload pop moveto
        coor exch 1 sub get aload pop lineto
      }ifelse
  } forall
  stroke
} bind def
% draw bases
/drawbases {
  [] 0 setdash
  seqcolor
  0
  coor {
    aload pop moveto
    dup sequence exch 1 getinterval cshow
    1 add
  } forall
  pop
} bind def

/init {
  /Helvetica findfont fsize scalefont setfont
  1 setlinejoin
  1 setlinecap
  0.8 setlinewidth
  72 216 translate
  % find the coordinate range
  /xmax -1000 def /xmin 10000 def
  /ymax -1000 def /ymin 10000 def
  coor {
      aload pop
      dup ymin lt {dup /ymin exch def} if
      dup ymax gt {/ymax exch def} {pop} ifelse
      dup xmin lt {dup /xmin exch def} if
      dup xmax gt {/xmax exch def} {pop} ifelse
  } forall
  /size {xmax xmin sub ymax ymin sub max} bind def
  72 6 mul size div dup scale
  size xmin sub xmax sub 2 div size ymin sub ymax sub 2 div
  translate
} bind def
end
%%EndProlog
RNAplot begin
% data start here
/sequence (\
nnnnn1111111nnnnnnnnnn1111111nnn22222nnnnnnnnnnnn22222n((((n(((((nnnn<<<<<<<n<<<<nnnn>>>>nnnnnnnnn>>>>>>><<<<<<nnnn>>>>>>n)))))))))nn3333n333nnn444444nnn444nnn444nnnnnnn444nn444nnn4444445555n555555nnnnnn5555555555nnn6n66666nnn3333333777777777nnnn777777777\
nnnnnnn666666n88nn88888nnnn88888<<<<<<<<nnnn<<<nnnnnnn>>>nnnnn>>>>>>>><<<<<<<<<<nnnnn>>>>>>>>>>nn<<<<<<<<<nnnnnnn>>>>>>>>>nnnn88nnnnnnnnnnnnnn\
) def
/coor [
[128.83201599 224.53486633]
[125.50400543 209.90872192]
[122.17598724 195.28256226]
[118.84797668 180.65641785]
[115.51996613 166.03025818]
[108.69103241 169.13117981]
[104.59948730 183.56236267]
[100.50794220 197.99356079]
[96.41639709 212.42474365]
[92.32485199 226.85594177]
[88.23330688 241.28712463]
[84.14176178 255.71832275]
[94.90124512 266.67864990]
[98.72352600 281.55432129]
[94.58042908 296.34387207]
[83.58641815 307.06893921]
[68.69882965 310.84457397]
[53.92235565 306.65515137]
[43.23179245 295.62756348]
[39.50284576 280.72821045]
[43.73857880 265.96493530]
[54.79961014 255.30900574]
[69.71057129 251.62677002]
[73.80211639 237.19558716]
[77.89366150 222.76438904]
[81.98520660 208.33320618]
[86.07675171 193.90200806]
[90.16829681 179.47082520]
[94.25984192 165.03962708]
[87.61258698 161.56631470]
[74.94952393 169.60664368]
[74.31806946 154.61967468]
[67.67080688 151.14634705]
[58.16063309 162.74620056]
[48.65045547 174.34605408]
[39.14027786 185.94589233]
[29.63010025 197.54574585]
[36.11251450 211.36389160]
[35.94891739 226.62612915]
[29.17178535 240.30213928]
[17.12672806 249.67654419]
[2.20529795 252.88803101]
[-12.62984371 249.29898071]
[-24.43316841 239.62197876]
[-30.86111832 225.77841187]
[-30.63741875 210.51693726]
[-23.80648422 196.86772156]
[-11.72460461 187.54083252]
[3.20935678 184.38812256]
[18.03025055 188.03556824]
[27.54042816 176.43571472]
[37.05060577 164.83587646]
[46.56078339 153.23602295]
[56.07096100 141.63616943]
[38.14350510 112.24562073]
[38.79627991 76.42134094]
[23.86351967 77.84004211]
[8.93076038 79.25873566]
[-6.00199890 80.67743683]
[-14.17524052 84.57809448]
[-21.05815506 82.04792023]
[-36.00164795 83.34870148]
[-50.94514084 84.64948273]
[-65.88863373 85.95027161]
[-80.83212280 87.25105286]
[-83.81987000 96.89333344]
[-91.02440643 104.89186096]
[-101.53081512 109.40827942]
[-113.63513184 109.11007690]
[-125.11859131 103.49993896]
[-139.85023499 106.32461548]
[-154.58187866 109.14928436]
[-169.31350708 111.97396088]
[-184.04515076 114.79863739]
[-198.77679443 117.62331390]
[-213.50843811 120.44799042]
[-223.55926514 128.30242920]
[-234.53710938 125.17285919]
[-249.06112671 128.92155457]
[-263.58514404 132.67024231]
[-278.10916138 136.41894531]
[-289.42599487 148.28747559]
[-305.29687500 144.15866089]
[-309.39523315 128.27989197]
[-297.50500488 116.98587036]
[-281.85787964 121.89492035]
[-267.33383179 118.14622498]
[-252.80981445 114.39752960]
[-238.28579712 110.64883423]
[-251.67768860 103.89180756]
[-259.62414551 91.16963196]
[-259.82119751 76.17092896]
[-252.21171570 63.24436951]
[-239.00198364 56.13784409]
[-224.02195740 56.91179276]
[-211.61491394 65.34181976]
[-205.37811279 78.98375702]
[-207.11982727 93.88229370]
[-216.33311462 105.71634674]
[-201.60147095 102.89167023]
[-186.86982727 100.06700134]
[-172.13818359 97.24232483]
[-157.40655518 94.41764832]
[-142.67491150 91.59297180]
[-127.94326782 88.76829529]
[-127.70647430 73.77016449]
[-142.34159851 70.48184204]
[-156.97673035 67.19351959]
[-171.61184692 63.90519714]
[-186.24697876 60.61687088]
[-200.88211060 57.32854843]
[-216.36648560 62.72911072]
[-228.60729980 51.81607056]
[-225.01225281 35.81583023]
[-209.27961731 31.18806458]
[-197.59378052 42.69342422]
[-182.95866394 45.98174667]
[-168.32353210 49.27006912]
[-153.68840027 52.55839157]
[-139.05328369 55.84671783]
[-124.41815186 59.13504028]
[-97.82057953 55.19425964]
[-82.13290405 72.30756378]
[-67.18941498 71.00677490]
[-52.24592209 69.70599365]
[-37.30242920 68.40521240]
[-22.35893822 67.10443115]
[-7.42069578 65.74467468]
[7.51206350 64.32598114]
[22.44482231 62.90728378]
[37.37758255 61.48858643]
[40.79832458 54.81411743]
[27.01343727 48.89999390]
[13.22854805 42.98587418]
[-0.55634075 37.07175064]
[-15.52781105 37.99646378]
[-26.18353271 27.43921089]
[-25.39785576 12.45980072]
[-13.69617176 3.07520771]
[1.09641254 5.56105995]
[9.08776855 18.25441360]
[21.93844986 25.99133682]
[34.78913116 33.72826004]
[47.63981247 41.46518326]
[51.06055832 34.79071808]
[43.49230194 21.83998299]
[35.92404556 8.88924789]
[28.35579109 -4.06148577]
[20.78753662 -17.01222038]
[13.21928120 -29.96295357]
[-2.09572577 -31.62330055]
[-13.36474323 -41.86354446]
[-16.40712738 -56.60152054]
[-10.26137543 -70.14285278]
[-17.82962990 -83.09358978]
[-25.39788628 -96.04432678]
[-38.68877792 -97.92427826]
[-48.34601974 -106.96562195]
[-51.01682663 -119.72400665]
[-45.94998932 -131.52288818]
[-53.41578293 -144.53295898]
[-60.88158035 -157.54302979]
[-76.30525208 -160.12069702]
[-86.42421722 -172.04295349]
[-86.46061707 -187.68049622]
[-76.39726257 -199.64974976]
[-60.98575592 -202.29917908]
[-47.50294495 -194.37782288]
[-42.31499863 -179.62590027]
[-47.87150955 -165.00881958]
[-40.40571594 -151.99874878]
[-32.93991852 -138.98867798]
[-16.50529861 -135.26098633]
[-7.71027422 -120.49021912]
[-12.44715214 -103.61257935]
[-4.87889671 -90.66184235]
[2.68935847 -77.71111298]
[17.50379562 -76.41866302]
[28.85072708 -66.53376770]
[32.24094772 -51.68924332]
[26.17001534 -37.53120804]
[33.73826981 -24.58047485]
[41.30652618 -11.62974072]
[48.87477875 1.32099307]
[56.44303513 14.27172756]
[64.01129150 27.22246170]
[78.52040863 23.41647339]
[78.75720215 8.41834259]
[78.99399567 -6.57978773]
[79.23078918 -21.57791901]
[76.25530243 -30.13148308]
[79.52910614 -36.69337463]
[79.88428497 -51.68917084]
[80.23945618 -66.68496704]
[80.59462738 -81.68076324]
[80.94979858 -96.67655182]
[81.30496979 -111.67234802]
[70.21739197 -122.93473053]
[70.42454529 -138.73765564]
[81.80352020 -149.70555115]
[97.60337830 -149.33132935]
[108.45034027 -137.83703613]
[107.90910339 -122.04200745]
[96.30076599 -111.31717682]
[95.94559479 -96.32138062]
[95.59042358 -81.32558441]
[95.23524475 -66.32979584]
[94.88007355 -51.33399963]
[94.52490234 -36.33820343]
[94.22891998 -21.34112549]
[93.99212646 -6.34299421]
[93.75533295 8.65513706]
[93.51853943 23.65326691]
[100.56059265 26.23386574]
[112.07234955 16.61724663]
[114.64469910 31.39506149]
[121.68675232 33.97565842]
[124.67420959 25.42626762]
[131.31806946 22.32216835]
[140.91950989 10.79774666]
[150.52095032 -0.72667491]
[160.12239075 -12.25109577]
[169.72383118 -23.77551842]
[162.55351257 -34.47015381]
[158.37841797 -46.63617325]
[157.47279358 -59.45327759]
[159.89062500 -72.05913544]
[165.46257019 -83.60740662]
[173.80775452 -93.32456970]
[184.35977173 -100.56172180]
[196.40519714 -104.83791351]
[209.13177490 -105.87211609]
[221.68318176 -103.60166168]
[233.21667480 -98.18601990]
[243.08830261 -109.47986603]
[252.95993042 -120.77371216]
[262.83154297 -132.06755066]
[272.70318604 -143.36140442]
[282.57479858 -154.65524292]
[292.44644165 -165.94909668]
[302.31805420 -177.24293518]
[312.18969727 -188.53678894]
[314.82995605 -204.72200012]
[330.26062012 -210.27421570]
[342.60791016 -199.48179626]
[339.17001343 -183.44705200]
[323.48355103 -178.66516113]
[313.61190796 -167.37130737]
[303.74029541 -156.07746887]
[293.86865234 -144.78361511]
[283.99703979 -133.48977661]
[274.12539673 -122.19592285]
[264.25378418 -110.90207672]
[254.38214111 -99.60823059]
[244.51051331 -88.31439209]
[253.16406250 -73.45802307]
[256.17538452 -56.50561142]
[253.15908813 -39.52879715]
[244.46740723 -24.60820580]
[231.14920044 -13.57845783]
[214.82341003 -7.80258369]
[197.48229980 -8.00360680]
[181.24826050 -14.17407417]
[171.64682007 -2.64965296]
[162.04537964 8.87476826]
[152.44392395 20.39918900]
[142.84248352 31.92361069]
[133.28660583 43.48583603]
[162.58676147 92.31372833]
[142.42343140 143.16925049]
[155.98168945 149.58592224]
[172.14468384 127.68455505]
[204.25225830 120.15793610]
[239.10330200 137.26280212]
[253.50175476 133.05747986]
[267.90020752 128.85214233]
[282.29864502 124.64682007]
[296.69708252 120.44149017]
[307.63357544 108.22162628]
[323.62689209 111.84735107]
[328.22448730 127.58882904]
[316.69674683 139.25257874]
[300.90240479 134.83993530]
[286.50396729 139.04527283]
[272.10552979 143.25059509]
[257.70709229 147.45591736]
[243.30863953 151.66125488]
[244.49142456 166.61454773]
[259.37194824 168.50393677]
[274.25247192 170.39334106]
[289.13302612 172.28273010]
[304.01354980 174.17213440]
[318.89407349 176.06152344]
[333.77459717 177.95091248]
[348.65515137 179.84031677]
[358.55541992 166.55235291]
[373.72781372 160.12796021]
[389.97314453 162.24179077]
[402.84741211 172.21958923]
[408.87728882 187.24906921]
[423.77224731 189.02095032]
[438.66723633 190.79283142]
[449.93887329 179.95382690]
[465.54406738 178.94752502]
[478.11447144 188.24906921]
[481.71475220 203.46656799]
[474.64495850 217.41476440]
[460.24325562 223.50775146]
[445.30966187 218.86862183]
[436.89535522 205.68780518]
[422.00036621 203.91592407]
[407.10540771 202.14404297]
[399.69482422 213.56709290]
[388.03799438 220.73109436]
[374.36807251 222.19700623]
[361.33270264 217.62384033]
[351.48114014 207.84582520]
[346.76574707 194.72084045]
[331.88522339 192.83145142]
[317.00466919 190.94204712]
[302.12414551 189.05265808]
[287.24362183 187.16326904]
[272.36309814 185.27386475]
[257.48257446 183.38447571]
[242.60203552 181.49507141]
[237.10879517 195.45303345]
[249.28567505 204.21223450]
[261.46255493 212.97143555]
[273.63943481 221.73065186]
[285.81628418 230.48985291]
[297.99316406 239.24905396]
[310.17004395 248.00827026]
[322.34692383 256.76748657]
[334.52380371 265.52667236]
[346.70068359 274.28588867]
[362.70208740 273.13067627]
[373.47564697 285.01806641]
[370.75680542 300.82904053]
[356.63125610 308.43481445]
[341.93484497 302.00085449]
[337.94146729 286.46276855]
[325.76458740 277.70355225]
[313.58770752 268.94433594]
[301.41082764 260.18515015]
[289.23397827 251.42593384]
[277.05709839 242.66673279]
[264.88021851 233.90751648]
[252.70333862 225.14831543]
[240.52645874 216.38911438]
[228.34959412 207.62989807]
[222.78129578 212.65425110]
[211.64468384 222.70292664]
[206.07638550 227.72727966]
[213.54217529 240.73735046]
[221.00798035 253.74740601]
[228.47377014 266.75747681]
[235.93955994 279.76754761]
[243.40534973 292.77761841]
[250.87115479 305.78768921]
[258.33694458 318.79776001]
[265.80273438 331.80783081]
[281.22640991 334.38549805]
[291.34536743 346.30776978]
[291.38177490 361.94531250]
[281.31842041 373.91455078]
[265.90692139 376.56399536]
[252.42410278 368.64263916]
[247.23616028 353.89071655]
[252.79266357 339.27362061]
[245.32687378 326.26354980]
[237.86108398 313.25347900]
[230.39529419 300.24340820]
[222.92948914 287.23333740]
[215.46369934 274.22326660]
[207.99790955 261.21319580]
[200.53210449 248.20314026]
[193.06631470 235.19306946]
[169.73928833 228.18579102]
[152.77563477 213.83874512]
[143.96946716 195.77969360]
[143.39228821 177.80349731]
[149.56501770 163.14418030]
[136.00675964 156.72750854]
[129.17782593 159.82841492]
[138.00000000 171.95974731]
[146.82217407 184.09109497]
[155.64434814 196.22242737]
[164.46652222 208.35375977]
[173.28869629 220.48509216]
[184.90560913 229.97441101]
[190.44500732 243.91410828]
[188.50990295 258.78875732]
[179.58831787 270.84716797]
[165.93016052 277.04837036]
[150.97984314 275.82846069]
[138.50765991 267.49511719]
[131.65893555 254.14988708]
] def
/pairs [
[6 29]
[7 28]
[8 27]
[9 26]
[10 25]
[11 24]
[12 23]
[33 54]
[34 53]
[35 52]
[36 51]
[37 50]
[56 131]
[57 130]
[58 129]
[59 128]
[61 127]
[62 126]
[63 125]
[64 124]
[65 123]
[70 105]
[71 104]
[72 103]
[73 102]
[74 101]
[75 100]
[76 99]
[78 89]
[79 88]
[80 87]
[81 86]
[106 121]
[107 120]
[108 119]
[109 118]
[110 117]
[111 116]
[145 186]
[146 185]
[147 184]
[148 183]
[149 182]
[150 181]
[154 177]
[155 176]
[156 175]
[160 172]
[161 171]
[162 170]
[187 213]
[188 212]
[189 211]
[190 210]
[192 209]
[193 208]
[194 207]
[195 206]
[196 205]
[197 204]
[217 268]
[219 267]
[220 266]
[221 265]
[222 264]
[223 263]
[234 255]
[235 254]
[236 253]
[237 252]
[238 251]
[239 250]
[240 249]
[241 248]
[242 247]
[270 383]
[271 382]
[274 287]
[275 286]
[276 285]
[277 284]
[278 283]
[288 325]
[289 324]
[290 323]
[291 322]
[292 321]
[293 320]
[294 319]
[295 318]
[300 312]
[301 311]
[302 310]
[326 350]
[327 349]
[328 348]
[329 347]
[330 346]
[331 345]
[332 344]
[333 343]
[334 342]
[335 341]
[353 377]
[354 376]
[355 375]
[356 374]
[357 373]
[358 372]
[359 371]
[360 370]
[361 369]
] def

init

% switch off outline pairs or bases by removing these lines
drawoutline
drawpairs
drawbases
% show it
showpage
end
%%EOF
