%!PS-Adobe-3.0 EPSF-3.0
%%Creator: PS_dot.c,v 1.38 2007/02/02 15:18:13 ivo Exp $, ViennaRNA-2.0.7
%%CreationDate: Sun Nov  4 18:30:41 2012
%%Title: RNA Secondary Structure Plot
%%BoundingBox: 66 210 518 662
%%DocumentFonts: Helvetica
%%Pages: 1
%%EndComments

%Options: -d2 
% to switch off outline pairs of sequence comment or
% delete the appropriate line near the end of the file

%%BeginProlog
/RNAplot 100 dict def
RNAplot begin
/fsize  14 def
/outlinecolor {0.2 setgray} bind def
/paircolor    {0.2 setgray} bind def
/seqcolor     {0   setgray} bind def
/cshow  { dup stringwidth pop -2 div fsize -3 div rmoveto show} bind def
/min { 2 copy gt { exch } if pop } bind def
/max { 2 copy lt { exch } if pop } bind def
/arccoords { % i j arccoords
  % puts optimal x1 y1 x2 y2 coordinates used in bezier curves from i to j
  % onto the stack
  dup 3 -1 roll dup 4 -1 roll lt dup dup 5 2 roll {exch} if
  dup 3 -1 roll dup 3 -1 roll exch sub 1 sub dup
  4 -2 roll 5 -1 roll {exch} if 4 2 roll
  sequence length dup 2 div exch 3 1 roll lt 
  {exch 5 -1 roll pop 4 -2 roll exch 4 2 roll}
  { 4 2 roll 5 -1 roll dup 6 1 roll {exch} if
    4 -2 roll exch pop dup 3 -1 roll dup 4 1 roll
    exch add 4 -1 roll dup 5 1 roll sub 1 sub
    5 -1 roll not {4 -2 roll exch 4 2 roll} if
  }ifelse
   % compute the scalingfactor and prepare (1-sf) and sf*r
  2 mul exch cpr 3 1 roll div dup
  3 -1 roll mul exch 1 exch sub exch
   % compute the coordinates
  3 -1 roll 1 sub coor exch get aload pop % get coord for i
  4 -1 roll dup 5 1 roll mul 3 -1 roll dup 4 1 roll add exch % calculate y1
  4 -1 roll dup 5 1 roll mul 3 -1 roll dup 4 1 roll add exch % calculate x1
  5 -1 roll 1 sub coor exch get aload pop % get coord for j
  % duplicate j coord
  dup 3 -1 roll dup 4 1 roll exch 8 2 roll
  6 -1 roll dup 7 1 roll mul 5 -1 roll dup 6 1 roll add exch % calculate y2
  6 -1 roll mul 5 -1 roll add exch % calculate x2
  6 -2 roll % reorder
} bind def
/drawoutline {
  gsave outlinecolor newpath
  coor 0 get aload pop 0.8 0 360 arc % draw 5' circle of 1st sequence
  currentdict /cutpoint known        % check if cutpoint is defined
  {coor 0 cutpoint getinterval
   {aload pop lineto} forall         % draw outline of 1st sequence
   coor cutpoint 1 add get aload pop
   2 copy moveto 0.8 0 360 arc       % draw 5' circle of 2nd sequence
   coor cutpoint 1 add coor length cutpoint 1 add sub getinterval
   {aload pop lineto} forall}        % draw outline of 2nd sequence
  {coor {aload pop lineto} forall}   % draw outline as a whole
  ifelse
  stroke grestore
} bind def
/drawpairs {
  paircolor
  0.7 setlinewidth
  [9 3.01] 9 setdash
  newpath
  pairs {aload pop
      currentdict (cpr) known
      { exch dup
        coor  exch 1 sub get aload pop moveto
        exch arccoords curveto
      }
      { coor exch 1 sub get aload pop moveto
        coor exch 1 sub get aload pop lineto
      }ifelse
  } forall
  stroke
} bind def
% draw bases
/drawbases {
  [] 0 setdash
  seqcolor
  0
  coor {
    aload pop moveto
    dup sequence exch 1 getinterval cshow
    1 add
  } forall
  pop
} bind def

/init {
  /Helvetica findfont fsize scalefont setfont
  1 setlinejoin
  1 setlinecap
  0.8 setlinewidth
  72 216 translate
  % find the coordinate range
  /xmax -1000 def /xmin 10000 def
  /ymax -1000 def /ymin 10000 def
  coor {
      aload pop
      dup ymin lt {dup /ymin exch def} if
      dup ymax gt {/ymax exch def} {pop} ifelse
      dup xmin lt {dup /xmin exch def} if
      dup xmax gt {/xmax exch def} {pop} ifelse
  } forall
  /size {xmax xmin sub ymax ymin sub max} bind def
  72 6 mul size div dup scale
  size xmin sub xmax sub 2 div size ymin sub ymax sub 2 div
  translate
} bind def
end
%%EndProlog
RNAplot begin
% data start here
/sequence (\
nnnnn1111111nnnnnnnnnn1111111nnn22222nnnnnnnnnnnn22222n((((n(((((nnnn<<<<<<<n<<<<nnnn>>>>nnnnnnnnn>>>>>>><<<<<<nnnn>>>>>>n)))))))))nn3333n333nnn444444nnn444nnn444nnnnnnn444nn444nnn4444445555n555555nnnnnn5555555555nnn6n66666nnn3333333777777777nnnn777777777\
nnnnnnn666666n88nn88888nnnn88888<<<<<<<<nnnn<<<nnnnnnn>>>nnnnn>>>>>>>><<<<<<<<<<nnnnn>>>>>>>>>>nn<<<<<<<<<nnnnnnn>>>>>>>>>nnnn88nnnnnnnnnnnnnn\
) def
/coor [
[178.91781616 229.29406738]
[175.58979797 214.66790771]
[172.26179504 200.04176331]
[168.93377686 185.41560364]
[165.60575867 170.78945923]
[158.77684021 173.89036560]
[154.68528748 188.32156372]
[150.59375000 202.75274658]
[146.50219727 217.18394470]
[142.41064453 231.61512756]
[138.31910706 246.04632568]
[134.22755432 260.47750854]
[144.98704529 271.43786621]
[148.80932617 286.31353760]
[144.66622925 301.10305786]
[133.67221069 311.82815552]
[118.78462982 315.60375977]
[104.00815582 311.41433716]
[93.31758881 300.38674927]
[89.58864594 285.48742676]
[93.82437897 270.72415161]
[104.88540649 260.06820679]
[119.79637146 256.38595581]
[123.88791656 241.95477295]
[127.97946167 227.52359009]
[132.07099915 213.09239197]
[136.16255188 198.66120911]
[140.25410461 184.23001099]
[144.34564209 169.79882812]
[137.69837952 166.32550049]
[125.03517151 174.36560059]
[124.40386963 159.37886047]
[117.75660706 155.90554810]
[108.24642944 167.50538635]
[98.73625183 179.10523987]
[89.22607422 190.70509338]
[79.71589661 202.30494690]
[86.19831085 216.12307739]
[86.03471375 231.38533020]
[79.25758362 245.06134033]
[67.21252441 254.43572998]
[52.29109573 257.64721680]
[37.45595551 254.05816650]
[25.65263176 244.38116455]
[19.22468185 230.53761292]
[19.44838142 215.27612305]
[26.27931404 201.62690735]
[38.36119461 192.30001831]
[53.29515457 189.14730835]
[68.11605072 192.79476929]
[77.62622833 181.19491577]
[87.13640594 169.59506226]
[96.64658356 157.99520874]
[106.15676117 146.39537048]
[77.03642273 135.62005615]
[63.66535950 110.98577118]
[48.73260117 112.40446472]
[33.79983902 113.82316589]
[18.86708069 115.24185944]
[10.69383907 119.14251709]
[3.81092501 116.61234283]
[-11.13256741 117.91312408]
[-26.07605934 119.21391296]
[-41.01955032 120.51469421]
[-55.96304321 121.81547546]
[-58.95079041 131.45776367]
[-66.15531921 139.45628357]
[-76.66173553 143.97270203]
[-88.76605225 143.67449951]
[-100.24951172 138.06436157]
[-114.98115540 140.88903809]
[-129.71279907 143.71371460]
[-144.44442749 146.53839111]
[-159.17607117 149.36306763]
[-173.90771484 152.18774414]
[-188.63935852 155.01240540]
[-198.69018555 162.86685181]
[-209.66802979 159.73728943]
[-224.19204712 163.48597717]
[-238.71606445 167.23466492]
[-253.24009705 170.98336792]
[-264.55691528 182.85189819]
[-280.42779541 178.72309875]
[-284.52615356 162.84431458]
[-272.63592529 151.55029297]
[-256.98880005 156.45933533]
[-242.46476746 152.71064758]
[-227.94073486 148.96195984]
[-213.41671753 145.21325684]
[-226.80860901 138.45623779]
[-234.75506592 125.73405457]
[-234.95211792 110.73535156]
[-227.34263611 97.80879211]
[-214.13290405 90.70227051]
[-199.15287781 91.47621918]
[-186.74583435 99.90625000]
[-180.50903320 113.54817963]
[-182.25074768 128.44671631]
[-191.46401978 140.28077698]
[-176.73239136 137.45610046]
[-162.00074768 134.63142395]
[-147.26910400 131.80674744]
[-132.53747559 128.98207092]
[-117.80583191 126.15739441]
[-103.07418823 123.33272552]
[-102.83739471 108.33459473]
[-117.47251892 105.04627228]
[-132.10765076 101.75794220]
[-146.74276733 98.46961975]
[-161.37789917 95.18129730]
[-176.01303101 91.89297485]
[-191.49740601 97.29353333]
[-203.73822021 86.38049316]
[-200.14317322 70.38025665]
[-184.41053772 65.75248718]
[-172.72470093 77.25785065]
[-158.08958435 80.54617310]
[-143.45445251 83.83449554]
[-128.81932068 87.12281799]
[-114.18419647 90.41114044]
[-99.54907227 93.69946289]
[-72.95149994 89.75868225]
[-57.26382828 106.87198639]
[-42.32033539 105.57120514]
[-27.37684250 104.27041626]
[-12.43335056 102.96963501]
[2.51014185 101.66885376]
[17.44838333 100.30910492]
[32.38114166 98.89040375]
[47.31390381 97.47171021]
[62.24666214 96.05300903]
[84.40638733 62.18198013]
[127.72657776 66.02283478]
[145.96707153 108.80136871]
[142.33312988 94.24820709]
[138.69920349 79.69504547]
[135.06526184 65.14188385]
[129.98719788 57.64320374]
[131.46057129 50.45950699]
[127.94161987 35.87811661]
[124.42266846 21.29672432]
[100.33010101 16.27512741]
[82.93617249 -2.16696548]
[79.11236572 -27.97640991]
[91.07021332 -51.99613953]
[83.50195312 -64.94686890]
[75.93370056 -77.89760590]
[68.36544800 -90.84834290]
[60.79719162 -103.79907227]
[53.22893524 -116.74980927]
[37.91392899 -118.41015625]
[26.64491081 -128.65040588]
[23.60252762 -143.38838196]
[29.74827957 -156.92970276]
[22.18002319 -169.88044739]
[14.61176872 -182.83117676]
[1.32087529 -184.71113586]
[-8.33636475 -193.75247192]
[-11.00717163 -206.51086426]
[-5.94033480 -218.30973816]
[-13.40612984 -231.31980896]
[-20.87192345 -244.32987976]
[-36.29559708 -246.90754700]
[-46.41456604 -258.82980347]
[-46.45096588 -274.46734619]
[-36.38760757 -286.43658447]
[-20.97610092 -289.08602905]
[-7.49329042 -281.16467285]
[-2.30534506 -266.41275024]
[-7.86185408 -251.79566956]
[-0.39605975 -238.78559875]
[7.06973457 -225.77552795]
[23.50435638 -222.04783630]
[32.29938126 -207.27706909]
[27.56250191 -190.39942932]
[35.13075638 -177.44869995]
[42.69901276 -164.49797058]
[57.51345062 -163.20552063]
[68.86038208 -153.32061768]
[72.25060272 -138.47610474]
[66.17967224 -124.31806183]
[73.74792480 -111.36733246]
[81.31617737 -98.41659546]
[88.88443756 -85.46585846]
[96.45269012 -72.51512909]
[104.02094269 -59.56439209]
[118.53005981 -63.37038040]
[118.76685333 -78.36851501]
[119.00364685 -93.36664581]
[119.24044037 -108.36477661]
[116.26495361 -116.91833496]
[119.53876495 -123.48023224]
[119.89393616 -138.47602844]
[120.24910736 -153.47181702]
[120.60427856 -168.46762085]
[120.95944977 -183.46340942]
[121.31462097 -198.45919800]
[110.22705078 -209.72158813]
[110.43419647 -225.52452087]
[121.81317139 -236.49240112]
[137.61303711 -236.11817932]
[148.45999146 -224.62388611]
[147.91876221 -208.82885742]
[136.31042480 -198.10403442]
[135.95524597 -183.10823059]
[135.60006714 -168.11244202]
[135.24490356 -153.11665344]
[134.88972473 -138.12084961]
[134.53456116 -123.12506104]
[134.23857117 -108.12798309]
[134.00178528 -93.12985229]
[133.76498413 -78.13172150]
[133.52819824 -63.13358688]
[140.93775940 -60.17158127]
[147.65792847 -55.98543549]
[153.49073792 -50.72423935]
[158.26896667 -44.56829834]
[161.86087036 -37.72299576]
[164.17379761 -30.41198158]
[165.15646362 -22.86987686]
[164.79989624 -15.33475304]
[163.13710022 -8.04062557]
[160.24124146 -1.21017861]
[156.22282410 4.95202827]
[151.22552490 10.26567841]
[145.42121887 14.57995319]
[139.00405884 17.77777672]
[142.52301025 32.35916901]
[146.04196167 46.94055939]
[149.61842346 61.50795364]
[153.25236511 76.06111145]
[156.88629150 90.61427307]
[160.52023315 105.16743469]
[175.10162354 108.68638611]
[184.97325134 97.39253998]
[194.84487915 86.09869385]
[204.71650696 74.80484772]
[214.58813477 63.51100159]
[224.45976257 52.21715546]
[234.33139038 40.92330933]
[244.20301819 29.62946320]
[254.07464600 18.33561707]
[256.71493530 2.15040827]
[272.14556885 -3.40180969]
[284.49285889 7.39060926]
[281.05496216 23.42535019]
[265.36849976 28.20724487]
[255.49687195 39.50109100]
[245.62524414 50.79493713]
[235.75361633 62.08878326]
[225.88198853 73.38262939]
[216.01036072 84.67647552]
[206.13871765 95.97032166]
[196.26708984 107.26416779]
[186.39546204 118.55801392]
[187.92390442 125.90061951]
[202.00163269 120.72204590]
[216.07936096 115.54347992]
[230.15708923 110.36490631]
[241.34930420 100.37820435]
[256.34231567 99.92073059]
[268.12258911 109.20649719]
[271.17941284 123.89171600]
[264.08288574 137.10682678]
[250.15263367 142.66993713]
[235.90521240 137.97879028]
[220.93040466 138.84779358]
[205.95559692 139.71681213]
[190.98078918 140.58583069]
[192.50923157 147.92843628]
[206.06748962 154.34510803]
[222.23048401 132.44375610]
[254.33805847 124.91712952]
[289.18911743 142.02200317]
[303.58755493 137.81666565]
[317.98599243 133.61134338]
[332.38442993 129.40602112]
[346.78289795 125.20069122]
[357.71939087 112.98081970]
[373.71270752 116.60654449]
[378.31027222 132.34802246]
[366.78253174 144.01177979]
[350.98822021 139.59913635]
[336.58978271 143.80445862]
[322.19131470 148.00979614]
[307.79287720 152.21511841]
[293.39443970 156.42044067]
[294.57723999 171.37373352]
[309.45776367 173.26313782]
[324.33828735 175.15252686]
[339.21881104 177.04193115]
[354.09933472 178.93132019]
[368.97988892 180.82072449]
[383.86041260 182.71011353]
[398.74093628 184.59950256]
[408.64123535 171.31153870]
[423.81359863 164.88716125]
[440.05895996 167.00099182]
[452.93319702 176.97879028]
[458.96307373 192.00827026]
[473.85806274 193.78013611]
[488.75302124 195.55201721]
[500.02468872 184.71301270]
[515.62988281 183.70672607]
[528.20025635 193.00827026]
[531.80053711 208.22575378]
[524.73077393 222.17395020]
[510.32904053 228.26693726]
[495.39544678 223.62780762]
[486.98117065 210.44700623]
[472.08618164 208.67512512]
[457.19119263 206.90324402]
[449.78063965 218.32629395]
[438.12380981 225.49029541]
[424.45388794 226.95620728]
[411.41851807 222.38304138]
[401.56692505 212.60502625]
[396.85153198 199.48004150]
[381.97100830 197.59063721]
[367.09048462 195.70124817]
[352.20996094 193.81185913]
[337.32940674 191.92245483]
[322.44888306 190.03306580]
[307.56835938 188.14366150]
[292.68783569 186.25427246]
[287.19461060 200.21221924]
[299.37145996 208.97143555]
[311.54833984 217.73063660]
[323.72521973 226.48983765]
[335.90209961 235.24905396]
[348.07897949 244.00825500]
[360.25585938 252.76745605]
[372.43273926 261.52667236]
[384.60958862 270.28588867]
[396.78646851 279.04507446]
[412.78787231 277.88986206]
[423.56146240 289.77725220]
[420.84262085 305.58822632]
[406.71704102 313.19400024]
[392.02066040 306.76004028]
[388.02728271 291.22195435]
[375.85040283 282.46273804]
[363.67352295 273.70355225]
[351.49664307 264.94433594]
[339.31976318 256.18511963]
[327.14288330 247.42591858]
[314.96600342 238.66671753]
[302.78915405 229.90751648]
[290.61227417 221.14830017]
[278.43539429 212.38909912]
[272.86709595 217.41343689]
[261.73049927 227.46212769]
[256.16217041 232.48646545]
[263.62799072 245.49653625]
[271.09378052 258.50662231]
[278.55957031 271.51666260]
[286.02536011 284.52673340]
[293.49114990 297.53680420]
[300.95693970 310.54687500]
[308.42272949 323.55694580]
[315.88854980 336.56701660]
[331.31222534 339.14468384]
[341.43118286 351.06695557]
[341.46759033 366.70449829]
[331.40423584 378.67373657]
[315.99270630 381.32318115]
[302.50991821 373.40182495]
[297.32196045 358.64990234]
[302.87847900 344.03280640]
[295.41268921 331.02273560]
[287.94686890 318.01269531]
[280.48107910 305.00262451]
[273.01528931 291.99255371]
[265.54949951 278.98248291]
[258.08370972 265.97241211]
[250.61790466 252.96232605]
[243.15211487 239.95225525]
[219.82508850 232.94499207]
[202.86143494 218.59794617]
[194.05526733 200.53887939]
[193.47808838 182.56269836]
[199.65081787 167.90336609]
[186.09255981 161.48669434]
[179.26362610 164.58761597]
[188.08580017 176.71894836]
[196.90797424 188.85028076]
[205.73014832 200.98161316]
[214.55232239 213.11294556]
[223.37449646 225.24427795]
[234.99140930 234.73359680]
[240.53080750 248.67329407]
[238.59570312 263.54794312]
[229.67411804 275.60635376]
[216.01596069 281.80755615]
[201.06564331 280.58764648]
[188.59346008 272.25430298]
[181.74473572 258.90908813]
] def
/pairs [
[6 29]
[7 28]
[8 27]
[9 26]
[10 25]
[11 24]
[12 23]
[33 54]
[34 53]
[35 52]
[36 51]
[37 50]
[56 131]
[57 130]
[58 129]
[59 128]
[61 127]
[62 126]
[63 125]
[64 124]
[65 123]
[70 105]
[71 104]
[72 103]
[73 102]
[74 101]
[75 100]
[76 99]
[78 89]
[79 88]
[80 87]
[81 86]
[106 121]
[107 120]
[108 119]
[109 118]
[110 117]
[111 116]
[134 233]
[135 232]
[136 231]
[137 230]
[139 229]
[140 228]
[141 227]
[145 186]
[146 185]
[147 184]
[148 183]
[149 182]
[150 181]
[154 177]
[155 176]
[156 175]
[160 172]
[161 171]
[162 170]
[187 213]
[188 212]
[189 211]
[190 210]
[192 209]
[193 208]
[194 207]
[195 206]
[196 205]
[197 204]
[234 255]
[235 254]
[236 253]
[237 252]
[238 251]
[239 250]
[240 249]
[241 248]
[242 247]
[270 383]
[271 382]
[274 287]
[275 286]
[276 285]
[277 284]
[278 283]
[288 325]
[289 324]
[290 323]
[291 322]
[292 321]
[293 320]
[294 319]
[295 318]
[300 312]
[301 311]
[302 310]
[326 350]
[327 349]
[328 348]
[329 347]
[330 346]
[331 345]
[332 344]
[333 343]
[334 342]
[335 341]
[353 377]
[354 376]
[355 375]
[356 374]
[357 373]
[358 372]
[359 371]
[360 370]
[361 369]
] def

init

% switch off outline pairs or bases by removing these lines
drawoutline
drawpairs
drawbases
% show it
showpage
end
%%EOF
