%!PS-Adobe-3.0 EPSF-3.0
%%Creator: PS_dot.c,v 1.38 2007/02/02 15:18:13 ivo Exp $, ViennaRNA-2.0.7
%%CreationDate: Sat Nov  3 00:50:25 2012
%%Title: RNA Secondary Structure Plot
%%BoundingBox: 66 210 518 662
%%DocumentFonts: Helvetica
%%Pages: 1
%%EndComments

%Options: -d2 
% to switch off outline pairs of sequence comment or
% delete the appropriate line near the end of the file

%%BeginProlog
/RNAplot 100 dict def
RNAplot begin
/fsize  14 def
/outlinecolor {0.2 setgray} bind def
/paircolor    {0.2 setgray} bind def
/seqcolor     {0   setgray} bind def
/cshow  { dup stringwidth pop -2 div fsize -3 div rmoveto show} bind def
/min { 2 copy gt { exch } if pop } bind def
/max { 2 copy lt { exch } if pop } bind def
/arccoords { % i j arccoords
  % puts optimal x1 y1 x2 y2 coordinates used in bezier curves from i to j
  % onto the stack
  dup 3 -1 roll dup 4 -1 roll lt dup dup 5 2 roll {exch} if
  dup 3 -1 roll dup 3 -1 roll exch sub 1 sub dup
  4 -2 roll 5 -1 roll {exch} if 4 2 roll
  sequence length dup 2 div exch 3 1 roll lt 
  {exch 5 -1 roll pop 4 -2 roll exch 4 2 roll}
  { 4 2 roll 5 -1 roll dup 6 1 roll {exch} if
    4 -2 roll exch pop dup 3 -1 roll dup 4 1 roll
    exch add 4 -1 roll dup 5 1 roll sub 1 sub
    5 -1 roll not {4 -2 roll exch 4 2 roll} if
  }ifelse
   % compute the scalingfactor and prepare (1-sf) and sf*r
  2 mul exch cpr 3 1 roll div dup
  3 -1 roll mul exch 1 exch sub exch
   % compute the coordinates
  3 -1 roll 1 sub coor exch get aload pop % get coord for i
  4 -1 roll dup 5 1 roll mul 3 -1 roll dup 4 1 roll add exch % calculate y1
  4 -1 roll dup 5 1 roll mul 3 -1 roll dup 4 1 roll add exch % calculate x1
  5 -1 roll 1 sub coor exch get aload pop % get coord for j
  % duplicate j coord
  dup 3 -1 roll dup 4 1 roll exch 8 2 roll
  6 -1 roll dup 7 1 roll mul 5 -1 roll dup 6 1 roll add exch % calculate y2
  6 -1 roll mul 5 -1 roll add exch % calculate x2
  6 -2 roll % reorder
} bind def
/drawoutline {
  gsave outlinecolor newpath
  coor 0 get aload pop 0.8 0 360 arc % draw 5' circle of 1st sequence
  currentdict /cutpoint known        % check if cutpoint is defined
  {coor 0 cutpoint getinterval
   {aload pop lineto} forall         % draw outline of 1st sequence
   coor cutpoint 1 add get aload pop
   2 copy moveto 0.8 0 360 arc       % draw 5' circle of 2nd sequence
   coor cutpoint 1 add coor length cutpoint 1 add sub getinterval
   {aload pop lineto} forall}        % draw outline of 2nd sequence
  {coor {aload pop lineto} forall}   % draw outline as a whole
  ifelse
  stroke grestore
} bind def
/drawpairs {
  paircolor
  0.7 setlinewidth
  [9 3.01] 9 setdash
  newpath
  pairs {aload pop
      currentdict (cpr) known
      { exch dup
        coor  exch 1 sub get aload pop moveto
        exch arccoords curveto
      }
      { coor exch 1 sub get aload pop moveto
        coor exch 1 sub get aload pop lineto
      }ifelse
  } forall
  stroke
} bind def
% draw bases
/drawbases {
  [] 0 setdash
  seqcolor
  0
  coor {
    aload pop moveto
    dup sequence exch 1 getinterval cshow
    1 add
  } forall
  pop
} bind def

/init {
  /Helvetica findfont fsize scalefont setfont
  1 setlinejoin
  1 setlinecap
  0.8 setlinewidth
  72 216 translate
  % find the coordinate range
  /xmax -1000 def /xmin 10000 def
  /ymax -1000 def /ymin 10000 def
  coor {
      aload pop
      dup ymin lt {dup /ymin exch def} if
      dup ymax gt {/ymax exch def} {pop} ifelse
      dup xmin lt {dup /xmin exch def} if
      dup xmax gt {/xmax exch def} {pop} ifelse
  } forall
  /size {xmax xmin sub ymax ymin sub max} bind def
  72 6 mul size div dup scale
  size xmin sub xmax sub 2 div size ymin sub ymax sub 2 div
  translate
} bind def
end
%%EndProlog
RNAplot begin
% data start here
/sequence (\
111111111111112222222222(((((((((<<<<<<<<<<<>>>>>>>>>>><<<<<<>>>>>>)))))))))3333333444444444444444444444444555555555555555555556666663333333777777777777777777666666888888888888<<<<<<<<<<<>>>>>>>>>>><<<<<<<<<<>>>>>>>>>><<<<<<<<<>>>>>>>>>88\
) def
/coor [
[91.32875824 133.12178040]
[88.39031982 147.83114624]
[85.45187378 162.54051208]
[82.51343536 177.24989319]
[79.57499695 191.95925903]
[76.63655853 206.66862488]
[73.69812012 221.37799072]
[58.98874664 218.43955994]
[61.92718506 203.73019409]
[64.86562347 189.02081299]
[67.80406952 174.31144714]
[70.74250793 159.60208130]
[73.68094635 144.89270020]
[76.61938477 130.18333435]
[62.55421066 124.97077942]
[55.19695282 138.04252625]
[47.83969498 151.11428833]
[40.48244095 164.18603516]
[33.12518311 177.25779724]
[20.05342865 169.90054321]
[27.41068459 156.82878113]
[34.76794052 143.75703430]
[42.12519836 130.68527222]
[49.48245621 117.61351776]
[40.39672470 105.67829895]
[25.83806038 109.29011536]
[11.27939415 112.90193939]
[-3.27927208 116.51375580]
[-17.83793831 120.12557983]
[-32.39660263 123.73739624]
[-46.95526886 127.34922028]
[-61.51393509 130.96104431]
[-76.07260132 134.57286072]
[-86.79967499 165.04972839]
[-100.61023712 170.90362549]
[-114.42080688 176.75753784]
[-128.23136902 182.61145020]
[-142.04194641 188.46534729]
[-155.85250854 194.31925964]
[-169.66307068 200.17317200]
[-183.47364807 206.02708435]
[-197.28421021 211.88098145]
[-211.09477234 217.73489380]
[-224.90534973 223.58880615]
[-230.75924683 209.77822876]
[-216.94868469 203.92433167]
[-203.13812256 198.07041931]
[-189.32754517 192.21650696]
[-175.51698303 186.36260986]
[-161.70642090 180.50869751]
[-147.89584351 174.65478516]
[-134.08528137 168.80087280]
[-120.27471924 162.94697571]
[-106.46414948 157.09306335]
[-92.65357971 151.23915100]
[-95.30144501 136.47471619]
[-110.28556824 135.78485107]
[-125.26969910 135.09500122]
[-140.25382996 134.40515137]
[-155.23796082 133.71528625]
[-170.22209167 133.02543640]
[-169.53222656 118.04130554]
[-154.54809570 118.73116302]
[-139.56398010 119.42101288]
[-124.57984161 120.11087036]
[-109.59571838 120.80072784]
[-94.61158752 121.49058533]
[-79.68442535 120.01419067]
[-65.12575531 116.40237427]
[-50.56708908 112.79055023]
[-36.00842285 109.17873383]
[-21.44975853 105.56690979]
[-6.89109230 101.95509338]
[7.66757393 98.34326935]
[22.22624016 94.73145294]
[36.78490448 91.11962891]
[84.87226105 69.16397858]
[80.59470367 54.78682709]
[76.31714630 40.40967178]
[72.03958893 26.03252029]
[67.76203156 11.65536880]
[63.48447800 -2.72178388]
[59.20692062 -17.09893608]
[52.54681396 -30.53928566]
[43.69816208 -42.65131760]
[34.84951019 -54.76335144]
[26.00086021 -66.87538910]
[17.15220833 -78.98741913]
[8.30355740 -91.09945679]
[-0.54509348 -103.21148682]
[-9.39374447 -115.32352448]
[-18.24239540 -127.43555450]
[-27.09104729 -139.54759216]
[-35.93969727 -151.65962219]
[-44.78834915 -163.77166748]
[-32.67631531 -172.62031555]
[-23.82766342 -160.50827026]
[-14.97901344 -148.39624023]
[-6.13036156 -136.28421021]
[2.71828938 -124.17217255]
[11.56694031 -112.06014252]
[20.41559219 -99.94810486]
[29.26424408 -87.83607483]
[38.11289597 -75.72403717]
[46.96154404 -63.61200333]
[55.81019592 -51.49996948]
[64.65885162 -39.38793564]
[78.79132843 -44.41516876]
[78.00300598 -59.39443970]
[77.21468353 -74.37371063]
[76.42636108 -89.35298157]
[75.63803864 -104.33225250]
[74.84972382 -119.31152344]
[74.06140137 -134.29078674]
[73.27307892 -149.27006531]
[72.48475647 -164.24932861]
[71.69643402 -179.22860718]
[86.67570496 -180.01692200]
[87.46402740 -165.03765869]
[88.25234985 -150.05838013]
[89.04067230 -135.07911682]
[89.82899475 -120.09984589]
[90.61730957 -105.12057495]
[91.40563202 -90.14130402]
[92.19395447 -75.16203308]
[92.98227692 -60.18276215]
[93.77059937 -45.20349121]
[108.35029602 -41.67752457]
[117.48416138 -29.77910233]
[117.12265778 -14.78345966]
[107.42604065 -3.33899665]
[92.69337463 -0.51968122]
[79.45646667 -7.57547235]
[73.58407593 -21.37649345]
[77.86163330 -6.99934053]
[82.13918304 7.37781191]
[86.41674042 21.75496483]
[90.69429779 36.13211441]
[94.97185516 50.50926971]
[99.24941254 64.88642120]
[113.78402710 68.59384918]
[124.42543030 58.02215958]
[135.06683350 47.45046997]
[145.70822144 36.87878036]
[156.34962463 26.30709076]
[166.99102783 15.73540115]
[177.63243103 5.16371202]
[188.27381897 -5.40797758]
[198.91522217 -15.97966671]
[209.48690796 -5.33826685]
[198.84552002 5.23342228]
[188.20411682 15.80511189]
[177.56271362 26.37680054]
[166.92131042 36.94849014]
[156.27992249 47.52017975]
[145.63851929 58.09186935]
[134.99711609 68.66355896]
[124.35571289 79.23524475]
[125.09391022 86.69882965]
[137.28308105 77.95674896]
[150.94850159 84.14193726]
[152.42456055 99.06913757]
[140.23519897 107.81095123]
[126.57029724 101.62599182]
[127.30849457 109.08957672]
[139.81466675 117.37182617]
[154.54302979 120.21353149]
[169.23277283 117.17848206]
[183.92251587 114.14343262]
[198.61224365 111.10837555]
[213.30198669 108.07332611]
[216.33703613 122.76306915]
[201.64730835 125.79811859]
[186.95756531 128.83317566]
[172.26782227 131.86822510]
[157.57807922 134.90327454]
[157.47949219 149.90295410]
[172.12806702 153.13082886]
[186.77665710 156.35870361]
[201.42523193 159.58657837]
[216.07380676 162.81445312]
[230.72238159 166.04232788]
[245.37095642 169.27020264]
[260.01953125 172.49807739]
[274.66812134 175.72596741]
[289.31668091 178.95384216]
[303.96527100 182.18171692]
[300.73739624 196.83029175]
[286.08880615 193.60241699]
[271.44024658 190.37454224]
[256.79165649 187.14666748]
[242.14308167 183.91877747]
[227.49450684 180.69090271]
[212.84593201 177.46302795]
[198.19735718 174.23515320]
[183.54876709 171.00727844]
[168.90019226 167.77940369]
[154.25161743 164.55152893]
[147.15351868 177.76579285]
[157.93295288 188.19670105]
[168.71238708 198.62759399]
[179.49183655 209.05850220]
[190.27127075 219.48939514]
[201.05070496 229.92030334]
[211.83013916 240.35119629]
[222.60958862 250.78210449]
[233.38902283 261.21301270]
[244.16845703 271.64392090]
[233.73756409 282.42333984]
[222.95811462 271.99243164]
[212.17868042 261.56155396]
[201.39924622 251.13064575]
[190.61981201 240.69973755]
[179.84036255 230.26884460]
[169.06092834 219.83793640]
[158.28149414 209.40702820]
[147.50204468 198.97613525]
[136.72261047 188.54522705]
[123.95107269 196.41210938]
[128.41723633 210.73179626]
[132.88340759 225.05148315]
[137.34956360 239.37117004]
[141.81573486 253.69084167]
[146.28190613 268.01052856]
[150.74806213 282.33023071]
[155.21423340 296.64990234]
[159.68040466 310.96957397]
[145.36071777 315.43576050]
[140.89454651 301.11605835]
[136.42837524 286.79638672]
[131.96221924 272.47668457]
[127.49604797 258.15701294]
[123.02988434 243.83732605]
[118.56372070 229.51763916]
[114.09755707 215.19796753]
[109.63138580 200.87828064]
[131.53240967 129.87800598]
[119.02624512 121.59574890]
] def
/pairs [
[1 14]
[2 13]
[3 12]
[4 11]
[5 10]
[6 9]
[7 8]
[15 24]
[16 23]
[17 22]
[18 21]
[19 20]
[25 76]
[26 75]
[27 74]
[28 73]
[29 72]
[30 71]
[31 70]
[32 69]
[33 68]
[34 55]
[35 54]
[36 53]
[37 52]
[38 51]
[39 50]
[40 49]
[41 48]
[42 47]
[43 46]
[44 45]
[56 67]
[57 66]
[58 65]
[59 64]
[60 63]
[61 62]
[77 140]
[78 139]
[79 138]
[80 137]
[81 136]
[82 135]
[83 134]
[84 107]
[85 106]
[86 105]
[87 104]
[88 103]
[89 102]
[90 101]
[91 100]
[92 99]
[93 98]
[94 97]
[95 96]
[108 127]
[109 126]
[110 125]
[111 124]
[112 123]
[113 122]
[114 121]
[115 120]
[116 119]
[117 118]
[141 158]
[142 157]
[143 156]
[144 155]
[145 154]
[146 153]
[147 152]
[148 151]
[149 150]
[165 238]
[166 237]
[167 176]
[168 175]
[169 174]
[170 173]
[171 172]
[177 198]
[178 197]
[179 196]
[180 195]
[181 194]
[182 193]
[183 192]
[184 191]
[185 190]
[186 189]
[187 188]
[199 218]
[200 217]
[201 216]
[202 215]
[203 214]
[204 213]
[205 212]
[206 211]
[207 210]
[208 209]
[219 236]
[220 235]
[221 234]
[222 233]
[223 232]
[224 231]
[225 230]
[226 229]
[227 228]
] def

init

% switch off outline pairs or bases by removing these lines
drawoutline
drawpairs
drawbases
% show it
showpage
end
%%EOF
