%!PS-Adobe-3.0 EPSF-3.0
%%Creator: PS_dot.c,v 1.38 2007/02/02 15:18:13 ivo Exp $, ViennaRNA-2.0.7
%%CreationDate: Sun Nov  4 18:31:41 2012
%%Title: RNA Secondary Structure Plot
%%BoundingBox: 66 210 518 662
%%DocumentFonts: Helvetica
%%Pages: 1
%%EndComments

%Options: -d2 
% to switch off outline pairs of sequence comment or
% delete the appropriate line near the end of the file

%%BeginProlog
/RNAplot 100 dict def
RNAplot begin
/fsize  14 def
/outlinecolor {0.2 setgray} bind def
/paircolor    {0.2 setgray} bind def
/seqcolor     {0   setgray} bind def
/cshow  { dup stringwidth pop -2 div fsize -3 div rmoveto show} bind def
/min { 2 copy gt { exch } if pop } bind def
/max { 2 copy lt { exch } if pop } bind def
/arccoords { % i j arccoords
  % puts optimal x1 y1 x2 y2 coordinates used in bezier curves from i to j
  % onto the stack
  dup 3 -1 roll dup 4 -1 roll lt dup dup 5 2 roll {exch} if
  dup 3 -1 roll dup 3 -1 roll exch sub 1 sub dup
  4 -2 roll 5 -1 roll {exch} if 4 2 roll
  sequence length dup 2 div exch 3 1 roll lt 
  {exch 5 -1 roll pop 4 -2 roll exch 4 2 roll}
  { 4 2 roll 5 -1 roll dup 6 1 roll {exch} if
    4 -2 roll exch pop dup 3 -1 roll dup 4 1 roll
    exch add 4 -1 roll dup 5 1 roll sub 1 sub
    5 -1 roll not {4 -2 roll exch 4 2 roll} if
  }ifelse
   % compute the scalingfactor and prepare (1-sf) and sf*r
  2 mul exch cpr 3 1 roll div dup
  3 -1 roll mul exch 1 exch sub exch
   % compute the coordinates
  3 -1 roll 1 sub coor exch get aload pop % get coord for i
  4 -1 roll dup 5 1 roll mul 3 -1 roll dup 4 1 roll add exch % calculate y1
  4 -1 roll dup 5 1 roll mul 3 -1 roll dup 4 1 roll add exch % calculate x1
  5 -1 roll 1 sub coor exch get aload pop % get coord for j
  % duplicate j coord
  dup 3 -1 roll dup 4 1 roll exch 8 2 roll
  6 -1 roll dup 7 1 roll mul 5 -1 roll dup 6 1 roll add exch % calculate y2
  6 -1 roll mul 5 -1 roll add exch % calculate x2
  6 -2 roll % reorder
} bind def
/drawoutline {
  gsave outlinecolor newpath
  coor 0 get aload pop 0.8 0 360 arc % draw 5' circle of 1st sequence
  currentdict /cutpoint known        % check if cutpoint is defined
  {coor 0 cutpoint getinterval
   {aload pop lineto} forall         % draw outline of 1st sequence
   coor cutpoint 1 add get aload pop
   2 copy moveto 0.8 0 360 arc       % draw 5' circle of 2nd sequence
   coor cutpoint 1 add coor length cutpoint 1 add sub getinterval
   {aload pop lineto} forall}        % draw outline of 2nd sequence
  {coor {aload pop lineto} forall}   % draw outline as a whole
  ifelse
  stroke grestore
} bind def
/drawpairs {
  paircolor
  0.7 setlinewidth
  [9 3.01] 9 setdash
  newpath
  pairs {aload pop
      currentdict (cpr) known
      { exch dup
        coor  exch 1 sub get aload pop moveto
        exch arccoords curveto
      }
      { coor exch 1 sub get aload pop moveto
        coor exch 1 sub get aload pop lineto
      }ifelse
  } forall
  stroke
} bind def
% draw bases
/drawbases {
  [] 0 setdash
  seqcolor
  0
  coor {
    aload pop moveto
    dup sequence exch 1 getinterval cshow
    1 add
  } forall
  pop
} bind def

/init {
  /Helvetica findfont fsize scalefont setfont
  1 setlinejoin
  1 setlinecap
  0.8 setlinewidth
  72 216 translate
  % find the coordinate range
  /xmax -1000 def /xmin 10000 def
  /ymax -1000 def /ymin 10000 def
  coor {
      aload pop
      dup ymin lt {dup /ymin exch def} if
      dup ymax gt {/ymax exch def} {pop} ifelse
      dup xmin lt {dup /xmin exch def} if
      dup xmax gt {/xmax exch def} {pop} ifelse
  } forall
  /size {xmax xmin sub ymax ymin sub max} bind def
  72 6 mul size div dup scale
  size xmin sub xmax sub 2 div size ymin sub ymax sub 2 div
  translate
} bind def
end
%%EndProlog
RNAplot begin
% data start here
/sequence (\
nnnn111111111nnnn111111111nnn222nnnnn222nnnnnnnnn33333n33nnn444444nnn44444nnnnnnnnn44444nnn44444455nnn5555nnnn55555nnnnnnnn55555nnn5555nnn55nnn6n66666nn33n33333n777777777nnnnnnnnnnnnnnnnnnnnnnnnnnnnnnnnnnnnnnnnnnnnnnnnnnn777777777nnnnnnnn666666nnnnn88888n\
nnn88888nn\
) def
/coor [
[65.94601440 219.71434021]
[59.38457870 206.22552490]
[60.44663620 191.26316833]
[61.50868988 176.30081177]
[54.02751160 175.76979065]
[48.65750885 189.77560425]
[43.28750229 203.78143311]
[37.91749573 217.78724670]
[32.54748917 231.79307556]
[27.17748451 245.79888916]
[21.80747795 259.80471802]
[16.43747330 273.81054688]
[11.06746674 287.81634521]
[14.17222500 303.91891479]
[1.60385549 314.45306396]
[-13.70837975 308.58215332]
[-16.01256752 292.34570312]
[-2.93835497 282.44635010]
[2.43165088 268.44052124]
[7.80165672 254.43470764]
[13.17166233 240.42889404]
[18.54166794 226.42306519]
[23.91167450 212.41725159]
[29.28167915 198.41142273]
[34.65168381 184.40560913]
[40.02169037 170.39978027]
[33.81659698 166.18708801]
[20.31491280 172.72195435]
[21.40640640 157.76170349]
[15.20131111 153.54901123]
[4.16545200 163.70822144]
[-6.87040663 173.86744690]
[-8.96735954 189.77287292]
[-22.78393364 197.92651367]
[-37.72123337 192.07359314]
[-42.32064438 176.70397949]
[-33.05389023 163.60792542]
[-17.02963066 162.83158875]
[-5.99377155 152.67236328]
[5.04208708 142.51313782]
[3.37318015 135.20118713]
[-11.18228817 138.82586670]
[-25.73775673 142.45056152]
[-40.29322433 146.07524109]
[-54.84869385 149.69992065]
[-69.40415955 153.32461548]
[-83.95963287 156.94929504]
[-98.51509857 160.57397461]
[-110.51506805 169.57402039]
[-124.59832764 164.41050720]
[-127.93681335 149.78672791]
[-117.48960114 139.02310181]
[-102.77164459 141.92483521]
[-88.08493042 138.87518311]
[-73.39820862 135.82553101]
[-58.71149826 132.77587891]
[-44.02478027 129.72622681]
[-29.33806610 126.67657471]
[-14.65134907 123.62692261]
[0.03536620 120.57727051]
[-1.63354075 113.26530457]
[-15.98442745 108.90044403]
[-30.33531570 104.53557587]
[-44.68620300 100.17071533]
[-59.03709030 95.80584717]
[-73.38797760 91.44098663]
[-85.75617218 100.62432861]
[-100.98228455 100.76239777]
[-113.22528839 92.01180267]
[-117.91188049 77.89891052]
[-132.26277161 73.53404236]
[-146.61364746 69.16918182]
[-160.96453857 64.80431366]
[-175.31542969 60.43944931]
[-187.00488281 70.50722504]
[-202.28489685 72.63435364]
[-216.27967834 66.14206696]
[-224.52352905 53.10203934]
[-224.38587952 37.67528915]
[-215.91064453 24.78444099]
[-201.80224609 18.54291534]
[-186.56262207 20.94235992]
[-175.05468750 31.21712303]
[-170.95056152 46.08856201]
[-156.59967041 50.45343018]
[-142.24879456 54.81829453]
[-127.89790344 59.18315887]
[-113.54701233 63.54802322]
[-101.79608154 54.43464279]
[-86.75414276 53.98285294]
[-74.18347931 62.57538986]
[-69.02310944 77.09009552]
[-54.67222595 81.45496368]
[-40.32133865 85.81982422]
[-25.97044945 90.18469238]
[-11.61956310 94.54955292]
[2.73132372 98.91442108]
[13.14836693 88.12158966]
[8.27787495 73.93433380]
[-6.41052628 69.29137421]
[-15.44297504 57.03297806]
[-15.52431202 41.98447800]
[-6.83292007 29.91808891]
[-11.70341206 15.73083019]
[-16.57390404 1.54357135]
[-21.44439697 -12.64368725]
[-34.86851883 -15.68657112]
[-44.96193314 -24.88569832]
[-49.16648865 -37.76517487]
[-46.48803711 -50.93585205]
[-37.72909546 -60.98705673]
[-42.43169403 -75.23085022]
[-47.13429260 -89.47463989]
[-51.83688736 -103.71842957]
[-56.53948593 -117.96221924]
[-71.36003876 -122.55904388]
[-80.62118530 -135.00936890]
[-80.76182556 -150.52581787]
[-71.72787476 -163.14196777]
[-56.99307632 -168.00666809]
[-42.22326279 -163.24934387]
[-33.09772110 -150.69927979]
[-33.12541580 -135.18223572]
[-42.29569626 -122.66481781]
[-37.59309769 -108.42102814]
[-32.89049911 -94.17723846]
[-28.18790245 -79.93344879]
[-23.48530579 -65.68965149]
[-7.68431807 -61.18291473]
[2.40831971 -48.00653076]
[2.64851236 -31.24428940]
[-7.25713730 -17.51417923]
[-2.38664556 -3.32692075]
[2.48384666 10.86033821]
[7.35433865 25.04759598]
[21.62439728 29.23130798]
[30.80319023 41.15664673]
[31.20458221 56.37808990]
[22.46513367 69.06383514]
[27.33562469 83.25109863]
[57.02505493 47.72293472]
[98.06506348 39.25296783]
[131.49844360 56.28376389]
[145.02104187 86.55419922]
[153.09280396 82.35214996]
[160.08164978 84.67689514]
[174.97715759 82.90943909]
[189.87266541 81.14197540]
[204.76817322 79.37451935]
[219.66366577 77.60705566]
[221.54888916 64.59450531]
[226.48953247 52.42088318]
[234.19384766 41.79180527]
[244.21005249 33.32207489]
[255.95283508 27.50012589]
[268.73751831 24.65984726]
[281.82000732 24.96144485]
[294.44012451 28.38241196]
[305.86575317 34.71912766]
[315.43524170 43.59896851]
[322.59588623 54.50221634]
[326.93563843 66.79247284]
[341.88439941 65.55378723]
[356.83316040 64.31509399]
[371.78192139 63.07640457]
[386.73071289 61.83771515]
[401.67947388 60.59902573]
[416.62823486 59.36033630]
[431.57699585 58.12164307]
[446.52575684 56.88295364]
[447.06344604 41.87471390]
[449.37243652 27.03541183]
[453.42034912 12.57336998]
[459.15039062 -1.30838835]
[466.48205566 -14.41498470]
[475.31246948 -26.56242371]
[485.51763916 -37.58017349]
[496.95431519 -47.31356049]
[509.46194458 -55.62594604]
[522.86492920 -62.40063477]
[536.97509766 -67.54251862]
[551.59442139 -70.97942352]
[566.51757812 -72.66309357]
[581.53515625 -72.56988525]
[596.43634033 -70.70111847]
[611.01184082 -67.08303070]
[625.05712891 -61.76639938]
[638.37500000 -54.82587433]
[650.77844238 -46.35888290]
[662.09344482 -36.48429108]
[672.16107178 -25.34072495]
[680.84002686 -13.08461857]
[688.00848389 0.11196960]
[693.56573486 14.06377983]
[697.43383789 28.57495117]
[699.55847168 43.44176865]
[699.90985107 58.45552826]
[698.48291016 73.40545654]
[695.29785156 88.08168030]
[690.39929199 102.27816772]
[683.85595703 115.79562378]
[675.75982666 128.44429016]
[666.22448730 140.04658508]
[655.38378906 150.43965149]
[643.38989258 159.47755432]
[630.41125488 167.03344727]
[616.63006592 173.00125122]
[602.23974609 177.29718018]
[587.44232178 179.86091614]
[572.44555664 180.65649414]
[557.45996094 179.67272949]
[542.69586182 176.92343140]
[528.36059570 172.44718933]
[514.65539551 166.30686951]
[501.77264404 158.58863831]
[489.89318848 149.40087891]
[479.18383789 138.87255859]
[469.79486084 127.15146637]
[461.85812378 114.40216827]
[455.48504639 100.80363464]
[450.76507568 86.54677582]
[447.76446533 71.83171844]
[432.81570435 73.07041168]
[417.86691284 74.30910492]
[402.91815186 75.54779053]
[387.96939087 76.78648376]
[373.02062988 78.02516937]
[358.07186890 79.26386261]
[343.12307739 80.50255585]
[328.17431641 81.74124146]
[324.63961792 98.29571533]
[316.15060425 112.96171570]
[303.52954102 124.29639435]
[288.00585938 131.18066406]
[271.09640503 132.92967224]
[254.45707703 129.36096191]
[239.72093201 120.81335449]
[228.33766174 108.11488342]
[221.43113708 92.50256348]
[206.53562927 94.27002716]
[191.64012146 96.03748322]
[176.74461365 97.80493927]
[161.84910583 99.57240295]
[146.96429443 101.42778778]
[149.42480469 114.76561737]
[147.88868713 129.37565613]
[141.89997864 144.02656555]
[131.38481140 157.34892273]
[116.68842316 167.95317078]
[98.57614136 174.55609131]
[101.91395569 189.18000793]
[105.25177002 203.80392456]
[108.58958435 218.42784119]
[111.92739868 233.05175781]
[123.47222137 244.69860840]
[118.89770508 260.44680786]
[102.90971375 264.09594727]
[91.95532990 251.89213562]
[97.30347443 236.38957214]
[93.96566010 221.76565552]
[90.62784576 207.14173889]
[87.29003143 192.51782227]
[83.95222473 177.89390564]
[76.47104645 177.36286926]
[75.40898895 192.32522583]
] def
/pairs [
[5 26]
[6 25]
[7 24]
[8 23]
[9 22]
[10 21]
[11 20]
[12 19]
[13 18]
[30 40]
[31 39]
[32 38]
[61 97]
[62 96]
[63 95]
[64 94]
[65 93]
[66 92]
[70 88]
[71 87]
[72 86]
[73 85]
[74 84]
[98 140]
[99 139]
[103 135]
[104 134]
[105 133]
[106 132]
[111 128]
[112 127]
[113 126]
[114 125]
[115 124]
[144 244]
[146 243]
[147 242]
[148 241]
[149 240]
[150 239]
[162 230]
[163 229]
[164 228]
[165 227]
[166 226]
[167 225]
[168 224]
[169 223]
[170 222]
[250 263]
[251 262]
[252 261]
[253 260]
[254 259]
] def

init

% switch off outline pairs or bases by removing these lines
drawoutline
drawpairs
drawbases
% show it
showpage
end
%%EOF
