%!PS-Adobe-3.0
%%Creator: graphviz version 2.28.0 (20120127.1553)
%%Title: _anonymous_0
%%Pages: (atend)
%%BoundingBox: (atend)
%%EndComments
save
%%BeginProlog
/DotDict 200 dict def
DotDict begin

/setupLatin1 {
mark
/EncodingVector 256 array def
 EncodingVector 0

ISOLatin1Encoding 0 255 getinterval putinterval
EncodingVector 45 /hyphen put

% Set up ISO Latin 1 character encoding
/starnetISO {
        dup dup findfont dup length dict begin
        { 1 index /FID ne { def }{ pop pop } ifelse
        } forall
        /Encoding EncodingVector def
        currentdict end definefont
} def
/Times-Roman starnetISO def
/Times-Italic starnetISO def
/Times-Bold starnetISO def
/Times-BoldItalic starnetISO def
/Helvetica starnetISO def
/Helvetica-Oblique starnetISO def
/Helvetica-Bold starnetISO def
/Helvetica-BoldOblique starnetISO def
/Courier starnetISO def
/Courier-Oblique starnetISO def
/Courier-Bold starnetISO def
/Courier-BoldOblique starnetISO def
cleartomark
} bind def

%%BeginResource: procset graphviz 0 0
/coord-font-family /Times-Roman def
/default-font-family /Times-Roman def
/coordfont coord-font-family findfont 8 scalefont def

/InvScaleFactor 1.0 def
/set_scale {
       dup 1 exch div /InvScaleFactor exch def
       scale
} bind def

% styles
/solid { [] 0 setdash } bind def
/dashed { [9 InvScaleFactor mul dup ] 0 setdash } bind def
/dotted { [1 InvScaleFactor mul 6 InvScaleFactor mul] 0 setdash } bind def
/invis {/fill {newpath} def /stroke {newpath} def /show {pop newpath} def} bind def
/bold { 2 setlinewidth } bind def
/filled { } bind def
/unfilled { } bind def
/rounded { } bind def
/diagonals { } bind def

% hooks for setting color 
/nodecolor { sethsbcolor } bind def
/edgecolor { sethsbcolor } bind def
/graphcolor { sethsbcolor } bind def
/nopcolor {pop pop pop} bind def

/beginpage {	% i j npages
	/npages exch def
	/j exch def
	/i exch def
	/str 10 string def
	npages 1 gt {
		gsave
			coordfont setfont
			0 0 moveto
			(\() show i str cvs show (,) show j str cvs show (\)) show
		grestore
	} if
} bind def

/set_font {
	findfont exch
	scalefont setfont
} def

% draw text fitted to its expected width
/alignedtext {			% width text
	/text exch def
	/width exch def
	gsave
		width 0 gt {
			[] 0 setdash
			text stringwidth pop width exch sub text length div 0 text ashow
		} if
	grestore
} def

/boxprim {				% xcorner ycorner xsize ysize
		4 2 roll
		moveto
		2 copy
		exch 0 rlineto
		0 exch rlineto
		pop neg 0 rlineto
		closepath
} bind def

/ellipse_path {
	/ry exch def
	/rx exch def
	/y exch def
	/x exch def
	matrix currentmatrix
	newpath
	x y translate
	rx ry scale
	0 0 1 0 360 arc
	setmatrix
} bind def

/endpage { showpage } bind def
/showpage { } def

/layercolorseq
	[	% layer color sequence - darkest to lightest
		[0 0 0]
		[.2 .8 .8]
		[.4 .8 .8]
		[.6 .8 .8]
		[.8 .8 .8]
	]
def

/layerlen layercolorseq length def

/setlayer {/maxlayer exch def /curlayer exch def
	layercolorseq curlayer 1 sub layerlen mod get
	aload pop sethsbcolor
	/nodecolor {nopcolor} def
	/edgecolor {nopcolor} def
	/graphcolor {nopcolor} def
} bind def

/onlayer { curlayer ne {invis} if } def

/onlayers {
	/myupper exch def
	/mylower exch def
	curlayer mylower lt
	curlayer myupper gt
	or
	{invis} if
} def

/curlayer 0 def

%%EndResource
%%EndProlog
%%BeginSetup
14 default-font-family set_font
1 setmiterlimit
% /arrowlength 10 def
% /arrowwidth 5 def

% make sure pdfmark is harmless for PS-interpreters other than Distiller
/pdfmark where {pop} {userdict /pdfmark /cleartomark load put} ifelse
% make '<<' and '>>' safe on PS Level 1 devices
/languagelevel where {pop languagelevel}{1} ifelse
2 lt {
    userdict (<<) cvn ([) cvn load put
    userdict (>>) cvn ([) cvn load put
} if

%%EndSetup
setupLatin1
%%Page: 1 1
%%PageBoundingBox: 36 36 1320 1736
%%PageOrientation: Portrait
0 0 1 beginpage
gsave
36 36 1284 1700 boxprim clip newpath
1 1 set_scale 0 rotate 40 41 translate
% left_P1
gsave
1 setlinewidth
0 0 0 nodecolor
883 1674 36.1 18 ellipse_path stroke
0 0 0 nodecolor
14 /Times-Roman set_font
863 1670.3 moveto 40 (left_P1) alignedtext
grestore
% P1_L2
gsave
1 setlinewidth
0 0 0 nodecolor
914 1602 34.17 18 ellipse_path stroke
0 0 0 nodecolor
14 /Times-Roman set_font
895.5 1598.3 moveto 37 (P1_L2) alignedtext
grestore
% left_P1->P1_L2
gsave
1 setlinewidth
0 0 0 edgecolor
newpath 890.5 1656.05 moveto
894.08 1647.97 898.45 1638.12 902.44 1629.11 curveto
stroke
0 0 0 edgecolor
newpath 905.72 1630.35 moveto
906.56 1619.79 lineto
899.32 1627.52 lineto
closepath fill
1 setlinewidth
solid
0 0 0 edgecolor
newpath 905.72 1630.35 moveto
906.56 1619.79 lineto
899.32 1627.52 lineto
closepath stroke
grestore
% R1_P2
gsave
1 setlinewidth
0 0 0 nodecolor
852 1530 34.17 18 ellipse_path stroke
0 0 0 nodecolor
14 /Times-Roman set_font
833.5 1526.3 moveto 37 (R1_P2) alignedtext
grestore
% left_P1->R1_P2
gsave
1 setlinewidth
0 0 0 edgecolor
newpath 879.06 1655.83 moveto
876.69 1645.46 873.63 1631.98 871 1620 curveto
866.45 1599.3 861.45 1575.85 857.72 1558.22 curveto
stroke
0 0 0 edgecolor
newpath 861.07 1557.14 moveto
855.58 1548.08 lineto
854.22 1558.58 lineto
closepath fill
1 setlinewidth
solid
0 0 0 edgecolor
newpath 861.07 1557.14 moveto
855.58 1548.08 lineto
854.22 1558.58 lineto
closepath stroke
grestore
% P1_L2->R1_P2
gsave
1 setlinewidth
0 0 0 edgecolor
newpath 900.24 1585.46 moveto
892.05 1576.22 881.51 1564.32 872.37 1554 curveto
stroke
0 0 0 edgecolor
newpath 874.97 1551.66 moveto
865.72 1546.49 lineto
869.73 1556.3 lineto
closepath fill
1 setlinewidth
solid
0 0 0 edgecolor
newpath 874.97 1551.66 moveto
865.72 1546.49 lineto
869.73 1556.3 lineto
closepath stroke
grestore
% P2_L3
gsave
1 setlinewidth
0 0 0 nodecolor
914 1458 34.17 18 ellipse_path stroke
0 0 0 nodecolor
14 /Times-Roman set_font
895.5 1454.3 moveto 37 (P2_L3) alignedtext
grestore
% P1_L2->P2_L3
gsave
1 setlinewidth
0 0 0 edgecolor
newpath 914 1583.87 moveto
914 1559.67 914 1515.21 914 1486.39 curveto
stroke
0 0 0 edgecolor
newpath 917.5 1486.19 moveto
914 1476.19 lineto
910.5 1486.19 lineto
closepath fill
1 setlinewidth
solid
0 0 0 edgecolor
newpath 917.5 1486.19 moveto
914 1476.19 lineto
910.5 1486.19 lineto
closepath stroke
grestore
% R1_P2->P2_L3
gsave
1 setlinewidth
0 0 0 edgecolor
newpath 865.76 1513.46 moveto
873.95 1504.22 884.49 1492.32 893.63 1482 curveto
stroke
0 0 0 edgecolor
newpath 896.27 1484.3 moveto
900.28 1474.49 lineto
891.03 1479.66 lineto
closepath fill
1 setlinewidth
solid
0 0 0 edgecolor
newpath 896.27 1484.3 moveto
900.28 1474.49 lineto
891.03 1479.66 lineto
closepath stroke
grestore
% R2_P3
gsave
1 setlinewidth
0 0 0 nodecolor
701 1386 34.17 18 ellipse_path stroke
0 0 0 nodecolor
14 /Times-Roman set_font
682.5 1382.3 moveto 37 (R2_P3) alignedtext
grestore
% R1_P2->R2_P3
gsave
1 setlinewidth
0 0 0 edgecolor
newpath 835.84 1513.8 moveto
809.05 1488.61 755.32 1438.08 724.39 1408.99 curveto
stroke
0 0 0 edgecolor
newpath 726.73 1406.39 moveto
717.04 1402.09 lineto
721.93 1411.49 lineto
closepath fill
1 setlinewidth
solid
0 0 0 edgecolor
newpath 726.73 1406.39 moveto
717.04 1402.09 lineto
721.93 1411.49 lineto
closepath stroke
grestore
% R2_L4
gsave
1 setlinewidth
0 0 0 nodecolor
914 1314 35.15 18 ellipse_path stroke
0 0 0 nodecolor
14 /Times-Roman set_font
895 1310.3 moveto 38 (R2_L4) alignedtext
grestore
% R1_P2->R2_L4
gsave
1 setlinewidth
0 0 0 edgecolor
newpath 855.03 1511.79 moveto
858.36 1493.75 864.15 1464.66 871 1440 curveto
880.61 1405.41 894.53 1366.41 903.91 1341.31 curveto
stroke
0 0 0 edgecolor
newpath 907.25 1342.37 moveto
907.5 1331.78 lineto
900.7 1339.9 lineto
closepath fill
1 setlinewidth
solid
0 0 0 edgecolor
newpath 907.25 1342.37 moveto
907.5 1331.78 lineto
900.7 1339.9 lineto
closepath stroke
grestore
% P2_L3->R2_P3
gsave
1 setlinewidth
0 0 0 edgecolor
newpath 885.3 1448.06 moveto
852.32 1437.73 796.61 1420.07 749 1404 curveto
745.44 1402.8 741.74 1401.53 738.04 1400.24 curveto
stroke
0 0 0 edgecolor
newpath 738.96 1396.86 moveto
728.37 1396.85 lineto
736.64 1403.46 lineto
closepath fill
1 setlinewidth
solid
0 0 0 edgecolor
newpath 738.96 1396.86 moveto
728.37 1396.85 lineto
736.64 1403.46 lineto
closepath stroke
grestore
% P2_L3->R2_L4
gsave
1 setlinewidth
0 0 0 edgecolor
newpath 914 1439.87 moveto
914 1415.67 914 1371.21 914 1342.39 curveto
stroke
0 0 0 edgecolor
newpath 917.5 1342.19 moveto
914 1332.19 lineto
910.5 1342.19 lineto
closepath fill
1 setlinewidth
solid
0 0 0 edgecolor
newpath 917.5 1342.19 moveto
914 1332.19 lineto
910.5 1342.19 lineto
closepath stroke
grestore
% P3_L4
gsave
1 setlinewidth
0 0 0 nodecolor
711 1242 34.17 18 ellipse_path stroke
0 0 0 nodecolor
14 /Times-Roman set_font
692.5 1238.3 moveto 37 (P3_L4) alignedtext
grestore
% P2_L3->P3_L4
gsave
1 setlinewidth
0 0 0 edgecolor
newpath 899.4 1441.61 moveto
864.15 1404.45 774.25 1309.68 732.68 1265.86 curveto
stroke
0 0 0 edgecolor
newpath 735.16 1263.38 moveto
725.74 1258.54 lineto
730.08 1268.2 lineto
closepath fill
1 setlinewidth
solid
0 0 0 edgecolor
newpath 735.16 1263.38 moveto
725.74 1258.54 lineto
730.08 1268.2 lineto
closepath stroke
grestore
% L3_L4
gsave
1 setlinewidth
0 0 0 nodecolor
941 1170 34.17 18 ellipse_path stroke
0 0 0 nodecolor
14 /Times-Roman set_font
922.5 1166.3 moveto 37 (L3_L4) alignedtext
grestore
% P2_L3->L3_L4
gsave
1 setlinewidth
0 0 0 edgecolor
newpath 922.02 1440.1 moveto
932.73 1416.53 951.14 1372.14 958 1332 curveto
966 1285.2 956.04 1230.07 948.34 1197.98 curveto
stroke
0 0 0 edgecolor
newpath 951.67 1196.87 moveto
945.84 1188.02 lineto
944.88 1198.57 lineto
closepath fill
1 setlinewidth
solid
0 0 0 edgecolor
newpath 951.67 1196.87 moveto
945.84 1188.02 lineto
944.88 1198.57 lineto
closepath stroke
grestore
% L3_L6
gsave
1 setlinewidth
0 0 0 nodecolor
834 1098 34.17 18 ellipse_path stroke
0 0 0 nodecolor
14 /Times-Roman set_font
815.5 1094.3 moveto 37 (L3_L6) alignedtext
grestore
% P2_L3->L3_L6
gsave
1 setlinewidth
0 0 0 edgecolor
newpath 930.08 1441.72 moveto
939.57 1431.82 951.05 1418.17 958 1404 curveto
1007.56 1302.9 1049.02 1243.93 984 1152 curveto
960.19 1118.34 913.15 1105.91 878.07 1101.4 curveto
stroke
0 0 0 edgecolor
newpath 878.39 1097.92 moveto
868.06 1100.29 lineto
877.61 1104.87 lineto
closepath fill
1 setlinewidth
solid
0 0 0 edgecolor
newpath 878.39 1097.92 moveto
868.06 1100.29 lineto
877.61 1104.87 lineto
closepath stroke
grestore
% R2_P3->R2_L4
gsave
1 setlinewidth
0 0 0 edgecolor
newpath 729.5 1375.99 moveto
762.26 1365.59 817.62 1347.87 865 1332 curveto
868.58 1330.8 872.31 1329.54 876.03 1328.26 curveto
stroke
0 0 0 edgecolor
newpath 877.48 1331.47 moveto
885.79 1324.9 lineto
875.2 1324.85 lineto
closepath fill
1 setlinewidth
solid
0 0 0 edgecolor
newpath 877.48 1331.47 moveto
885.79 1324.9 lineto
875.2 1324.85 lineto
closepath stroke
grestore
% R2_P3->P3_L4
gsave
1 setlinewidth
0 0 0 edgecolor
newpath 702.21 1367.87 moveto
703.91 1343.67 707.04 1299.21 709.07 1270.39 curveto
stroke
0 0 0 edgecolor
newpath 712.58 1270.41 moveto
709.79 1260.19 lineto
705.6 1269.92 lineto
closepath fill
1 setlinewidth
solid
0 0 0 edgecolor
newpath 712.58 1270.41 moveto
709.79 1260.19 lineto
705.6 1269.92 lineto
closepath stroke
grestore
% R2_P3->L3_L4
gsave
1 setlinewidth
0 0 0 edgecolor
newpath 729.77 1375.91 moveto
754.16 1367.25 789.19 1352.49 815 1332 curveto
864.04 1293.07 905.33 1231.34 926.26 1196.72 curveto
stroke
0 0 0 edgecolor
newpath 929.51 1198.1 moveto
931.61 1187.71 lineto
923.49 1194.52 lineto
closepath fill
1 setlinewidth
solid
0 0 0 edgecolor
newpath 929.51 1198.1 moveto
931.61 1187.71 lineto
923.49 1194.52 lineto
closepath stroke
grestore
% R2_P3->L3_L6
gsave
1 setlinewidth
0 0 0 edgecolor
newpath 692 1368.62 moveto
676.99 1339.09 650.19 1275.2 668 1224 curveto
681.41 1185.45 693.18 1177.56 725 1152 curveto
746.43 1134.78 774.38 1121.33 796.61 1112.29 curveto
stroke
0 0 0 edgecolor
newpath 798.05 1115.49 moveto
806.07 1108.57 lineto
795.48 1108.97 lineto
closepath fill
1 setlinewidth
solid
0 0 0 edgecolor
newpath 798.05 1115.49 moveto
806.07 1108.57 lineto
795.48 1108.97 lineto
closepath stroke
grestore
% R3_P4
gsave
1 setlinewidth
0 0 0 nodecolor
796 1026 34.17 18 ellipse_path stroke
0 0 0 nodecolor
14 /Times-Roman set_font
777.5 1022.3 moveto 37 (R3_P4) alignedtext
grestore
% R2_P3->R3_P4
gsave
1 setlinewidth
0 0 0 edgecolor
newpath 709.42 1368.46 moveto
721.07 1344.93 742.01 1300.21 754 1260 curveto
775.65 1187.37 787.9 1098.5 793.06 1054.46 curveto
stroke
0 0 0 edgecolor
newpath 796.57 1054.59 moveto
794.22 1044.26 lineto
789.61 1053.8 lineto
closepath fill
1 setlinewidth
solid
0 0 0 edgecolor
newpath 796.57 1054.59 moveto
794.22 1044.26 lineto
789.61 1053.8 lineto
closepath stroke
grestore
% P4_L5
gsave
1 setlinewidth
0 0 0 nodecolor
1012 954 34.17 18 ellipse_path stroke
0 0 0 nodecolor
14 /Times-Roman set_font
993.5 950.3 moveto 37 (P4_L5) alignedtext
grestore
% R2_P3->P4_L5
gsave
1 setlinewidth
0 0 0 edgecolor
newpath 735.18 1383.57 moveto
825.94 1377.6 1070.57 1346.82 1137 1188 curveto
1168.24 1113.31 1162.8 1068.5 1109 1008 curveto
1093 990.01 1069.38 976.92 1049.46 968.25 curveto
stroke
0 0 0 edgecolor
newpath 1050.6 964.94 moveto
1040.02 964.35 lineto
1047.93 971.41 lineto
closepath fill
1 setlinewidth
solid
0 0 0 edgecolor
newpath 1050.6 964.94 moveto
1040.02 964.35 lineto
1047.93 971.41 lineto
closepath stroke
grestore
% R4_P5
gsave
1 setlinewidth
0 0 0 nodecolor
722 882 34.17 18 ellipse_path stroke
0 0 0 nodecolor
14 /Times-Roman set_font
703.5 878.3 moveto 37 (R4_P5) alignedtext
grestore
% R2_P3->R4_P5
gsave
1 setlinewidth
0 0 0 edgecolor
newpath 672.33 1375.8 moveto
624.12 1358.31 532 1315.43 532 1243 curveto
532 1243 532 1243 532 1025 curveto
532 950.8 626.12 910.7 681.87 893.46 curveto
stroke
0 0 0 edgecolor
newpath 682.89 896.81 moveto
691.47 890.6 lineto
680.89 890.1 lineto
closepath fill
1 setlinewidth
solid
0 0 0 edgecolor
newpath 682.89 896.81 moveto
691.47 890.6 lineto
680.89 890.1 lineto
closepath stroke
grestore
% R4_L7
gsave
1 setlinewidth
0 0 0 nodecolor
930 810 35.15 18 ellipse_path stroke
0 0 0 nodecolor
14 /Times-Roman set_font
911 806.3 moveto 38 (R4_L7) alignedtext
grestore
% R2_P3->R4_L7
gsave
1 setlinewidth
0 0 0 edgecolor
newpath 735 1383.38 moveto
853.04 1376.84 1238 1347.51 1238 1243 curveto
1238 1243 1238 1243 1238 1097 curveto
1238 969.85 1172.87 941.4 1072 864 curveto
1042.46 841.33 1002.19 827.53 972.08 819.72 curveto
stroke
0 0 0 edgecolor
newpath 972.83 816.3 moveto
962.29 817.3 lineto
971.15 823.1 lineto
closepath fill
1 setlinewidth
solid
0 0 0 edgecolor
newpath 972.83 816.3 moveto
962.29 817.3 lineto
971.15 823.1 lineto
closepath stroke
grestore
% P5_L6
gsave
1 setlinewidth
0 0 0 nodecolor
621 738 34.17 18 ellipse_path stroke
0 0 0 nodecolor
14 /Times-Roman set_font
602.5 734.3 moveto 37 (P5_L6) alignedtext
grestore
% R2_P3->P5_L6
gsave
1 setlinewidth
0 0 0 edgecolor
newpath 666.57 1384.89 moveto
568.65 1384.02 290.71 1377.5 214 1332 curveto
172.54 1307.41 152 1291.21 152 1243 curveto
152 1243 152 1243 152 1169 curveto
152 1071.22 212.3 976.86 486 792 curveto
515.18 772.29 552.76 758.3 580.85 749.66 curveto
stroke
0 0 0 edgecolor
newpath 582.16 752.93 moveto
590.74 746.72 lineto
580.16 746.22 lineto
closepath fill
1 setlinewidth
solid
0 0 0 edgecolor
newpath 582.16 752.93 moveto
590.74 746.72 lineto
580.16 746.22 lineto
closepath stroke
grestore
% R5_P6
gsave
1 setlinewidth
0 0 0 nodecolor
709 666 34.17 18 ellipse_path stroke
0 0 0 nodecolor
14 /Times-Roman set_font
690.5 662.3 moveto 37 (R5_P6) alignedtext
grestore
% R2_P3->R5_P6
gsave
1 setlinewidth
0 0 0 edgecolor
newpath 667.36 1382.23 moveto
559.3 1372.42 228 1334.85 228 1243 curveto
228 1243 228 1243 228 1097 curveto
228 875.2 368.15 839.52 555 720 curveto
589.82 697.73 635.09 683.61 667.52 675.6 curveto
stroke
0 0 0 edgecolor
newpath 668.65 678.93 moveto
677.57 673.21 lineto
667.03 672.12 lineto
closepath fill
1 setlinewidth
solid
0 0 0 edgecolor
newpath 668.65 678.93 moveto
677.57 673.21 lineto
667.03 672.12 lineto
closepath stroke
grestore
% R5_L7
gsave
1 setlinewidth
0 0 0 nodecolor
456 594 35.15 18 ellipse_path stroke
0 0 0 nodecolor
14 /Times-Roman set_font
437 590.3 moveto 38 (R5_L7) alignedtext
grestore
% R2_P3->R5_L7
gsave
1 setlinewidth
0 0 0 edgecolor
newpath 666.81 1384.63 moveto
563.08 1383.03 253.64 1374.72 164 1332 curveto
113.78 1308.07 76 1298.63 76 1243 curveto
76 1243 76 1243 76 1097 curveto
76 863.68 175.89 805.52 348 648 curveto
367.86 629.82 395.11 616.51 417.27 607.77 curveto
stroke
0 0 0 edgecolor
newpath 418.61 611.01 moveto
426.73 604.2 lineto
416.14 604.46 lineto
closepath fill
1 setlinewidth
solid
0 0 0 edgecolor
newpath 418.61 611.01 moveto
426.73 604.2 lineto
416.14 604.46 lineto
closepath stroke
grestore
% P6_L7
gsave
1 setlinewidth
0 0 0 nodecolor
569 522 34.17 18 ellipse_path stroke
0 0 0 nodecolor
14 /Times-Roman set_font
550.5 518.3 moveto 37 (P6_L7) alignedtext
grestore
% R2_P3->P6_L7
gsave
1 setlinewidth
0 0 0 edgecolor
newpath 666.86 1383.78 moveto
545.99 1379.23 143.04 1361.94 94 1332 curveto
54.11 1307.65 38 1289.73 38 1243 curveto
38 1243 38 1243 38 953 curveto
38 759.67 96.3 686.41 255 576 curveto
297.96 546.11 449.15 531.44 524.96 525.83 curveto
stroke
0 0 0 edgecolor
newpath 525.42 529.31 moveto
535.14 525.1 lineto
524.91 522.32 lineto
closepath fill
1 setlinewidth
solid
0 0 0 edgecolor
newpath 525.42 529.31 moveto
535.14 525.1 lineto
524.91 522.32 lineto
closepath stroke
grestore
% L6_L8
gsave
1 setlinewidth
0 0 0 nodecolor
317 450 34.17 18 ellipse_path stroke
0 0 0 nodecolor
14 /Times-Roman set_font
298.5 446.3 moveto 37 (L6_L8) alignedtext
grestore
% R2_P3->L6_L8
gsave
1 setlinewidth
0 0 0 edgecolor
newpath 666.92 1384.1 moveto
540.24 1380.52 101.14 1365.74 49 1332 curveto
11.09 1307.47 0 1288.15 0 1243 curveto
0 1243 0 1243 0 593 curveto
0 548.06 11.83 530.67 48 504 curveto
83.18 478.06 206.35 462.06 273.14 455.09 curveto
stroke
0 0 0 edgecolor
newpath 273.76 458.54 moveto
283.36 454.05 lineto
273.05 451.58 lineto
closepath fill
1 setlinewidth
solid
0 0 0 edgecolor
newpath 273.76 458.54 moveto
283.36 454.05 lineto
273.05 451.58 lineto
closepath stroke
grestore
% L6_R3
gsave
1 setlinewidth
0 0 0 nodecolor
993 378 35.15 18 ellipse_path stroke
0 0 0 nodecolor
14 /Times-Roman set_font
974 374.3 moveto 38 (L6_R3) alignedtext
grestore
% R2_P3->L6_R3
gsave
1 setlinewidth
0 0 0 edgecolor
newpath 735.16 1383.75 moveto
829.74 1379.88 1093.23 1366.23 1172 1332 curveto
1227.8 1307.75 1276 1303.84 1276 1243 curveto
1276 1243 1276 1243 1276 521 curveto
1276 415.78 1117.8 388.52 1037.96 381.46 curveto
stroke
0 0 0 edgecolor
newpath 1037.95 377.95 moveto
1027.7 380.63 lineto
1037.38 384.93 lineto
closepath fill
1 setlinewidth
solid
0 0 0 edgecolor
newpath 1037.95 377.95 moveto
1027.7 380.63 lineto
1037.38 384.93 lineto
closepath stroke
grestore
% R2_L4->P3_L4
gsave
1 setlinewidth
0 0 0 edgecolor
newpath 885.77 1303.27 moveto
850.02 1290.94 788.29 1269.65 748.58 1255.96 curveto
stroke
0 0 0 edgecolor
newpath 749.58 1252.6 moveto
738.99 1252.65 lineto
747.3 1259.22 lineto
closepath fill
1 setlinewidth
solid
0 0 0 edgecolor
newpath 749.58 1252.6 moveto
738.99 1252.65 lineto
747.3 1259.22 lineto
closepath stroke
grestore
% R2_L4->L3_L4
gsave
1 setlinewidth
0 0 0 edgecolor
newpath 917.26 1295.87 moveto
921.86 1271.67 930.31 1227.21 935.79 1198.39 curveto
stroke
0 0 0 edgecolor
newpath 939.3 1198.67 moveto
937.73 1188.19 lineto
932.43 1197.36 lineto
closepath fill
1 setlinewidth
solid
0 0 0 edgecolor
newpath 939.3 1198.67 moveto
937.73 1188.19 lineto
932.43 1197.36 lineto
closepath stroke
grestore
% R2_L4->L3_L6
gsave
1 setlinewidth
0 0 0 edgecolor
newpath 907.72 1296.21 moveto
893.85 1259.09 860.49 1169.86 843.82 1125.27 curveto
stroke
0 0 0 edgecolor
newpath 847.03 1123.86 moveto
840.25 1115.71 lineto
840.47 1126.31 lineto
closepath fill
1 setlinewidth
solid
0 0 0 edgecolor
newpath 847.03 1123.86 moveto
840.25 1115.71 lineto
840.47 1126.31 lineto
closepath stroke
grestore
% R2_L4->R3_P4
gsave
1 setlinewidth
0 0 0 edgecolor
newpath 929.76 1297.45 moveto
956.89 1268.7 1007.35 1205.33 984 1152 curveto
957 1090.32 881.58 1055.14 834.89 1038.66 curveto
stroke
0 0 0 edgecolor
newpath 835.98 1035.33 moveto
825.38 1035.42 lineto
833.72 1041.96 lineto
closepath fill
1 setlinewidth
solid
0 0 0 edgecolor
newpath 835.98 1035.33 moveto
825.38 1035.42 lineto
833.72 1041.96 lineto
closepath stroke
grestore
% R2_L4->P4_L5
gsave
1 setlinewidth
0 0 0 edgecolor
newpath 940.17 1301.72 moveto
996.47 1276.62 1124 1214.9 1124 1171 curveto
1124 1171 1124 1171 1124 1097 curveto
1124 1043.68 1074.71 998.61 1041.53 974.31 curveto
stroke
0 0 0 edgecolor
newpath 1043.25 971.24 moveto
1033.07 968.31 lineto
1039.19 976.95 lineto
closepath fill
1 setlinewidth
solid
0 0 0 edgecolor
newpath 1043.25 971.24 moveto
1033.07 968.31 lineto
1039.19 976.95 lineto
closepath stroke
grestore
% P3_L4->L3_L4
gsave
1 setlinewidth
0 0 0 edgecolor
newpath 740.79 1232.89 moveto
776.97 1222.91 839.75 1205.17 893 1188 curveto
896.58 1186.85 900.29 1185.61 903.99 1184.34 curveto
stroke
0 0 0 edgecolor
newpath 905.38 1187.57 moveto
913.68 1180.98 lineto
903.08 1180.95 lineto
closepath fill
1 setlinewidth
solid
0 0 0 edgecolor
newpath 905.38 1187.57 moveto
913.68 1180.98 lineto
903.08 1180.95 lineto
closepath stroke
grestore
% P3_L4->L3_L6
gsave
1 setlinewidth
0 0 0 edgecolor
newpath 714.97 1223.93 moveto
720.14 1204.69 730.75 1173.31 749 1152 curveto
762.56 1136.18 782.04 1123.56 798.94 1114.61 curveto
stroke
0 0 0 edgecolor
newpath 800.66 1117.65 moveto
808 1110.01 lineto
797.5 1111.41 lineto
closepath fill
1 setlinewidth
solid
0 0 0 edgecolor
newpath 800.66 1117.65 moveto
808 1110.01 lineto
797.5 1111.41 lineto
closepath stroke
grestore
% P3_L4->R3_P4
gsave
1 setlinewidth
0 0 0 edgecolor
newpath 712.29 1223.96 moveto
713.98 1205.82 717.64 1176.41 725 1152 curveto
735.16 1118.3 740.33 1110.44 758 1080 curveto
763.63 1070.31 770.58 1060.18 777 1051.41 curveto
stroke
0 0 0 edgecolor
newpath 779.99 1053.27 moveto
783.17 1043.16 lineto
774.38 1049.07 lineto
closepath fill
1 setlinewidth
solid
0 0 0 edgecolor
newpath 779.99 1053.27 moveto
783.17 1043.16 lineto
774.38 1049.07 lineto
closepath stroke
grestore
% P3_L4->P4_L5
gsave
1 setlinewidth
0 0 0 edgecolor
newpath 731.85 1227.57 moveto
764.51 1206.04 828.98 1161.57 877 1116 curveto
923.64 1071.74 970.05 1012.11 994.44 979.25 curveto
stroke
0 0 0 edgecolor
newpath 997.32 981.24 moveto
1000.43 971.12 lineto
991.68 977.09 lineto
closepath fill
1 setlinewidth
solid
0 0 0 edgecolor
newpath 997.32 981.24 moveto
1000.43 971.12 lineto
991.68 977.09 lineto
closepath stroke
grestore
% P3_L4->R4_P5
gsave
1 setlinewidth
0 0 0 edgecolor
newpath 691.14 1226.92 moveto
661.21 1203.88 608 1155.04 608 1099 curveto
608 1099 608 1099 608 1025 curveto
608 971.31 658.17 926.36 691.94 902.19 curveto
stroke
0 0 0 edgecolor
newpath 694.34 904.79 moveto
700.56 896.21 lineto
690.35 899.04 lineto
closepath fill
1 setlinewidth
solid
0 0 0 edgecolor
newpath 694.34 904.79 moveto
700.56 896.21 lineto
690.35 899.04 lineto
closepath stroke
grestore
% P3_L4->R4_L7
gsave
1 setlinewidth
0 0 0 edgecolor
newpath 736.99 1230.05 moveto
760.58 1219.87 796.13 1203.93 826 1188 curveto
853.11 1173.55 1044.98 1069.57 1062 1044 curveto
1106.57 977.03 1098.62 922.11 1043 864 curveto
1023.4 843.52 994.33 830.13 970.58 821.94 curveto
stroke
0 0 0 edgecolor
newpath 971.36 818.51 moveto
960.77 818.74 lineto
969.19 825.17 lineto
closepath fill
1 setlinewidth
solid
0 0 0 edgecolor
newpath 971.36 818.51 moveto
960.77 818.74 lineto
969.19 825.17 lineto
closepath stroke
grestore
% P3_L4->P5_L6
gsave
1 setlinewidth
0 0 0 edgecolor
newpath 681.05 1233.02 moveto
649.22 1224.03 597.81 1208.01 556 1188 curveto
472.06 1147.83 426.37 1134.33 404 1044 curveto
392.46 997.41 384.57 979.89 404 936 curveto
442.01 850.15 537.96 785.72 588.58 756.42 curveto
stroke
0 0 0 edgecolor
newpath 590.52 759.35 moveto
597.48 751.36 lineto
587.06 753.26 lineto
closepath fill
1 setlinewidth
solid
0 0 0 edgecolor
newpath 590.52 759.35 moveto
597.48 751.36 lineto
587.06 753.26 lineto
closepath stroke
grestore
% P3_L4->R5_P6
gsave
1 setlinewidth
0 0 0 edgecolor
newpath 683.2 1231.27 moveto
662.77 1222.79 635.75 1208.59 619 1188 curveto
555.23 1109.61 563.98 1071.78 548 972 curveto
534.22 885.97 536.75 772.91 578 720 curveto
599.18 692.83 636.55 679.52 665.97 673.04 curveto
stroke
0 0 0 edgecolor
newpath 666.89 676.42 moveto
676 671.02 lineto
665.51 669.56 lineto
closepath fill
1 setlinewidth
solid
0 0 0 edgecolor
newpath 666.89 676.42 moveto
676 671.02 lineto
665.51 669.56 lineto
closepath stroke
grestore
% P3_L4->R5_L7
gsave
1 setlinewidth
0 0 0 edgecolor
newpath 677.24 1238.4 moveto
590.95 1229.63 363.88 1192.69 290 1044 curveto
254.93 973.42 97.79 1179.77 328 720 curveto
350.66 674.75 396.32 636.47 426.52 614.61 curveto
stroke
0 0 0 edgecolor
newpath 428.84 617.26 moveto
434.98 608.63 lineto
424.8 611.55 lineto
closepath fill
1 setlinewidth
solid
0 0 0 edgecolor
newpath 428.84 617.26 moveto
434.98 608.63 lineto
424.8 611.55 lineto
closepath stroke
grestore
% P3_L4->P6_L7
gsave
1 setlinewidth
0 0 0 edgecolor
newpath 676.54 1241.47 moveto
577.01 1240.65 290.65 1222.41 202 1044 curveto
189.72 1019.29 124.04 1027.23 214 720 curveto
234.82 648.89 237.61 618.93 298 576 curveto
333.89 550.49 457.78 534.3 524.92 527.19 curveto
stroke
0 0 0 edgecolor
newpath 525.6 530.64 moveto
535.19 526.13 lineto
524.88 523.68 lineto
closepath fill
1 setlinewidth
solid
0 0 0 edgecolor
newpath 525.6 530.64 moveto
535.19 526.13 lineto
524.88 523.68 lineto
closepath stroke
grestore
% P3_L4->L6_L8
gsave
1 setlinewidth
0 0 0 edgecolor
newpath 676.93 1239.23 moveto
591.05 1234.34 367.83 1218.96 301 1188 curveto
91.15 1090.79 38 970.27 38 739 curveto
38 739 38 739 38 593 curveto
38 547.63 51.7 531.21 88 504 curveto
142.42 463.21 223.03 453.07 272.67 450.96 curveto
stroke
0 0 0 edgecolor
newpath 272.89 454.45 moveto
282.77 450.62 lineto
272.66 447.46 lineto
closepath fill
1 setlinewidth
solid
0 0 0 edgecolor
newpath 272.89 454.45 moveto
282.77 450.62 lineto
272.66 447.46 lineto
closepath stroke
grestore
% P3_L4->L6_R3
gsave
1 setlinewidth
0 0 0 edgecolor
newpath 744.36 1237.65 moveto
808.16 1230.74 944.65 1213.4 984 1188 curveto
1042.43 1150.29 1226 822.64 1226 811 curveto
1226 811 1226 811 1226 521 curveto
1226 433.14 1103.69 398.05 1036.3 385.39 curveto
stroke
0 0 0 edgecolor
newpath 1036.84 381.93 moveto
1026.38 383.61 lineto
1035.61 388.82 lineto
closepath fill
1 setlinewidth
solid
0 0 0 edgecolor
newpath 1036.84 381.93 moveto
1026.38 383.61 lineto
1035.61 388.82 lineto
closepath stroke
grestore
% L3_L4->L3_L6
gsave
1 setlinewidth
0 0 0 edgecolor
newpath 920.37 1155.5 moveto
904.09 1144.85 881.17 1129.86 863.04 1118 curveto
stroke
0 0 0 edgecolor
newpath 864.85 1115 moveto
854.57 1112.46 lineto
861.02 1120.86 lineto
closepath fill
1 setlinewidth
solid
0 0 0 edgecolor
newpath 864.85 1115 moveto
854.57 1112.46 lineto
861.02 1120.86 lineto
closepath stroke
grestore
% L3_L4->R3_P4
gsave
1 setlinewidth
0 0 0 edgecolor
newpath 931.7 1152.52 moveto
920.44 1133.53 900.1 1102.11 877 1080 curveto
862.59 1066.21 844.13 1053.81 828.47 1044.48 curveto
stroke
0 0 0 edgecolor
newpath 830.03 1041.34 moveto
819.62 1039.35 lineto
826.52 1047.4 lineto
closepath fill
1 setlinewidth
solid
0 0 0 edgecolor
newpath 830.03 1041.34 moveto
819.62 1039.35 lineto
826.52 1047.4 lineto
closepath stroke
grestore
% L3_L4->P4_L5
gsave
1 setlinewidth
0 0 0 edgecolor
newpath 946.57 1152.21 moveto
958.85 1115.19 988.35 1026.3 1003.17 981.6 curveto
stroke
0 0 0 edgecolor
newpath 1006.53 982.6 moveto
1006.36 972.01 lineto
999.89 980.4 lineto
closepath fill
1 setlinewidth
solid
0 0 0 edgecolor
newpath 1006.53 982.6 moveto
1006.36 972.01 lineto
999.89 980.4 lineto
closepath stroke
grestore
% L3_L6->R3_P4
gsave
1 setlinewidth
0 0 0 edgecolor
newpath 824.99 1080.41 moveto
820.45 1072.04 814.84 1061.71 809.77 1052.37 curveto
stroke
0 0 0 edgecolor
newpath 812.79 1050.59 moveto
804.94 1043.47 lineto
806.64 1053.93 lineto
closepath fill
1 setlinewidth
solid
0 0 0 edgecolor
newpath 812.79 1050.59 moveto
804.94 1043.47 lineto
806.64 1053.93 lineto
closepath stroke
grestore
% L3_L6->P4_L5
gsave
1 setlinewidth
0 0 0 edgecolor
newpath 846.85 1081.22 moveto
862.73 1062.34 891.2 1030.47 920 1008 curveto
938.07 993.9 960.29 981 978.36 971.45 curveto
stroke
0 0 0 edgecolor
newpath 980.12 974.48 moveto
987.39 966.78 lineto
976.9 968.27 lineto
closepath fill
1 setlinewidth
solid
0 0 0 edgecolor
newpath 980.12 974.48 moveto
987.39 966.78 lineto
976.9 968.27 lineto
closepath stroke
grestore
% L3_L6->R4_P5
gsave
1 setlinewidth
0 0 0 edgecolor
newpath 807.64 1086.44 moveto
789.43 1077.76 766.2 1063.68 753 1044 curveto
725.67 1003.26 721.09 944.4 721.01 910.29 curveto
stroke
0 0 0 edgecolor
newpath 724.51 910.17 moveto
721.12 900.13 lineto
717.52 910.1 lineto
closepath fill
1 setlinewidth
solid
0 0 0 edgecolor
newpath 724.51 910.17 moveto
721.12 900.13 lineto
717.52 910.1 lineto
closepath stroke
grestore
% L3_L6->R4_L7
gsave
1 setlinewidth
0 0 0 edgecolor
newpath 864.86 1090.07 moveto
915.22 1076.9 1013.58 1043.01 1055 972 curveto
1087.75 915.86 1009.17 857.4 962.14 828.85 curveto
stroke
0 0 0 edgecolor
newpath 963.87 825.81 moveto
953.48 823.71 lineto
960.3 831.83 lineto
closepath fill
1 setlinewidth
solid
0 0 0 edgecolor
newpath 963.87 825.81 moveto
953.48 823.71 lineto
960.3 831.83 lineto
closepath stroke
grestore
% L3_L6->P5_L6
gsave
1 setlinewidth
0 0 0 edgecolor
newpath 805.87 1087.54 moveto
783.85 1078.98 753.61 1064.56 733 1044 curveto
657.84 969.02 655.12 931.39 631 828 curveto
626.26 807.69 623.74 784.22 622.42 766.49 curveto
stroke
0 0 0 edgecolor
newpath 625.89 766.01 moveto
621.74 756.26 lineto
618.91 766.47 lineto
closepath fill
1 setlinewidth
solid
0 0 0 edgecolor
newpath 625.89 766.01 moveto
621.74 756.26 lineto
618.91 766.47 lineto
closepath stroke
grestore
% L3_L6->R5_P6
gsave
1 setlinewidth
0 0 0 edgecolor
newpath 837.09 1079.83 moveto
839.83 1061.83 842.86 1032.77 839 1008 curveto
818.31 875.23 807.33 840.07 747 720 curveto
741.97 709.98 735.14 699.79 728.67 691.05 curveto
stroke
0 0 0 edgecolor
newpath 731.25 688.66 moveto
722.39 682.86 lineto
725.69 692.92 lineto
closepath fill
1 setlinewidth
solid
0 0 0 edgecolor
newpath 731.25 688.66 moveto
722.39 682.86 lineto
725.69 692.92 lineto
closepath stroke
grestore
% L3_L6->R5_L7
gsave
1 setlinewidth
0 0 0 edgecolor
newpath 802.81 1090.31 moveto
773.45 1082.82 729.41 1068.42 698 1044 curveto
548.47 927.77 526.74 864.69 470 684 curveto
463.65 663.76 460.09 639.99 458.16 622.11 curveto
stroke
0 0 0 edgecolor
newpath 461.64 621.68 moveto
457.18 612.07 lineto
454.67 622.37 lineto
closepath fill
1 setlinewidth
solid
0 0 0 edgecolor
newpath 461.64 621.68 moveto
457.18 612.07 lineto
454.67 622.37 lineto
closepath stroke
grestore
% L3_L6->P6_L7
gsave
1 setlinewidth
0 0 0 edgecolor
newpath 801.3 1092.58 moveto
763.1 1086.32 699 1072.32 651 1044 curveto
455.84 928.87 376.86 893.28 290 684 curveto
247.57 581.77 437.5 541.38 525.87 528.32 curveto
stroke
0 0 0 edgecolor
newpath 526.47 531.77 moveto
535.87 526.89 lineto
525.48 524.84 lineto
closepath fill
1 setlinewidth
solid
0 0 0 edgecolor
newpath 526.47 531.77 moveto
535.87 526.89 lineto
525.48 524.84 lineto
closepath stroke
grestore
% L3_L6->L6_L8
gsave
1 setlinewidth
0 0 0 edgecolor
newpath 800.45 1094.32 moveto
653.76 1080.61 76 1005.15 76 667 curveto
76 667 76 667 76 593 curveto
76 546.27 94.63 532.06 132 504 curveto
173.53 472.81 232.85 459.96 273.03 454.67 curveto
stroke
0 0 0 edgecolor
newpath 273.56 458.13 moveto
283.07 453.46 lineto
272.72 451.18 lineto
closepath fill
1 setlinewidth
solid
0 0 0 edgecolor
newpath 273.56 458.13 moveto
283.07 453.46 lineto
272.72 451.18 lineto
closepath stroke
grestore
% L3_L6->L6_R3
gsave
1 setlinewidth
0 0 0 edgecolor
newpath 867.47 1093.46 moveto
906.08 1088.04 970.13 1074.86 1016 1044 curveto
1162.23 945.61 1139 843.25 1139 667 curveto
1139 667 1139 667 1139 521 curveto
1139 459.56 1071.74 416.11 1028.53 394.53 curveto
stroke
0 0 0 edgecolor
newpath 1029.97 391.34 moveto
1019.44 390.13 lineto
1026.92 397.64 lineto
closepath fill
1 setlinewidth
solid
0 0 0 edgecolor
newpath 1029.97 391.34 moveto
1019.44 390.13 lineto
1026.92 397.64 lineto
closepath stroke
grestore
% R3_P4->P4_L5
gsave
1 setlinewidth
0 0 0 edgecolor
newpath 824.93 1016.21 moveto
858.49 1005.93 915.42 988.26 964 972 curveto
967.56 970.81 971.27 969.54 974.96 968.26 curveto
stroke
0 0 0 edgecolor
newpath 976.36 971.48 moveto
984.64 964.87 lineto
974.05 964.87 lineto
closepath fill
1 setlinewidth
solid
0 0 0 edgecolor
newpath 976.36 971.48 moveto
984.64 964.87 lineto
974.05 964.87 lineto
closepath stroke
grestore
% R3_P4->R4_P5
gsave
1 setlinewidth
0 0 0 edgecolor
newpath 787.37 1008.43 moveto
774.56 983.85 750.41 937.51 735.32 908.56 curveto
stroke
0 0 0 edgecolor
newpath 738.3 906.71 moveto
730.58 899.46 lineto
732.1 909.95 lineto
closepath fill
1 setlinewidth
solid
0 0 0 edgecolor
newpath 738.3 906.71 moveto
730.58 899.46 lineto
732.1 909.95 lineto
closepath stroke
grestore
% R3_P4->R4_L7
gsave
1 setlinewidth
0 0 0 edgecolor
newpath 806.29 1008.56 moveto
829.58 971.37 886.44 880.57 914.21 836.22 curveto
stroke
0 0 0 edgecolor
newpath 917.33 837.83 moveto
919.67 827.49 lineto
911.4 834.11 lineto
closepath fill
1 setlinewidth
solid
0 0 0 edgecolor
newpath 917.33 837.83 moveto
919.67 827.49 lineto
911.4 834.11 lineto
closepath stroke
grestore
% R3_P4->P5_L6
gsave
1 setlinewidth
0 0 0 edgecolor
newpath 778.15 1010.2 moveto
752.91 988.42 706.77 945.39 679 900 curveto
652.42 856.55 635.43 799.09 627.1 765.87 curveto
stroke
0 0 0 edgecolor
newpath 630.46 764.88 moveto
624.7 755.98 lineto
623.66 766.53 lineto
closepath fill
1 setlinewidth
solid
0 0 0 edgecolor
newpath 630.46 764.88 moveto
624.7 755.98 lineto
623.66 766.53 lineto
closepath stroke
grestore
% R3_P4->R5_P6
gsave
1 setlinewidth
0 0 0 edgecolor
newpath 793.16 1007.89 moveto
785.19 961.16 761.04 827.61 728 720 curveto
725.35 711.36 722.14 702.06 719.11 693.69 curveto
stroke
0 0 0 edgecolor
newpath 722.3 692.23 moveto
715.57 684.05 lineto
715.73 694.64 lineto
closepath fill
1 setlinewidth
solid
0 0 0 edgecolor
newpath 722.3 692.23 moveto
715.57 684.05 lineto
715.73 694.64 lineto
closepath stroke
grestore
% R3_P4->R5_L7
gsave
1 setlinewidth
0 0 0 edgecolor
newpath 770.09 1013.83 moveto
750.33 1004.5 723.17 989.87 703 972 curveto
583.62 866.27 565.04 824.17 489 684 curveto
478.18 664.05 469.45 639.8 463.69 621.66 curveto
stroke
0 0 0 edgecolor
newpath 467.01 620.55 moveto
460.73 612.02 lineto
460.32 622.6 lineto
closepath fill
1 setlinewidth
solid
0 0 0 edgecolor
newpath 467.01 620.55 moveto
460.73 612.02 lineto
460.32 622.6 lineto
closepath stroke
grestore
% R3_P4->P6_L7
gsave
1 setlinewidth
0 0 0 edgecolor
newpath 818.86 1012.22 moveto
872.82 980.19 1001.55 891.86 974 792 curveto
928.78 628.08 703.94 555.57 610.17 532.11 curveto
stroke
0 0 0 edgecolor
newpath 610.74 528.65 moveto
600.2 529.68 lineto
609.08 535.45 lineto
closepath fill
1 setlinewidth
solid
0 0 0 edgecolor
newpath 610.74 528.65 moveto
600.2 529.68 lineto
609.08 535.45 lineto
closepath stroke
grestore
% R3_P4->L6_L8
gsave
1 setlinewidth
0 0 0 edgecolor
newpath 766.7 1016.64 moveto
636.16 978.54 114 816.77 114 667 curveto
114 667 114 667 114 593 curveto
114 514.73 216.57 475.99 275.89 460.12 curveto
stroke
0 0 0 edgecolor
newpath 276.91 463.47 moveto
285.73 457.59 lineto
275.17 456.69 lineto
closepath fill
1 setlinewidth
solid
0 0 0 edgecolor
newpath 276.91 463.47 moveto
285.73 457.59 lineto
275.17 456.69 lineto
closepath stroke
grestore
% R3_P4->L6_R3
gsave
1 setlinewidth
0 0 0 edgecolor
newpath 824.56 1015.87 moveto
849.24 1007.11 885.09 992.21 912 972 curveto
1039.51 876.22 1101 826.47 1101 667 curveto
1101 667 1101 667 1101 521 curveto
1101 468.54 1053.73 423.34 1021.73 398.76 curveto
stroke
0 0 0 edgecolor
newpath 1023.68 395.84 moveto
1013.57 392.67 lineto
1019.49 401.45 lineto
closepath fill
1 setlinewidth
solid
0 0 0 edgecolor
newpath 1023.68 395.84 moveto
1013.57 392.67 lineto
1019.49 401.45 lineto
closepath stroke
grestore
% P4_L5->R4_P5
gsave
1 setlinewidth
0 0 0 edgecolor
newpath 981.51 945.64 moveto
928.97 932.96 821.35 906.98 762.55 892.79 curveto
stroke
0 0 0 edgecolor
newpath 763.06 889.31 moveto
752.51 890.37 lineto
761.41 896.11 lineto
closepath fill
1 setlinewidth
solid
0 0 0 edgecolor
newpath 763.06 889.31 moveto
752.51 890.37 lineto
761.41 896.11 lineto
closepath stroke
grestore
% P4_L5->R4_L7
gsave
1 setlinewidth
0 0 0 edgecolor
newpath 1003.52 936.39 moveto
994.2 918.35 978.62 888.8 964 864 curveto
958.56 854.77 952.31 844.85 946.66 836.11 curveto
stroke
0 0 0 edgecolor
newpath 949.44 833.97 moveto
941.05 827.51 lineto
943.58 837.8 lineto
closepath fill
1 setlinewidth
solid
0 0 0 edgecolor
newpath 949.44 833.97 moveto
941.05 827.51 lineto
943.58 837.8 lineto
closepath stroke
grestore
% P4_L5->P5_L6
gsave
1 setlinewidth
0 0 0 edgecolor
newpath 989 940.41 moveto
922.6 904.07 730.41 798.88 653.44 756.76 curveto
stroke
0 0 0 edgecolor
newpath 654.67 753.44 moveto
644.22 751.71 lineto
651.31 759.58 lineto
closepath fill
1 setlinewidth
solid
0 0 0 edgecolor
newpath 654.67 753.44 moveto
644.22 751.71 lineto
651.31 759.58 lineto
closepath stroke
grestore
% R4_P5->R4_L7
gsave
1 setlinewidth
0 0 0 edgecolor
newpath 750.05 871.56 moveto
786.62 859.25 850.75 837.67 891.75 823.87 curveto
stroke
0 0 0 edgecolor
newpath 893.03 827.13 moveto
901.39 820.63 lineto
890.8 820.5 lineto
closepath fill
1 setlinewidth
solid
0 0 0 edgecolor
newpath 893.03 827.13 moveto
901.39 820.63 lineto
890.8 820.5 lineto
closepath stroke
grestore
% R4_P5->P5_L6
gsave
1 setlinewidth
0 0 0 edgecolor
newpath 710.92 864.83 moveto
698.62 846.93 678.09 817.26 660 792 curveto
653.25 782.57 645.71 772.28 639.08 763.3 curveto
stroke
0 0 0 edgecolor
newpath 641.82 761.11 moveto
633.06 755.16 lineto
636.19 765.28 lineto
closepath fill
1 setlinewidth
solid
0 0 0 edgecolor
newpath 641.82 761.11 moveto
633.06 755.16 lineto
636.19 765.28 lineto
closepath stroke
grestore
% R4_P5->R5_P6
gsave
1 setlinewidth
0 0 0 edgecolor
newpath 720.96 863.85 moveto
718.71 826.83 713.38 739.18 710.66 694.39 curveto
stroke
0 0 0 edgecolor
newpath 714.15 694 moveto
710.05 684.23 lineto
707.16 694.43 lineto
closepath fill
1 setlinewidth
solid
0 0 0 edgecolor
newpath 714.15 694 moveto
710.05 684.23 lineto
707.16 694.43 lineto
closepath stroke
grestore
% R4_P5->R5_L7
gsave
1 setlinewidth
0 0 0 edgecolor
newpath 703.51 866.71 moveto
690.13 856.23 671.7 841.52 656 828 curveto
620.25 797.21 609.7 790.94 578 756 curveto
536.86 710.66 495.09 652.28 472.68 619.74 curveto
stroke
0 0 0 edgecolor
newpath 475.43 617.55 moveto
466.9 611.27 lineto
469.65 621.5 lineto
closepath fill
1 setlinewidth
solid
0 0 0 edgecolor
newpath 475.43 617.55 moveto
466.9 611.27 lineto
469.65 621.5 lineto
closepath stroke
grestore
% R4_L7->P5_L6
gsave
1 setlinewidth
0 0 0 edgecolor
newpath 896.69 803.77 moveto
846.73 795.59 749.65 778.35 669 756 curveto
665.23 754.95 661.32 753.76 657.44 752.5 curveto
stroke
0 0 0 edgecolor
newpath 658.54 749.18 moveto
647.95 749.29 lineto
656.3 755.81 lineto
closepath fill
1 setlinewidth
solid
0 0 0 edgecolor
newpath 658.54 749.18 moveto
647.95 749.29 lineto
656.3 755.81 lineto
closepath stroke
grestore
% R4_L7->R5_P6
gsave
1 setlinewidth
0 0 0 edgecolor
newpath 918.91 792.72 moveto
904.76 773.05 878.54 740.09 849 720 curveto
818.53 699.28 778.87 685.25 749.54 676.86 curveto
stroke
0 0 0 edgecolor
newpath 750.2 673.41 moveto
739.63 674.13 lineto
748.34 680.16 lineto
closepath fill
1 setlinewidth
solid
0 0 0 edgecolor
newpath 750.2 673.41 moveto
739.63 674.13 lineto
748.34 680.16 lineto
closepath stroke
grestore
% R4_L7->R5_L7
gsave
1 setlinewidth
0 0 0 edgecolor
newpath 904.52 797.49 moveto
825.11 761.64 582.02 651.9 490.95 610.78 curveto
stroke
0 0 0 edgecolor
newpath 492.16 607.49 moveto
481.61 606.56 lineto
489.28 613.87 lineto
closepath fill
1 setlinewidth
solid
0 0 0 edgecolor
newpath 492.16 607.49 moveto
481.61 606.56 lineto
489.28 613.87 lineto
closepath stroke
grestore
% R4_L7->P6_L7
gsave
1 setlinewidth
0 0 0 edgecolor
newpath 924.11 791.96 moveto
916.8 772.75 902.85 741.39 883 720 curveto
800.09 630.68 668.02 565.71 604.89 537.94 curveto
stroke
0 0 0 edgecolor
newpath 605.94 534.57 moveto
595.37 533.8 lineto
603.15 541 lineto
closepath fill
1 setlinewidth
solid
0 0 0 edgecolor
newpath 605.94 534.57 moveto
595.37 533.8 lineto
603.15 541 lineto
closepath stroke
grestore
% R4_L7->L6_L8
gsave
1 setlinewidth
0 0 0 edgecolor
newpath 897.72 802.94 moveto
857.54 794.84 787.23 778.8 730 756 curveto
698.96 743.63 694.29 734.12 664 720 curveto
553.56 668.52 502.99 693.04 412 612 curveto
369.43 574.08 340.55 512.4 326.62 477.41 curveto
stroke
0 0 0 edgecolor
newpath 329.8 475.95 moveto
322.93 467.88 lineto
323.27 478.47 lineto
closepath fill
1 setlinewidth
solid
0 0 0 edgecolor
newpath 329.8 475.95 moveto
322.93 467.88 lineto
323.27 478.47 lineto
closepath stroke
grestore
% R4_L7->L6_R3
gsave
1 setlinewidth
0 0 0 edgecolor
newpath 942.62 793.16 moveto
968.46 759.06 1025 675.28 1025 595 curveto
1025 595 1025 595 1025 521 curveto
1025 479.81 1012.03 433.51 1002.6 405.3 curveto
stroke
0 0 0 edgecolor
newpath 1005.89 404.09 moveto
999.32 395.77 lineto
999.27 406.37 lineto
closepath fill
1 setlinewidth
solid
0 0 0 edgecolor
newpath 1005.89 404.09 moveto
999.32 395.77 lineto
999.27 406.37 lineto
closepath stroke
grestore
% R6_P7
gsave
1 setlinewidth
0 0 0 nodecolor
517 378 34.17 18 ellipse_path stroke
0 0 0 nodecolor
14 /Times-Roman set_font
498.5 374.3 moveto 37 (R6_P7) alignedtext
grestore
% R4_L7->R6_P7
gsave
1 setlinewidth
0 0 0 edgecolor
newpath 929.02 791.92 moveto
927.32 773.22 922.68 742.85 910 720 curveto
821.12 559.85 626.5 439.48 549.39 396.33 curveto
stroke
0 0 0 edgecolor
newpath 551.03 393.24 moveto
540.59 391.46 lineto
547.64 399.36 lineto
closepath fill
1 setlinewidth
solid
0 0 0 edgecolor
newpath 551.03 393.24 moveto
540.59 391.46 lineto
547.64 399.36 lineto
closepath stroke
grestore
% P7_L8
gsave
1 setlinewidth
0 0 0 nodecolor
648 306 34.17 18 ellipse_path stroke
0 0 0 nodecolor
14 /Times-Roman set_font
629.5 302.3 moveto 37 (P7_L8) alignedtext
grestore
% R4_L7->P7_L8
gsave
1 setlinewidth
0 0 0 edgecolor
newpath 954.39 797.05 moveto
992.79 776.32 1063 729.83 1063 667 curveto
1063 667 1063 667 1063 449 curveto
1063 407.79 1068.22 386.89 1037 360 curveto
986.14 316.2 783.29 308.42 692.42 307.17 curveto
stroke
0 0 0 edgecolor
newpath 692.21 303.66 moveto
682.17 307.05 lineto
692.13 310.66 lineto
closepath fill
1 setlinewidth
solid
0 0 0 edgecolor
newpath 692.21 303.66 moveto
682.17 307.05 lineto
692.13 310.66 lineto
closepath stroke
grestore
% P5_L6->R5_P6
gsave
1 setlinewidth
0 0 0 edgecolor
newpath 639.23 722.5 moveto
651.86 712.45 668.85 698.93 682.91 687.75 curveto
stroke
0 0 0 edgecolor
newpath 685.14 690.45 moveto
690.79 681.49 lineto
680.78 684.97 lineto
closepath fill
1 setlinewidth
solid
0 0 0 edgecolor
newpath 685.14 690.45 moveto
690.79 681.49 lineto
680.78 684.97 lineto
closepath stroke
grestore
% P5_L6->R5_L7
gsave
1 setlinewidth
0 0 0 edgecolor
newpath 607.6 721.22 moveto
591.41 702.62 562.85 671.3 535 648 curveto
519.96 635.42 501.89 623.11 486.82 613.53 curveto
stroke
0 0 0 edgecolor
newpath 488.68 610.56 moveto
478.34 608.22 lineto
484.96 616.49 lineto
closepath fill
1 setlinewidth
solid
0 0 0 edgecolor
newpath 488.68 610.56 moveto
478.34 608.22 lineto
484.96 616.49 lineto
closepath stroke
grestore
% P5_L6->P6_L7
gsave
1 setlinewidth
0 0 0 edgecolor
newpath 616.83 719.85 moveto
607.8 682.66 586.34 594.37 575.51 549.77 curveto
stroke
0 0 0 edgecolor
newpath 578.88 548.83 moveto
573.12 539.94 lineto
572.08 550.48 lineto
closepath fill
1 setlinewidth
solid
0 0 0 edgecolor
newpath 578.88 548.83 moveto
573.12 539.94 lineto
572.08 550.48 lineto
closepath stroke
grestore
% P5_L6->L6_L8
gsave
1 setlinewidth
0 0 0 edgecolor
newpath 587.27 734.09 moveto
525.74 728.14 398.61 712.65 366 684 curveto
306.67 631.88 308.6 527.78 313.4 478.32 curveto
stroke
0 0 0 edgecolor
newpath 316.92 478.4 moveto
314.52 468.08 lineto
309.96 477.64 lineto
closepath fill
1 setlinewidth
solid
0 0 0 edgecolor
newpath 316.92 478.4 moveto
314.52 468.08 lineto
309.96 477.64 lineto
closepath stroke
grestore
% P5_L6->L6_R3
gsave
1 setlinewidth
0 0 0 edgecolor
newpath 649.66 728 moveto
676.94 718.85 718.65 703.28 752 684 curveto
834.82 636.11 851.36 613.99 912 540 curveto
936.86 509.67 945.22 502.95 963 468 curveto
973.14 448.08 981.02 423.97 986.16 405.87 curveto
stroke
0 0 0 edgecolor
newpath 989.6 406.56 moveto
988.86 395.99 lineto
982.85 404.71 lineto
closepath fill
1 setlinewidth
solid
0 0 0 edgecolor
newpath 989.6 406.56 moveto
988.86 395.99 lineto
982.85 404.71 lineto
closepath stroke
grestore
% R5_P6->R5_L7
gsave
1 setlinewidth
0 0 0 edgecolor
newpath 678.37 657.85 moveto
638.28 648.31 565.94 630.45 505 612 curveto
501.23 610.86 497.32 609.61 493.42 608.33 curveto
stroke
0 0 0 edgecolor
newpath 494.45 604.98 moveto
483.86 605.1 lineto
492.21 611.61 lineto
closepath fill
1 setlinewidth
solid
0 0 0 edgecolor
newpath 494.45 604.98 moveto
483.86 605.1 lineto
492.21 611.61 lineto
closepath stroke
grestore
% R5_P6->P6_L7
gsave
1 setlinewidth
0 0 0 edgecolor
newpath 694.02 649.8 moveto
669.41 624.85 620.3 575.04 591.5 545.82 curveto
stroke
0 0 0 edgecolor
newpath 593.81 543.18 moveto
584.3 538.52 lineto
588.83 548.1 lineto
closepath fill
1 setlinewidth
solid
0 0 0 edgecolor
newpath 593.81 543.18 moveto
584.3 538.52 lineto
588.83 548.1 lineto
closepath stroke
grestore
% R5_P6->L6_L8
gsave
1 setlinewidth
0 0 0 edgecolor
newpath 685.94 652.41 moveto
619.21 615.98 425.78 510.39 348.98 468.46 curveto
stroke
0 0 0 edgecolor
newpath 350.24 465.16 moveto
339.78 463.44 lineto
346.88 471.3 lineto
closepath fill
1 setlinewidth
solid
0 0 0 edgecolor
newpath 350.24 465.16 moveto
339.78 463.44 lineto
346.88 471.3 lineto
closepath stroke
grestore
% R5_P6->L6_R3
gsave
1 setlinewidth
0 0 0 edgecolor
newpath 735.98 654.7 moveto
757.69 645.58 788.22 630.8 811 612 curveto
886.73 549.48 950.92 450.27 978.52 404.13 curveto
stroke
0 0 0 edgecolor
newpath 981.62 405.77 moveto
983.69 395.38 lineto
975.59 402.21 lineto
closepath fill
1 setlinewidth
solid
0 0 0 edgecolor
newpath 981.62 405.77 moveto
983.69 395.38 lineto
975.59 402.21 lineto
closepath stroke
grestore
% R5_P6->R6_P7
gsave
1 setlinewidth
0 0 0 edgecolor
newpath 699.66 648.18 moveto
682.99 618.47 646.62 555.04 612 504 curveto
587.36 467.68 556.13 427.6 536.35 402.85 curveto
stroke
0 0 0 edgecolor
newpath 538.86 400.38 moveto
529.86 394.77 lineto
533.4 404.76 lineto
closepath fill
1 setlinewidth
solid
0 0 0 edgecolor
newpath 538.86 400.38 moveto
529.86 394.77 lineto
533.4 404.76 lineto
closepath stroke
grestore
% R5_P6->P7_L8
gsave
1 setlinewidth
0 0 0 edgecolor
newpath 708.4 647.83 moveto
706.43 600.94 698.51 467.04 670 360 curveto
667.6 351 664.03 341.52 660.45 333.09 curveto
stroke
0 0 0 edgecolor
newpath 663.57 331.51 moveto
656.32 323.78 lineto
657.18 334.34 lineto
closepath fill
1 setlinewidth
solid
0 0 0 edgecolor
newpath 663.57 331.51 moveto
656.32 323.78 lineto
657.18 334.34 lineto
closepath stroke
grestore
% R7_P8
gsave
1 setlinewidth
0 0 0 nodecolor
434 234 34.17 18 ellipse_path stroke
0 0 0 nodecolor
14 /Times-Roman set_font
415.5 230.3 moveto 37 (R7_P8) alignedtext
grestore
% R5_P6->R7_P8
gsave
1 setlinewidth
0 0 0 edgecolor
newpath 684.61 653.26 moveto
646.7 634.02 573.1 592.6 526 540 curveto
456.74 462.65 450.07 427 437 324 curveto
434.39 303.42 433.69 279.97 433.62 262.31 curveto
stroke
0 0 0 edgecolor
newpath 437.12 262.14 moveto
433.64 252.14 lineto
430.12 262.13 lineto
closepath fill
1 setlinewidth
solid
0 0 0 edgecolor
newpath 437.12 262.14 moveto
433.64 252.14 lineto
430.12 262.13 lineto
closepath stroke
grestore
% R7_R6
gsave
1 setlinewidth
0 0 0 nodecolor
567 162 35.62 18 ellipse_path stroke
0 0 0 nodecolor
14 /Times-Roman set_font
547.5 158.3 moveto 39 (R7_R6) alignedtext
grestore
% R5_P6->R7_R6
gsave
1 setlinewidth
0 0 0 edgecolor
newpath 712.24 647.91 moveto
721.86 592.89 746.24 416.53 691 288 curveto
671.34 242.25 626.48 204.1 596.46 182.41 curveto
stroke
0 0 0 edgecolor
newpath 598.23 179.38 moveto
588.04 176.48 lineto
594.2 185.1 lineto
closepath fill
1 setlinewidth
solid
0 0 0 edgecolor
newpath 598.23 179.38 moveto
588.04 176.48 lineto
594.2 185.1 lineto
closepath stroke
grestore
% R6_P8
gsave
1 setlinewidth
0 0 0 nodecolor
535 90 34.17 18 ellipse_path stroke
0 0 0 nodecolor
14 /Times-Roman set_font
516.5 86.3 moveto 37 (R6_P8) alignedtext
grestore
% R5_P6->R6_P8
gsave
1 setlinewidth
0 0 0 edgecolor
newpath 723.53 649.68 moveto
769.84 600.2 911 444.04 911 379 curveto
911 379 911 379 911 305 curveto
911 153.39 677.23 107.82 578.34 95.32 curveto
stroke
0 0 0 edgecolor
newpath 578.72 91.84 moveto
568.37 94.12 lineto
577.88 98.79 lineto
closepath fill
1 setlinewidth
solid
0 0 0 edgecolor
newpath 578.72 91.84 moveto
568.37 94.12 lineto
577.88 98.79 lineto
closepath stroke
grestore
% R5_L7->P6_L7
gsave
1 setlinewidth
0 0 0 edgecolor
newpath 477.52 579.67 moveto
494.88 568.92 519.5 553.66 538.83 541.69 curveto
stroke
0 0 0 edgecolor
newpath 540.9 544.52 moveto
547.56 536.28 lineto
537.22 538.57 lineto
closepath fill
1 setlinewidth
solid
0 0 0 edgecolor
newpath 540.9 544.52 moveto
547.56 536.28 lineto
537.22 538.57 lineto
closepath stroke
grestore
% R5_L7->L6_L8
gsave
1 setlinewidth
0 0 0 edgecolor
newpath 440.92 577.56 moveto
423.58 559.8 394.25 529.78 369 504 curveto
359.18 493.97 348.3 482.89 339.05 473.46 curveto
stroke
0 0 0 edgecolor
newpath 341.53 470.98 moveto
332.03 466.3 lineto
336.53 475.89 lineto
closepath fill
1 setlinewidth
solid
0 0 0 edgecolor
newpath 341.53 470.98 moveto
332.03 466.3 lineto
336.53 475.89 lineto
closepath stroke
grestore
% R5_L7->L6_R3
gsave
1 setlinewidth
0 0 0 edgecolor
newpath 489.59 588.67 moveto
536.95 581.88 625.56 566.67 697 540 curveto
800.4 501.4 912.17 432.24 963.8 398.54 curveto
stroke
0 0 0 edgecolor
newpath 966 401.28 moveto
972.44 392.87 lineto
962.16 395.43 lineto
closepath fill
1 setlinewidth
solid
0 0 0 edgecolor
newpath 966 401.28 moveto
972.44 392.87 lineto
962.16 395.43 lineto
closepath stroke
grestore
% R5_L7->R6_P7
gsave
1 setlinewidth
0 0 0 edgecolor
newpath 460.89 575.85 moveto
471.49 538.66 496.65 450.37 509.37 405.77 curveto
stroke
0 0 0 edgecolor
newpath 512.8 406.51 moveto
512.17 395.94 lineto
506.07 404.59 lineto
closepath fill
1 setlinewidth
solid
0 0 0 edgecolor
newpath 512.8 406.51 moveto
512.17 395.94 lineto
506.07 404.59 lineto
closepath stroke
grestore
% R5_L7->P7_L8
gsave
1 setlinewidth
0 0 0 edgecolor
newpath 490.85 591.17 moveto
526.82 587.3 581.81 575.53 612 540 curveto
662.15 480.96 657.83 381.87 652.16 334.22 curveto
stroke
0 0 0 edgecolor
newpath 655.6 333.52 moveto
650.84 324.06 lineto
648.66 334.43 lineto
closepath fill
1 setlinewidth
solid
0 0 0 edgecolor
newpath 655.6 333.52 moveto
650.84 324.06 lineto
648.66 334.43 lineto
closepath stroke
grestore
% P6_L7->L6_L8
gsave
1 setlinewidth
0 0 0 edgecolor
newpath 539.1 512.7 moveto
493.61 500.06 406.96 475.99 356.38 461.94 curveto
stroke
0 0 0 edgecolor
newpath 357.04 458.49 moveto
346.47 459.19 lineto
355.17 465.23 lineto
closepath fill
1 setlinewidth
solid
0 0 0 edgecolor
newpath 357.04 458.49 moveto
346.47 459.19 lineto
355.17 465.23 lineto
closepath stroke
grestore
% P6_L7->L6_R3
gsave
1 setlinewidth
0 0 0 edgecolor
newpath 597.15 511.57 moveto
671 486.84 870.39 420.06 954.62 391.85 curveto
stroke
0 0 0 edgecolor
newpath 955.93 395.1 moveto
964.3 388.61 lineto
953.71 388.47 lineto
closepath fill
1 setlinewidth
solid
0 0 0 edgecolor
newpath 955.93 395.1 moveto
964.3 388.61 lineto
953.71 388.47 lineto
closepath stroke
grestore
% P6_L7->R6_P7
gsave
1 setlinewidth
0 0 0 edgecolor
newpath 549.28 507.26 moveto
537.48 497.76 523.53 483.99 517 468 curveto
508.99 448.39 509.56 424.26 511.81 406.07 curveto
stroke
0 0 0 edgecolor
newpath 515.28 406.54 moveto
513.29 396.13 lineto
508.36 405.51 lineto
closepath fill
1 setlinewidth
solid
0 0 0 edgecolor
newpath 515.28 406.54 moveto
513.29 396.13 lineto
508.36 405.51 lineto
closepath stroke
grestore
% P6_L7->P7_L8
gsave
1 setlinewidth
0 0 0 edgecolor
newpath 575.2 504.21 moveto
588.9 467.09 621.84 377.86 638.3 333.27 curveto
stroke
0 0 0 edgecolor
newpath 641.65 334.31 moveto
641.83 323.71 lineto
635.08 331.88 lineto
closepath fill
1 setlinewidth
solid
0 0 0 edgecolor
newpath 641.65 334.31 moveto
641.83 323.71 lineto
635.08 331.88 lineto
closepath stroke
grestore
% P6_L7->R7_P8
gsave
1 setlinewidth
0 0 0 edgecolor
newpath 548.84 507.33 moveto
535.62 497.57 518.69 483.48 507 468 curveto
459 404.42 442.13 308.62 436.56 262.17 curveto
stroke
0 0 0 edgecolor
newpath 440.01 261.55 moveto
435.42 251.99 lineto
433.05 262.32 lineto
closepath fill
1 setlinewidth
solid
0 0 0 edgecolor
newpath 440.01 261.55 moveto
435.42 251.99 lineto
433.05 262.32 lineto
closepath stroke
grestore
% P6_L7->R7_R6
gsave
1 setlinewidth
0 0 0 edgecolor
newpath 568.9 503.73 moveto
568.58 446.19 567.55 260.66 567.15 190.35 curveto
stroke
0 0 0 edgecolor
newpath 570.65 190.07 moveto
567.1 180.09 lineto
563.65 190.11 lineto
closepath fill
1 setlinewidth
solid
0 0 0 edgecolor
newpath 570.65 190.07 moveto
567.1 180.09 lineto
563.65 190.11 lineto
closepath stroke
grestore
% P6_L7->R6_P8
gsave
1 setlinewidth
0 0 0 edgecolor
newpath 592.68 508.81 moveto
643.61 480.71 759 406.12 759 307 curveto
759 307 759 307 759 233 curveto
759 210.61 629.68 140.26 567.56 107.76 curveto
stroke
0 0 0 edgecolor
newpath 569.03 104.59 moveto
558.55 103.07 lineto
565.8 110.79 lineto
closepath fill
1 setlinewidth
solid
0 0 0 edgecolor
newpath 569.03 104.59 moveto
558.55 103.07 lineto
565.8 110.79 lineto
closepath stroke
grestore
% L6_L8->L6_R3
gsave
1 setlinewidth
0 0 0 edgecolor
newpath 350.52 445.53 moveto
462.34 433.95 822.55 396.65 948.79 383.58 curveto
stroke
0 0 0 edgecolor
newpath 949.29 387.05 moveto
958.87 382.53 lineto
948.57 380.08 lineto
closepath fill
1 setlinewidth
solid
0 0 0 edgecolor
newpath 949.29 387.05 moveto
958.87 382.53 lineto
948.57 380.08 lineto
closepath stroke
grestore
% L6_L8->R6_P7
gsave
1 setlinewidth
0 0 0 edgecolor
newpath 344.81 439.27 moveto
379.94 426.97 440.51 405.77 479.65 392.07 curveto
stroke
0 0 0 edgecolor
newpath 480.82 395.37 moveto
489.11 388.76 lineto
478.51 388.76 lineto
closepath fill
1 setlinewidth
solid
0 0 0 edgecolor
newpath 480.82 395.37 moveto
489.11 388.76 lineto
478.51 388.76 lineto
closepath stroke
grestore
% L6_L8->P7_L8
gsave
1 setlinewidth
0 0 0 edgecolor
newpath 337.57 435.38 moveto
366.87 416.44 422.76 382.01 474 360 curveto
518.23 341 571.49 325.83 607.34 316.67 curveto
stroke
0 0 0 edgecolor
newpath 608.57 319.97 moveto
617.42 314.14 lineto
606.87 313.18 lineto
closepath fill
1 setlinewidth
solid
0 0 0 edgecolor
newpath 608.57 319.97 moveto
617.42 314.14 lineto
606.87 313.18 lineto
closepath stroke
grestore
% L6_L8->R7_P8
gsave
1 setlinewidth
0 0 0 edgecolor
newpath 318.6 432.01 moveto
322.24 400.93 333.42 333.89 365 288 curveto
374.69 273.91 389.31 261.92 402.59 252.93 curveto
stroke
0 0 0 edgecolor
newpath 404.56 255.82 moveto
411.07 247.46 lineto
400.77 249.94 lineto
closepath fill
1 setlinewidth
solid
0 0 0 edgecolor
newpath 404.56 255.82 moveto
411.07 247.46 lineto
400.77 249.94 lineto
closepath stroke
grestore
% L6_L8->R7_R6
gsave
1 setlinewidth
0 0 0 edgecolor
newpath 316.33 431.76 moveto
315.64 387.2 320.75 268.05 391 216 curveto
429.79 187.26 484.19 173.98 522.21 167.92 curveto
stroke
0 0 0 edgecolor
newpath 523.1 171.33 moveto
532.48 166.4 lineto
522.07 164.41 lineto
closepath fill
1 setlinewidth
solid
0 0 0 edgecolor
newpath 523.1 171.33 moveto
532.48 166.4 lineto
522.07 164.41 lineto
closepath stroke
grestore
% L6_L8->R6_P8
gsave
1 setlinewidth
0 0 0 edgecolor
newpath 314.59 431.78 moveto
309.73 389.77 303.27 280.69 356 216 curveto
396.57 166.22 461.84 127.59 501.35 107.14 curveto
stroke
0 0 0 edgecolor
newpath 503 110.23 moveto
510.33 102.58 lineto
499.83 103.99 lineto
closepath fill
1 setlinewidth
solid
0 0 0 edgecolor
newpath 503 110.23 moveto
510.33 102.58 lineto
499.83 103.99 lineto
closepath stroke
grestore
% P8_right
gsave
1 setlinewidth
0 0 0 nodecolor
400 18 40.42 18 ellipse_path stroke
0 0 0 nodecolor
14 /Times-Roman set_font
376.5 14.3 moveto 47 (P8_right) alignedtext
grestore
% L6_L8->P8_right
gsave
1 setlinewidth
0 0 0 edgecolor
newpath 299.65 434.37 moveto
273.49 410.57 227 360.7 227 307 curveto
227 307 227 307 227 161 curveto
227 93.28 307.17 51.96 358.36 32.47 curveto
stroke
0 0 0 edgecolor
newpath 359.69 35.71 moveto
367.87 28.98 lineto
357.27 29.14 lineto
closepath fill
1 setlinewidth
solid
0 0 0 edgecolor
newpath 359.69 35.71 moveto
367.87 28.98 lineto
357.27 29.14 lineto
closepath stroke
grestore
% R6_P7->P7_L8
gsave
1 setlinewidth
0 0 0 edgecolor
newpath 540.12 364.65 moveto
561.13 353.42 592.33 336.75 615.78 324.21 curveto
stroke
0 0 0 edgecolor
newpath 617.5 327.27 moveto
624.67 319.47 lineto
614.2 321.09 lineto
closepath fill
1 setlinewidth
solid
0 0 0 edgecolor
newpath 617.5 327.27 moveto
624.67 319.47 lineto
614.2 321.09 lineto
closepath stroke
grestore
% R6_P7->R7_P8
gsave
1 setlinewidth
0 0 0 edgecolor
newpath 507.32 360.43 moveto
492.89 335.74 465.63 289.11 448.72 260.18 curveto
stroke
0 0 0 edgecolor
newpath 451.69 258.33 moveto
443.62 251.46 lineto
445.65 261.86 lineto
closepath fill
1 setlinewidth
solid
0 0 0 edgecolor
newpath 451.69 258.33 moveto
443.62 251.46 lineto
445.65 261.86 lineto
closepath stroke
grestore
% R6_P7->R7_R6
gsave
1 setlinewidth
0 0 0 edgecolor
newpath 521.01 359.85 moveto
529.7 322.66 550.32 234.37 560.74 189.77 curveto
stroke
0 0 0 edgecolor
newpath 564.18 190.47 moveto
563.04 179.94 lineto
557.36 188.88 lineto
closepath fill
1 setlinewidth
solid
0 0 0 edgecolor
newpath 564.18 190.47 moveto
563.04 179.94 lineto
557.36 188.88 lineto
closepath stroke
grestore
% R6_P7->R6_P8
gsave
1 setlinewidth
0 0 0 edgecolor
newpath 516.1 359.95 moveto
514.32 321.31 511.43 224.23 522 144 curveto
523.13 135.41 525.11 126.2 527.19 117.91 curveto
stroke
0 0 0 edgecolor
newpath 530.64 118.57 moveto
529.82 108 lineto
523.87 116.77 lineto
closepath fill
1 setlinewidth
solid
0 0 0 edgecolor
newpath 530.64 118.57 moveto
529.82 108 lineto
523.87 116.77 lineto
closepath stroke
grestore
% P7_L8->R7_P8
gsave
1 setlinewidth
0 0 0 edgecolor
newpath 619.58 295.7 moveto
581.58 283.28 514.12 261.21 471.85 247.38 curveto
stroke
0 0 0 edgecolor
newpath 472.79 244 moveto
462.19 244.22 lineto
470.61 250.66 lineto
closepath fill
1 setlinewidth
solid
0 0 0 edgecolor
newpath 472.79 244 moveto
462.19 244.22 lineto
470.61 250.66 lineto
closepath stroke
grestore
% P7_L8->R7_R6
gsave
1 setlinewidth
0 0 0 edgecolor
newpath 638.55 288.43 moveto
624.47 263.74 597.86 217.11 581.36 188.18 curveto
stroke
0 0 0 edgecolor
newpath 584.39 186.41 moveto
576.39 179.46 lineto
578.3 189.88 lineto
closepath fill
1 setlinewidth
solid
0 0 0 edgecolor
newpath 584.39 186.41 moveto
576.39 179.46 lineto
578.3 189.88 lineto
closepath stroke
grestore
% P7_L8->R6_P8
gsave
1 setlinewidth
0 0 0 edgecolor
newpath 647.98 287.91 moveto
647.16 256.68 641.65 189.4 611 144 curveto
600.64 128.65 584.23 116.39 569.31 107.55 curveto
stroke
0 0 0 edgecolor
newpath 570.71 104.32 moveto
560.27 102.48 lineto
567.28 110.42 lineto
closepath fill
1 setlinewidth
solid
0 0 0 edgecolor
newpath 570.71 104.32 moveto
560.27 102.48 lineto
567.28 110.42 lineto
closepath stroke
grestore
% P7_L8->P8_right
gsave
1 setlinewidth
0 0 0 edgecolor
newpath 652.32 287.87 moveto
656.24 269.9 660.87 240.86 657 216 curveto
645.76 143.87 638.27 113.19 578 72 curveto
539.19 45.47 486.85 31.97 448.98 25.26 curveto
stroke
0 0 0 edgecolor
newpath 449.15 21.74 moveto
438.71 23.54 lineto
448 28.65 lineto
closepath fill
1 setlinewidth
solid
0 0 0 edgecolor
newpath 449.15 21.74 moveto
438.71 23.54 lineto
448 28.65 lineto
closepath stroke
grestore
% R7_P8->R7_R6
gsave
1 setlinewidth
0 0 0 edgecolor
newpath 457.47 220.65 moveto
478.8 209.42 510.48 192.75 534.29 180.21 curveto
stroke
0 0 0 edgecolor
newpath 536.1 183.22 moveto
543.32 175.47 lineto
532.84 177.03 lineto
closepath fill
1 setlinewidth
solid
0 0 0 edgecolor
newpath 536.1 183.22 moveto
543.32 175.47 lineto
532.84 177.03 lineto
closepath stroke
grestore
% R7_P8->R6_P8
gsave
1 setlinewidth
0 0 0 edgecolor
newpath 443.18 216.41 moveto
453.53 198.14 471.24 168.14 489 144 curveto
496.48 133.83 505.45 123.21 513.46 114.16 curveto
stroke
0 0 0 edgecolor
newpath 516.12 116.45 moveto
520.21 106.68 lineto
510.91 111.77 lineto
closepath fill
1 setlinewidth
solid
0 0 0 edgecolor
newpath 516.12 116.45 moveto
520.21 106.68 lineto
510.91 111.77 lineto
closepath stroke
grestore
% R7_P8->P8_right
gsave
1 setlinewidth
0 0 0 edgecolor
newpath 431.28 215.85 moveto
425.39 178.83 411.47 91.18 404.35 46.39 curveto
stroke
0 0 0 edgecolor
newpath 407.76 45.56 moveto
402.74 36.23 lineto
400.85 46.66 lineto
closepath fill
1 setlinewidth
solid
0 0 0 edgecolor
newpath 407.76 45.56 moveto
402.74 36.23 lineto
400.85 46.66 lineto
closepath stroke
grestore
% R7_R6->R6_P8
gsave
1 setlinewidth
0 0 0 edgecolor
newpath 559.42 144.41 moveto
555.69 136.25 551.1 126.22 546.92 117.07 curveto
stroke
0 0 0 edgecolor
newpath 550.09 115.6 moveto
542.75 107.96 lineto
543.73 118.51 lineto
closepath fill
1 setlinewidth
solid
0 0 0 edgecolor
newpath 550.09 115.6 moveto
542.75 107.96 lineto
543.73 118.51 lineto
closepath stroke
grestore
% R6_P8->P8_right
gsave
1 setlinewidth
0 0 0 edgecolor
newpath 511.48 76.81 moveto
490.28 65.81 458.81 49.49 434.71 37 curveto
stroke
0 0 0 edgecolor
newpath 436.03 33.74 moveto
425.54 32.24 lineto
432.81 39.95 lineto
closepath fill
1 setlinewidth
solid
0 0 0 edgecolor
newpath 436.03 33.74 moveto
425.54 32.24 lineto
432.81 39.95 lineto
closepath stroke
grestore
endpage
showpage
grestore
%%PageTrailer
%%EndPage: 1
%%Trailer
%%Pages: 1
%%BoundingBox: 36 36 1320 1736
end
restore
%%EOF
