%!PS-Adobe-3.0
%%DocumentNeededResources: font Helvetica
%%+ font Helvetica-Bold
%%+ font Helvetica-Oblique
%%+ font Helvetica-BoldOblique
%%+ font Symbol
%%DocumentMedia: special 180 720 0 () ()
%%Title: R Graphics Output
%%Creator: R Software
%%Pages: (atend)
%%BoundingBox: 0 0 180 720
%%EndComments
%%BeginProlog
/bp  { gs sRGB 180.00 0 translate 90 rotate gs } def
% begin .ps.prolog
/gs  { gsave } bind def
/gr  { grestore } bind def
/ep  { showpage gr gr } bind def
/m   { moveto } bind def
/l  { rlineto } bind def
/np  { newpath } bind def
/cp  { closepath } bind def
/f   { fill } bind def
/o   { stroke } bind def
/c   { newpath 0 360 arc } bind def
/r   { 4 2 roll moveto 1 copy 3 -1 roll exch 0 exch rlineto 0 rlineto -1 mul 0 exch rlineto closepath } bind def
/p1  { stroke } bind def
/p2  { gsave bg fill grestore newpath } bind def
/p3  { gsave bg fill grestore stroke } bind def
/p6  { gsave bg eofill grestore newpath } bind def
/p7  { gsave bg eofill grestore stroke } bind def
/t   { 5 -2 roll moveto gsave rotate
       1 index stringwidth pop
       mul neg 0 rmoveto show grestore } bind def
/ta  { 4 -2 roll moveto gsave rotate show } bind def
/tb  { 2 -1 roll 0 rmoveto show } bind def
/cl  { grestore gsave newpath 3 index 3 index moveto 1 index
       4 -1 roll lineto  exch 1 index lineto lineto
       closepath clip newpath } bind def
/rgb { setrgbcolor } bind def
/s   { scalefont setfont } bind def
% end   .ps.prolog
/sRGB { [ /CIEBasedABC
          << /DecodeLMN
               [ { dup 0.03928 le
                        {12.92321 div}
                        {0.055 add 1.055 div 2.4 exp }
                     ifelse
                 } bind dup dup
               ]
             /MatrixLMN [0.412457 0.212673 0.019334
                         0.357576 0.715152 0.119192
                         0.180437 0.072175 0.950301]
             /WhitePoint [0.9505 1.0 1.0890]
           >>
         ] setcolorspace } bind def
/srgb { setcolor } bind def
%%IncludeResource: font Helvetica
/Helvetica findfont
dup length dict begin
  {1 index /FID ne {def} {pop pop} ifelse} forall
  /Encoding ISOLatin1Encoding def
  currentdict
  end
/Font1 exch definefont pop
%%IncludeResource: font Helvetica-Bold
/Helvetica-Bold findfont
dup length dict begin
  {1 index /FID ne {def} {pop pop} ifelse} forall
  /Encoding ISOLatin1Encoding def
  currentdict
  end
/Font2 exch definefont pop
%%IncludeResource: font Helvetica-Oblique
/Helvetica-Oblique findfont
dup length dict begin
  {1 index /FID ne {def} {pop pop} ifelse} forall
  /Encoding ISOLatin1Encoding def
  currentdict
  end
/Font3 exch definefont pop
%%IncludeResource: font Helvetica-BoldOblique
/Helvetica-BoldOblique findfont
dup length dict begin
  {1 index /FID ne {def} {pop pop} ifelse} forall
  /Encoding ISOLatin1Encoding def
  currentdict
  end
/Font4 exch definefont pop
%%IncludeResource: font Symbol
/Symbol findfont
dup length dict begin
  {1 index /FID ne {def} {pop pop} ifelse} forall
  currentdict
  end
/Font5 exch definefont pop
%%EndProlog
%%Page: 1 1
bp
18.00 36.00 702.00 180.00 cl
/bg { 0 0 0 srgb } def
49.83 166.23 1.00 1.00 r p2
51.06 166.23 1.00 1.00 r p2
52.30 166.23 1.00 1.00 r p2
53.54 166.23 1.00 1.00 r p2
54.77 166.23 1.00 1.00 r p2
56.01 166.23 1.00 1.00 r p2
/Font1 findfont 8 s
0 0 0 srgb
57.74 164.71 (<) .5 0 t
58.98 164.71 (<) .5 0 t
60.22 164.71 (<) .5 0 t
61.45 164.71 (<) .5 0 t
62.19 166.23 1.00 1.00 r p2
63.43 166.23 1.00 1.00 r p2
65.16 164.71 (<) .5 0 t
66.40 164.71 (<) .5 0 t
67.13 166.23 1.00 1.00 r p2
68.37 166.23 1.00 1.00 r p2
69.61 166.23 1.00 1.00 r p2
70.84 166.23 1.00 1.00 r p2
72.08 166.23 1.00 1.00 r p2
73.32 166.23 1.00 1.00 r p2
74.55 166.23 1.00 1.00 r p2
75.79 166.23 1.00 1.00 r p2
77.02 166.23 1.00 1.00 r p2
78.76 164.71 (>) .5 0 t
80.00 164.71 (>) .5 0 t
81.23 164.71 (>) .5 0 t
82.47 164.71 (>) .5 0 t
83.71 164.71 (>) .5 0 t
84.94 164.71 (>) .5 0 t
85.68 166.23 1.00 1.00 r p2
86.91 166.23 1.00 1.00 r p2
88.15 166.23 1.00 1.00 r p2
89.39 166.23 1.00 1.00 r p2
90.62 166.23 1.00 1.00 r p2
91.86 166.23 1.00 1.00 r p2
93.59 164.71 (<) .5 0 t
94.83 164.71 (<) .5 0 t
96.07 164.71 (<) .5 0 t
97.30 164.71 (<) .5 0 t
98.54 164.71 (<) .5 0 t
99.78 164.71 (<) .5 0 t
100.51 166.23 1.00 1.00 r p2
101.75 166.23 1.00 1.00 r p2
102.98 166.23 1.00 1.00 r p2
104.22 166.23 1.00 1.00 r p2
105.46 166.23 1.00 1.00 r p2
106.69 166.23 1.00 1.00 r p2
107.93 166.23 1.00 1.00 r p2
109.17 166.23 1.00 1.00 r p2
110.40 166.23 1.00 1.00 r p2
111.64 166.23 1.00 1.00 r p2
112.87 166.23 1.00 1.00 r p2
114.61 164.71 (>) .5 0 t
115.85 164.71 (>) .5 0 t
117.08 164.71 (>) .5 0 t
118.32 164.71 (>) .5 0 t
119.56 164.71 (>) .5 0 t
120.79 164.71 (>) .5 0 t
121.53 166.23 1.00 1.00 r p2
122.76 166.23 1.00 1.00 r p2
124.00 166.23 1.00 1.00 r p2
125.24 166.23 1.00 1.00 r p2
126.47 166.23 1.00 1.00 r p2
127.71 166.23 1.00 1.00 r p2
128.95 166.23 1.00 1.00 r p2
130.18 166.23 1.00 1.00 r p2
131.42 166.23 1.00 1.00 r p2
132.65 166.23 1.00 1.00 r p2
133.89 166.23 1.00 1.00 r p2
135.13 166.23 1.00 1.00 r p2
136.36 166.23 1.00 1.00 r p2
137.60 166.23 1.00 1.00 r p2
138.83 166.23 1.00 1.00 r p2
140.07 166.23 1.00 1.00 r p2
141.31 166.23 1.00 1.00 r p2
142.54 166.23 1.00 1.00 r p2
143.78 166.23 1.00 1.00 r p2
145.02 166.23 1.00 1.00 r p2
146.25 166.23 1.00 1.00 r p2
147.49 166.23 1.00 1.00 r p2
148.72 166.23 1.00 1.00 r p2
149.96 166.23 1.00 1.00 r p2
151.20 166.23 1.00 1.00 r p2
152.43 166.23 1.00 1.00 r p2
153.67 166.23 1.00 1.00 r p2
154.91 166.23 1.00 1.00 r p2
156.14 166.23 1.00 1.00 r p2
157.38 166.23 1.00 1.00 r p2
158.61 166.23 1.00 1.00 r p2
159.85 166.23 1.00 1.00 r p2
161.09 166.23 1.00 1.00 r p2
162.32 166.23 1.00 1.00 r p2
163.56 166.23 1.00 1.00 r p2
164.80 166.23 1.00 1.00 r p2
166.03 166.23 1.00 1.00 r p2
167.27 166.23 1.00 1.00 r p2
168.50 166.23 1.00 1.00 r p2
169.74 166.23 1.00 1.00 r p2
170.98 166.23 1.00 1.00 r p2
172.21 166.23 1.00 1.00 r p2
173.45 166.23 1.00 1.00 r p2
174.69 166.23 1.00 1.00 r p2
175.92 166.23 1.00 1.00 r p2
177.16 166.23 1.00 1.00 r p2
178.39 166.23 1.00 1.00 r p2
179.63 166.23 1.00 1.00 r p2
181.37 164.71 (<) .5 0 t
182.60 164.71 (<) .5 0 t
183.84 164.71 (<) .5 0 t
185.08 164.71 (<) .5 0 t
186.31 164.71 (<) .5 0 t
187.55 164.71 (<) .5 0 t
188.78 164.71 (<) .5 0 t
189.52 166.23 1.00 1.00 r p2
190.76 166.23 1.00 1.00 r p2
191.99 166.23 1.00 1.00 r p2
193.23 166.23 1.00 1.00 r p2
194.96 164.71 (<) .5 0 t
196.20 164.71 (<) .5 0 t
197.44 164.71 (<) .5 0 t
198.67 164.71 (<) .5 0 t
199.91 164.71 (<) .5 0 t
201.15 164.71 (<) .5 0 t
201.88 166.23 1.00 1.00 r p2
203.12 166.23 1.00 1.00 r p2
204.35 166.23 1.00 1.00 r p2
206.09 164.71 (<) .5 0 t
207.33 164.71 (<) .5 0 t
208.56 164.71 (<) .5 0 t
209.30 166.23 1.00 1.00 r p2
210.54 166.23 1.00 1.00 r p2
211.77 166.23 1.00 1.00 r p2
213.01 166.23 1.00 1.00 r p2
214.24 166.23 1.00 1.00 r p2
215.48 166.23 1.00 1.00 r p2
216.72 166.23 1.00 1.00 r p2
217.95 166.23 1.00 1.00 r p2
219.19 166.23 1.00 1.00 r p2
220.43 166.23 1.00 1.00 r p2
221.66 166.23 1.00 1.00 r p2
222.90 166.23 1.00 1.00 r p2
224.13 166.23 1.00 1.00 r p2
225.37 166.23 1.00 1.00 r p2
226.61 166.23 1.00 1.00 r p2
227.84 166.23 1.00 1.00 r p2
229.08 166.23 1.00 1.00 r p2
230.32 166.23 1.00 1.00 r p2
231.55 166.23 1.00 1.00 r p2
232.79 166.23 1.00 1.00 r p2
234.02 166.23 1.00 1.00 r p2
235.26 166.23 1.00 1.00 r p2
236.50 166.23 1.00 1.00 r p2
237.73 166.23 1.00 1.00 r p2
238.97 166.23 1.00 1.00 r p2
240.20 166.23 1.00 1.00 r p2
241.44 166.23 1.00 1.00 r p2
242.68 166.23 1.00 1.00 r p2
244.41 164.71 (>) .5 0 t
245.65 164.71 (>) .5 0 t
246.89 164.71 (>) .5 0 t
247.62 166.23 1.00 1.00 r p2
248.86 166.23 1.00 1.00 r p2
250.09 166.23 1.00 1.00 r p2
251.83 164.71 (>) .5 0 t
253.07 164.71 (>) .5 0 t
254.30 164.71 (>) .5 0 t
255.54 164.71 (>) .5 0 t
256.78 164.71 (>) .5 0 t
258.01 164.71 (>) .5 0 t
259.25 164.71 (<) .5 0 t
260.48 164.71 (<) .5 0 t
261.72 164.71 (<) .5 0 t
262.46 166.23 1.00 1.00 r p2
263.69 166.23 1.00 1.00 r p2
264.93 166.23 1.00 1.00 r p2
266.67 164.71 (<) .5 0 t
267.90 164.71 (<) .5 0 t
269.14 164.71 (<) .5 0 t
270.37 164.71 (<) .5 0 t
271.61 164.71 (<) .5 0 t
272.85 164.71 (<) .5 0 t
273.58 166.23 1.00 1.00 r p2
274.82 166.23 1.00 1.00 r p2
276.06 166.23 1.00 1.00 r p2
277.29 166.23 1.00 1.00 r p2
278.53 166.23 1.00 1.00 r p2
279.76 166.23 1.00 1.00 r p2
281.00 166.23 1.00 1.00 r p2
282.24 166.23 1.00 1.00 r p2
283.47 166.23 1.00 1.00 r p2
284.71 166.23 1.00 1.00 r p2
285.94 166.23 1.00 1.00 r p2
287.18 166.23 1.00 1.00 r p2
288.42 166.23 1.00 1.00 r p2
289.65 166.23 1.00 1.00 r p2
290.89 166.23 1.00 1.00 r p2
292.13 166.23 1.00 1.00 r p2
293.36 166.23 1.00 1.00 r p2
294.60 166.23 1.00 1.00 r p2
295.83 166.23 1.00 1.00 r p2
297.07 166.23 1.00 1.00 r p2
298.81 164.71 (>) .5 0 t
300.04 164.71 (>) .5 0 t
301.28 164.71 (>) .5 0 t
302.52 164.71 (>) .5 0 t
303.75 164.71 (>) .5 0 t
304.99 164.71 (>) .5 0 t
305.72 166.23 1.00 1.00 r p2
306.96 166.23 1.00 1.00 r p2
308.20 166.23 1.00 1.00 r p2
309.43 166.23 1.00 1.00 r p2
311.17 164.71 (>) .5 0 t
312.41 164.71 (>) .5 0 t
313.64 164.71 (>) .5 0 t
314.38 166.23 1.00 1.00 r p2
315.61 166.23 1.00 1.00 r p2
316.85 166.23 1.00 1.00 r p2
318.59 163.86 (A) .5 0 t
319.32 166.23 1.00 1.00 r p2
321.06 163.86 (A) .5 0 t
322.30 163.86 (A) .5 0 t
323.53 163.86 (A) .5 0 t
324.77 163.86 (A) .5 0 t
326.00 163.86 (A) .5 0 t
326.74 166.23 1.00 1.00 r p2
327.98 166.23 1.00 1.00 r p2
329.21 166.23 1.00 1.00 r p2
330.45 166.23 1.00 1.00 r p2
331.69 166.23 1.00 1.00 r p2
332.92 166.23 1.00 1.00 r p2
334.16 166.23 1.00 1.00 r p2
335.39 166.23 1.00 1.00 r p2
336.63 166.23 1.00 1.00 r p2
337.87 166.23 1.00 1.00 r p2
339.10 166.23 1.00 1.00 r p2
340.34 166.23 1.00 1.00 r p2
342.07 164.71 (<) .5 0 t
343.31 164.71 (<) .5 0 t
344.55 164.71 (<) .5 0 t
345.78 164.71 (<) .5 0 t
346.52 166.23 1.00 1.00 r p2
347.76 166.23 1.00 1.00 r p2
348.99 166.23 1.00 1.00 r p2
350.23 166.23 1.00 1.00 r p2
351.46 166.23 1.00 1.00 r p2
352.70 166.23 1.00 1.00 r p2
353.94 166.23 1.00 1.00 r p2
355.17 166.23 1.00 1.00 r p2
356.41 166.23 1.00 1.00 r p2
357.65 166.23 1.00 1.00 r p2
358.88 166.23 1.00 1.00 r p2
360.12 166.23 1.00 1.00 r p2
361.35 166.23 1.00 1.00 r p2
362.59 166.23 1.00 1.00 r p2
363.83 166.23 1.00 1.00 r p2
365.06 166.23 1.00 1.00 r p2
366.30 166.23 1.00 1.00 r p2
367.54 166.23 1.00 1.00 r p2
368.77 166.23 1.00 1.00 r p2
370.01 166.23 1.00 1.00 r p2
371.24 166.23 1.00 1.00 r p2
372.48 166.23 1.00 1.00 r p2
373.72 166.23 1.00 1.00 r p2
374.95 166.23 1.00 1.00 r p2
376.19 166.23 1.00 1.00 r p2
377.93 164.71 (>) .5 0 t
379.16 164.71 (>) .5 0 t
380.40 164.71 (>) .5 0 t
381.63 164.71 (>) .5 0 t
382.37 166.23 1.00 1.00 r p2
383.61 166.23 1.00 1.00 r p2
384.84 166.23 1.00 1.00 r p2
386.08 166.23 1.00 1.00 r p2
387.31 166.23 1.00 1.00 r p2
388.55 166.23 1.00 1.00 r p2
389.79 166.23 1.00 1.00 r p2
391.02 166.23 1.00 1.00 r p2
392.26 166.23 1.00 1.00 r p2
393.50 166.23 1.00 1.00 r p2
394.73 166.23 1.00 1.00 r p2
395.97 166.23 1.00 1.00 r p2
397.20 166.23 1.00 1.00 r p2
398.44 166.23 1.00 1.00 r p2
400.18 164.71 (<) .5 0 t
401.41 164.71 (<) .5 0 t
402.65 164.71 (<) .5 0 t
403.89 164.71 (<) .5 0 t
405.12 164.71 (<) .5 0 t
405.86 166.23 1.00 1.00 r p2
407.09 166.23 1.00 1.00 r p2
408.33 166.23 1.00 1.00 r p2
409.57 166.23 1.00 1.00 r p2
410.80 166.23 1.00 1.00 r p2
412.04 166.23 1.00 1.00 r p2
413.28 166.23 1.00 1.00 r p2
414.51 166.23 1.00 1.00 r p2
415.75 166.23 1.00 1.00 r p2
416.98 166.23 1.00 1.00 r p2
418.22 166.23 1.00 1.00 r p2
419.46 166.23 1.00 1.00 r p2
420.69 166.23 1.00 1.00 r p2
421.93 166.23 1.00 1.00 r p2
423.17 166.23 1.00 1.00 r p2
424.40 166.23 1.00 1.00 r p2
425.64 166.23 1.00 1.00 r p2
426.87 166.23 1.00 1.00 r p2
428.11 166.23 1.00 1.00 r p2
429.35 166.23 1.00 1.00 r p2
430.58 166.23 1.00 1.00 r p2
431.82 166.23 1.00 1.00 r p2
433.06 166.23 1.00 1.00 r p2
434.29 166.23 1.00 1.00 r p2
435.53 166.23 1.00 1.00 r p2
436.76 166.23 1.00 1.00 r p2
438.00 166.23 1.00 1.00 r p2
439.24 166.23 1.00 1.00 r p2
440.47 166.23 1.00 1.00 r p2
441.71 166.23 1.00 1.00 r p2
442.94 166.23 1.00 1.00 r p2
444.18 166.23 1.00 1.00 r p2
445.92 164.71 (>) .5 0 t
447.15 164.71 (>) .5 0 t
448.39 164.71 (>) .5 0 t
449.63 164.71 (>) .5 0 t
450.86 164.71 (>) .5 0 t
451.60 166.23 1.00 1.00 r p2
452.83 166.23 1.00 1.00 r p2
454.07 166.23 1.00 1.00 r p2
455.31 166.23 1.00 1.00 r p2
456.54 166.23 1.00 1.00 r p2
457.78 166.23 1.00 1.00 r p2
459.02 166.23 1.00 1.00 r p2
460.25 166.23 1.00 1.00 r p2
461.49 166.23 1.00 1.00 r p2
462.72 166.23 1.00 1.00 r p2
463.96 166.23 1.00 1.00 r p2
465.20 166.23 1.00 1.00 r p2
466.43 166.23 1.00 1.00 r p2
467.67 166.23 1.00 1.00 r p2
468.91 166.23 1.00 1.00 r p2
470.14 166.23 1.00 1.00 r p2
471.38 166.23 1.00 1.00 r p2
472.61 166.23 1.00 1.00 r p2
474.35 164.71 (>) .5 0 t
475.09 166.23 1.00 1.00 r p2
476.82 164.71 (>) .5 0 t
478.06 164.71 (>) .5 0 t
479.30 164.71 (>) .5 0 t
480.53 164.71 (>) .5 0 t
481.77 164.71 (>) .5 0 t
483.00 164.71 (>) .5 0 t
483.74 166.23 1.00 1.00 r p2
484.98 166.23 1.00 1.00 r p2
486.21 166.23 1.00 1.00 r p2
487.95 164.71 (<) .5 0 t
489.18 164.71 (<) .5 0 t
490.42 164.71 (<) .5 0 t
491.66 164.71 (<) .5 0 t
492.89 164.71 (<) .5 0 t
494.13 164.71 (<) .5 0 t
494.87 166.23 1.00 1.00 r p2
496.10 166.23 1.00 1.00 r p2
497.34 166.23 1.00 1.00 r p2
498.57 166.23 1.00 1.00 r p2
499.81 166.23 1.00 1.00 r p2
501.05 166.23 1.00 1.00 r p2
502.28 166.23 1.00 1.00 r p2
503.52 166.23 1.00 1.00 r p2
504.76 166.23 1.00 1.00 r p2
505.99 166.23 1.00 1.00 r p2
507.23 166.23 1.00 1.00 r p2
508.46 166.23 1.00 1.00 r p2
509.70 166.23 1.00 1.00 r p2
510.94 166.23 1.00 1.00 r p2
512.17 166.23 1.00 1.00 r p2
513.41 166.23 1.00 1.00 r p2
514.65 166.23 1.00 1.00 r p2
515.88 166.23 1.00 1.00 r p2
517.12 166.23 1.00 1.00 r p2
518.35 166.23 1.00 1.00 r p2
519.59 166.23 1.00 1.00 r p2
520.83 166.23 1.00 1.00 r p2
522.56 164.71 (>) .5 0 t
523.80 164.71 (>) .5 0 t
525.04 164.71 (>) .5 0 t
526.27 164.71 (>) .5 0 t
527.51 164.71 (>) .5 0 t
528.74 164.71 (>) .5 0 t
529.48 166.23 1.00 1.00 r p2
530.72 166.23 1.00 1.00 r p2
531.95 166.23 1.00 1.00 r p2
533.19 166.23 1.00 1.00 r p2
534.42 166.23 1.00 1.00 r p2
535.66 166.23 1.00 1.00 r p2
536.90 166.23 1.00 1.00 r p2
538.13 166.23 1.00 1.00 r p2
539.37 166.23 1.00 1.00 r p2
540.61 166.23 1.00 1.00 r p2
541.84 166.23 1.00 1.00 r p2
543.08 166.23 1.00 1.00 r p2
544.31 166.23 1.00 1.00 r p2
545.55 166.23 1.00 1.00 r p2
547.29 164.64 (a) .5 0 t
548.52 164.64 (a) .5 0 t
549.76 164.64 (a) .5 0 t
551.00 164.64 (a) .5 0 t
552.23 164.64 (a) .5 0 t
553.47 164.64 (a) .5 0 t
554.20 166.23 1.00 1.00 r p2
555.94 164.71 (<) .5 0 t
557.18 164.71 (<) .5 0 t
557.91 166.23 1.00 1.00 r p2
559.65 164.71 (<) .5 0 t
560.89 164.71 (<) .5 0 t
562.12 164.71 (<) .5 0 t
563.36 164.71 (<) .5 0 t
564.59 164.71 (<) .5 0 t
565.83 164.71 (<) .5 0 t
567.07 164.71 (<) .5 0 t
567.80 166.23 1.00 1.00 r p2
569.04 166.23 1.00 1.00 r p2
570.28 166.23 1.00 1.00 r p2
571.51 166.23 1.00 1.00 r p2
573.25 164.71 (>) .5 0 t
574.48 164.71 (>) .5 0 t
575.72 164.71 (>) .5 0 t
576.96 164.71 (>) .5 0 t
578.19 164.71 (>) .5 0 t
579.43 164.71 (>) .5 0 t
580.67 164.71 (>) .5 0 t
581.40 166.23 1.00 1.00 r p2
582.64 166.23 1.00 1.00 r p2
583.87 166.23 1.00 1.00 r p2
585.11 166.23 1.00 1.00 r p2
586.35 166.23 1.00 1.00 r p2
587.58 166.23 1.00 1.00 r p2
588.82 166.23 1.00 1.00 r p2
590.05 166.23 1.00 1.00 r p2
591.29 166.23 1.00 1.00 r p2
592.53 166.23 1.00 1.00 r p2
593.76 166.23 1.00 1.00 r p2
595.00 166.23 1.00 1.00 r p2
596.24 166.23 1.00 1.00 r p2
597.47 166.23 1.00 1.00 r p2
598.71 166.23 1.00 1.00 r p2
599.94 166.23 1.00 1.00 r p2
601.18 166.23 1.00 1.00 r p2
602.42 166.23 1.00 1.00 r p2
603.65 166.23 1.00 1.00 r p2
604.89 166.23 1.00 1.00 r p2
606.13 166.23 1.00 1.00 r p2
607.36 166.23 1.00 1.00 r p2
608.60 166.23 1.00 1.00 r p2
609.83 166.23 1.00 1.00 r p2
611.07 166.23 1.00 1.00 r p2
612.31 166.23 1.00 1.00 r p2
613.54 166.23 1.00 1.00 r p2
614.78 166.23 1.00 1.00 r p2
616.02 166.23 1.00 1.00 r p2
617.25 166.23 1.00 1.00 r p2
618.49 166.23 1.00 1.00 r p2
619.72 166.23 1.00 1.00 r p2
620.96 166.23 1.00 1.00 r p2
622.20 166.23 1.00 1.00 r p2
623.43 166.23 1.00 1.00 r p2
624.67 166.23 1.00 1.00 r p2
625.91 166.23 1.00 1.00 r p2
627.14 166.23 1.00 1.00 r p2
628.38 166.23 1.00 1.00 r p2
629.61 166.23 1.00 1.00 r p2
630.85 166.23 1.00 1.00 r p2
632.09 166.23 1.00 1.00 r p2
633.32 166.23 1.00 1.00 r p2
634.56 166.23 1.00 1.00 r p2
635.79 166.23 1.00 1.00 r p2
637.03 166.23 1.00 1.00 r p2
638.27 166.23 1.00 1.00 r p2
639.50 166.23 1.00 1.00 r p2
640.74 166.23 1.00 1.00 r p2
641.98 166.23 1.00 1.00 r p2
643.21 166.23 1.00 1.00 r p2
644.45 166.23 1.00 1.00 r p2
645.68 166.23 1.00 1.00 r p2
646.92 166.23 1.00 1.00 r p2
648.16 166.23 1.00 1.00 r p2
649.39 166.23 1.00 1.00 r p2
650.63 166.23 1.00 1.00 r p2
651.87 166.23 1.00 1.00 r p2
653.60 164.71 (>) .5 0 t
654.84 164.71 (>) .5 0 t
655.57 166.23 1.00 1.00 r p2
656.81 166.23 1.00 1.00 r p2
658.05 166.23 1.00 1.00 r p2
659.28 166.23 1.00 1.00 r p2
660.52 166.23 1.00 1.00 r p2
661.76 166.23 1.00 1.00 r p2
662.99 166.23 1.00 1.00 r p2
664.23 166.23 1.00 1.00 r p2
665.46 166.23 1.00 1.00 r p2
666.70 166.23 1.00 1.00 r p2
667.94 166.23 1.00 1.00 r p2
669.17 166.23 1.00 1.00 r p2
670.41 166.23 1.00 1.00 r p2
0.00 0.00 720.00 180.00 cl
0.00 0.00 720.00 180.00 cl
0 0 0 srgb
0.75 setlinewidth
[] 0 setdash
1 setlinecap
1 setlinejoin
10.00 setmiterlimit
np
49.09 36.00 m
618.11 0 l
o
np
49.09 36.00 m
0 -7.20 l
o
np
61.45 36.00 m
0 -7.20 l
o
np
73.82 36.00 m
0 -7.20 l
o
np
86.18 36.00 m
0 -7.20 l
o
np
98.54 36.00 m
0 -7.20 l
o
np
110.90 36.00 m
0 -7.20 l
o
np
123.26 36.00 m
0 -7.20 l
o
np
135.63 36.00 m
0 -7.20 l
o
np
147.99 36.00 m
0 -7.20 l
o
np
160.35 36.00 m
0 -7.20 l
o
np
172.71 36.00 m
0 -7.20 l
o
np
185.08 36.00 m
0 -7.20 l
o
np
197.44 36.00 m
0 -7.20 l
o
np
209.80 36.00 m
0 -7.20 l
o
np
222.16 36.00 m
0 -7.20 l
o
np
234.52 36.00 m
0 -7.20 l
o
np
246.89 36.00 m
0 -7.20 l
o
np
259.25 36.00 m
0 -7.20 l
o
np
271.61 36.00 m
0 -7.20 l
o
np
283.97 36.00 m
0 -7.20 l
o
np
296.33 36.00 m
0 -7.20 l
o
np
308.70 36.00 m
0 -7.20 l
o
np
321.06 36.00 m
0 -7.20 l
o
np
333.42 36.00 m
0 -7.20 l
o
np
345.78 36.00 m
0 -7.20 l
o
np
358.15 36.00 m
0 -7.20 l
o
np
370.51 36.00 m
0 -7.20 l
o
np
382.87 36.00 m
0 -7.20 l
o
np
395.23 36.00 m
0 -7.20 l
o
np
407.59 36.00 m
0 -7.20 l
o
np
419.96 36.00 m
0 -7.20 l
o
np
432.32 36.00 m
0 -7.20 l
o
np
444.68 36.00 m
0 -7.20 l
o
np
457.04 36.00 m
0 -7.20 l
o
np
469.41 36.00 m
0 -7.20 l
o
np
481.77 36.00 m
0 -7.20 l
o
np
494.13 36.00 m
0 -7.20 l
o
np
506.49 36.00 m
0 -7.20 l
o
np
518.85 36.00 m
0 -7.20 l
o
np
531.22 36.00 m
0 -7.20 l
o
np
543.58 36.00 m
0 -7.20 l
o
np
555.94 36.00 m
0 -7.20 l
o
np
568.30 36.00 m
0 -7.20 l
o
np
580.67 36.00 m
0 -7.20 l
o
np
593.03 36.00 m
0 -7.20 l
o
np
605.39 36.00 m
0 -7.20 l
o
np
617.75 36.00 m
0 -7.20 l
o
np
630.11 36.00 m
0 -7.20 l
o
np
642.48 36.00 m
0 -7.20 l
o
np
654.84 36.00 m
0 -7.20 l
o
np
667.20 36.00 m
0 -7.20 l
o
/Font1 findfont 12 s
49.09 10.08 (0) .5 0 t
73.82 10.08 (20) .5 0 t
98.54 10.08 (40) .5 0 t
123.26 10.08 (60) .5 0 t
147.99 10.08 (80) .5 0 t
185.08 10.08 (110) .5 0 t
222.16 10.08 (140) .5 0 t
259.25 10.08 (170) .5 0 t
296.33 10.08 (200) .5 0 t
333.42 10.08 (230) .5 0 t
370.51 10.08 (260) .5 0 t
407.59 10.08 (290) .5 0 t
444.68 10.08 (320) .5 0 t
481.77 10.08 (350) .5 0 t
518.85 10.08 (380) .5 0 t
555.94 10.08 (410) .5 0 t
593.03 10.08 (440) .5 0 t
630.11 10.08 (470) .5 0 t
667.20 10.08 (500) .5 0 t
18.00 36.00 702.00 180.00 cl
/bg { 0 0 0 srgb } def
49.83 158.29 1.00 1.00 r p2
51.06 158.29 1.00 1.00 r p2
52.30 158.29 1.00 1.00 r p2
53.54 158.29 1.00 1.00 r p2
54.77 158.29 1.00 1.00 r p2
56.01 158.29 1.00 1.00 r p2
/Font1 findfont 8 s
0 0 0 srgb
57.74 156.77 (<) .5 0 t
58.98 156.77 (<) .5 0 t
60.22 156.77 (<) .5 0 t
61.45 156.77 (<) .5 0 t
62.19 158.29 1.00 1.00 r p2
63.43 158.29 1.00 1.00 r p2
65.16 156.77 (<) .5 0 t
66.40 156.77 (<) .5 0 t
67.13 158.29 1.00 1.00 r p2
68.37 158.29 1.00 1.00 r p2
69.61 158.29 1.00 1.00 r p2
70.84 158.29 1.00 1.00 r p2
72.08 158.29 1.00 1.00 r p2
73.32 158.29 1.00 1.00 r p2
74.55 158.29 1.00 1.00 r p2
75.79 158.29 1.00 1.00 r p2
77.02 158.29 1.00 1.00 r p2
78.76 156.77 (>) .5 0 t
80.00 156.77 (>) .5 0 t
81.23 156.77 (>) .5 0 t
82.47 156.77 (>) .5 0 t
83.71 156.77 (>) .5 0 t
84.94 156.77 (>) .5 0 t
85.68 158.29 1.00 1.00 r p2
86.91 158.29 1.00 1.00 r p2
88.15 158.29 1.00 1.00 r p2
89.39 158.29 1.00 1.00 r p2
90.62 158.29 1.00 1.00 r p2
91.86 158.29 1.00 1.00 r p2
93.59 156.77 (<) .5 0 t
94.83 156.77 (<) .5 0 t
96.07 156.77 (<) .5 0 t
97.30 156.77 (<) .5 0 t
98.54 156.77 (<) .5 0 t
99.78 156.77 (<) .5 0 t
100.51 158.29 1.00 1.00 r p2
101.75 158.29 1.00 1.00 r p2
102.98 158.29 1.00 1.00 r p2
104.22 158.29 1.00 1.00 r p2
105.46 158.29 1.00 1.00 r p2
106.69 158.29 1.00 1.00 r p2
107.93 158.29 1.00 1.00 r p2
109.17 158.29 1.00 1.00 r p2
110.40 158.29 1.00 1.00 r p2
111.64 158.29 1.00 1.00 r p2
112.87 158.29 1.00 1.00 r p2
114.61 156.77 (>) .5 0 t
115.85 156.77 (>) .5 0 t
117.08 156.77 (>) .5 0 t
118.32 156.77 (>) .5 0 t
119.56 156.77 (>) .5 0 t
120.79 156.77 (>) .5 0 t
121.53 158.29 1.00 1.00 r p2
122.76 158.29 1.00 1.00 r p2
124.00 158.29 1.00 1.00 r p2
125.24 158.29 1.00 1.00 r p2
126.47 158.29 1.00 1.00 r p2
127.71 158.29 1.00 1.00 r p2
128.95 158.29 1.00 1.00 r p2
130.18 158.29 1.00 1.00 r p2
131.42 158.29 1.00 1.00 r p2
132.65 158.29 1.00 1.00 r p2
133.89 158.29 1.00 1.00 r p2
135.13 158.29 1.00 1.00 r p2
136.36 158.29 1.00 1.00 r p2
137.60 158.29 1.00 1.00 r p2
138.83 158.29 1.00 1.00 r p2
140.07 158.29 1.00 1.00 r p2
141.31 158.29 1.00 1.00 r p2
142.54 158.29 1.00 1.00 r p2
143.78 158.29 1.00 1.00 r p2
145.02 158.29 1.00 1.00 r p2
146.25 158.29 1.00 1.00 r p2
147.49 158.29 1.00 1.00 r p2
148.72 158.29 1.00 1.00 r p2
149.96 158.29 1.00 1.00 r p2
151.20 158.29 1.00 1.00 r p2
152.43 158.29 1.00 1.00 r p2
153.67 158.29 1.00 1.00 r p2
154.91 158.29 1.00 1.00 r p2
156.14 158.29 1.00 1.00 r p2
157.38 158.29 1.00 1.00 r p2
158.61 158.29 1.00 1.00 r p2
159.85 158.29 1.00 1.00 r p2
161.09 158.29 1.00 1.00 r p2
162.32 158.29 1.00 1.00 r p2
163.56 158.29 1.00 1.00 r p2
164.80 158.29 1.00 1.00 r p2
166.03 158.29 1.00 1.00 r p2
167.27 158.29 1.00 1.00 r p2
168.50 158.29 1.00 1.00 r p2
169.74 158.29 1.00 1.00 r p2
170.98 158.29 1.00 1.00 r p2
172.21 158.29 1.00 1.00 r p2
173.45 158.29 1.00 1.00 r p2
174.69 158.29 1.00 1.00 r p2
175.92 158.29 1.00 1.00 r p2
177.16 158.29 1.00 1.00 r p2
178.39 158.29 1.00 1.00 r p2
179.63 158.29 1.00 1.00 r p2
181.37 155.92 (A) .5 0 t
182.60 155.92 (A) .5 0 t
183.84 155.92 (A) .5 0 t
185.08 155.92 (A) .5 0 t
186.31 155.92 (A) .5 0 t
187.55 155.92 (A) .5 0 t
188.78 155.92 (A) .5 0 t
189.52 158.29 1.00 1.00 r p2
190.76 158.29 1.00 1.00 r p2
191.99 158.29 1.00 1.00 r p2
193.23 158.29 1.00 1.00 r p2
194.96 156.77 (<) .5 0 t
196.20 156.77 (<) .5 0 t
197.44 156.77 (<) .5 0 t
198.67 156.77 (<) .5 0 t
199.91 156.77 (<) .5 0 t
201.15 156.77 (<) .5 0 t
201.88 158.29 1.00 1.00 r p2
203.12 158.29 1.00 1.00 r p2
204.35 158.29 1.00 1.00 r p2
206.09 156.77 (<) .5 0 t
207.33 156.77 (<) .5 0 t
208.56 156.77 (<) .5 0 t
209.30 158.29 1.00 1.00 r p2
210.54 158.29 1.00 1.00 r p2
211.77 158.29 1.00 1.00 r p2
213.01 158.29 1.00 1.00 r p2
214.24 158.29 1.00 1.00 r p2
215.48 158.29 1.00 1.00 r p2
216.72 158.29 1.00 1.00 r p2
217.95 158.29 1.00 1.00 r p2
219.19 158.29 1.00 1.00 r p2
220.43 158.29 1.00 1.00 r p2
221.66 158.29 1.00 1.00 r p2
222.90 158.29 1.00 1.00 r p2
224.13 158.29 1.00 1.00 r p2
225.37 158.29 1.00 1.00 r p2
226.61 158.29 1.00 1.00 r p2
227.84 158.29 1.00 1.00 r p2
229.08 158.29 1.00 1.00 r p2
230.32 158.29 1.00 1.00 r p2
231.55 158.29 1.00 1.00 r p2
232.79 158.29 1.00 1.00 r p2
234.02 158.29 1.00 1.00 r p2
235.26 158.29 1.00 1.00 r p2
236.50 158.29 1.00 1.00 r p2
237.73 158.29 1.00 1.00 r p2
238.97 158.29 1.00 1.00 r p2
240.20 158.29 1.00 1.00 r p2
241.44 158.29 1.00 1.00 r p2
242.68 158.29 1.00 1.00 r p2
244.41 156.77 (>) .5 0 t
245.65 156.77 (>) .5 0 t
246.89 156.77 (>) .5 0 t
247.62 158.29 1.00 1.00 r p2
248.86 158.29 1.00 1.00 r p2
250.09 158.29 1.00 1.00 r p2
251.83 156.77 (>) .5 0 t
253.07 156.77 (>) .5 0 t
254.30 156.77 (>) .5 0 t
255.54 156.77 (>) .5 0 t
256.78 156.77 (>) .5 0 t
258.01 156.77 (>) .5 0 t
259.25 156.77 (<) .5 0 t
260.48 156.77 (<) .5 0 t
261.72 156.77 (<) .5 0 t
262.46 158.29 1.00 1.00 r p2
263.69 158.29 1.00 1.00 r p2
264.93 158.29 1.00 1.00 r p2
266.67 156.77 (<) .5 0 t
267.90 156.77 (<) .5 0 t
269.14 156.77 (<) .5 0 t
270.37 156.77 (<) .5 0 t
271.61 156.77 (<) .5 0 t
272.85 156.77 (<) .5 0 t
273.58 158.29 1.00 1.00 r p2
274.82 158.29 1.00 1.00 r p2
276.06 158.29 1.00 1.00 r p2
277.29 158.29 1.00 1.00 r p2
278.53 158.29 1.00 1.00 r p2
279.76 158.29 1.00 1.00 r p2
281.00 158.29 1.00 1.00 r p2
282.24 158.29 1.00 1.00 r p2
283.47 158.29 1.00 1.00 r p2
284.71 158.29 1.00 1.00 r p2
285.94 158.29 1.00 1.00 r p2
287.18 158.29 1.00 1.00 r p2
288.42 158.29 1.00 1.00 r p2
289.65 158.29 1.00 1.00 r p2
290.89 158.29 1.00 1.00 r p2
292.13 158.29 1.00 1.00 r p2
293.36 158.29 1.00 1.00 r p2
294.60 158.29 1.00 1.00 r p2
295.83 158.29 1.00 1.00 r p2
297.07 158.29 1.00 1.00 r p2
298.81 156.77 (>) .5 0 t
300.04 156.77 (>) .5 0 t
301.28 156.77 (>) .5 0 t
302.52 156.77 (>) .5 0 t
303.75 156.77 (>) .5 0 t
304.99 156.77 (>) .5 0 t
305.72 158.29 1.00 1.00 r p2
306.96 158.29 1.00 1.00 r p2
308.20 158.29 1.00 1.00 r p2
309.43 158.29 1.00 1.00 r p2
311.17 156.77 (>) .5 0 t
312.41 156.77 (>) .5 0 t
313.64 156.77 (>) .5 0 t
314.38 158.29 1.00 1.00 r p2
315.61 158.29 1.00 1.00 r p2
316.85 158.29 1.00 1.00 r p2
318.59 156.69 (\() .5 0 t
319.32 158.29 1.00 1.00 r p2
321.06 156.69 (\() .5 0 t
322.30 156.69 (\() .5 0 t
323.53 156.69 (\() .5 0 t
324.77 156.69 (\() .5 0 t
326.00 156.69 (\() .5 0 t
326.74 158.29 1.00 1.00 r p2
327.98 158.29 1.00 1.00 r p2
329.21 158.29 1.00 1.00 r p2
330.45 158.29 1.00 1.00 r p2
331.69 158.29 1.00 1.00 r p2
332.92 158.29 1.00 1.00 r p2
334.16 158.29 1.00 1.00 r p2
335.39 158.29 1.00 1.00 r p2
336.63 158.29 1.00 1.00 r p2
337.87 158.29 1.00 1.00 r p2
339.10 158.29 1.00 1.00 r p2
340.34 158.29 1.00 1.00 r p2
342.07 156.77 (<) .5 0 t
343.31 156.77 (<) .5 0 t
344.55 156.77 (<) .5 0 t
345.78 156.77 (<) .5 0 t
346.52 158.29 1.00 1.00 r p2
347.76 158.29 1.00 1.00 r p2
348.99 158.29 1.00 1.00 r p2
350.23 158.29 1.00 1.00 r p2
351.46 158.29 1.00 1.00 r p2
352.70 158.29 1.00 1.00 r p2
353.94 158.29 1.00 1.00 r p2
355.17 158.29 1.00 1.00 r p2
356.41 158.29 1.00 1.00 r p2
357.65 158.29 1.00 1.00 r p2
358.88 158.29 1.00 1.00 r p2
360.12 158.29 1.00 1.00 r p2
361.35 158.29 1.00 1.00 r p2
362.59 158.29 1.00 1.00 r p2
363.83 158.29 1.00 1.00 r p2
365.06 158.29 1.00 1.00 r p2
366.30 158.29 1.00 1.00 r p2
367.54 158.29 1.00 1.00 r p2
368.77 158.29 1.00 1.00 r p2
370.01 158.29 1.00 1.00 r p2
371.24 158.29 1.00 1.00 r p2
372.48 158.29 1.00 1.00 r p2
373.72 158.29 1.00 1.00 r p2
374.95 158.29 1.00 1.00 r p2
376.19 158.29 1.00 1.00 r p2
377.93 156.77 (>) .5 0 t
379.16 156.77 (>) .5 0 t
380.40 156.77 (>) .5 0 t
381.63 156.77 (>) .5 0 t
382.37 158.29 1.00 1.00 r p2
383.61 158.29 1.00 1.00 r p2
384.84 158.29 1.00 1.00 r p2
386.08 158.29 1.00 1.00 r p2
387.31 158.29 1.00 1.00 r p2
388.55 158.29 1.00 1.00 r p2
389.79 158.29 1.00 1.00 r p2
391.02 158.29 1.00 1.00 r p2
392.26 158.29 1.00 1.00 r p2
393.50 158.29 1.00 1.00 r p2
394.73 158.29 1.00 1.00 r p2
395.97 158.29 1.00 1.00 r p2
397.20 158.29 1.00 1.00 r p2
398.44 158.29 1.00 1.00 r p2
400.18 156.77 (<) .5 0 t
401.41 156.77 (<) .5 0 t
402.65 156.77 (<) .5 0 t
403.89 156.77 (<) .5 0 t
405.12 156.77 (<) .5 0 t
405.86 158.29 1.00 1.00 r p2
407.09 158.29 1.00 1.00 r p2
408.33 158.29 1.00 1.00 r p2
409.57 158.29 1.00 1.00 r p2
410.80 158.29 1.00 1.00 r p2
412.04 158.29 1.00 1.00 r p2
413.28 158.29 1.00 1.00 r p2
414.51 158.29 1.00 1.00 r p2
415.75 158.29 1.00 1.00 r p2
416.98 158.29 1.00 1.00 r p2
418.22 158.29 1.00 1.00 r p2
419.46 158.29 1.00 1.00 r p2
420.69 158.29 1.00 1.00 r p2
421.93 158.29 1.00 1.00 r p2
423.17 158.29 1.00 1.00 r p2
424.40 158.29 1.00 1.00 r p2
425.64 158.29 1.00 1.00 r p2
426.87 158.29 1.00 1.00 r p2
428.11 158.29 1.00 1.00 r p2
429.35 158.29 1.00 1.00 r p2
430.58 158.29 1.00 1.00 r p2
431.82 158.29 1.00 1.00 r p2
433.06 158.29 1.00 1.00 r p2
434.29 158.29 1.00 1.00 r p2
435.53 158.29 1.00 1.00 r p2
436.76 158.29 1.00 1.00 r p2
438.00 158.29 1.00 1.00 r p2
439.24 158.29 1.00 1.00 r p2
440.47 158.29 1.00 1.00 r p2
441.71 158.29 1.00 1.00 r p2
442.94 158.29 1.00 1.00 r p2
444.18 158.29 1.00 1.00 r p2
445.92 156.77 (>) .5 0 t
447.15 156.77 (>) .5 0 t
448.39 156.77 (>) .5 0 t
449.63 156.77 (>) .5 0 t
450.86 156.77 (>) .5 0 t
451.60 158.29 1.00 1.00 r p2
452.83 158.29 1.00 1.00 r p2
454.07 158.29 1.00 1.00 r p2
455.31 158.29 1.00 1.00 r p2
456.54 158.29 1.00 1.00 r p2
457.78 158.29 1.00 1.00 r p2
459.02 158.29 1.00 1.00 r p2
460.25 158.29 1.00 1.00 r p2
461.49 158.29 1.00 1.00 r p2
462.72 158.29 1.00 1.00 r p2
463.96 158.29 1.00 1.00 r p2
465.20 158.29 1.00 1.00 r p2
466.43 158.29 1.00 1.00 r p2
467.67 158.29 1.00 1.00 r p2
468.91 158.29 1.00 1.00 r p2
470.14 158.29 1.00 1.00 r p2
471.38 158.29 1.00 1.00 r p2
472.61 158.29 1.00 1.00 r p2
474.35 156.70 (a) .5 0 t
475.09 158.29 1.00 1.00 r p2
476.82 156.70 (a) .5 0 t
478.06 156.70 (a) .5 0 t
479.30 156.70 (a) .5 0 t
480.53 156.70 (a) .5 0 t
481.77 156.70 (a) .5 0 t
483.00 156.70 (a) .5 0 t
483.74 158.29 1.00 1.00 r p2
484.98 158.29 1.00 1.00 r p2
486.21 158.29 1.00 1.00 r p2
487.95 156.77 (<) .5 0 t
489.18 156.77 (<) .5 0 t
490.42 156.77 (<) .5 0 t
491.66 156.77 (<) .5 0 t
492.89 156.77 (<) .5 0 t
494.13 156.77 (<) .5 0 t
494.87 158.29 1.00 1.00 r p2
496.10 158.29 1.00 1.00 r p2
497.34 158.29 1.00 1.00 r p2
498.57 158.29 1.00 1.00 r p2
499.81 158.29 1.00 1.00 r p2
501.05 158.29 1.00 1.00 r p2
502.28 158.29 1.00 1.00 r p2
503.52 158.29 1.00 1.00 r p2
504.76 158.29 1.00 1.00 r p2
505.99 158.29 1.00 1.00 r p2
507.23 158.29 1.00 1.00 r p2
508.46 158.29 1.00 1.00 r p2
509.70 158.29 1.00 1.00 r p2
510.94 158.29 1.00 1.00 r p2
512.17 158.29 1.00 1.00 r p2
513.41 158.29 1.00 1.00 r p2
514.65 158.29 1.00 1.00 r p2
515.88 158.29 1.00 1.00 r p2
517.12 158.29 1.00 1.00 r p2
518.35 158.29 1.00 1.00 r p2
519.59 158.29 1.00 1.00 r p2
520.83 158.29 1.00 1.00 r p2
522.56 156.77 (>) .5 0 t
523.80 156.77 (>) .5 0 t
525.04 156.77 (>) .5 0 t
526.27 156.77 (>) .5 0 t
527.51 156.77 (>) .5 0 t
528.74 156.77 (>) .5 0 t
529.48 158.29 1.00 1.00 r p2
530.72 158.29 1.00 1.00 r p2
531.95 158.29 1.00 1.00 r p2
533.19 158.29 1.00 1.00 r p2
534.42 158.29 1.00 1.00 r p2
535.66 158.29 1.00 1.00 r p2
536.90 158.29 1.00 1.00 r p2
538.13 158.29 1.00 1.00 r p2
539.37 158.29 1.00 1.00 r p2
540.61 158.29 1.00 1.00 r p2
541.84 158.29 1.00 1.00 r p2
543.08 158.29 1.00 1.00 r p2
544.31 158.29 1.00 1.00 r p2
545.55 158.29 1.00 1.00 r p2
547.29 156.69 (\)) .5 0 t
548.52 156.69 (\)) .5 0 t
549.76 156.69 (\)) .5 0 t
551.00 156.69 (\)) .5 0 t
552.23 156.69 (\)) .5 0 t
553.47 156.69 (\)) .5 0 t
554.20 158.29 1.00 1.00 r p2
555.94 156.77 (<) .5 0 t
557.18 156.77 (<) .5 0 t
557.91 158.29 1.00 1.00 r p2
559.65 156.77 (<) .5 0 t
560.89 156.77 (<) .5 0 t
562.12 156.77 (<) .5 0 t
563.36 156.77 (<) .5 0 t
564.59 156.77 (<) .5 0 t
565.83 156.77 (<) .5 0 t
567.07 156.77 (<) .5 0 t
567.80 158.29 1.00 1.00 r p2
569.04 158.29 1.00 1.00 r p2
570.28 158.29 1.00 1.00 r p2
571.51 158.29 1.00 1.00 r p2
573.25 156.77 (>) .5 0 t
574.48 156.77 (>) .5 0 t
575.72 156.77 (>) .5 0 t
576.96 156.77 (>) .5 0 t
578.19 156.77 (>) .5 0 t
579.43 156.77 (>) .5 0 t
580.67 156.77 (>) .5 0 t
581.40 158.29 1.00 1.00 r p2
582.64 158.29 1.00 1.00 r p2
583.87 158.29 1.00 1.00 r p2
585.11 158.29 1.00 1.00 r p2
586.35 158.29 1.00 1.00 r p2
587.58 158.29 1.00 1.00 r p2
588.82 158.29 1.00 1.00 r p2
590.05 158.29 1.00 1.00 r p2
591.29 158.29 1.00 1.00 r p2
592.53 158.29 1.00 1.00 r p2
593.76 158.29 1.00 1.00 r p2
595.00 158.29 1.00 1.00 r p2
596.24 158.29 1.00 1.00 r p2
597.47 158.29 1.00 1.00 r p2
598.71 158.29 1.00 1.00 r p2
599.94 158.29 1.00 1.00 r p2
601.18 158.29 1.00 1.00 r p2
602.42 158.29 1.00 1.00 r p2
603.65 158.29 1.00 1.00 r p2
604.89 158.29 1.00 1.00 r p2
606.13 158.29 1.00 1.00 r p2
607.36 158.29 1.00 1.00 r p2
608.60 158.29 1.00 1.00 r p2
609.83 158.29 1.00 1.00 r p2
611.07 158.29 1.00 1.00 r p2
612.31 158.29 1.00 1.00 r p2
613.54 158.29 1.00 1.00 r p2
614.78 158.29 1.00 1.00 r p2
616.02 158.29 1.00 1.00 r p2
617.25 158.29 1.00 1.00 r p2
618.49 158.29 1.00 1.00 r p2
619.72 158.29 1.00 1.00 r p2
620.96 158.29 1.00 1.00 r p2
622.20 158.29 1.00 1.00 r p2
623.43 158.29 1.00 1.00 r p2
624.67 158.29 1.00 1.00 r p2
625.91 158.29 1.00 1.00 r p2
627.14 158.29 1.00 1.00 r p2
628.38 158.29 1.00 1.00 r p2
629.61 158.29 1.00 1.00 r p2
630.85 158.29 1.00 1.00 r p2
632.09 158.29 1.00 1.00 r p2
633.32 158.29 1.00 1.00 r p2
634.56 158.29 1.00 1.00 r p2
635.79 158.29 1.00 1.00 r p2
637.03 158.29 1.00 1.00 r p2
638.27 158.29 1.00 1.00 r p2
639.50 158.29 1.00 1.00 r p2
640.74 158.29 1.00 1.00 r p2
641.98 158.29 1.00 1.00 r p2
643.21 158.29 1.00 1.00 r p2
644.45 158.29 1.00 1.00 r p2
645.68 158.29 1.00 1.00 r p2
646.92 158.29 1.00 1.00 r p2
648.16 158.29 1.00 1.00 r p2
649.39 158.29 1.00 1.00 r p2
650.63 158.29 1.00 1.00 r p2
651.87 158.29 1.00 1.00 r p2
653.60 156.77 (>) .5 0 t
654.84 156.77 (>) .5 0 t
655.57 158.29 1.00 1.00 r p2
656.81 158.29 1.00 1.00 r p2
658.05 158.29 1.00 1.00 r p2
659.28 158.29 1.00 1.00 r p2
660.52 158.29 1.00 1.00 r p2
661.76 158.29 1.00 1.00 r p2
662.99 158.29 1.00 1.00 r p2
664.23 158.29 1.00 1.00 r p2
665.46 158.29 1.00 1.00 r p2
666.70 158.29 1.00 1.00 r p2
667.94 158.29 1.00 1.00 r p2
669.17 158.29 1.00 1.00 r p2
670.41 158.29 1.00 1.00 r p2
49.83 150.36 1.00 1.00 r p2
51.06 150.36 1.00 1.00 r p2
52.30 150.36 1.00 1.00 r p2
53.54 150.36 1.00 1.00 r p2
54.77 150.36 1.00 1.00 r p2
56.01 150.36 1.00 1.00 r p2
57.74 148.05 (1) .5 0 t
58.98 148.05 (1) .5 0 t
60.22 148.05 (1) .5 0 t
61.45 148.05 (1) .5 0 t
62.19 150.36 1.00 1.00 r p2
63.43 150.36 1.00 1.00 r p2
65.16 148.05 (1) .5 0 t
66.40 148.05 (1) .5 0 t
67.13 150.36 1.00 1.00 r p2
68.37 150.36 1.00 1.00 r p2
69.61 150.36 1.00 1.00 r p2
70.84 150.36 1.00 1.00 r p2
72.08 150.36 1.00 1.00 r p2
73.32 150.36 1.00 1.00 r p2
74.55 150.36 1.00 1.00 r p2
75.79 150.36 1.00 1.00 r p2
77.02 150.36 1.00 1.00 r p2
78.76 148.05 (1) .5 0 t
80.00 148.05 (1) .5 0 t
81.23 148.05 (1) .5 0 t
82.47 148.05 (1) .5 0 t
83.71 148.05 (1) .5 0 t
84.94 148.05 (1) .5 0 t
85.68 150.36 1.00 1.00 r p2
86.91 150.36 1.00 1.00 r p2
88.15 150.36 1.00 1.00 r p2
89.39 150.36 1.00 1.00 r p2
90.62 150.36 1.00 1.00 r p2
91.86 150.36 1.00 1.00 r p2
93.59 148.05 (2) .5 0 t
94.83 148.05 (2) .5 0 t
96.07 148.05 (2) .5 0 t
97.30 148.05 (2) .5 0 t
98.54 148.05 (2) .5 0 t
99.78 148.05 (2) .5 0 t
100.51 150.36 1.00 1.00 r p2
101.75 150.36 1.00 1.00 r p2
102.98 150.36 1.00 1.00 r p2
104.22 150.36 1.00 1.00 r p2
105.46 150.36 1.00 1.00 r p2
106.69 150.36 1.00 1.00 r p2
107.93 150.36 1.00 1.00 r p2
109.17 150.36 1.00 1.00 r p2
110.40 150.36 1.00 1.00 r p2
111.64 150.36 1.00 1.00 r p2
112.87 150.36 1.00 1.00 r p2
114.61 148.05 (2) .5 0 t
115.85 148.05 (2) .5 0 t
117.08 148.05 (2) .5 0 t
118.32 148.05 (2) .5 0 t
119.56 148.05 (2) .5 0 t
120.79 148.05 (2) .5 0 t
121.53 150.36 1.00 1.00 r p2
122.76 150.36 1.00 1.00 r p2
124.00 150.36 1.00 1.00 r p2
125.24 150.36 1.00 1.00 r p2
126.47 150.36 1.00 1.00 r p2
127.71 150.36 1.00 1.00 r p2
128.95 150.36 1.00 1.00 r p2
130.18 150.36 1.00 1.00 r p2
131.42 150.36 1.00 1.00 r p2
132.65 150.36 1.00 1.00 r p2
133.89 150.36 1.00 1.00 r p2
135.13 150.36 1.00 1.00 r p2
136.36 150.36 1.00 1.00 r p2
137.60 150.36 1.00 1.00 r p2
138.83 150.36 1.00 1.00 r p2
140.07 150.36 1.00 1.00 r p2
141.31 150.36 1.00 1.00 r p2
142.54 150.36 1.00 1.00 r p2
143.78 150.36 1.00 1.00 r p2
145.02 150.36 1.00 1.00 r p2
146.25 150.36 1.00 1.00 r p2
147.49 150.36 1.00 1.00 r p2
148.72 150.36 1.00 1.00 r p2
149.96 150.36 1.00 1.00 r p2
151.20 150.36 1.00 1.00 r p2
152.43 150.36 1.00 1.00 r p2
153.67 150.36 1.00 1.00 r p2
154.91 150.36 1.00 1.00 r p2
156.14 150.36 1.00 1.00 r p2
157.38 150.36 1.00 1.00 r p2
158.61 150.36 1.00 1.00 r p2
159.85 150.36 1.00 1.00 r p2
161.09 150.36 1.00 1.00 r p2
162.32 150.36 1.00 1.00 r p2
163.56 150.36 1.00 1.00 r p2
164.80 150.36 1.00 1.00 r p2
166.03 150.36 1.00 1.00 r p2
167.27 150.36 1.00 1.00 r p2
168.50 150.36 1.00 1.00 r p2
169.74 150.36 1.00 1.00 r p2
170.98 150.36 1.00 1.00 r p2
172.21 150.36 1.00 1.00 r p2
173.45 150.36 1.00 1.00 r p2
174.69 150.36 1.00 1.00 r p2
175.92 150.36 1.00 1.00 r p2
177.16 150.36 1.00 1.00 r p2
178.39 150.36 1.00 1.00 r p2
179.63 150.36 1.00 1.00 r p2
181.37 148.12 (3) .5 0 t
182.60 148.12 (3) .5 0 t
183.84 148.12 (3) .5 0 t
185.08 148.12 (3) .5 0 t
186.31 148.12 (3) .5 0 t
187.55 148.12 (3) .5 0 t
188.78 148.12 (3) .5 0 t
189.52 150.36 1.00 1.00 r p2
190.76 150.36 1.00 1.00 r p2
191.99 150.36 1.00 1.00 r p2
193.23 150.36 1.00 1.00 r p2
194.96 148.05 (4) .5 0 t
196.20 148.05 (4) .5 0 t
197.44 148.05 (4) .5 0 t
198.67 148.05 (4) .5 0 t
199.91 148.05 (4) .5 0 t
201.15 148.05 (4) .5 0 t
201.88 150.36 1.00 1.00 r p2
203.12 150.36 1.00 1.00 r p2
204.35 150.36 1.00 1.00 r p2
206.09 148.05 (4) .5 0 t
207.33 148.05 (4) .5 0 t
208.56 148.05 (4) .5 0 t
209.30 150.36 1.00 1.00 r p2
210.54 150.36 1.00 1.00 r p2
211.77 150.36 1.00 1.00 r p2
213.01 150.36 1.00 1.00 r p2
214.24 150.36 1.00 1.00 r p2
215.48 150.36 1.00 1.00 r p2
216.72 150.36 1.00 1.00 r p2
217.95 150.36 1.00 1.00 r p2
219.19 150.36 1.00 1.00 r p2
220.43 150.36 1.00 1.00 r p2
221.66 150.36 1.00 1.00 r p2
222.90 150.36 1.00 1.00 r p2
224.13 150.36 1.00 1.00 r p2
225.37 150.36 1.00 1.00 r p2
226.61 150.36 1.00 1.00 r p2
227.84 150.36 1.00 1.00 r p2
229.08 150.36 1.00 1.00 r p2
230.32 150.36 1.00 1.00 r p2
231.55 150.36 1.00 1.00 r p2
232.79 150.36 1.00 1.00 r p2
234.02 150.36 1.00 1.00 r p2
235.26 150.36 1.00 1.00 r p2
236.50 150.36 1.00 1.00 r p2
237.73 150.36 1.00 1.00 r p2
238.97 150.36 1.00 1.00 r p2
240.20 150.36 1.00 1.00 r p2
241.44 150.36 1.00 1.00 r p2
242.68 150.36 1.00 1.00 r p2
244.41 148.05 (4) .5 0 t
245.65 148.05 (4) .5 0 t
246.89 148.05 (4) .5 0 t
247.62 150.36 1.00 1.00 r p2
248.86 150.36 1.00 1.00 r p2
250.09 150.36 1.00 1.00 r p2
251.83 148.05 (4) .5 0 t
253.07 148.05 (4) .5 0 t
254.30 148.05 (4) .5 0 t
255.54 148.05 (4) .5 0 t
256.78 148.05 (4) .5 0 t
258.01 148.05 (4) .5 0 t
259.25 148.18 (5) .5 0 t
260.48 148.18 (5) .5 0 t
261.72 148.18 (5) .5 0 t
262.46 150.36 1.00 1.00 r p2
263.69 150.36 1.00 1.00 r p2
264.93 150.36 1.00 1.00 r p2
266.67 148.18 (5) .5 0 t
267.90 148.18 (5) .5 0 t
269.14 148.18 (5) .5 0 t
270.37 148.18 (5) .5 0 t
271.61 148.18 (5) .5 0 t
272.85 148.18 (5) .5 0 t
273.58 150.36 1.00 1.00 r p2
274.82 150.36 1.00 1.00 r p2
276.06 150.36 1.00 1.00 r p2
277.29 150.36 1.00 1.00 r p2
278.53 150.36 1.00 1.00 r p2
279.76 150.36 1.00 1.00 r p2
281.00 150.36 1.00 1.00 r p2
282.24 150.36 1.00 1.00 r p2
283.47 150.36 1.00 1.00 r p2
284.71 150.36 1.00 1.00 r p2
285.94 150.36 1.00 1.00 r p2
287.18 150.36 1.00 1.00 r p2
288.42 150.36 1.00 1.00 r p2
289.65 150.36 1.00 1.00 r p2
290.89 150.36 1.00 1.00 r p2
292.13 150.36 1.00 1.00 r p2
293.36 150.36 1.00 1.00 r p2
294.60 150.36 1.00 1.00 r p2
295.83 150.36 1.00 1.00 r p2
297.07 150.36 1.00 1.00 r p2
298.81 148.18 (5) .5 0 t
300.04 148.18 (5) .5 0 t
301.28 148.18 (5) .5 0 t
302.52 148.18 (5) .5 0 t
303.75 148.18 (5) .5 0 t
304.99 148.18 (5) .5 0 t
305.72 150.36 1.00 1.00 r p2
306.96 150.36 1.00 1.00 r p2
308.20 150.36 1.00 1.00 r p2
309.43 150.36 1.00 1.00 r p2
311.17 148.18 (5) .5 0 t
312.41 148.18 (5) .5 0 t
313.64 148.18 (5) .5 0 t
314.38 150.36 1.00 1.00 r p2
315.61 150.36 1.00 1.00 r p2
316.85 150.36 1.00 1.00 r p2
318.59 148.12 (6) .5 0 t
319.32 150.36 1.00 1.00 r p2
321.06 148.12 (6) .5 0 t
322.30 148.12 (6) .5 0 t
323.53 148.12 (6) .5 0 t
324.77 148.12 (6) .5 0 t
326.00 148.12 (6) .5 0 t
326.74 150.36 1.00 1.00 r p2
327.98 150.36 1.00 1.00 r p2
329.21 150.36 1.00 1.00 r p2
330.45 150.36 1.00 1.00 r p2
331.69 150.36 1.00 1.00 r p2
332.92 150.36 1.00 1.00 r p2
334.16 150.36 1.00 1.00 r p2
335.39 150.36 1.00 1.00 r p2
336.63 150.36 1.00 1.00 r p2
337.87 150.36 1.00 1.00 r p2
339.10 150.36 1.00 1.00 r p2
340.34 150.36 1.00 1.00 r p2
342.07 148.83 (<) .5 0 t
343.31 148.83 (<) .5 0 t
344.55 148.83 (<) .5 0 t
345.78 148.83 (<) .5 0 t
346.52 150.36 1.00 1.00 r p2
347.76 150.36 1.00 1.00 r p2
348.99 150.36 1.00 1.00 r p2
350.23 150.36 1.00 1.00 r p2
351.46 150.36 1.00 1.00 r p2
352.70 150.36 1.00 1.00 r p2
353.94 150.36 1.00 1.00 r p2
355.17 150.36 1.00 1.00 r p2
356.41 150.36 1.00 1.00 r p2
357.65 150.36 1.00 1.00 r p2
358.88 150.36 1.00 1.00 r p2
360.12 150.36 1.00 1.00 r p2
361.35 150.36 1.00 1.00 r p2
362.59 150.36 1.00 1.00 r p2
363.83 150.36 1.00 1.00 r p2
365.06 150.36 1.00 1.00 r p2
366.30 150.36 1.00 1.00 r p2
367.54 150.36 1.00 1.00 r p2
368.77 150.36 1.00 1.00 r p2
370.01 150.36 1.00 1.00 r p2
371.24 150.36 1.00 1.00 r p2
372.48 150.36 1.00 1.00 r p2
373.72 150.36 1.00 1.00 r p2
374.95 150.36 1.00 1.00 r p2
376.19 150.36 1.00 1.00 r p2
377.93 148.83 (>) .5 0 t
379.16 148.83 (>) .5 0 t
380.40 148.83 (>) .5 0 t
381.63 148.83 (>) .5 0 t
382.37 150.36 1.00 1.00 r p2
383.61 150.36 1.00 1.00 r p2
384.84 150.36 1.00 1.00 r p2
386.08 150.36 1.00 1.00 r p2
387.31 150.36 1.00 1.00 r p2
388.55 150.36 1.00 1.00 r p2
389.79 150.36 1.00 1.00 r p2
391.02 150.36 1.00 1.00 r p2
392.26 150.36 1.00 1.00 r p2
393.50 150.36 1.00 1.00 r p2
394.73 150.36 1.00 1.00 r p2
395.97 150.36 1.00 1.00 r p2
397.20 150.36 1.00 1.00 r p2
398.44 150.36 1.00 1.00 r p2
400.18 148.83 (<) .5 0 t
401.41 148.83 (<) .5 0 t
402.65 148.83 (<) .5 0 t
403.89 148.83 (<) .5 0 t
405.12 148.83 (<) .5 0 t
405.86 150.36 1.00 1.00 r p2
407.09 150.36 1.00 1.00 r p2
408.33 150.36 1.00 1.00 r p2
409.57 150.36 1.00 1.00 r p2
410.80 150.36 1.00 1.00 r p2
412.04 150.36 1.00 1.00 r p2
413.28 150.36 1.00 1.00 r p2
414.51 150.36 1.00 1.00 r p2
415.75 150.36 1.00 1.00 r p2
416.98 150.36 1.00 1.00 r p2
418.22 150.36 1.00 1.00 r p2
419.46 150.36 1.00 1.00 r p2
420.69 150.36 1.00 1.00 r p2
421.93 150.36 1.00 1.00 r p2
423.17 150.36 1.00 1.00 r p2
424.40 150.36 1.00 1.00 r p2
425.64 150.36 1.00 1.00 r p2
426.87 150.36 1.00 1.00 r p2
428.11 150.36 1.00 1.00 r p2
429.35 150.36 1.00 1.00 r p2
430.58 150.36 1.00 1.00 r p2
431.82 150.36 1.00 1.00 r p2
433.06 150.36 1.00 1.00 r p2
434.29 150.36 1.00 1.00 r p2
435.53 150.36 1.00 1.00 r p2
436.76 150.36 1.00 1.00 r p2
438.00 150.36 1.00 1.00 r p2
439.24 150.36 1.00 1.00 r p2
440.47 150.36 1.00 1.00 r p2
441.71 150.36 1.00 1.00 r p2
442.94 150.36 1.00 1.00 r p2
444.18 150.36 1.00 1.00 r p2
445.92 148.83 (>) .5 0 t
447.15 148.83 (>) .5 0 t
448.39 148.83 (>) .5 0 t
449.63 148.83 (>) .5 0 t
450.86 148.83 (>) .5 0 t
451.60 150.36 1.00 1.00 r p2
452.83 150.36 1.00 1.00 r p2
454.07 150.36 1.00 1.00 r p2
455.31 150.36 1.00 1.00 r p2
456.54 150.36 1.00 1.00 r p2
457.78 150.36 1.00 1.00 r p2
459.02 150.36 1.00 1.00 r p2
460.25 150.36 1.00 1.00 r p2
461.49 150.36 1.00 1.00 r p2
462.72 150.36 1.00 1.00 r p2
463.96 150.36 1.00 1.00 r p2
465.20 150.36 1.00 1.00 r p2
466.43 150.36 1.00 1.00 r p2
467.67 150.36 1.00 1.00 r p2
468.91 150.36 1.00 1.00 r p2
470.14 150.36 1.00 1.00 r p2
471.38 150.36 1.00 1.00 r p2
472.61 150.36 1.00 1.00 r p2
474.35 148.12 (3) .5 0 t
475.09 150.36 1.00 1.00 r p2
476.82 148.12 (3) .5 0 t
478.06 148.12 (3) .5 0 t
479.30 148.12 (3) .5 0 t
480.53 148.12 (3) .5 0 t
481.77 148.12 (3) .5 0 t
483.00 148.12 (3) .5 0 t
483.74 150.36 1.00 1.00 r p2
484.98 150.36 1.00 1.00 r p2
486.21 150.36 1.00 1.00 r p2
487.95 148.11 (7) .5 0 t
489.18 148.11 (7) .5 0 t
490.42 148.11 (7) .5 0 t
491.66 148.11 (7) .5 0 t
492.89 148.11 (7) .5 0 t
494.13 148.11 (7) .5 0 t
494.87 150.36 1.00 1.00 r p2
496.10 150.36 1.00 1.00 r p2
497.34 150.36 1.00 1.00 r p2
498.57 150.36 1.00 1.00 r p2
499.81 150.36 1.00 1.00 r p2
501.05 150.36 1.00 1.00 r p2
502.28 150.36 1.00 1.00 r p2
503.52 150.36 1.00 1.00 r p2
504.76 150.36 1.00 1.00 r p2
505.99 150.36 1.00 1.00 r p2
507.23 150.36 1.00 1.00 r p2
508.46 150.36 1.00 1.00 r p2
509.70 150.36 1.00 1.00 r p2
510.94 150.36 1.00 1.00 r p2
512.17 150.36 1.00 1.00 r p2
513.41 150.36 1.00 1.00 r p2
514.65 150.36 1.00 1.00 r p2
515.88 150.36 1.00 1.00 r p2
517.12 150.36 1.00 1.00 r p2
518.35 150.36 1.00 1.00 r p2
519.59 150.36 1.00 1.00 r p2
520.83 150.36 1.00 1.00 r p2
522.56 148.11 (7) .5 0 t
523.80 148.11 (7) .5 0 t
525.04 148.11 (7) .5 0 t
526.27 148.11 (7) .5 0 t
527.51 148.11 (7) .5 0 t
528.74 148.11 (7) .5 0 t
529.48 150.36 1.00 1.00 r p2
530.72 150.36 1.00 1.00 r p2
531.95 150.36 1.00 1.00 r p2
533.19 150.36 1.00 1.00 r p2
534.42 150.36 1.00 1.00 r p2
535.66 150.36 1.00 1.00 r p2
536.90 150.36 1.00 1.00 r p2
538.13 150.36 1.00 1.00 r p2
539.37 150.36 1.00 1.00 r p2
540.61 150.36 1.00 1.00 r p2
541.84 150.36 1.00 1.00 r p2
543.08 150.36 1.00 1.00 r p2
544.31 150.36 1.00 1.00 r p2
545.55 150.36 1.00 1.00 r p2
547.29 148.12 (6) .5 0 t
548.52 148.12 (6) .5 0 t
549.76 148.12 (6) .5 0 t
551.00 148.12 (6) .5 0 t
552.23 148.12 (6) .5 0 t
553.47 148.12 (6) .5 0 t
554.20 150.36 1.00 1.00 r p2
555.94 148.12 (8) .5 0 t
557.18 148.12 (8) .5 0 t
557.91 150.36 1.00 1.00 r p2
559.65 148.12 (8) .5 0 t
560.89 148.12 (8) .5 0 t
562.12 148.12 (8) .5 0 t
563.36 148.12 (8) .5 0 t
564.59 148.12 (8) .5 0 t
565.83 148.12 (8) .5 0 t
567.07 148.12 (8) .5 0 t
567.80 150.36 1.00 1.00 r p2
569.04 150.36 1.00 1.00 r p2
570.28 150.36 1.00 1.00 r p2
571.51 150.36 1.00 1.00 r p2
573.25 148.12 (8) .5 0 t
574.48 148.12 (8) .5 0 t
575.72 148.12 (8) .5 0 t
576.96 148.12 (8) .5 0 t
578.19 148.12 (8) .5 0 t
579.43 148.12 (8) .5 0 t
580.67 148.12 (8) .5 0 t
581.40 150.36 1.00 1.00 r p2
582.64 150.36 1.00 1.00 r p2
583.87 150.36 1.00 1.00 r p2
585.11 150.36 1.00 1.00 r p2
586.35 150.36 1.00 1.00 r p2
587.58 150.36 1.00 1.00 r p2
588.82 150.36 1.00 1.00 r p2
590.05 150.36 1.00 1.00 r p2
591.29 150.36 1.00 1.00 r p2
592.53 150.36 1.00 1.00 r p2
593.76 150.36 1.00 1.00 r p2
595.00 150.36 1.00 1.00 r p2
596.24 150.36 1.00 1.00 r p2
597.47 150.36 1.00 1.00 r p2
598.71 150.36 1.00 1.00 r p2
599.94 150.36 1.00 1.00 r p2
601.18 150.36 1.00 1.00 r p2
602.42 150.36 1.00 1.00 r p2
603.65 150.36 1.00 1.00 r p2
604.89 150.36 1.00 1.00 r p2
606.13 150.36 1.00 1.00 r p2
607.36 150.36 1.00 1.00 r p2
608.60 150.36 1.00 1.00 r p2
609.83 150.36 1.00 1.00 r p2
611.07 150.36 1.00 1.00 r p2
612.31 150.36 1.00 1.00 r p2
613.54 150.36 1.00 1.00 r p2
614.78 150.36 1.00 1.00 r p2
616.02 150.36 1.00 1.00 r p2
617.25 150.36 1.00 1.00 r p2
618.49 150.36 1.00 1.00 r p2
619.72 150.36 1.00 1.00 r p2
620.96 150.36 1.00 1.00 r p2
622.20 150.36 1.00 1.00 r p2
623.43 150.36 1.00 1.00 r p2
624.67 150.36 1.00 1.00 r p2
625.91 150.36 1.00 1.00 r p2
627.14 150.36 1.00 1.00 r p2
628.38 150.36 1.00 1.00 r p2
629.61 150.36 1.00 1.00 r p2
630.85 150.36 1.00 1.00 r p2
632.09 150.36 1.00 1.00 r p2
633.32 150.36 1.00 1.00 r p2
634.56 150.36 1.00 1.00 r p2
635.79 150.36 1.00 1.00 r p2
637.03 150.36 1.00 1.00 r p2
638.27 150.36 1.00 1.00 r p2
639.50 150.36 1.00 1.00 r p2
640.74 150.36 1.00 1.00 r p2
641.98 150.36 1.00 1.00 r p2
643.21 150.36 1.00 1.00 r p2
644.45 150.36 1.00 1.00 r p2
645.68 150.36 1.00 1.00 r p2
646.92 150.36 1.00 1.00 r p2
648.16 150.36 1.00 1.00 r p2
649.39 150.36 1.00 1.00 r p2
650.63 150.36 1.00 1.00 r p2
651.87 150.36 1.00 1.00 r p2
653.60 148.12 (8) .5 0 t
654.84 148.12 (8) .5 0 t
655.57 150.36 1.00 1.00 r p2
656.81 150.36 1.00 1.00 r p2
658.05 150.36 1.00 1.00 r p2
659.28 150.36 1.00 1.00 r p2
660.52 150.36 1.00 1.00 r p2
661.76 150.36 1.00 1.00 r p2
662.99 150.36 1.00 1.00 r p2
664.23 150.36 1.00 1.00 r p2
665.46 150.36 1.00 1.00 r p2
666.70 150.36 1.00 1.00 r p2
667.94 150.36 1.00 1.00 r p2
669.17 150.36 1.00 1.00 r p2
670.41 150.36 1.00 1.00 r p2
1 0 0 srgb
0.75 setlinewidth
[] 0 setdash
1 setlinecap
1 setlinejoin
10.00 setmiterlimit
np
50.33 145.86 m
2.54 -4.41 l
-5.09 0 l
2.55 4.41 l
o
np
57.74 145.86 m
2.55 -4.41 l
-5.09 0 l
2.54 4.41 l
o
np
57.74 145.86 m
2.55 -4.41 l
-5.09 0 l
2.54 4.41 l
o
np
78.76 145.86 m
2.55 -4.41 l
-5.10 0 l
2.55 4.41 l
o
np
93.59 145.86 m
2.55 -4.41 l
-5.09 0 l
2.54 4.41 l
o
np
114.61 145.86 m
2.55 -4.41 l
-5.09 0 l
2.54 4.41 l
o
np
181.37 145.86 m
2.54 -4.41 l
-5.09 0 l
2.55 4.41 l
o
np
194.96 145.86 m
2.55 -4.41 l
-5.09 0 l
2.54 4.41 l
o
np
181.37 145.86 m
2.54 -4.41 l
-5.09 0 l
2.55 4.41 l
o
np
244.41 145.86 m
2.55 -4.41 l
-5.09 0 l
2.54 4.41 l
o
np
259.25 145.86 m
2.54 -4.41 l
-5.09 0 l
2.55 4.41 l
o
np
114.61 145.86 m
2.55 -4.41 l
-5.09 0 l
2.54 4.41 l
o
np
181.37 145.86 m
2.54 -4.41 l
-5.09 0 l
2.55 4.41 l
o
np
194.96 145.86 m
2.55 -4.41 l
-5.09 0 l
2.54 4.41 l
o
np
244.41 145.86 m
2.55 -4.41 l
-5.09 0 l
2.54 4.41 l
o
np
298.81 145.86 m
2.54 -4.41 l
-5.09 0 l
2.55 4.41 l
o
np
318.59 145.86 m
2.54 -4.41 l
-5.09 0 l
2.55 4.41 l
o
np
298.81 145.86 m
2.54 -4.41 l
-5.09 0 l
2.55 4.41 l
o
np
318.59 145.86 m
2.54 -4.41 l
-5.09 0 l
2.55 4.41 l
o
np
318.59 145.86 m
2.54 -4.41 l
-5.09 0 l
2.55 4.41 l
o
np
487.95 145.86 m
2.54 -4.41 l
-5.09 0 l
2.55 4.41 l
o
np
487.95 145.86 m
2.54 -4.41 l
-5.09 0 l
2.55 4.41 l
o
np
522.56 145.86 m
2.55 -4.41 l
-5.09 0 l
2.54 4.41 l
o
np
487.95 145.86 m
2.54 -4.41 l
-5.09 0 l
2.55 4.41 l
o
np
522.56 145.86 m
2.55 -4.41 l
-5.09 0 l
2.54 4.41 l
o
np
547.29 145.86 m
2.54 -4.41 l
-5.09 0 l
2.55 4.41 l
o
np
555.94 145.86 m
2.55 -4.41 l
-5.09 0 l
2.54 4.41 l
o
np
84.94 145.86 m
2.55 -4.41 l
-5.09 0 l
2.54 4.41 l
o
np
99.78 145.86 m
2.54 -4.41 l
-5.09 0 l
2.55 4.41 l
o
np
120.79 145.86 m
2.55 -4.41 l
-5.09 0 l
2.54 4.41 l
o
np
120.79 145.86 m
2.55 -4.41 l
-5.09 0 l
2.54 4.41 l
o
np
188.78 145.86 m
2.55 -4.41 l
-5.09 0 l
2.54 4.41 l
o
np
208.56 145.86 m
2.55 -4.41 l
-5.09 0 l
2.54 4.41 l
o
np
208.56 145.86 m
2.55 -4.41 l
-5.09 0 l
2.54 4.41 l
o
np
272.85 145.86 m
2.54 -4.41 l
-5.09 0 l
2.55 4.41 l
o
np
326.00 145.86 m
2.55 -4.41 l
-5.09 0 l
2.54 4.41 l
o
np
313.64 145.86 m
2.55 -4.41 l
-5.09 0 l
2.54 4.41 l
o
np
326.00 145.86 m
2.55 -4.41 l
-5.09 0 l
2.54 4.41 l
o
np
483.00 145.86 m
2.55 -4.41 l
-5.09 0 l
2.54 4.41 l
o
np
483.00 145.86 m
2.55 -4.41 l
-5.09 0 l
2.54 4.41 l
o
np
483.00 145.86 m
2.55 -4.41 l
-5.09 0 l
2.54 4.41 l
o
np
494.13 145.86 m
2.55 -4.41 l
-5.10 0 l
2.55 4.41 l
o
np
494.13 145.86 m
2.55 -4.41 l
-5.10 0 l
2.55 4.41 l
o
np
483.00 145.86 m
2.55 -4.41 l
-5.09 0 l
2.54 4.41 l
o
np
553.47 145.86 m
2.54 -4.41 l
-5.09 0 l
2.55 4.41 l
o
np
553.47 145.86 m
2.54 -4.41 l
-5.09 0 l
2.55 4.41 l
o
np
567.07 145.86 m
2.54 -4.41 l
-5.09 0 l
2.55 4.41 l
o
np
553.47 145.86 m
2.54 -4.41 l
-5.09 0 l
2.55 4.41 l
o
np
567.07 145.86 m
2.54 -4.41 l
-5.09 0 l
2.55 4.41 l
o
np
553.47 145.86 m
2.54 -4.41 l
-5.09 0 l
2.55 4.41 l
o
np
654.84 145.86 m
2.54 -4.41 l
-5.09 0 l
2.55 4.41 l
o
np
654.84 145.86 m
2.54 -4.41 l
-5.09 0 l
2.55 4.41 l
o
np
654.84 145.86 m
2.54 -4.41 l
-5.09 0 l
2.55 4.41 l
o
np
670.91 145.86 m
2.54 -4.41 l
-5.09 0 l
2.55 4.41 l
o
0 0 0.8000 srgb
np
50.33 127.05 m
34.61 0 l
o
/Font1 findfont 7 s
67.63 129.93 (left-P1) .5 0 t
0 0 0.8510 srgb
np
57.74 123.87 m
42.04 0 l
o
78.76 116.80 (P1-L2) .5 0 t
0 0 0.8745 srgb
np
57.74 120.70 m
63.05 0 l
o
89.27 123.58 (P1-P2) .5 0 t
0 0 0.9255 srgb
np
78.76 117.52 m
42.03 0 l
o
99.78 110.46 (R1-P2) .5 0 t
0 0.2000 1 srgb
np
93.59 114.35 m
95.19 0 l
o
141.19 117.23 (P2-L3) .5 0 t
0 0.3490 1 srgb
np
114.61 111.17 m
93.95 0 l
o
161.59 104.11 (R2-L4) .5 0 t
0 0.6000 1 srgb
np
181.37 108.00 m
27.19 0 l
o
194.96 110.88 (L3-L4) .5 0 t
0 0.9490 1 srgb
np
194.96 104.83 m
77.89 0 l
o
233.91 97.76 (P4-L5) .5 0 t
0.0510 1 0.9490 srgb
np
181.37 101.65 m
144.63 0 l
o
253.69 104.53 (L3-L6) .5 0 t
0.1529 1 0.8471 srgb
np
244.41 98.48 m
69.23 0 l
o
279.03 91.41 (R4-P5) .5 0 t
0.2039 1 0.7961 srgb
np
259.25 95.30 m
66.75 0 l
o
292.63 98.18 (P5-L6) .5 0 t
0.2314 1 0.7686 srgb
np
114.61 92.13 m
368.39 0 l
o
298.81 85.06 (R2-P3) .5 0 t
0.3843 1 0.6157 srgb
np
181.37 88.95 m
301.63 0 l
o
332.19 91.83 (P3-L4) .5 0 t
0.4118 1 0.5882 srgb
np
194.96 85.78 m
288.04 0 l
o
338.98 78.71 (R3-P4) .5 0 t
0.5137 1 0.4863 srgb
np
244.41 82.60 m
249.72 0 l
o
369.27 85.48 (R4-L7) .5 0 t
0.6392 1 0.3608 srgb
np
298.81 79.43 m
195.32 0 l
o
396.47 72.36 (R5-L7) .5 0 t
0.6667 1 0.3333 srgb
np
318.59 76.25 m
164.41 0 l
o
400.80 79.13 (L6-R3) .5 0 t
0.7686 1 0.2314 srgb
np
298.81 73.08 m
254.66 0 l
o
426.14 66.01 (R5-P6) .5 0 t
0.7961 1 0.2039 srgb
np
318.59 69.90 m
234.88 0 l
o
436.03 72.78 (P6-L7) .5 0 t
0.8196 1 0.1804 srgb
np
318.59 66.73 m
248.48 0 l
o
442.83 59.66 (L6-L8) .5 0 t
1 0.6980 0 srgb
np
487.95 63.56 m
65.52 0 l
o
520.71 66.44 (R6-P7) .5 0 t
1 0.6510 0 srgb
np
487.95 60.38 m
79.12 0 l
o
527.51 53.31 (P7-L8) .5 0 t
1 0.5490 0 srgb
np
522.56 57.21 m
30.91 0 l
o
538.02 60.09 (R7-R6) .5 0 t
1 0.2980 0 srgb
np
487.95 54.03 m
166.89 0 l
o
571.39 46.96 (P7-P8) .5 0 t
1 0.1490 0 srgb
np
522.56 50.86 m
132.28 0 l
o
588.70 53.74 (R7-P8) .5 0 t
1 0.0510 0 srgb
np
547.29 47.68 m
107.55 0 l
o
601.06 40.61 (R6-P8) .5 0 t
0.9765 0 0 srgb
np
555.94 44.51 m
114.97 0 l
o
600.29 47.39 (P8-r) 0 ta
0.105 (ight) tb gr
ep
%%Trailer
%%Pages: 1
%%EOF
