%!PS-Adobe-3.0
%%DocumentNeededResources: font Helvetica
%%+ font Helvetica-Bold
%%+ font Helvetica-Oblique
%%+ font Helvetica-BoldOblique
%%+ font Symbol
%%DocumentMedia: special 180 720 0 () ()
%%Title: R Graphics Output
%%Creator: R Software
%%Pages: (atend)
%%BoundingBox: 0 0 180 720
%%EndComments
%%BeginProlog
/bp  { gs sRGB 180.00 0 translate 90 rotate gs } def
% begin .ps.prolog
/gs  { gsave } bind def
/gr  { grestore } bind def
/ep  { showpage gr gr } bind def
/m   { moveto } bind def
/l  { rlineto } bind def
/np  { newpath } bind def
/cp  { closepath } bind def
/f   { fill } bind def
/o   { stroke } bind def
/c   { newpath 0 360 arc } bind def
/r   { 4 2 roll moveto 1 copy 3 -1 roll exch 0 exch rlineto 0 rlineto -1 mul 0 exch rlineto closepath } bind def
/p1  { stroke } bind def
/p2  { gsave bg fill grestore newpath } bind def
/p3  { gsave bg fill grestore stroke } bind def
/p6  { gsave bg eofill grestore newpath } bind def
/p7  { gsave bg eofill grestore stroke } bind def
/t   { 5 -2 roll moveto gsave rotate
       1 index stringwidth pop
       mul neg 0 rmoveto show grestore } bind def
/ta  { 4 -2 roll moveto gsave rotate show } bind def
/tb  { 2 -1 roll 0 rmoveto show } bind def
/cl  { grestore gsave newpath 3 index 3 index moveto 1 index
       4 -1 roll lineto  exch 1 index lineto lineto
       closepath clip newpath } bind def
/rgb { setrgbcolor } bind def
/s   { scalefont setfont } bind def
% end   .ps.prolog
/sRGB { [ /CIEBasedABC
          << /DecodeLMN
               [ { dup 0.03928 le
                        {12.92321 div}
                        {0.055 add 1.055 div 2.4 exp }
                     ifelse
                 } bind dup dup
               ]
             /MatrixLMN [0.412457 0.212673 0.019334
                         0.357576 0.715152 0.119192
                         0.180437 0.072175 0.950301]
             /WhitePoint [0.9505 1.0 1.0890]
           >>
         ] setcolorspace } bind def
/srgb { setcolor } bind def
%%IncludeResource: font Helvetica
/Helvetica findfont
dup length dict begin
  {1 index /FID ne {def} {pop pop} ifelse} forall
  /Encoding ISOLatin1Encoding def
  currentdict
  end
/Font1 exch definefont pop
%%IncludeResource: font Helvetica-Bold
/Helvetica-Bold findfont
dup length dict begin
  {1 index /FID ne {def} {pop pop} ifelse} forall
  /Encoding ISOLatin1Encoding def
  currentdict
  end
/Font2 exch definefont pop
%%IncludeResource: font Helvetica-Oblique
/Helvetica-Oblique findfont
dup length dict begin
  {1 index /FID ne {def} {pop pop} ifelse} forall
  /Encoding ISOLatin1Encoding def
  currentdict
  end
/Font3 exch definefont pop
%%IncludeResource: font Helvetica-BoldOblique
/Helvetica-BoldOblique findfont
dup length dict begin
  {1 index /FID ne {def} {pop pop} ifelse} forall
  /Encoding ISOLatin1Encoding def
  currentdict
  end
/Font4 exch definefont pop
%%IncludeResource: font Symbol
/Symbol findfont
dup length dict begin
  {1 index /FID ne {def} {pop pop} ifelse} forall
  currentdict
  end
/Font5 exch definefont pop
%%EndProlog
%%Page: 1 1
bp
18.00 36.00 702.00 180.00 cl
/bg { 0 0 0 srgb } def
49.62 166.23 1.00 1.00 r p2
50.66 166.23 1.00 1.00 r p2
51.69 166.23 1.00 1.00 r p2
52.72 166.23 1.00 1.00 r p2
53.76 166.23 1.00 1.00 r p2
/Font1 findfont 8 s
0 0 0 srgb
55.29 164.71 (<) .5 0 t
56.32 164.71 (<) .5 0 t
57.35 164.71 (<) .5 0 t
58.39 164.71 (<) .5 0 t
59.42 164.71 (<) .5 0 t
59.95 166.23 1.00 1.00 r p2
60.99 166.23 1.00 1.00 r p2
62.52 164.71 (<) .5 0 t
63.05 166.23 1.00 1.00 r p2
64.08 166.23 1.00 1.00 r p2
65.12 166.23 1.00 1.00 r p2
66.15 166.23 1.00 1.00 r p2
67.18 166.23 1.00 1.00 r p2
68.22 166.23 1.00 1.00 r p2
69.25 166.23 1.00 1.00 r p2
70.28 166.23 1.00 1.00 r p2
71.32 166.23 1.00 1.00 r p2
72.35 166.23 1.00 1.00 r p2
73.38 166.23 1.00 1.00 r p2
74.41 166.23 1.00 1.00 r p2
75.45 166.23 1.00 1.00 r p2
76.48 166.23 1.00 1.00 r p2
77.51 166.23 1.00 1.00 r p2
78.55 166.23 1.00 1.00 r p2
80.08 164.71 (>) .5 0 t
81.11 164.71 (>) .5 0 t
82.14 164.71 (>) .5 0 t
83.18 164.71 (>) .5 0 t
84.21 164.71 (>) .5 0 t
85.24 164.71 (>) .5 0 t
85.78 166.23 1.00 1.00 r p2
86.81 166.23 1.00 1.00 r p2
87.84 166.23 1.00 1.00 r p2
88.87 166.23 1.00 1.00 r p2
90.41 164.71 (<) .5 0 t
91.44 164.71 (<) .5 0 t
92.47 164.71 (<) .5 0 t
93.51 164.71 (<) .5 0 t
94.54 164.71 (<) .5 0 t
95.57 164.71 (<) .5 0 t
96.61 164.71 (<) .5 0 t
97.64 164.71 (<) .5 0 t
98.17 166.23 1.00 1.00 r p2
99.20 166.23 1.00 1.00 r p2
100.24 166.23 1.00 1.00 r p2
101.27 166.23 1.00 1.00 r p2
102.30 166.23 1.00 1.00 r p2
103.34 166.23 1.00 1.00 r p2
104.87 164.71 (>) .5 0 t
105.90 164.71 (>) .5 0 t
106.93 164.71 (>) .5 0 t
107.97 164.71 (>) .5 0 t
109.00 164.71 (>) .5 0 t
110.03 164.71 (>) .5 0 t
111.07 164.71 (>) .5 0 t
112.10 164.71 (>) .5 0 t
112.63 166.23 1.00 1.00 r p2
113.66 166.23 1.00 1.00 r p2
114.70 166.23 1.00 1.00 r p2
115.73 166.23 1.00 1.00 r p2
116.76 166.23 1.00 1.00 r p2
117.80 166.23 1.00 1.00 r p2
118.83 166.23 1.00 1.00 r p2
119.86 166.23 1.00 1.00 r p2
120.90 166.23 1.00 1.00 r p2
121.93 166.23 1.00 1.00 r p2
122.96 166.23 1.00 1.00 r p2
123.99 166.23 1.00 1.00 r p2
125.03 166.23 1.00 1.00 r p2
126.06 166.23 1.00 1.00 r p2
127.09 166.23 1.00 1.00 r p2
128.13 166.23 1.00 1.00 r p2
129.16 166.23 1.00 1.00 r p2
130.19 166.23 1.00 1.00 r p2
131.22 166.23 1.00 1.00 r p2
132.26 166.23 1.00 1.00 r p2
133.29 166.23 1.00 1.00 r p2
134.32 166.23 1.00 1.00 r p2
135.36 166.23 1.00 1.00 r p2
136.39 166.23 1.00 1.00 r p2
137.42 166.23 1.00 1.00 r p2
138.45 166.23 1.00 1.00 r p2
139.49 166.23 1.00 1.00 r p2
140.52 166.23 1.00 1.00 r p2
141.55 166.23 1.00 1.00 r p2
142.59 166.23 1.00 1.00 r p2
143.62 166.23 1.00 1.00 r p2
144.65 166.23 1.00 1.00 r p2
145.69 166.23 1.00 1.00 r p2
146.72 166.23 1.00 1.00 r p2
147.75 166.23 1.00 1.00 r p2
148.78 166.23 1.00 1.00 r p2
149.82 166.23 1.00 1.00 r p2
150.85 166.23 1.00 1.00 r p2
151.88 166.23 1.00 1.00 r p2
152.92 166.23 1.00 1.00 r p2
153.95 166.23 1.00 1.00 r p2
154.98 166.23 1.00 1.00 r p2
156.01 166.23 1.00 1.00 r p2
157.05 166.23 1.00 1.00 r p2
158.08 166.23 1.00 1.00 r p2
159.11 166.23 1.00 1.00 r p2
160.15 166.23 1.00 1.00 r p2
161.18 166.23 1.00 1.00 r p2
162.21 166.23 1.00 1.00 r p2
163.25 166.23 1.00 1.00 r p2
164.78 164.71 (<) .5 0 t
165.81 164.71 (<) .5 0 t
166.84 164.71 (<) .5 0 t
167.88 164.71 (<) .5 0 t
168.91 164.71 (<) .5 0 t
169.44 166.23 1.00 1.00 r p2
170.48 166.23 1.00 1.00 r p2
171.51 166.23 1.00 1.00 r p2
172.54 166.23 1.00 1.00 r p2
173.57 166.23 1.00 1.00 r p2
174.61 166.23 1.00 1.00 r p2
176.14 164.71 (<) .5 0 t
177.17 164.71 (<) .5 0 t
178.21 164.71 (<) .5 0 t
179.24 164.71 (<) .5 0 t
180.27 164.71 (<) .5 0 t
181.30 164.71 (<) .5 0 t
181.84 166.23 1.00 1.00 r p2
182.87 166.23 1.00 1.00 r p2
183.90 166.23 1.00 1.00 r p2
184.94 166.23 1.00 1.00 r p2
186.47 164.71 (<) .5 0 t
187.50 164.71 (<) .5 0 t
188.54 164.71 (<) .5 0 t
189.07 166.23 1.00 1.00 r p2
190.10 166.23 1.00 1.00 r p2
191.13 166.23 1.00 1.00 r p2
192.17 166.23 1.00 1.00 r p2
193.20 166.23 1.00 1.00 r p2
194.23 166.23 1.00 1.00 r p2
195.27 166.23 1.00 1.00 r p2
196.30 166.23 1.00 1.00 r p2
197.33 166.23 1.00 1.00 r p2
198.86 164.71 (<) .5 0 t
199.90 164.71 (<) .5 0 t
200.93 164.71 (<) .5 0 t
201.96 164.71 (<) .5 0 t
203.00 164.71 (<) .5 0 t
203.53 166.23 1.00 1.00 r p2
204.56 166.23 1.00 1.00 r p2
205.59 166.23 1.00 1.00 r p2
206.63 166.23 1.00 1.00 r p2
207.66 166.23 1.00 1.00 r p2
208.69 166.23 1.00 1.00 r p2
209.73 166.23 1.00 1.00 r p2
210.76 166.23 1.00 1.00 r p2
211.79 166.23 1.00 1.00 r p2
212.83 166.23 1.00 1.00 r p2
213.86 166.23 1.00 1.00 r p2
214.89 166.23 1.00 1.00 r p2
215.92 166.23 1.00 1.00 r p2
216.96 166.23 1.00 1.00 r p2
217.99 166.23 1.00 1.00 r p2
219.02 166.23 1.00 1.00 r p2
220.06 166.23 1.00 1.00 r p2
221.09 166.23 1.00 1.00 r p2
222.12 166.23 1.00 1.00 r p2
223.15 166.23 1.00 1.00 r p2
224.19 166.23 1.00 1.00 r p2
225.22 166.23 1.00 1.00 r p2
226.25 166.23 1.00 1.00 r p2
227.29 166.23 1.00 1.00 r p2
228.32 166.23 1.00 1.00 r p2
229.85 164.71 (>) .5 0 t
230.88 164.71 (>) .5 0 t
231.92 164.71 (>) .5 0 t
232.95 164.71 (>) .5 0 t
233.98 164.71 (>) .5 0 t
234.52 166.23 1.00 1.00 r p2
235.55 166.23 1.00 1.00 r p2
236.58 166.23 1.00 1.00 r p2
237.62 166.23 1.00 1.00 r p2
238.65 166.23 1.00 1.00 r p2
239.68 166.23 1.00 1.00 r p2
240.71 166.23 1.00 1.00 r p2
242.25 164.71 (>) .5 0 t
243.28 164.71 (>) .5 0 t
244.31 164.71 (>) .5 0 t
244.85 166.23 1.00 1.00 r p2
245.88 166.23 1.00 1.00 r p2
246.91 166.23 1.00 1.00 r p2
248.44 164.71 (>) .5 0 t
249.48 164.71 (>) .5 0 t
250.51 164.71 (>) .5 0 t
251.54 164.71 (>) .5 0 t
252.58 164.71 (>) .5 0 t
253.61 164.71 (>) .5 0 t
254.64 164.71 (<) .5 0 t
255.68 164.71 (<) .5 0 t
256.71 164.71 (<) .5 0 t
257.24 166.23 1.00 1.00 r p2
258.27 166.23 1.00 1.00 r p2
259.31 166.23 1.00 1.00 r p2
260.84 164.71 (<) .5 0 t
261.87 164.71 (<) .5 0 t
262.91 164.71 (<) .5 0 t
263.94 164.71 (<) .5 0 t
264.97 164.71 (<) .5 0 t
266.00 164.71 (<) .5 0 t
267.04 164.71 (<) .5 0 t
268.07 164.71 (<) .5 0 t
268.60 166.23 1.00 1.00 r p2
269.64 166.23 1.00 1.00 r p2
270.67 166.23 1.00 1.00 r p2
271.70 166.23 1.00 1.00 r p2
272.73 166.23 1.00 1.00 r p2
273.77 166.23 1.00 1.00 r p2
274.80 166.23 1.00 1.00 r p2
275.83 166.23 1.00 1.00 r p2
276.87 166.23 1.00 1.00 r p2
277.90 166.23 1.00 1.00 r p2
278.93 166.23 1.00 1.00 r p2
279.97 166.23 1.00 1.00 r p2
281.00 166.23 1.00 1.00 r p2
282.03 166.23 1.00 1.00 r p2
283.06 166.23 1.00 1.00 r p2
284.10 166.23 1.00 1.00 r p2
285.13 166.23 1.00 1.00 r p2
286.16 166.23 1.00 1.00 r p2
287.20 166.23 1.00 1.00 r p2
288.23 166.23 1.00 1.00 r p2
289.26 166.23 1.00 1.00 r p2
290.29 166.23 1.00 1.00 r p2
291.33 166.23 1.00 1.00 r p2
292.36 166.23 1.00 1.00 r p2
293.39 166.23 1.00 1.00 r p2
294.43 166.23 1.00 1.00 r p2
295.46 166.23 1.00 1.00 r p2
296.99 164.71 (>) .5 0 t
298.02 164.71 (>) .5 0 t
299.06 164.71 (>) .5 0 t
300.09 164.71 (>) .5 0 t
301.12 164.71 (>) .5 0 t
302.16 164.71 (>) .5 0 t
303.19 164.71 (>) .5 0 t
304.22 164.71 (>) .5 0 t
305.26 164.71 (>) .5 0 t
306.29 164.71 (>) .5 0 t
307.32 164.71 (>) .5 0 t
307.85 166.23 1.00 1.00 r p2
308.89 166.23 1.00 1.00 r p2
309.92 166.23 1.00 1.00 r p2
311.45 163.86 (A) .5 0 t
311.99 166.23 1.00 1.00 r p2
313.52 163.86 (A) .5 0 t
314.55 163.86 (A) .5 0 t
315.58 163.86 (A) .5 0 t
316.62 163.86 (A) .5 0 t
317.65 163.86 (A) .5 0 t
318.18 166.23 1.00 1.00 r p2
319.22 166.23 1.00 1.00 r p2
320.25 166.23 1.00 1.00 r p2
321.28 166.23 1.00 1.00 r p2
322.81 164.71 (<) .5 0 t
323.85 164.71 (<) .5 0 t
324.88 164.71 (<) .5 0 t
325.91 164.71 (<) .5 0 t
326.95 164.71 (<) .5 0 t
327.48 166.23 1.00 1.00 r p2
328.51 166.23 1.00 1.00 r p2
329.55 166.23 1.00 1.00 r p2
330.58 166.23 1.00 1.00 r p2
331.61 166.23 1.00 1.00 r p2
332.64 166.23 1.00 1.00 r p2
333.68 166.23 1.00 1.00 r p2
334.71 166.23 1.00 1.00 r p2
335.74 166.23 1.00 1.00 r p2
336.78 166.23 1.00 1.00 r p2
337.81 166.23 1.00 1.00 r p2
338.84 166.23 1.00 1.00 r p2
339.87 166.23 1.00 1.00 r p2
340.91 166.23 1.00 1.00 r p2
341.94 166.23 1.00 1.00 r p2
342.97 166.23 1.00 1.00 r p2
344.01 166.23 1.00 1.00 r p2
345.04 166.23 1.00 1.00 r p2
346.07 166.23 1.00 1.00 r p2
347.10 166.23 1.00 1.00 r p2
348.14 166.23 1.00 1.00 r p2
349.17 166.23 1.00 1.00 r p2
350.20 166.23 1.00 1.00 r p2
351.24 166.23 1.00 1.00 r p2
352.27 166.23 1.00 1.00 r p2
353.30 166.23 1.00 1.00 r p2
354.34 166.23 1.00 1.00 r p2
355.37 166.23 1.00 1.00 r p2
356.40 166.23 1.00 1.00 r p2
357.43 166.23 1.00 1.00 r p2
358.47 166.23 1.00 1.00 r p2
359.50 166.23 1.00 1.00 r p2
361.03 164.71 (>) .5 0 t
362.07 164.71 (>) .5 0 t
363.10 164.71 (>) .5 0 t
364.13 164.71 (>) .5 0 t
365.16 164.71 (>) .5 0 t
365.70 166.23 1.00 1.00 r p2
366.73 166.23 1.00 1.00 r p2
367.76 166.23 1.00 1.00 r p2
368.80 166.23 1.00 1.00 r p2
369.83 166.23 1.00 1.00 r p2
370.86 166.23 1.00 1.00 r p2
372.40 164.71 (<) .5 0 t
373.43 164.71 (<) .5 0 t
374.46 164.71 (<) .5 0 t
375.49 164.71 (<) .5 0 t
376.53 164.71 (<) .5 0 t
377.56 164.71 (<) .5 0 t
378.59 164.71 (<) .5 0 t
379.63 164.71 (<) .5 0 t
380.66 164.71 (<) .5 0 t
381.19 166.23 1.00 1.00 r p2
382.22 166.23 1.00 1.00 r p2
383.26 166.23 1.00 1.00 r p2
384.29 166.23 1.00 1.00 r p2
385.32 166.23 1.00 1.00 r p2
386.36 166.23 1.00 1.00 r p2
387.39 166.23 1.00 1.00 r p2
388.42 166.23 1.00 1.00 r p2
389.45 166.23 1.00 1.00 r p2
390.49 166.23 1.00 1.00 r p2
391.52 166.23 1.00 1.00 r p2
392.55 166.23 1.00 1.00 r p2
393.59 166.23 1.00 1.00 r p2
394.62 166.23 1.00 1.00 r p2
395.65 166.23 1.00 1.00 r p2
396.69 166.23 1.00 1.00 r p2
397.72 166.23 1.00 1.00 r p2
398.75 166.23 1.00 1.00 r p2
399.78 166.23 1.00 1.00 r p2
400.82 166.23 1.00 1.00 r p2
401.85 166.23 1.00 1.00 r p2
402.88 166.23 1.00 1.00 r p2
403.92 166.23 1.00 1.00 r p2
404.95 166.23 1.00 1.00 r p2
405.98 166.23 1.00 1.00 r p2
407.01 166.23 1.00 1.00 r p2
408.05 166.23 1.00 1.00 r p2
409.08 166.23 1.00 1.00 r p2
410.11 166.23 1.00 1.00 r p2
411.15 166.23 1.00 1.00 r p2
412.18 166.23 1.00 1.00 r p2
413.21 166.23 1.00 1.00 r p2
414.24 166.23 1.00 1.00 r p2
415.28 166.23 1.00 1.00 r p2
416.31 166.23 1.00 1.00 r p2
417.34 166.23 1.00 1.00 r p2
418.38 166.23 1.00 1.00 r p2
419.41 166.23 1.00 1.00 r p2
420.44 166.23 1.00 1.00 r p2
421.48 166.23 1.00 1.00 r p2
422.51 166.23 1.00 1.00 r p2
423.54 166.23 1.00 1.00 r p2
424.57 166.23 1.00 1.00 r p2
425.61 166.23 1.00 1.00 r p2
426.64 166.23 1.00 1.00 r p2
428.17 164.71 (>) .5 0 t
429.21 164.71 (>) .5 0 t
430.24 164.71 (>) .5 0 t
431.27 164.71 (>) .5 0 t
432.30 164.71 (>) .5 0 t
433.34 164.71 (>) .5 0 t
434.37 164.71 (>) .5 0 t
435.40 164.71 (>) .5 0 t
436.44 164.71 (>) .5 0 t
436.97 166.23 1.00 1.00 r p2
438.00 166.23 1.00 1.00 r p2
439.03 166.23 1.00 1.00 r p2
440.07 166.23 1.00 1.00 r p2
441.10 166.23 1.00 1.00 r p2
442.63 164.71 (>) .5 0 t
443.67 164.71 (>) .5 0 t
444.70 164.71 (>) .5 0 t
445.73 164.71 (>) .5 0 t
446.77 164.71 (>) .5 0 t
447.30 166.23 1.00 1.00 r p2
448.33 166.23 1.00 1.00 r p2
449.86 164.71 (<) .5 0 t
450.90 164.71 (<) .5 0 t
451.93 164.71 (<) .5 0 t
452.96 164.71 (<) .5 0 t
454.00 164.71 (<) .5 0 t
455.03 164.71 (<) .5 0 t
456.06 164.71 (<) .5 0 t
457.09 164.71 (<) .5 0 t
457.63 166.23 1.00 1.00 r p2
458.66 166.23 1.00 1.00 r p2
459.69 166.23 1.00 1.00 r p2
460.73 166.23 1.00 1.00 r p2
461.76 166.23 1.00 1.00 r p2
462.79 166.23 1.00 1.00 r p2
463.82 166.23 1.00 1.00 r p2
464.86 166.23 1.00 1.00 r p2
465.89 166.23 1.00 1.00 r p2
466.92 166.23 1.00 1.00 r p2
467.96 166.23 1.00 1.00 r p2
468.99 166.23 1.00 1.00 r p2
470.02 166.23 1.00 1.00 r p2
471.06 166.23 1.00 1.00 r p2
472.09 166.23 1.00 1.00 r p2
473.12 166.23 1.00 1.00 r p2
474.15 166.23 1.00 1.00 r p2
475.19 166.23 1.00 1.00 r p2
476.22 166.23 1.00 1.00 r p2
477.25 166.23 1.00 1.00 r p2
478.29 166.23 1.00 1.00 r p2
479.82 164.71 (>) .5 0 t
480.85 164.71 (>) .5 0 t
481.88 164.71 (>) .5 0 t
482.92 164.71 (>) .5 0 t
483.95 164.71 (>) .5 0 t
484.98 164.71 (>) .5 0 t
486.02 164.71 (>) .5 0 t
486.55 166.23 1.00 1.00 r p2
488.08 164.71 (>) .5 0 t
488.62 166.23 1.00 1.00 r p2
489.65 166.23 1.00 1.00 r p2
490.68 166.23 1.00 1.00 r p2
491.71 166.23 1.00 1.00 r p2
492.75 166.23 1.00 1.00 r p2
493.78 166.23 1.00 1.00 r p2
494.81 166.23 1.00 1.00 r p2
496.35 164.64 (a) .5 0 t
497.38 164.64 (a) .5 0 t
498.41 164.64 (a) .5 0 t
499.44 164.64 (a) .5 0 t
500.48 164.64 (a) .5 0 t
501.51 164.64 (a) .5 0 t
502.54 164.71 (<) .5 0 t
503.58 164.71 (<) .5 0 t
504.11 166.23 1.00 1.00 r p2
505.64 164.71 (<) .5 0 t
506.67 164.71 (<) .5 0 t
507.71 164.71 (<) .5 0 t
508.74 164.71 (<) .5 0 t
509.77 164.71 (<) .5 0 t
510.81 164.71 (<) .5 0 t
511.84 164.71 (<) .5 0 t
512.37 166.23 1.00 1.00 r p2
513.41 166.23 1.00 1.00 r p2
514.44 166.23 1.00 1.00 r p2
515.47 166.23 1.00 1.00 r p2
516.50 166.23 1.00 1.00 r p2
517.54 166.23 1.00 1.00 r p2
518.57 166.23 1.00 1.00 r p2
519.60 166.23 1.00 1.00 r p2
520.64 166.23 1.00 1.00 r p2
521.67 166.23 1.00 1.00 r p2
522.70 166.23 1.00 1.00 r p2
523.73 166.23 1.00 1.00 r p2
524.77 166.23 1.00 1.00 r p2
525.80 166.23 1.00 1.00 r p2
527.33 164.71 (>) .5 0 t
528.37 164.71 (>) .5 0 t
529.40 164.71 (>) .5 0 t
530.43 164.71 (>) .5 0 t
531.46 164.71 (>) .5 0 t
532.50 164.71 (>) .5 0 t
533.53 164.71 (>) .5 0 t
534.06 166.23 1.00 1.00 r p2
535.10 166.23 1.00 1.00 r p2
536.13 166.23 1.00 1.00 r p2
537.16 166.23 1.00 1.00 r p2
538.20 166.23 1.00 1.00 r p2
539.23 166.23 1.00 1.00 r p2
540.26 166.23 1.00 1.00 r p2
541.29 166.23 1.00 1.00 r p2
542.33 166.23 1.00 1.00 r p2
543.36 166.23 1.00 1.00 r p2
544.39 166.23 1.00 1.00 r p2
545.43 166.23 1.00 1.00 r p2
546.46 166.23 1.00 1.00 r p2
547.49 166.23 1.00 1.00 r p2
548.52 166.23 1.00 1.00 r p2
549.56 166.23 1.00 1.00 r p2
550.59 166.23 1.00 1.00 r p2
551.62 166.23 1.00 1.00 r p2
552.66 166.23 1.00 1.00 r p2
553.69 166.23 1.00 1.00 r p2
554.72 166.23 1.00 1.00 r p2
555.75 166.23 1.00 1.00 r p2
556.79 166.23 1.00 1.00 r p2
557.82 166.23 1.00 1.00 r p2
558.85 166.23 1.00 1.00 r p2
559.89 166.23 1.00 1.00 r p2
560.92 166.23 1.00 1.00 r p2
561.95 166.23 1.00 1.00 r p2
562.99 166.23 1.00 1.00 r p2
564.02 166.23 1.00 1.00 r p2
565.05 166.23 1.00 1.00 r p2
566.08 166.23 1.00 1.00 r p2
567.12 166.23 1.00 1.00 r p2
568.15 166.23 1.00 1.00 r p2
569.18 166.23 1.00 1.00 r p2
570.22 166.23 1.00 1.00 r p2
571.25 166.23 1.00 1.00 r p2
572.28 166.23 1.00 1.00 r p2
573.31 166.23 1.00 1.00 r p2
574.35 166.23 1.00 1.00 r p2
575.38 166.23 1.00 1.00 r p2
576.41 166.23 1.00 1.00 r p2
577.45 166.23 1.00 1.00 r p2
578.48 166.23 1.00 1.00 r p2
579.51 166.23 1.00 1.00 r p2
580.55 166.23 1.00 1.00 r p2
581.58 166.23 1.00 1.00 r p2
582.61 166.23 1.00 1.00 r p2
583.64 166.23 1.00 1.00 r p2
584.68 166.23 1.00 1.00 r p2
585.71 166.23 1.00 1.00 r p2
586.74 166.23 1.00 1.00 r p2
587.78 166.23 1.00 1.00 r p2
588.81 166.23 1.00 1.00 r p2
589.84 166.23 1.00 1.00 r p2
590.87 166.23 1.00 1.00 r p2
591.91 166.23 1.00 1.00 r p2
592.94 166.23 1.00 1.00 r p2
593.97 166.23 1.00 1.00 r p2
595.01 166.23 1.00 1.00 r p2
596.04 166.23 1.00 1.00 r p2
597.07 166.23 1.00 1.00 r p2
598.10 166.23 1.00 1.00 r p2
599.14 166.23 1.00 1.00 r p2
600.17 166.23 1.00 1.00 r p2
601.20 166.23 1.00 1.00 r p2
602.24 166.23 1.00 1.00 r p2
603.27 166.23 1.00 1.00 r p2
604.30 166.23 1.00 1.00 r p2
605.34 166.23 1.00 1.00 r p2
606.37 166.23 1.00 1.00 r p2
607.40 166.23 1.00 1.00 r p2
608.43 166.23 1.00 1.00 r p2
609.47 166.23 1.00 1.00 r p2
610.50 166.23 1.00 1.00 r p2
611.53 166.23 1.00 1.00 r p2
612.57 166.23 1.00 1.00 r p2
613.60 166.23 1.00 1.00 r p2
614.63 166.23 1.00 1.00 r p2
615.66 166.23 1.00 1.00 r p2
616.70 166.23 1.00 1.00 r p2
617.73 166.23 1.00 1.00 r p2
618.76 166.23 1.00 1.00 r p2
619.80 166.23 1.00 1.00 r p2
620.83 166.23 1.00 1.00 r p2
621.86 166.23 1.00 1.00 r p2
622.89 166.23 1.00 1.00 r p2
623.93 166.23 1.00 1.00 r p2
624.96 166.23 1.00 1.00 r p2
625.99 166.23 1.00 1.00 r p2
627.03 166.23 1.00 1.00 r p2
628.06 166.23 1.00 1.00 r p2
629.09 166.23 1.00 1.00 r p2
630.13 166.23 1.00 1.00 r p2
631.16 166.23 1.00 1.00 r p2
632.19 166.23 1.00 1.00 r p2
633.22 166.23 1.00 1.00 r p2
634.26 166.23 1.00 1.00 r p2
635.29 166.23 1.00 1.00 r p2
636.32 166.23 1.00 1.00 r p2
637.36 166.23 1.00 1.00 r p2
638.39 166.23 1.00 1.00 r p2
639.42 166.23 1.00 1.00 r p2
640.45 166.23 1.00 1.00 r p2
641.49 166.23 1.00 1.00 r p2
642.52 166.23 1.00 1.00 r p2
643.55 166.23 1.00 1.00 r p2
644.59 166.23 1.00 1.00 r p2
645.62 166.23 1.00 1.00 r p2
646.65 166.23 1.00 1.00 r p2
647.68 166.23 1.00 1.00 r p2
648.72 166.23 1.00 1.00 r p2
649.75 166.23 1.00 1.00 r p2
650.78 166.23 1.00 1.00 r p2
651.82 166.23 1.00 1.00 r p2
652.85 166.23 1.00 1.00 r p2
653.88 166.23 1.00 1.00 r p2
654.92 166.23 1.00 1.00 r p2
656.45 164.71 (>) .5 0 t
657.48 164.71 (>) .5 0 t
658.01 166.23 1.00 1.00 r p2
659.05 166.23 1.00 1.00 r p2
660.08 166.23 1.00 1.00 r p2
661.11 166.23 1.00 1.00 r p2
662.15 166.23 1.00 1.00 r p2
663.18 166.23 1.00 1.00 r p2
664.21 166.23 1.00 1.00 r p2
665.24 166.23 1.00 1.00 r p2
666.28 166.23 1.00 1.00 r p2
667.31 166.23 1.00 1.00 r p2
668.34 166.23 1.00 1.00 r p2
669.38 166.23 1.00 1.00 r p2
670.41 166.23 1.00 1.00 r p2
0.00 0.00 720.00 180.00 cl
0.00 0.00 720.00 180.00 cl
0 0 0 srgb
0.75 setlinewidth
[] 0 setdash
1 setlinecap
1 setlinejoin
10.00 setmiterlimit
np
49.09 36.00 m
619.75 0 l
o
np
49.09 36.00 m
0 -7.20 l
o
np
59.42 36.00 m
0 -7.20 l
o
np
69.75 36.00 m
0 -7.20 l
o
np
80.08 36.00 m
0 -7.20 l
o
np
90.41 36.00 m
0 -7.20 l
o
np
100.74 36.00 m
0 -7.20 l
o
np
111.07 36.00 m
0 -7.20 l
o
np
121.40 36.00 m
0 -7.20 l
o
np
131.72 36.00 m
0 -7.20 l
o
np
142.05 36.00 m
0 -7.20 l
o
np
152.38 36.00 m
0 -7.20 l
o
np
162.71 36.00 m
0 -7.20 l
o
np
173.04 36.00 m
0 -7.20 l
o
np
183.37 36.00 m
0 -7.20 l
o
np
193.70 36.00 m
0 -7.20 l
o
np
204.03 36.00 m
0 -7.20 l
o
np
214.36 36.00 m
0 -7.20 l
o
np
224.69 36.00 m
0 -7.20 l
o
np
235.02 36.00 m
0 -7.20 l
o
np
245.35 36.00 m
0 -7.20 l
o
np
255.68 36.00 m
0 -7.20 l
o
np
266.00 36.00 m
0 -7.20 l
o
np
276.33 36.00 m
0 -7.20 l
o
np
286.66 36.00 m
0 -7.20 l
o
np
296.99 36.00 m
0 -7.20 l
o
np
307.32 36.00 m
0 -7.20 l
o
np
317.65 36.00 m
0 -7.20 l
o
np
327.98 36.00 m
0 -7.20 l
o
np
338.31 36.00 m
0 -7.20 l
o
np
348.64 36.00 m
0 -7.20 l
o
np
358.97 36.00 m
0 -7.20 l
o
np
369.30 36.00 m
0 -7.20 l
o
np
379.63 36.00 m
0 -7.20 l
o
np
389.95 36.00 m
0 -7.20 l
o
np
400.28 36.00 m
0 -7.20 l
o
np
410.61 36.00 m
0 -7.20 l
o
np
420.94 36.00 m
0 -7.20 l
o
np
431.27 36.00 m
0 -7.20 l
o
np
441.60 36.00 m
0 -7.20 l
o
np
451.93 36.00 m
0 -7.20 l
o
np
462.26 36.00 m
0 -7.20 l
o
np
472.59 36.00 m
0 -7.20 l
o
np
482.92 36.00 m
0 -7.20 l
o
np
493.25 36.00 m
0 -7.20 l
o
np
503.58 36.00 m
0 -7.20 l
o
np
513.91 36.00 m
0 -7.20 l
o
np
524.23 36.00 m
0 -7.20 l
o
np
534.56 36.00 m
0 -7.20 l
o
np
544.89 36.00 m
0 -7.20 l
o
np
555.22 36.00 m
0 -7.20 l
o
np
565.55 36.00 m
0 -7.20 l
o
np
575.88 36.00 m
0 -7.20 l
o
np
586.21 36.00 m
0 -7.20 l
o
np
596.54 36.00 m
0 -7.20 l
o
np
606.87 36.00 m
0 -7.20 l
o
np
617.20 36.00 m
0 -7.20 l
o
np
627.53 36.00 m
0 -7.20 l
o
np
637.86 36.00 m
0 -7.20 l
o
np
648.18 36.00 m
0 -7.20 l
o
np
658.51 36.00 m
0 -7.20 l
o
np
668.84 36.00 m
0 -7.20 l
o
/Font1 findfont 12 s
49.09 10.08 (0) .5 0 t
69.75 10.08 (20) .5 0 t
100.74 10.08 (50) .5 0 t
131.72 10.08 (80) .5 0 t
162.71 10.08 (110) .5 0 t
193.70 10.08 (140) .5 0 t
224.69 10.08 (170) .5 0 t
255.68 10.08 (200) .5 0 t
286.66 10.08 (230) .5 0 t
317.65 10.08 (260) .5 0 t
348.64 10.08 (290) .5 0 t
379.63 10.08 (320) .5 0 t
410.61 10.08 (350) .5 0 t
441.60 10.08 (380) .5 0 t
472.59 10.08 (410) .5 0 t
503.58 10.08 (440) .5 0 t
534.56 10.08 (470) .5 0 t
565.55 10.08 (500) .5 0 t
596.54 10.08 (530) .5 0 t
627.53 10.08 (560) .5 0 t
658.51 10.08 (590) .5 0 t
18.00 36.00 702.00 180.00 cl
/bg { 0 0 0 srgb } def
49.62 158.29 1.00 1.00 r p2
50.66 158.29 1.00 1.00 r p2
51.69 158.29 1.00 1.00 r p2
52.72 158.29 1.00 1.00 r p2
53.76 158.29 1.00 1.00 r p2
/Font1 findfont 8 s
0 0 0 srgb
55.29 156.77 (<) .5 0 t
56.32 156.77 (<) .5 0 t
57.35 156.77 (<) .5 0 t
58.39 156.77 (<) .5 0 t
59.42 156.77 (<) .5 0 t
59.95 158.29 1.00 1.00 r p2
60.99 158.29 1.00 1.00 r p2
62.52 156.77 (<) .5 0 t
63.05 158.29 1.00 1.00 r p2
64.08 158.29 1.00 1.00 r p2
65.12 158.29 1.00 1.00 r p2
66.15 158.29 1.00 1.00 r p2
67.18 158.29 1.00 1.00 r p2
68.22 158.29 1.00 1.00 r p2
69.25 158.29 1.00 1.00 r p2
70.28 158.29 1.00 1.00 r p2
71.32 158.29 1.00 1.00 r p2
72.35 158.29 1.00 1.00 r p2
73.38 158.29 1.00 1.00 r p2
74.41 158.29 1.00 1.00 r p2
75.45 158.29 1.00 1.00 r p2
76.48 158.29 1.00 1.00 r p2
77.51 158.29 1.00 1.00 r p2
78.55 158.29 1.00 1.00 r p2
80.08 156.77 (>) .5 0 t
81.11 156.77 (>) .5 0 t
82.14 156.77 (>) .5 0 t
83.18 156.77 (>) .5 0 t
84.21 156.77 (>) .5 0 t
85.24 156.77 (>) .5 0 t
85.78 158.29 1.00 1.00 r p2
86.81 158.29 1.00 1.00 r p2
87.84 158.29 1.00 1.00 r p2
88.87 158.29 1.00 1.00 r p2
90.41 156.77 (<) .5 0 t
91.44 156.77 (<) .5 0 t
92.47 156.77 (<) .5 0 t
93.51 156.77 (<) .5 0 t
94.54 156.77 (<) .5 0 t
95.57 156.77 (<) .5 0 t
96.61 156.77 (<) .5 0 t
97.64 156.77 (<) .5 0 t
98.17 158.29 1.00 1.00 r p2
99.20 158.29 1.00 1.00 r p2
100.24 158.29 1.00 1.00 r p2
101.27 158.29 1.00 1.00 r p2
102.30 158.29 1.00 1.00 r p2
103.34 158.29 1.00 1.00 r p2
104.87 156.77 (>) .5 0 t
105.90 156.77 (>) .5 0 t
106.93 156.77 (>) .5 0 t
107.97 156.77 (>) .5 0 t
109.00 156.77 (>) .5 0 t
110.03 156.77 (>) .5 0 t
111.07 156.77 (>) .5 0 t
112.10 156.77 (>) .5 0 t
112.63 158.29 1.00 1.00 r p2
113.66 158.29 1.00 1.00 r p2
114.70 158.29 1.00 1.00 r p2
115.73 158.29 1.00 1.00 r p2
116.76 158.29 1.00 1.00 r p2
117.80 158.29 1.00 1.00 r p2
118.83 158.29 1.00 1.00 r p2
119.86 158.29 1.00 1.00 r p2
120.90 158.29 1.00 1.00 r p2
121.93 158.29 1.00 1.00 r p2
122.96 158.29 1.00 1.00 r p2
123.99 158.29 1.00 1.00 r p2
125.03 158.29 1.00 1.00 r p2
126.06 158.29 1.00 1.00 r p2
127.09 158.29 1.00 1.00 r p2
128.13 158.29 1.00 1.00 r p2
129.16 158.29 1.00 1.00 r p2
130.19 158.29 1.00 1.00 r p2
131.22 158.29 1.00 1.00 r p2
132.26 158.29 1.00 1.00 r p2
133.29 158.29 1.00 1.00 r p2
134.32 158.29 1.00 1.00 r p2
135.36 158.29 1.00 1.00 r p2
136.39 158.29 1.00 1.00 r p2
137.42 158.29 1.00 1.00 r p2
138.45 158.29 1.00 1.00 r p2
139.49 158.29 1.00 1.00 r p2
140.52 158.29 1.00 1.00 r p2
141.55 158.29 1.00 1.00 r p2
142.59 158.29 1.00 1.00 r p2
143.62 158.29 1.00 1.00 r p2
144.65 158.29 1.00 1.00 r p2
145.69 158.29 1.00 1.00 r p2
146.72 158.29 1.00 1.00 r p2
147.75 158.29 1.00 1.00 r p2
148.78 158.29 1.00 1.00 r p2
149.82 158.29 1.00 1.00 r p2
150.85 158.29 1.00 1.00 r p2
151.88 158.29 1.00 1.00 r p2
152.92 158.29 1.00 1.00 r p2
153.95 158.29 1.00 1.00 r p2
154.98 158.29 1.00 1.00 r p2
156.01 158.29 1.00 1.00 r p2
157.05 158.29 1.00 1.00 r p2
158.08 158.29 1.00 1.00 r p2
159.11 158.29 1.00 1.00 r p2
160.15 158.29 1.00 1.00 r p2
161.18 158.29 1.00 1.00 r p2
162.21 158.29 1.00 1.00 r p2
163.25 158.29 1.00 1.00 r p2
164.78 155.92 (A) .5 0 t
165.81 155.92 (A) .5 0 t
166.84 155.92 (A) .5 0 t
167.88 155.92 (A) .5 0 t
168.91 155.92 (A) .5 0 t
169.44 158.29 1.00 1.00 r p2
170.48 158.29 1.00 1.00 r p2
171.51 158.29 1.00 1.00 r p2
172.54 158.29 1.00 1.00 r p2
173.57 158.29 1.00 1.00 r p2
174.61 158.29 1.00 1.00 r p2
176.14 156.77 (<) .5 0 t
177.17 156.77 (<) .5 0 t
178.21 156.77 (<) .5 0 t
179.24 156.77 (<) .5 0 t
180.27 156.77 (<) .5 0 t
181.30 156.77 (<) .5 0 t
181.84 158.29 1.00 1.00 r p2
182.87 158.29 1.00 1.00 r p2
183.90 158.29 1.00 1.00 r p2
184.94 158.29 1.00 1.00 r p2
186.47 156.77 (<) .5 0 t
187.50 156.77 (<) .5 0 t
188.54 156.77 (<) .5 0 t
189.07 158.29 1.00 1.00 r p2
190.10 158.29 1.00 1.00 r p2
191.13 158.29 1.00 1.00 r p2
192.17 158.29 1.00 1.00 r p2
193.20 158.29 1.00 1.00 r p2
194.23 158.29 1.00 1.00 r p2
195.27 158.29 1.00 1.00 r p2
196.30 158.29 1.00 1.00 r p2
197.33 158.29 1.00 1.00 r p2
198.86 156.77 (<) .5 0 t
199.90 156.77 (<) .5 0 t
200.93 156.77 (<) .5 0 t
201.96 156.77 (<) .5 0 t
203.00 156.77 (<) .5 0 t
203.53 158.29 1.00 1.00 r p2
204.56 158.29 1.00 1.00 r p2
205.59 158.29 1.00 1.00 r p2
206.63 158.29 1.00 1.00 r p2
207.66 158.29 1.00 1.00 r p2
208.69 158.29 1.00 1.00 r p2
209.73 158.29 1.00 1.00 r p2
210.76 158.29 1.00 1.00 r p2
211.79 158.29 1.00 1.00 r p2
212.83 158.29 1.00 1.00 r p2
213.86 158.29 1.00 1.00 r p2
214.89 158.29 1.00 1.00 r p2
215.92 158.29 1.00 1.00 r p2
216.96 158.29 1.00 1.00 r p2
217.99 158.29 1.00 1.00 r p2
219.02 158.29 1.00 1.00 r p2
220.06 158.29 1.00 1.00 r p2
221.09 158.29 1.00 1.00 r p2
222.12 158.29 1.00 1.00 r p2
223.15 158.29 1.00 1.00 r p2
224.19 158.29 1.00 1.00 r p2
225.22 158.29 1.00 1.00 r p2
226.25 158.29 1.00 1.00 r p2
227.29 158.29 1.00 1.00 r p2
228.32 158.29 1.00 1.00 r p2
229.85 156.77 (>) .5 0 t
230.88 156.77 (>) .5 0 t
231.92 156.77 (>) .5 0 t
232.95 156.77 (>) .5 0 t
233.98 156.77 (>) .5 0 t
234.52 158.29 1.00 1.00 r p2
235.55 158.29 1.00 1.00 r p2
236.58 158.29 1.00 1.00 r p2
237.62 158.29 1.00 1.00 r p2
238.65 158.29 1.00 1.00 r p2
239.68 158.29 1.00 1.00 r p2
240.71 158.29 1.00 1.00 r p2
242.25 156.77 (>) .5 0 t
243.28 156.77 (>) .5 0 t
244.31 156.77 (>) .5 0 t
244.85 158.29 1.00 1.00 r p2
245.88 158.29 1.00 1.00 r p2
246.91 158.29 1.00 1.00 r p2
248.44 156.77 (>) .5 0 t
249.48 156.77 (>) .5 0 t
250.51 156.77 (>) .5 0 t
251.54 156.77 (>) .5 0 t
252.58 156.77 (>) .5 0 t
253.61 156.77 (>) .5 0 t
254.64 156.77 (<) .5 0 t
255.68 156.77 (<) .5 0 t
256.71 156.77 (<) .5 0 t
257.24 158.29 1.00 1.00 r p2
258.27 158.29 1.00 1.00 r p2
259.31 158.29 1.00 1.00 r p2
260.84 156.77 (<) .5 0 t
261.87 156.77 (<) .5 0 t
262.91 156.77 (<) .5 0 t
263.94 156.77 (<) .5 0 t
264.97 156.77 (<) .5 0 t
266.00 156.77 (<) .5 0 t
267.04 156.77 (<) .5 0 t
268.07 156.77 (<) .5 0 t
268.60 158.29 1.00 1.00 r p2
269.64 158.29 1.00 1.00 r p2
270.67 158.29 1.00 1.00 r p2
271.70 158.29 1.00 1.00 r p2
272.73 158.29 1.00 1.00 r p2
273.77 158.29 1.00 1.00 r p2
274.80 158.29 1.00 1.00 r p2
275.83 158.29 1.00 1.00 r p2
276.87 158.29 1.00 1.00 r p2
277.90 158.29 1.00 1.00 r p2
278.93 158.29 1.00 1.00 r p2
279.97 158.29 1.00 1.00 r p2
281.00 158.29 1.00 1.00 r p2
282.03 158.29 1.00 1.00 r p2
283.06 158.29 1.00 1.00 r p2
284.10 158.29 1.00 1.00 r p2
285.13 158.29 1.00 1.00 r p2
286.16 158.29 1.00 1.00 r p2
287.20 158.29 1.00 1.00 r p2
288.23 158.29 1.00 1.00 r p2
289.26 158.29 1.00 1.00 r p2
290.29 158.29 1.00 1.00 r p2
291.33 158.29 1.00 1.00 r p2
292.36 158.29 1.00 1.00 r p2
293.39 158.29 1.00 1.00 r p2
294.43 158.29 1.00 1.00 r p2
295.46 158.29 1.00 1.00 r p2
296.99 156.77 (>) .5 0 t
298.02 156.77 (>) .5 0 t
299.06 156.77 (>) .5 0 t
300.09 156.77 (>) .5 0 t
301.12 156.77 (>) .5 0 t
302.16 156.77 (>) .5 0 t
303.19 156.77 (>) .5 0 t
304.22 156.77 (>) .5 0 t
305.26 156.77 (>) .5 0 t
306.29 156.77 (>) .5 0 t
307.32 156.77 (>) .5 0 t
307.85 158.29 1.00 1.00 r p2
308.89 158.29 1.00 1.00 r p2
309.92 158.29 1.00 1.00 r p2
311.45 156.69 (\() .5 0 t
311.99 158.29 1.00 1.00 r p2
313.52 156.69 (\() .5 0 t
314.55 156.69 (\() .5 0 t
315.58 156.69 (\() .5 0 t
316.62 156.69 (\() .5 0 t
317.65 156.69 (\() .5 0 t
318.18 158.29 1.00 1.00 r p2
319.22 158.29 1.00 1.00 r p2
320.25 158.29 1.00 1.00 r p2
321.28 158.29 1.00 1.00 r p2
322.81 156.77 (<) .5 0 t
323.85 156.77 (<) .5 0 t
324.88 156.77 (<) .5 0 t
325.91 156.77 (<) .5 0 t
326.95 156.77 (<) .5 0 t
327.48 158.29 1.00 1.00 r p2
328.51 158.29 1.00 1.00 r p2
329.55 158.29 1.00 1.00 r p2
330.58 158.29 1.00 1.00 r p2
331.61 158.29 1.00 1.00 r p2
332.64 158.29 1.00 1.00 r p2
333.68 158.29 1.00 1.00 r p2
334.71 158.29 1.00 1.00 r p2
335.74 158.29 1.00 1.00 r p2
336.78 158.29 1.00 1.00 r p2
337.81 158.29 1.00 1.00 r p2
338.84 158.29 1.00 1.00 r p2
339.87 158.29 1.00 1.00 r p2
340.91 158.29 1.00 1.00 r p2
341.94 158.29 1.00 1.00 r p2
342.97 158.29 1.00 1.00 r p2
344.01 158.29 1.00 1.00 r p2
345.04 158.29 1.00 1.00 r p2
346.07 158.29 1.00 1.00 r p2
347.10 158.29 1.00 1.00 r p2
348.14 158.29 1.00 1.00 r p2
349.17 158.29 1.00 1.00 r p2
350.20 158.29 1.00 1.00 r p2
351.24 158.29 1.00 1.00 r p2
352.27 158.29 1.00 1.00 r p2
353.30 158.29 1.00 1.00 r p2
354.34 158.29 1.00 1.00 r p2
355.37 158.29 1.00 1.00 r p2
356.40 158.29 1.00 1.00 r p2
357.43 158.29 1.00 1.00 r p2
358.47 158.29 1.00 1.00 r p2
359.50 158.29 1.00 1.00 r p2
361.03 156.77 (>) .5 0 t
362.07 156.77 (>) .5 0 t
363.10 156.77 (>) .5 0 t
364.13 156.77 (>) .5 0 t
365.16 156.77 (>) .5 0 t
365.70 158.29 1.00 1.00 r p2
366.73 158.29 1.00 1.00 r p2
367.76 158.29 1.00 1.00 r p2
368.80 158.29 1.00 1.00 r p2
369.83 158.29 1.00 1.00 r p2
370.86 158.29 1.00 1.00 r p2
372.40 156.77 (<) .5 0 t
373.43 156.77 (<) .5 0 t
374.46 156.77 (<) .5 0 t
375.49 156.77 (<) .5 0 t
376.53 156.77 (<) .5 0 t
377.56 156.77 (<) .5 0 t
378.59 156.77 (<) .5 0 t
379.63 156.77 (<) .5 0 t
380.66 156.77 (<) .5 0 t
381.19 158.29 1.00 1.00 r p2
382.22 158.29 1.00 1.00 r p2
383.26 158.29 1.00 1.00 r p2
384.29 158.29 1.00 1.00 r p2
385.32 158.29 1.00 1.00 r p2
386.36 158.29 1.00 1.00 r p2
387.39 158.29 1.00 1.00 r p2
388.42 158.29 1.00 1.00 r p2
389.45 158.29 1.00 1.00 r p2
390.49 158.29 1.00 1.00 r p2
391.52 158.29 1.00 1.00 r p2
392.55 158.29 1.00 1.00 r p2
393.59 158.29 1.00 1.00 r p2
394.62 158.29 1.00 1.00 r p2
395.65 158.29 1.00 1.00 r p2
396.69 158.29 1.00 1.00 r p2
397.72 158.29 1.00 1.00 r p2
398.75 158.29 1.00 1.00 r p2
399.78 158.29 1.00 1.00 r p2
400.82 158.29 1.00 1.00 r p2
401.85 158.29 1.00 1.00 r p2
402.88 158.29 1.00 1.00 r p2
403.92 158.29 1.00 1.00 r p2
404.95 158.29 1.00 1.00 r p2
405.98 158.29 1.00 1.00 r p2
407.01 158.29 1.00 1.00 r p2
408.05 158.29 1.00 1.00 r p2
409.08 158.29 1.00 1.00 r p2
410.11 158.29 1.00 1.00 r p2
411.15 158.29 1.00 1.00 r p2
412.18 158.29 1.00 1.00 r p2
413.21 158.29 1.00 1.00 r p2
414.24 158.29 1.00 1.00 r p2
415.28 158.29 1.00 1.00 r p2
416.31 158.29 1.00 1.00 r p2
417.34 158.29 1.00 1.00 r p2
418.38 158.29 1.00 1.00 r p2
419.41 158.29 1.00 1.00 r p2
420.44 158.29 1.00 1.00 r p2
421.48 158.29 1.00 1.00 r p2
422.51 158.29 1.00 1.00 r p2
423.54 158.29 1.00 1.00 r p2
424.57 158.29 1.00 1.00 r p2
425.61 158.29 1.00 1.00 r p2
426.64 158.29 1.00 1.00 r p2
428.17 156.77 (>) .5 0 t
429.21 156.77 (>) .5 0 t
430.24 156.77 (>) .5 0 t
431.27 156.77 (>) .5 0 t
432.30 156.77 (>) .5 0 t
433.34 156.77 (>) .5 0 t
434.37 156.77 (>) .5 0 t
435.40 156.77 (>) .5 0 t
436.44 156.77 (>) .5 0 t
436.97 158.29 1.00 1.00 r p2
438.00 158.29 1.00 1.00 r p2
439.03 158.29 1.00 1.00 r p2
440.07 158.29 1.00 1.00 r p2
441.10 158.29 1.00 1.00 r p2
442.63 156.70 (a) .5 0 t
443.67 156.70 (a) .5 0 t
444.70 156.70 (a) .5 0 t
445.73 156.70 (a) .5 0 t
446.77 156.70 (a) .5 0 t
447.30 158.29 1.00 1.00 r p2
448.33 158.29 1.00 1.00 r p2
449.86 156.77 (<) .5 0 t
450.90 156.77 (<) .5 0 t
451.93 156.77 (<) .5 0 t
452.96 156.77 (<) .5 0 t
454.00 156.77 (<) .5 0 t
455.03 156.77 (<) .5 0 t
456.06 156.77 (<) .5 0 t
457.09 156.77 (<) .5 0 t
457.63 158.29 1.00 1.00 r p2
458.66 158.29 1.00 1.00 r p2
459.69 158.29 1.00 1.00 r p2
460.73 158.29 1.00 1.00 r p2
461.76 158.29 1.00 1.00 r p2
462.79 158.29 1.00 1.00 r p2
463.82 158.29 1.00 1.00 r p2
464.86 158.29 1.00 1.00 r p2
465.89 158.29 1.00 1.00 r p2
466.92 158.29 1.00 1.00 r p2
467.96 158.29 1.00 1.00 r p2
468.99 158.29 1.00 1.00 r p2
470.02 158.29 1.00 1.00 r p2
471.06 158.29 1.00 1.00 r p2
472.09 158.29 1.00 1.00 r p2
473.12 158.29 1.00 1.00 r p2
474.15 158.29 1.00 1.00 r p2
475.19 158.29 1.00 1.00 r p2
476.22 158.29 1.00 1.00 r p2
477.25 158.29 1.00 1.00 r p2
478.29 158.29 1.00 1.00 r p2
479.82 156.77 (>) .5 0 t
480.85 156.77 (>) .5 0 t
481.88 156.77 (>) .5 0 t
482.92 156.77 (>) .5 0 t
483.95 156.77 (>) .5 0 t
484.98 156.77 (>) .5 0 t
486.02 156.77 (>) .5 0 t
486.55 158.29 1.00 1.00 r p2
488.08 156.77 (>) .5 0 t
488.62 158.29 1.00 1.00 r p2
489.65 158.29 1.00 1.00 r p2
490.68 158.29 1.00 1.00 r p2
491.71 158.29 1.00 1.00 r p2
492.75 158.29 1.00 1.00 r p2
493.78 158.29 1.00 1.00 r p2
494.81 158.29 1.00 1.00 r p2
496.35 156.69 (\)) .5 0 t
497.38 156.69 (\)) .5 0 t
498.41 156.69 (\)) .5 0 t
499.44 156.69 (\)) .5 0 t
500.48 156.69 (\)) .5 0 t
501.51 156.69 (\)) .5 0 t
502.54 156.77 (<) .5 0 t
503.58 156.77 (<) .5 0 t
504.11 158.29 1.00 1.00 r p2
505.64 156.77 (<) .5 0 t
506.67 156.77 (<) .5 0 t
507.71 156.77 (<) .5 0 t
508.74 156.77 (<) .5 0 t
509.77 156.77 (<) .5 0 t
510.81 156.77 (<) .5 0 t
511.84 156.77 (<) .5 0 t
512.37 158.29 1.00 1.00 r p2
513.41 158.29 1.00 1.00 r p2
514.44 158.29 1.00 1.00 r p2
515.47 158.29 1.00 1.00 r p2
516.50 158.29 1.00 1.00 r p2
517.54 158.29 1.00 1.00 r p2
518.57 158.29 1.00 1.00 r p2
519.60 158.29 1.00 1.00 r p2
520.64 158.29 1.00 1.00 r p2
521.67 158.29 1.00 1.00 r p2
522.70 158.29 1.00 1.00 r p2
523.73 158.29 1.00 1.00 r p2
524.77 158.29 1.00 1.00 r p2
525.80 158.29 1.00 1.00 r p2
527.33 156.77 (>) .5 0 t
528.37 156.77 (>) .5 0 t
529.40 156.77 (>) .5 0 t
530.43 156.77 (>) .5 0 t
531.46 156.77 (>) .5 0 t
532.50 156.77 (>) .5 0 t
533.53 156.77 (>) .5 0 t
534.06 158.29 1.00 1.00 r p2
535.10 158.29 1.00 1.00 r p2
536.13 158.29 1.00 1.00 r p2
537.16 158.29 1.00 1.00 r p2
538.20 158.29 1.00 1.00 r p2
539.23 158.29 1.00 1.00 r p2
540.26 158.29 1.00 1.00 r p2
541.29 158.29 1.00 1.00 r p2
542.33 158.29 1.00 1.00 r p2
543.36 158.29 1.00 1.00 r p2
544.39 158.29 1.00 1.00 r p2
545.43 158.29 1.00 1.00 r p2
546.46 158.29 1.00 1.00 r p2
547.49 158.29 1.00 1.00 r p2
548.52 158.29 1.00 1.00 r p2
549.56 158.29 1.00 1.00 r p2
550.59 158.29 1.00 1.00 r p2
551.62 158.29 1.00 1.00 r p2
552.66 158.29 1.00 1.00 r p2
553.69 158.29 1.00 1.00 r p2
554.72 158.29 1.00 1.00 r p2
555.75 158.29 1.00 1.00 r p2
556.79 158.29 1.00 1.00 r p2
557.82 158.29 1.00 1.00 r p2
558.85 158.29 1.00 1.00 r p2
559.89 158.29 1.00 1.00 r p2
560.92 158.29 1.00 1.00 r p2
561.95 158.29 1.00 1.00 r p2
562.99 158.29 1.00 1.00 r p2
564.02 158.29 1.00 1.00 r p2
565.05 158.29 1.00 1.00 r p2
566.08 158.29 1.00 1.00 r p2
567.12 158.29 1.00 1.00 r p2
568.15 158.29 1.00 1.00 r p2
569.18 158.29 1.00 1.00 r p2
570.22 158.29 1.00 1.00 r p2
571.25 158.29 1.00 1.00 r p2
572.28 158.29 1.00 1.00 r p2
573.31 158.29 1.00 1.00 r p2
574.35 158.29 1.00 1.00 r p2
575.38 158.29 1.00 1.00 r p2
576.41 158.29 1.00 1.00 r p2
577.45 158.29 1.00 1.00 r p2
578.48 158.29 1.00 1.00 r p2
579.51 158.29 1.00 1.00 r p2
580.55 158.29 1.00 1.00 r p2
581.58 158.29 1.00 1.00 r p2
582.61 158.29 1.00 1.00 r p2
583.64 158.29 1.00 1.00 r p2
584.68 158.29 1.00 1.00 r p2
585.71 158.29 1.00 1.00 r p2
586.74 158.29 1.00 1.00 r p2
587.78 158.29 1.00 1.00 r p2
588.81 158.29 1.00 1.00 r p2
589.84 158.29 1.00 1.00 r p2
590.87 158.29 1.00 1.00 r p2
591.91 158.29 1.00 1.00 r p2
592.94 158.29 1.00 1.00 r p2
593.97 158.29 1.00 1.00 r p2
595.01 158.29 1.00 1.00 r p2
596.04 158.29 1.00 1.00 r p2
597.07 158.29 1.00 1.00 r p2
598.10 158.29 1.00 1.00 r p2
599.14 158.29 1.00 1.00 r p2
600.17 158.29 1.00 1.00 r p2
601.20 158.29 1.00 1.00 r p2
602.24 158.29 1.00 1.00 r p2
603.27 158.29 1.00 1.00 r p2
604.30 158.29 1.00 1.00 r p2
605.34 158.29 1.00 1.00 r p2
606.37 158.29 1.00 1.00 r p2
607.40 158.29 1.00 1.00 r p2
608.43 158.29 1.00 1.00 r p2
609.47 158.29 1.00 1.00 r p2
610.50 158.29 1.00 1.00 r p2
611.53 158.29 1.00 1.00 r p2
612.57 158.29 1.00 1.00 r p2
613.60 158.29 1.00 1.00 r p2
614.63 158.29 1.00 1.00 r p2
615.66 158.29 1.00 1.00 r p2
616.70 158.29 1.00 1.00 r p2
617.73 158.29 1.00 1.00 r p2
618.76 158.29 1.00 1.00 r p2
619.80 158.29 1.00 1.00 r p2
620.83 158.29 1.00 1.00 r p2
621.86 158.29 1.00 1.00 r p2
622.89 158.29 1.00 1.00 r p2
623.93 158.29 1.00 1.00 r p2
624.96 158.29 1.00 1.00 r p2
625.99 158.29 1.00 1.00 r p2
627.03 158.29 1.00 1.00 r p2
628.06 158.29 1.00 1.00 r p2
629.09 158.29 1.00 1.00 r p2
630.13 158.29 1.00 1.00 r p2
631.16 158.29 1.00 1.00 r p2
632.19 158.29 1.00 1.00 r p2
633.22 158.29 1.00 1.00 r p2
634.26 158.29 1.00 1.00 r p2
635.29 158.29 1.00 1.00 r p2
636.32 158.29 1.00 1.00 r p2
637.36 158.29 1.00 1.00 r p2
638.39 158.29 1.00 1.00 r p2
639.42 158.29 1.00 1.00 r p2
640.45 158.29 1.00 1.00 r p2
641.49 158.29 1.00 1.00 r p2
642.52 158.29 1.00 1.00 r p2
643.55 158.29 1.00 1.00 r p2
644.59 158.29 1.00 1.00 r p2
645.62 158.29 1.00 1.00 r p2
646.65 158.29 1.00 1.00 r p2
647.68 158.29 1.00 1.00 r p2
648.72 158.29 1.00 1.00 r p2
649.75 158.29 1.00 1.00 r p2
650.78 158.29 1.00 1.00 r p2
651.82 158.29 1.00 1.00 r p2
652.85 158.29 1.00 1.00 r p2
653.88 158.29 1.00 1.00 r p2
654.92 158.29 1.00 1.00 r p2
656.45 156.77 (>) .5 0 t
657.48 156.77 (>) .5 0 t
658.01 158.29 1.00 1.00 r p2
659.05 158.29 1.00 1.00 r p2
660.08 158.29 1.00 1.00 r p2
661.11 158.29 1.00 1.00 r p2
662.15 158.29 1.00 1.00 r p2
663.18 158.29 1.00 1.00 r p2
664.21 158.29 1.00 1.00 r p2
665.24 158.29 1.00 1.00 r p2
666.28 158.29 1.00 1.00 r p2
667.31 158.29 1.00 1.00 r p2
668.34 158.29 1.00 1.00 r p2
669.38 158.29 1.00 1.00 r p2
670.41 158.29 1.00 1.00 r p2
49.62 150.36 1.00 1.00 r p2
50.66 150.36 1.00 1.00 r p2
51.69 150.36 1.00 1.00 r p2
52.72 150.36 1.00 1.00 r p2
53.76 150.36 1.00 1.00 r p2
55.29 148.05 (1) .5 0 t
56.32 148.05 (1) .5 0 t
57.35 148.05 (1) .5 0 t
58.39 148.05 (1) .5 0 t
59.42 148.05 (1) .5 0 t
59.95 150.36 1.00 1.00 r p2
60.99 150.36 1.00 1.00 r p2
62.52 148.05 (1) .5 0 t
63.05 150.36 1.00 1.00 r p2
64.08 150.36 1.00 1.00 r p2
65.12 150.36 1.00 1.00 r p2
66.15 150.36 1.00 1.00 r p2
67.18 150.36 1.00 1.00 r p2
68.22 150.36 1.00 1.00 r p2
69.25 150.36 1.00 1.00 r p2
70.28 150.36 1.00 1.00 r p2
71.32 150.36 1.00 1.00 r p2
72.35 150.36 1.00 1.00 r p2
73.38 150.36 1.00 1.00 r p2
74.41 150.36 1.00 1.00 r p2
75.45 150.36 1.00 1.00 r p2
76.48 150.36 1.00 1.00 r p2
77.51 150.36 1.00 1.00 r p2
78.55 150.36 1.00 1.00 r p2
80.08 148.05 (1) .5 0 t
81.11 148.05 (1) .5 0 t
82.14 148.05 (1) .5 0 t
83.18 148.05 (1) .5 0 t
84.21 148.05 (1) .5 0 t
85.24 148.05 (1) .5 0 t
85.78 150.36 1.00 1.00 r p2
86.81 150.36 1.00 1.00 r p2
87.84 150.36 1.00 1.00 r p2
88.87 150.36 1.00 1.00 r p2
90.41 148.05 (2) .5 0 t
91.44 148.05 (2) .5 0 t
92.47 148.05 (2) .5 0 t
93.51 148.05 (2) .5 0 t
94.54 148.05 (2) .5 0 t
95.57 148.05 (2) .5 0 t
96.61 148.05 (2) .5 0 t
97.64 148.05 (2) .5 0 t
98.17 150.36 1.00 1.00 r p2
99.20 150.36 1.00 1.00 r p2
100.24 150.36 1.00 1.00 r p2
101.27 150.36 1.00 1.00 r p2
102.30 150.36 1.00 1.00 r p2
103.34 150.36 1.00 1.00 r p2
104.87 148.05 (2) .5 0 t
105.90 148.05 (2) .5 0 t
106.93 148.05 (2) .5 0 t
107.97 148.05 (2) .5 0 t
109.00 148.05 (2) .5 0 t
110.03 148.05 (2) .5 0 t
111.07 148.05 (2) .5 0 t
112.10 148.05 (2) .5 0 t
112.63 150.36 1.00 1.00 r p2
113.66 150.36 1.00 1.00 r p2
114.70 150.36 1.00 1.00 r p2
115.73 150.36 1.00 1.00 r p2
116.76 150.36 1.00 1.00 r p2
117.80 150.36 1.00 1.00 r p2
118.83 150.36 1.00 1.00 r p2
119.86 150.36 1.00 1.00 r p2
120.90 150.36 1.00 1.00 r p2
121.93 150.36 1.00 1.00 r p2
122.96 150.36 1.00 1.00 r p2
123.99 150.36 1.00 1.00 r p2
125.03 150.36 1.00 1.00 r p2
126.06 150.36 1.00 1.00 r p2
127.09 150.36 1.00 1.00 r p2
128.13 150.36 1.00 1.00 r p2
129.16 150.36 1.00 1.00 r p2
130.19 150.36 1.00 1.00 r p2
131.22 150.36 1.00 1.00 r p2
132.26 150.36 1.00 1.00 r p2
133.29 150.36 1.00 1.00 r p2
134.32 150.36 1.00 1.00 r p2
135.36 150.36 1.00 1.00 r p2
136.39 150.36 1.00 1.00 r p2
137.42 150.36 1.00 1.00 r p2
138.45 150.36 1.00 1.00 r p2
139.49 150.36 1.00 1.00 r p2
140.52 150.36 1.00 1.00 r p2
141.55 150.36 1.00 1.00 r p2
142.59 150.36 1.00 1.00 r p2
143.62 150.36 1.00 1.00 r p2
144.65 150.36 1.00 1.00 r p2
145.69 150.36 1.00 1.00 r p2
146.72 150.36 1.00 1.00 r p2
147.75 150.36 1.00 1.00 r p2
148.78 150.36 1.00 1.00 r p2
149.82 150.36 1.00 1.00 r p2
150.85 150.36 1.00 1.00 r p2
151.88 150.36 1.00 1.00 r p2
152.92 150.36 1.00 1.00 r p2
153.95 150.36 1.00 1.00 r p2
154.98 150.36 1.00 1.00 r p2
156.01 150.36 1.00 1.00 r p2
157.05 150.36 1.00 1.00 r p2
158.08 150.36 1.00 1.00 r p2
159.11 150.36 1.00 1.00 r p2
160.15 150.36 1.00 1.00 r p2
161.18 150.36 1.00 1.00 r p2
162.21 150.36 1.00 1.00 r p2
163.25 150.36 1.00 1.00 r p2
164.78 148.12 (3) .5 0 t
165.81 148.12 (3) .5 0 t
166.84 148.12 (3) .5 0 t
167.88 148.12 (3) .5 0 t
168.91 148.12 (3) .5 0 t
169.44 150.36 1.00 1.00 r p2
170.48 150.36 1.00 1.00 r p2
171.51 150.36 1.00 1.00 r p2
172.54 150.36 1.00 1.00 r p2
173.57 150.36 1.00 1.00 r p2
174.61 150.36 1.00 1.00 r p2
176.14 148.05 (4) .5 0 t
177.17 148.05 (4) .5 0 t
178.21 148.05 (4) .5 0 t
179.24 148.05 (4) .5 0 t
180.27 148.05 (4) .5 0 t
181.30 148.05 (4) .5 0 t
181.84 150.36 1.00 1.00 r p2
182.87 150.36 1.00 1.00 r p2
183.90 150.36 1.00 1.00 r p2
184.94 150.36 1.00 1.00 r p2
186.47 148.05 (4) .5 0 t
187.50 148.05 (4) .5 0 t
188.54 148.05 (4) .5 0 t
189.07 150.36 1.00 1.00 r p2
190.10 150.36 1.00 1.00 r p2
191.13 150.36 1.00 1.00 r p2
192.17 150.36 1.00 1.00 r p2
193.20 150.36 1.00 1.00 r p2
194.23 150.36 1.00 1.00 r p2
195.27 150.36 1.00 1.00 r p2
196.30 150.36 1.00 1.00 r p2
197.33 150.36 1.00 1.00 r p2
198.86 148.05 (4) .5 0 t
199.90 148.05 (4) .5 0 t
200.93 148.05 (4) .5 0 t
201.96 148.05 (4) .5 0 t
203.00 148.05 (4) .5 0 t
203.53 150.36 1.00 1.00 r p2
204.56 150.36 1.00 1.00 r p2
205.59 150.36 1.00 1.00 r p2
206.63 150.36 1.00 1.00 r p2
207.66 150.36 1.00 1.00 r p2
208.69 150.36 1.00 1.00 r p2
209.73 150.36 1.00 1.00 r p2
210.76 150.36 1.00 1.00 r p2
211.79 150.36 1.00 1.00 r p2
212.83 150.36 1.00 1.00 r p2
213.86 150.36 1.00 1.00 r p2
214.89 150.36 1.00 1.00 r p2
215.92 150.36 1.00 1.00 r p2
216.96 150.36 1.00 1.00 r p2
217.99 150.36 1.00 1.00 r p2
219.02 150.36 1.00 1.00 r p2
220.06 150.36 1.00 1.00 r p2
221.09 150.36 1.00 1.00 r p2
222.12 150.36 1.00 1.00 r p2
223.15 150.36 1.00 1.00 r p2
224.19 150.36 1.00 1.00 r p2
225.22 150.36 1.00 1.00 r p2
226.25 150.36 1.00 1.00 r p2
227.29 150.36 1.00 1.00 r p2
228.32 150.36 1.00 1.00 r p2
229.85 148.05 (4) .5 0 t
230.88 148.05 (4) .5 0 t
231.92 148.05 (4) .5 0 t
232.95 148.05 (4) .5 0 t
233.98 148.05 (4) .5 0 t
234.52 150.36 1.00 1.00 r p2
235.55 150.36 1.00 1.00 r p2
236.58 150.36 1.00 1.00 r p2
237.62 150.36 1.00 1.00 r p2
238.65 150.36 1.00 1.00 r p2
239.68 150.36 1.00 1.00 r p2
240.71 150.36 1.00 1.00 r p2
242.25 148.05 (4) .5 0 t
243.28 148.05 (4) .5 0 t
244.31 148.05 (4) .5 0 t
244.85 150.36 1.00 1.00 r p2
245.88 150.36 1.00 1.00 r p2
246.91 150.36 1.00 1.00 r p2
248.44 148.05 (4) .5 0 t
249.48 148.05 (4) .5 0 t
250.51 148.05 (4) .5 0 t
251.54 148.05 (4) .5 0 t
252.58 148.05 (4) .5 0 t
253.61 148.05 (4) .5 0 t
254.64 148.18 (5) .5 0 t
255.68 148.18 (5) .5 0 t
256.71 148.18 (5) .5 0 t
257.24 150.36 1.00 1.00 r p2
258.27 150.36 1.00 1.00 r p2
259.31 150.36 1.00 1.00 r p2
260.84 148.18 (5) .5 0 t
261.87 148.18 (5) .5 0 t
262.91 148.18 (5) .5 0 t
263.94 148.18 (5) .5 0 t
264.97 148.18 (5) .5 0 t
266.00 148.18 (5) .5 0 t
267.04 148.18 (5) .5 0 t
268.07 148.18 (5) .5 0 t
268.60 150.36 1.00 1.00 r p2
269.64 150.36 1.00 1.00 r p2
270.67 150.36 1.00 1.00 r p2
271.70 150.36 1.00 1.00 r p2
272.73 150.36 1.00 1.00 r p2
273.77 150.36 1.00 1.00 r p2
274.80 150.36 1.00 1.00 r p2
275.83 150.36 1.00 1.00 r p2
276.87 150.36 1.00 1.00 r p2
277.90 150.36 1.00 1.00 r p2
278.93 150.36 1.00 1.00 r p2
279.97 150.36 1.00 1.00 r p2
281.00 150.36 1.00 1.00 r p2
282.03 150.36 1.00 1.00 r p2
283.06 150.36 1.00 1.00 r p2
284.10 150.36 1.00 1.00 r p2
285.13 150.36 1.00 1.00 r p2
286.16 150.36 1.00 1.00 r p2
287.20 150.36 1.00 1.00 r p2
288.23 150.36 1.00 1.00 r p2
289.26 150.36 1.00 1.00 r p2
290.29 150.36 1.00 1.00 r p2
291.33 150.36 1.00 1.00 r p2
292.36 150.36 1.00 1.00 r p2
293.39 150.36 1.00 1.00 r p2
294.43 150.36 1.00 1.00 r p2
295.46 150.36 1.00 1.00 r p2
296.99 148.18 (5) .5 0 t
298.02 148.18 (5) .5 0 t
299.06 148.18 (5) .5 0 t
300.09 148.18 (5) .5 0 t
301.12 148.18 (5) .5 0 t
302.16 148.18 (5) .5 0 t
303.19 148.18 (5) .5 0 t
304.22 148.18 (5) .5 0 t
305.26 148.18 (5) .5 0 t
306.29 148.18 (5) .5 0 t
307.32 148.18 (5) .5 0 t
307.85 150.36 1.00 1.00 r p2
308.89 150.36 1.00 1.00 r p2
309.92 150.36 1.00 1.00 r p2
311.45 148.12 (6) .5 0 t
311.99 150.36 1.00 1.00 r p2
313.52 148.12 (6) .5 0 t
314.55 148.12 (6) .5 0 t
315.58 148.12 (6) .5 0 t
316.62 148.12 (6) .5 0 t
317.65 148.12 (6) .5 0 t
318.18 150.36 1.00 1.00 r p2
319.22 150.36 1.00 1.00 r p2
320.25 150.36 1.00 1.00 r p2
321.28 150.36 1.00 1.00 r p2
322.81 148.83 (<) .5 0 t
323.85 148.83 (<) .5 0 t
324.88 148.83 (<) .5 0 t
325.91 148.83 (<) .5 0 t
326.95 148.83 (<) .5 0 t
327.48 150.36 1.00 1.00 r p2
328.51 150.36 1.00 1.00 r p2
329.55 150.36 1.00 1.00 r p2
330.58 150.36 1.00 1.00 r p2
331.61 150.36 1.00 1.00 r p2
332.64 150.36 1.00 1.00 r p2
333.68 150.36 1.00 1.00 r p2
334.71 150.36 1.00 1.00 r p2
335.74 150.36 1.00 1.00 r p2
336.78 150.36 1.00 1.00 r p2
337.81 150.36 1.00 1.00 r p2
338.84 150.36 1.00 1.00 r p2
339.87 150.36 1.00 1.00 r p2
340.91 150.36 1.00 1.00 r p2
341.94 150.36 1.00 1.00 r p2
342.97 150.36 1.00 1.00 r p2
344.01 150.36 1.00 1.00 r p2
345.04 150.36 1.00 1.00 r p2
346.07 150.36 1.00 1.00 r p2
347.10 150.36 1.00 1.00 r p2
348.14 150.36 1.00 1.00 r p2
349.17 150.36 1.00 1.00 r p2
350.20 150.36 1.00 1.00 r p2
351.24 150.36 1.00 1.00 r p2
352.27 150.36 1.00 1.00 r p2
353.30 150.36 1.00 1.00 r p2
354.34 150.36 1.00 1.00 r p2
355.37 150.36 1.00 1.00 r p2
356.40 150.36 1.00 1.00 r p2
357.43 150.36 1.00 1.00 r p2
358.47 150.36 1.00 1.00 r p2
359.50 150.36 1.00 1.00 r p2
361.03 148.83 (>) .5 0 t
362.07 148.83 (>) .5 0 t
363.10 148.83 (>) .5 0 t
364.13 148.83 (>) .5 0 t
365.16 148.83 (>) .5 0 t
365.70 150.36 1.00 1.00 r p2
366.73 150.36 1.00 1.00 r p2
367.76 150.36 1.00 1.00 r p2
368.80 150.36 1.00 1.00 r p2
369.83 150.36 1.00 1.00 r p2
370.86 150.36 1.00 1.00 r p2
372.40 148.83 (<) .5 0 t
373.43 148.83 (<) .5 0 t
374.46 148.83 (<) .5 0 t
375.49 148.83 (<) .5 0 t
376.53 148.83 (<) .5 0 t
377.56 148.83 (<) .5 0 t
378.59 148.83 (<) .5 0 t
379.63 148.83 (<) .5 0 t
380.66 148.83 (<) .5 0 t
381.19 150.36 1.00 1.00 r p2
382.22 150.36 1.00 1.00 r p2
383.26 150.36 1.00 1.00 r p2
384.29 150.36 1.00 1.00 r p2
385.32 150.36 1.00 1.00 r p2
386.36 150.36 1.00 1.00 r p2
387.39 150.36 1.00 1.00 r p2
388.42 150.36 1.00 1.00 r p2
389.45 150.36 1.00 1.00 r p2
390.49 150.36 1.00 1.00 r p2
391.52 150.36 1.00 1.00 r p2
392.55 150.36 1.00 1.00 r p2
393.59 150.36 1.00 1.00 r p2
394.62 150.36 1.00 1.00 r p2
395.65 150.36 1.00 1.00 r p2
396.69 150.36 1.00 1.00 r p2
397.72 150.36 1.00 1.00 r p2
398.75 150.36 1.00 1.00 r p2
399.78 150.36 1.00 1.00 r p2
400.82 150.36 1.00 1.00 r p2
401.85 150.36 1.00 1.00 r p2
402.88 150.36 1.00 1.00 r p2
403.92 150.36 1.00 1.00 r p2
404.95 150.36 1.00 1.00 r p2
405.98 150.36 1.00 1.00 r p2
407.01 150.36 1.00 1.00 r p2
408.05 150.36 1.00 1.00 r p2
409.08 150.36 1.00 1.00 r p2
410.11 150.36 1.00 1.00 r p2
411.15 150.36 1.00 1.00 r p2
412.18 150.36 1.00 1.00 r p2
413.21 150.36 1.00 1.00 r p2
414.24 150.36 1.00 1.00 r p2
415.28 150.36 1.00 1.00 r p2
416.31 150.36 1.00 1.00 r p2
417.34 150.36 1.00 1.00 r p2
418.38 150.36 1.00 1.00 r p2
419.41 150.36 1.00 1.00 r p2
420.44 150.36 1.00 1.00 r p2
421.48 150.36 1.00 1.00 r p2
422.51 150.36 1.00 1.00 r p2
423.54 150.36 1.00 1.00 r p2
424.57 150.36 1.00 1.00 r p2
425.61 150.36 1.00 1.00 r p2
426.64 150.36 1.00 1.00 r p2
428.17 148.83 (>) .5 0 t
429.21 148.83 (>) .5 0 t
430.24 148.83 (>) .5 0 t
431.27 148.83 (>) .5 0 t
432.30 148.83 (>) .5 0 t
433.34 148.83 (>) .5 0 t
434.37 148.83 (>) .5 0 t
435.40 148.83 (>) .5 0 t
436.44 148.83 (>) .5 0 t
436.97 150.36 1.00 1.00 r p2
438.00 150.36 1.00 1.00 r p2
439.03 150.36 1.00 1.00 r p2
440.07 150.36 1.00 1.00 r p2
441.10 150.36 1.00 1.00 r p2
442.63 148.12 (3) .5 0 t
443.67 148.12 (3) .5 0 t
444.70 148.12 (3) .5 0 t
445.73 148.12 (3) .5 0 t
446.77 148.12 (3) .5 0 t
447.30 150.36 1.00 1.00 r p2
448.33 150.36 1.00 1.00 r p2
449.86 148.11 (7) .5 0 t
450.90 148.11 (7) .5 0 t
451.93 148.11 (7) .5 0 t
452.96 148.11 (7) .5 0 t
454.00 148.11 (7) .5 0 t
455.03 148.11 (7) .5 0 t
456.06 148.11 (7) .5 0 t
457.09 148.11 (7) .5 0 t
457.63 150.36 1.00 1.00 r p2
458.66 150.36 1.00 1.00 r p2
459.69 150.36 1.00 1.00 r p2
460.73 150.36 1.00 1.00 r p2
461.76 150.36 1.00 1.00 r p2
462.79 150.36 1.00 1.00 r p2
463.82 150.36 1.00 1.00 r p2
464.86 150.36 1.00 1.00 r p2
465.89 150.36 1.00 1.00 r p2
466.92 150.36 1.00 1.00 r p2
467.96 150.36 1.00 1.00 r p2
468.99 150.36 1.00 1.00 r p2
470.02 150.36 1.00 1.00 r p2
471.06 150.36 1.00 1.00 r p2
472.09 150.36 1.00 1.00 r p2
473.12 150.36 1.00 1.00 r p2
474.15 150.36 1.00 1.00 r p2
475.19 150.36 1.00 1.00 r p2
476.22 150.36 1.00 1.00 r p2
477.25 150.36 1.00 1.00 r p2
478.29 150.36 1.00 1.00 r p2
479.82 148.11 (7) .5 0 t
480.85 148.11 (7) .5 0 t
481.88 148.11 (7) .5 0 t
482.92 148.11 (7) .5 0 t
483.95 148.11 (7) .5 0 t
484.98 148.11 (7) .5 0 t
486.02 148.11 (7) .5 0 t
486.55 150.36 1.00 1.00 r p2
488.08 148.11 (7) .5 0 t
488.62 150.36 1.00 1.00 r p2
489.65 150.36 1.00 1.00 r p2
490.68 150.36 1.00 1.00 r p2
491.71 150.36 1.00 1.00 r p2
492.75 150.36 1.00 1.00 r p2
493.78 150.36 1.00 1.00 r p2
494.81 150.36 1.00 1.00 r p2
496.35 148.12 (6) .5 0 t
497.38 148.12 (6) .5 0 t
498.41 148.12 (6) .5 0 t
499.44 148.12 (6) .5 0 t
500.48 148.12 (6) .5 0 t
501.51 148.12 (6) .5 0 t
502.54 148.12 (8) .5 0 t
503.58 148.12 (8) .5 0 t
504.11 150.36 1.00 1.00 r p2
505.64 148.12 (8) .5 0 t
506.67 148.12 (8) .5 0 t
507.71 148.12 (8) .5 0 t
508.74 148.12 (8) .5 0 t
509.77 148.12 (8) .5 0 t
510.81 148.12 (8) .5 0 t
511.84 148.12 (8) .5 0 t
512.37 150.36 1.00 1.00 r p2
513.41 150.36 1.00 1.00 r p2
514.44 150.36 1.00 1.00 r p2
515.47 150.36 1.00 1.00 r p2
516.50 150.36 1.00 1.00 r p2
517.54 150.36 1.00 1.00 r p2
518.57 150.36 1.00 1.00 r p2
519.60 150.36 1.00 1.00 r p2
520.64 150.36 1.00 1.00 r p2
521.67 150.36 1.00 1.00 r p2
522.70 150.36 1.00 1.00 r p2
523.73 150.36 1.00 1.00 r p2
524.77 150.36 1.00 1.00 r p2
525.80 150.36 1.00 1.00 r p2
527.33 148.12 (8) .5 0 t
528.37 148.12 (8) .5 0 t
529.40 148.12 (8) .5 0 t
530.43 148.12 (8) .5 0 t
531.46 148.12 (8) .5 0 t
532.50 148.12 (8) .5 0 t
533.53 148.12 (8) .5 0 t
534.06 150.36 1.00 1.00 r p2
535.10 150.36 1.00 1.00 r p2
536.13 150.36 1.00 1.00 r p2
537.16 150.36 1.00 1.00 r p2
538.20 150.36 1.00 1.00 r p2
539.23 150.36 1.00 1.00 r p2
540.26 150.36 1.00 1.00 r p2
541.29 150.36 1.00 1.00 r p2
542.33 150.36 1.00 1.00 r p2
543.36 150.36 1.00 1.00 r p2
544.39 150.36 1.00 1.00 r p2
545.43 150.36 1.00 1.00 r p2
546.46 150.36 1.00 1.00 r p2
547.49 150.36 1.00 1.00 r p2
548.52 150.36 1.00 1.00 r p2
549.56 150.36 1.00 1.00 r p2
550.59 150.36 1.00 1.00 r p2
551.62 150.36 1.00 1.00 r p2
552.66 150.36 1.00 1.00 r p2
553.69 150.36 1.00 1.00 r p2
554.72 150.36 1.00 1.00 r p2
555.75 150.36 1.00 1.00 r p2
556.79 150.36 1.00 1.00 r p2
557.82 150.36 1.00 1.00 r p2
558.85 150.36 1.00 1.00 r p2
559.89 150.36 1.00 1.00 r p2
560.92 150.36 1.00 1.00 r p2
561.95 150.36 1.00 1.00 r p2
562.99 150.36 1.00 1.00 r p2
564.02 150.36 1.00 1.00 r p2
565.05 150.36 1.00 1.00 r p2
566.08 150.36 1.00 1.00 r p2
567.12 150.36 1.00 1.00 r p2
568.15 150.36 1.00 1.00 r p2
569.18 150.36 1.00 1.00 r p2
570.22 150.36 1.00 1.00 r p2
571.25 150.36 1.00 1.00 r p2
572.28 150.36 1.00 1.00 r p2
573.31 150.36 1.00 1.00 r p2
574.35 150.36 1.00 1.00 r p2
575.38 150.36 1.00 1.00 r p2
576.41 150.36 1.00 1.00 r p2
577.45 150.36 1.00 1.00 r p2
578.48 150.36 1.00 1.00 r p2
579.51 150.36 1.00 1.00 r p2
580.55 150.36 1.00 1.00 r p2
581.58 150.36 1.00 1.00 r p2
582.61 150.36 1.00 1.00 r p2
583.64 150.36 1.00 1.00 r p2
584.68 150.36 1.00 1.00 r p2
585.71 150.36 1.00 1.00 r p2
586.74 150.36 1.00 1.00 r p2
587.78 150.36 1.00 1.00 r p2
588.81 150.36 1.00 1.00 r p2
589.84 150.36 1.00 1.00 r p2
590.87 150.36 1.00 1.00 r p2
591.91 150.36 1.00 1.00 r p2
592.94 150.36 1.00 1.00 r p2
593.97 150.36 1.00 1.00 r p2
595.01 150.36 1.00 1.00 r p2
596.04 150.36 1.00 1.00 r p2
597.07 150.36 1.00 1.00 r p2
598.10 150.36 1.00 1.00 r p2
599.14 150.36 1.00 1.00 r p2
600.17 150.36 1.00 1.00 r p2
601.20 150.36 1.00 1.00 r p2
602.24 150.36 1.00 1.00 r p2
603.27 150.36 1.00 1.00 r p2
604.30 150.36 1.00 1.00 r p2
605.34 150.36 1.00 1.00 r p2
606.37 150.36 1.00 1.00 r p2
607.40 150.36 1.00 1.00 r p2
608.43 150.36 1.00 1.00 r p2
609.47 150.36 1.00 1.00 r p2
610.50 150.36 1.00 1.00 r p2
611.53 150.36 1.00 1.00 r p2
612.57 150.36 1.00 1.00 r p2
613.60 150.36 1.00 1.00 r p2
614.63 150.36 1.00 1.00 r p2
615.66 150.36 1.00 1.00 r p2
616.70 150.36 1.00 1.00 r p2
617.73 150.36 1.00 1.00 r p2
618.76 150.36 1.00 1.00 r p2
619.80 150.36 1.00 1.00 r p2
620.83 150.36 1.00 1.00 r p2
621.86 150.36 1.00 1.00 r p2
622.89 150.36 1.00 1.00 r p2
623.93 150.36 1.00 1.00 r p2
624.96 150.36 1.00 1.00 r p2
625.99 150.36 1.00 1.00 r p2
627.03 150.36 1.00 1.00 r p2
628.06 150.36 1.00 1.00 r p2
629.09 150.36 1.00 1.00 r p2
630.13 150.36 1.00 1.00 r p2
631.16 150.36 1.00 1.00 r p2
632.19 150.36 1.00 1.00 r p2
633.22 150.36 1.00 1.00 r p2
634.26 150.36 1.00 1.00 r p2
635.29 150.36 1.00 1.00 r p2
636.32 150.36 1.00 1.00 r p2
637.36 150.36 1.00 1.00 r p2
638.39 150.36 1.00 1.00 r p2
639.42 150.36 1.00 1.00 r p2
640.45 150.36 1.00 1.00 r p2
641.49 150.36 1.00 1.00 r p2
642.52 150.36 1.00 1.00 r p2
643.55 150.36 1.00 1.00 r p2
644.59 150.36 1.00 1.00 r p2
645.62 150.36 1.00 1.00 r p2
646.65 150.36 1.00 1.00 r p2
647.68 150.36 1.00 1.00 r p2
648.72 150.36 1.00 1.00 r p2
649.75 150.36 1.00 1.00 r p2
650.78 150.36 1.00 1.00 r p2
651.82 150.36 1.00 1.00 r p2
652.85 150.36 1.00 1.00 r p2
653.88 150.36 1.00 1.00 r p2
654.92 150.36 1.00 1.00 r p2
656.45 148.12 (8) .5 0 t
657.48 148.12 (8) .5 0 t
658.01 150.36 1.00 1.00 r p2
659.05 150.36 1.00 1.00 r p2
660.08 150.36 1.00 1.00 r p2
661.11 150.36 1.00 1.00 r p2
662.15 150.36 1.00 1.00 r p2
663.18 150.36 1.00 1.00 r p2
664.21 150.36 1.00 1.00 r p2
665.24 150.36 1.00 1.00 r p2
666.28 150.36 1.00 1.00 r p2
667.31 150.36 1.00 1.00 r p2
668.34 150.36 1.00 1.00 r p2
669.38 150.36 1.00 1.00 r p2
670.41 150.36 1.00 1.00 r p2
1 0 0 srgb
0.75 setlinewidth
[] 0 setdash
1 setlinecap
1 setlinejoin
10.00 setmiterlimit
np
50.12 145.86 m
2.55 -4.41 l
-5.09 0 l
2.54 4.41 l
o
np
55.29 145.86 m
2.54 -4.41 l
-5.09 0 l
2.55 4.41 l
o
np
55.29 145.86 m
2.54 -4.41 l
-5.09 0 l
2.55 4.41 l
o
np
80.08 145.86 m
2.54 -4.41 l
-5.09 0 l
2.55 4.41 l
o
np
90.41 145.86 m
2.54 -4.41 l
-5.09 0 l
2.55 4.41 l
o
np
104.87 145.86 m
2.54 -4.41 l
-5.09 0 l
2.55 4.41 l
o
np
164.78 145.86 m
2.54 -4.41 l
-5.09 0 l
2.55 4.41 l
o
np
176.14 145.86 m
2.55 -4.41 l
-5.10 0 l
2.55 4.41 l
o
np
164.78 145.86 m
2.54 -4.41 l
-5.09 0 l
2.55 4.41 l
o
np
229.85 145.86 m
2.55 -4.41 l
-5.09 0 l
2.54 4.41 l
o
np
104.87 145.86 m
2.54 -4.41 l
-5.09 0 l
2.55 4.41 l
o
np
254.64 145.86 m
2.55 -4.41 l
-5.09 0 l
2.54 4.41 l
o
np
164.78 145.86 m
2.54 -4.41 l
-5.09 0 l
2.55 4.41 l
o
np
176.14 145.86 m
2.55 -4.41 l
-5.10 0 l
2.55 4.41 l
o
np
229.85 145.86 m
2.55 -4.41 l
-5.09 0 l
2.54 4.41 l
o
np
296.99 145.86 m
2.55 -4.41 l
-5.09 0 l
2.54 4.41 l
o
np
311.45 145.86 m
2.55 -4.41 l
-5.09 0 l
2.54 4.41 l
o
np
296.99 145.86 m
2.55 -4.41 l
-5.09 0 l
2.54 4.41 l
o
np
311.45 145.86 m
2.55 -4.41 l
-5.09 0 l
2.54 4.41 l
o
np
311.45 145.86 m
2.55 -4.41 l
-5.09 0 l
2.54 4.41 l
o
np
449.86 145.86 m
2.55 -4.41 l
-5.09 0 l
2.54 4.41 l
o
np
449.86 145.86 m
2.55 -4.41 l
-5.09 0 l
2.54 4.41 l
o
np
479.82 145.86 m
2.54 -4.41 l
-5.09 0 l
2.55 4.41 l
o
np
449.86 145.86 m
2.55 -4.41 l
-5.09 0 l
2.54 4.41 l
o
np
479.82 145.86 m
2.54 -4.41 l
-5.09 0 l
2.55 4.41 l
o
np
496.35 145.86 m
2.54 -4.41 l
-5.09 0 l
2.55 4.41 l
o
np
502.54 145.86 m
2.55 -4.41 l
-5.09 0 l
2.54 4.41 l
o
np
85.24 145.86 m
2.55 -4.41 l
-5.09 0 l
2.54 4.41 l
o
np
97.64 145.86 m
2.54 -4.41 l
-5.09 0 l
2.55 4.41 l
o
np
112.10 145.86 m
2.54 -4.41 l
-5.09 0 l
2.55 4.41 l
o
np
112.10 145.86 m
2.54 -4.41 l
-5.09 0 l
2.55 4.41 l
o
np
168.91 145.86 m
2.55 -4.41 l
-5.10 0 l
2.55 4.41 l
o
np
203.00 145.86 m
2.54 -4.41 l
-5.09 0 l
2.55 4.41 l
o
np
203.00 145.86 m
2.54 -4.41 l
-5.09 0 l
2.55 4.41 l
o
np
268.07 145.86 m
2.55 -4.41 l
-5.10 0 l
2.55 4.41 l
o
np
317.65 145.86 m
2.55 -4.41 l
-5.10 0 l
2.55 4.41 l
o
np
307.32 145.86 m
2.55 -4.41 l
-5.09 0 l
2.54 4.41 l
o
np
446.77 145.86 m
2.54 -4.41 l
-5.09 0 l
2.55 4.41 l
o
np
317.65 145.86 m
2.55 -4.41 l
-5.10 0 l
2.55 4.41 l
o
np
446.77 145.86 m
2.54 -4.41 l
-5.09 0 l
2.55 4.41 l
o
np
446.77 145.86 m
2.54 -4.41 l
-5.09 0 l
2.55 4.41 l
o
np
457.09 145.86 m
2.55 -4.41 l
-5.09 0 l
2.54 4.41 l
o
np
457.09 145.86 m
2.55 -4.41 l
-5.09 0 l
2.54 4.41 l
o
np
446.77 145.86 m
2.54 -4.41 l
-5.09 0 l
2.55 4.41 l
o
np
501.51 145.86 m
2.55 -4.41 l
-5.10 0 l
2.55 4.41 l
o
np
501.51 145.86 m
2.55 -4.41 l
-5.10 0 l
2.55 4.41 l
o
np
511.84 145.86 m
2.54 -4.41 l
-5.09 0 l
2.55 4.41 l
o
np
501.51 145.86 m
2.55 -4.41 l
-5.10 0 l
2.55 4.41 l
o
np
511.84 145.86 m
2.54 -4.41 l
-5.09 0 l
2.55 4.41 l
o
np
501.51 145.86 m
2.55 -4.41 l
-5.10 0 l
2.55 4.41 l
o
np
657.48 145.86 m
2.55 -4.41 l
-5.09 0 l
2.54 4.41 l
o
np
657.48 145.86 m
2.55 -4.41 l
-5.09 0 l
2.54 4.41 l
o
np
657.48 145.86 m
2.55 -4.41 l
-5.09 0 l
2.54 4.41 l
o
np
670.91 145.86 m
2.54 -4.41 l
-5.09 0 l
2.55 4.41 l
o
0 0 0.8000 srgb
np
50.12 127.05 m
35.12 0 l
o
/Font1 findfont 7 s
67.68 129.93 (left-P1) .5 0 t
0 0 0.8235 srgb
np
55.29 123.87 m
42.35 0 l
o
76.46 116.80 (P1-L2) .5 0 t
0 0 0.8745 srgb
np
55.29 120.70 m
56.81 0 l
o
83.69 123.58 (P1-P2) .5 0 t
0 0 0.9255 srgb
np
80.08 117.52 m
32.02 0 l
o
96.09 110.46 (R1-P2) .5 0 t
0 0.1020 1 srgb
np
90.41 114.35 m
78.50 0 l
o
129.66 117.23 (P2-L3) .5 0 t
0 0.3020 1 srgb
np
104.87 111.17 m
98.13 0 l
o
153.93 104.11 (R2-L4) .5 0 t
0 0.5490 1 srgb
np
164.78 108.00 m
38.22 0 l
o
183.89 110.88 (L3-L4) .5 0 t
0 0.8510 1 srgb
np
176.14 104.83 m
91.93 0 l
o
222.11 97.76 (P4-L5) .5 0 t
0 1 1 srgb
np
164.78 101.65 m
152.87 0 l
o
241.21 104.53 (L3-L6) .5 0 t
0.1020 1 0.8980 srgb
np
229.85 98.48 m
77.47 0 l
o
268.59 91.41 (R4-P5) .5 0 t
0.1294 1 0.8706 srgb
np
104.87 95.30 m
341.90 0 l
o
275.82 98.18 (R2-P3) .5 0 t
0.1804 1 0.8196 srgb
np
254.64 92.13 m
63.01 0 l
o
286.15 85.06 (P5-L6) .5 0 t
0.2549 1 0.7451 srgb
np
164.78 88.95 m
281.99 0 l
o
305.77 91.83 (P3-L4) .5 0 t
0.2824 1 0.7176 srgb
np
176.14 85.78 m
270.63 0 l
o
311.45 78.71 (R3-P4) .5 0 t
0.4118 1 0.5882 srgb
np
229.85 82.60 m
227.24 0 l
o
343.47 85.48 (R4-L7) .5 0 t
0.5647 1 0.4353 srgb
np
296.99 79.43 m
160.10 0 l
o
377.04 72.36 (R5-L7) .5 0 t
np
311.45 76.25 m
135.32 0 l
o
379.11 79.13 (L6-R3) .5 0 t
0.6392 1 0.3608 srgb
np
296.99 73.08 m
204.52 0 l
o
399.25 66.01 (R5-P6) .5 0 t
0.6667 1 0.3333 srgb
np
311.45 69.90 m
190.06 0 l
o
406.48 72.78 (P6-L7) .5 0 t
0.6941 1 0.3059 srgb
np
311.45 66.73 m
200.39 0 l
o
411.65 59.66 (L6-L8) .5 0 t
0.9725 1 0.0275 srgb
np
449.86 63.56 m
51.65 0 l
o
475.69 66.44 (R6-P7) .5 0 t
np
449.86 60.38 m
61.98 0 l
o
480.85 53.31 (P7-L8) .5 0 t
1 0.9490 0 srgb
np
479.82 57.21 m
21.69 0 l
o
490.66 60.09 (R7-R6) .5 0 t
1 0.4510 0 srgb
np
449.86 54.03 m
207.62 0 l
o
553.67 46.96 (P7-P8) .5 0 t
1 0.2980 0 srgb
np
479.82 50.86 m
177.66 0 l
o
568.65 53.74 (R7-P8) .5 0 t
1 0.2510 0 srgb
np
496.35 47.68 m
161.13 0 l
o
576.91 40.61 (R6-P8) .5 0 t
1 0.2000 0 srgb
np
502.54 44.51 m
168.37 0 l
o
573.59 47.39 (P8-r) 0 ta
0.105 (ight) tb gr
ep
%%Trailer
%%Pages: 1
%%EOF
