"V1" "V2"
"1" "left_P1" "P1_L2"
"2" "left_P1" "R1_P2"
"3" "P1_L2" "R1_P2"
"4" "P1_L2" "P2_L3"
"5" "R1_P2" "P2_L3"
"6" "R1_P2" "R2_P3"
"7" "R1_P2" "R2_L4"
"8" "P2_L3" "R2_P3"
"9" "P2_L3" "R2_L4"
"10" "P2_L3" "P3_L4"
"11" "P2_L3" "L3_L4"
"12" "P2_L3" "L3_L6"
"13" "R2_P3" "R2_L4"
"14" "R2_P3" "P3_L4"
"15" "R2_P3" "L3_L4"
"16" "R2_P3" "L3_L6"
"17" "R2_P3" "R3_P4"
"18" "R2_P3" "P4_L5"
"19" "R2_P3" "R4_P5"
"20" "R2_P3" "R4_L7"
"21" "R2_P3" "P5_L6"
"22" "R2_P3" "R5_P6"
"23" "R2_P3" "R5_L7"
"24" "R2_P3" "P6_L7"
"25" "R2_P3" "L6_L8"
"26" "R2_P3" "L6_R3"
"27" "R2_L4" "P3_L4"
"28" "R2_L4" "L3_L4"
"29" "R2_L4" "L3_L6"
"30" "R2_L4" "R3_P4"
"31" "R2_L4" "P4_L5"
"32" "P3_L4" "L3_L4"
"33" "P3_L4" "L3_L6"
"34" "P3_L4" "R3_P4"
"35" "P3_L4" "P4_L5"
"36" "P3_L4" "R4_P5"
"37" "P3_L4" "R4_L7"
"38" "P3_L4" "P5_L6"
"39" "P3_L4" "R5_P6"
"40" "P3_L4" "R5_L7"
"41" "P3_L4" "P6_L7"
"42" "P3_L4" "L6_L8"
"43" "P3_L4" "L6_R3"
"44" "L3_L4" "L3_L6"
"45" "L3_L4" "R3_P4"
"46" "L3_L4" "P4_L5"
"47" "L3_L6" "R3_P4"
"48" "L3_L6" "P4_L5"
"49" "L3_L6" "R4_P5"
"50" "L3_L6" "R4_L7"
"51" "L3_L6" "P5_L6"
"52" "L3_L6" "R5_P6"
"53" "L3_L6" "R5_L7"
"54" "L3_L6" "P6_L7"
"55" "L3_L6" "L6_L8"
"56" "L3_L6" "L6_R3"
"57" "R3_P4" "P4_L5"
"58" "R3_P4" "R4_P5"
"59" "R3_P4" "R4_L7"
"60" "R3_P4" "P5_L6"
"61" "R3_P4" "R5_P6"
"62" "R3_P4" "R5_L7"
"63" "R3_P4" "P6_L7"
"64" "R3_P4" "L6_L8"
"65" "R3_P4" "L6_R3"
"66" "P4_L5" "R4_P5"
"67" "P4_L5" "R4_L7"
"68" "P4_L5" "P5_L6"
"69" "R4_P5" "R4_L7"
"70" "R4_P5" "P5_L6"
"71" "R4_P5" "R5_P6"
"72" "R4_P5" "R5_L7"
"73" "R4_L7" "P5_L6"
"74" "R4_L7" "R5_P6"
"75" "R4_L7" "R5_L7"
"76" "R4_L7" "P6_L7"
"77" "R4_L7" "L6_L8"
"78" "R4_L7" "L6_R3"
"79" "R4_L7" "R6_P7"
"80" "R4_L7" "P7_L8"
"81" "P5_L6" "R5_P6"
"82" "P5_L6" "R5_L7"
"83" "P5_L6" "P6_L7"
"84" "P5_L6" "L6_L8"
"85" "P5_L6" "L6_R3"
"86" "R5_P6" "R5_L7"
"87" "R5_P6" "P6_L7"
"88" "R5_P6" "L6_L8"
"89" "R5_P6" "L6_R3"
"90" "R5_P6" "R6_P7"
"91" "R5_P6" "P7_L8"
"92" "R5_P6" "R7_P8"
"93" "R5_P6" "R7_R6"
"94" "R5_P6" "R6_P8"
"95" "R5_L7" "P6_L7"
"96" "R5_L7" "L6_L8"
"97" "R5_L7" "L6_R3"
"98" "R5_L7" "R6_P7"
"99" "R5_L7" "P7_L8"
"100" "P6_L7" "L6_L8"
"101" "P6_L7" "L6_R3"
"102" "P6_L7" "R6_P7"
"103" "P6_L7" "P7_L8"
"104" "P6_L7" "R7_P8"
"105" "P6_L7" "R7_R6"
"106" "P6_L7" "R6_P8"
"107" "L6_L8" "L6_R3"
"108" "L6_L8" "R6_P7"
"109" "L6_L8" "P7_L8"
"110" "L6_L8" "R7_P8"
"111" "L6_L8" "R7_R6"
"112" "L6_L8" "R6_P8"
"113" "L6_L8" "P8_right"
"114" "R6_P7" "P7_L8"
"115" "R6_P7" "R7_P8"
"116" "R6_P7" "R7_R6"
"117" "R6_P7" "R6_P8"
"118" "P7_L8" "R7_P8"
"119" "P7_L8" "R7_R6"
"120" "P7_L8" "R6_P8"
"121" "P7_L8" "P8_right"
"122" "R7_P8" "R7_R6"
"123" "R7_P8" "R6_P8"
"124" "R7_P8" "P8_right"
"125" "R7_R6" "R6_P8"
"126" "R6_P8" "P8_right"
