%!PS-Adobe-3.0
%%DocumentNeededResources: font Helvetica
%%+ font Helvetica-Bold
%%+ font Helvetica-Oblique
%%+ font Helvetica-BoldOblique
%%+ font Symbol
%%DocumentMedia: special 180 720 0 () ()
%%Title: R Graphics Output
%%Creator: R Software
%%Pages: (atend)
%%BoundingBox: 0 0 180 720
%%EndComments
%%BeginProlog
/bp  { gs sRGB 180.00 0 translate 90 rotate gs } def
% begin .ps.prolog
/gs  { gsave } bind def
/gr  { grestore } bind def
/ep  { showpage gr gr } bind def
/m   { moveto } bind def
/l  { rlineto } bind def
/np  { newpath } bind def
/cp  { closepath } bind def
/f   { fill } bind def
/o   { stroke } bind def
/c   { newpath 0 360 arc } bind def
/r   { 4 2 roll moveto 1 copy 3 -1 roll exch 0 exch rlineto 0 rlineto -1 mul 0 exch rlineto closepath } bind def
/p1  { stroke } bind def
/p2  { gsave bg fill grestore newpath } bind def
/p3  { gsave bg fill grestore stroke } bind def
/p6  { gsave bg eofill grestore newpath } bind def
/p7  { gsave bg eofill grestore stroke } bind def
/t   { 5 -2 roll moveto gsave rotate
       1 index stringwidth pop
       mul neg 0 rmoveto show grestore } bind def
/ta  { 4 -2 roll moveto gsave rotate show } bind def
/tb  { 2 -1 roll 0 rmoveto show } bind def
/cl  { grestore gsave newpath 3 index 3 index moveto 1 index
       4 -1 roll lineto  exch 1 index lineto lineto
       closepath clip newpath } bind def
/rgb { setrgbcolor } bind def
/s   { scalefont setfont } bind def
% end   .ps.prolog
/sRGB { [ /CIEBasedABC
          << /DecodeLMN
               [ { dup 0.03928 le
                        {12.92321 div}
                        {0.055 add 1.055 div 2.4 exp }
                     ifelse
                 } bind dup dup
               ]
             /MatrixLMN [0.412457 0.212673 0.019334
                         0.357576 0.715152 0.119192
                         0.180437 0.072175 0.950301]
             /WhitePoint [0.9505 1.0 1.0890]
           >>
         ] setcolorspace } bind def
/srgb { setcolor } bind def
%%IncludeResource: font Helvetica
/Helvetica findfont
dup length dict begin
  {1 index /FID ne {def} {pop pop} ifelse} forall
  /Encoding ISOLatin1Encoding def
  currentdict
  end
/Font1 exch definefont pop
%%IncludeResource: font Helvetica-Bold
/Helvetica-Bold findfont
dup length dict begin
  {1 index /FID ne {def} {pop pop} ifelse} forall
  /Encoding ISOLatin1Encoding def
  currentdict
  end
/Font2 exch definefont pop
%%IncludeResource: font Helvetica-Oblique
/Helvetica-Oblique findfont
dup length dict begin
  {1 index /FID ne {def} {pop pop} ifelse} forall
  /Encoding ISOLatin1Encoding def
  currentdict
  end
/Font3 exch definefont pop
%%IncludeResource: font Helvetica-BoldOblique
/Helvetica-BoldOblique findfont
dup length dict begin
  {1 index /FID ne {def} {pop pop} ifelse} forall
  /Encoding ISOLatin1Encoding def
  currentdict
  end
/Font4 exch definefont pop
%%IncludeResource: font Symbol
/Symbol findfont
dup length dict begin
  {1 index /FID ne {def} {pop pop} ifelse} forall
  currentdict
  end
/Font5 exch definefont pop
%%EndProlog
%%Page: 1 1
bp
18.00 36.00 702.00 180.00 cl
/bg { 0 0 0 srgb } def
49.83 166.23 1.00 1.00 r p2
51.06 166.23 1.00 1.00 r p2
52.30 166.23 1.00 1.00 r p2
53.54 166.23 1.00 1.00 r p2
54.77 166.23 1.00 1.00 r p2
56.01 166.23 1.00 1.00 r p2
57.24 166.23 1.00 1.00 r p2
/Font1 findfont 8 s
0 0 0 srgb
58.98 164.71 (<) .5 0 t
60.22 164.71 (<) .5 0 t
61.45 164.71 (<) .5 0 t
62.19 166.23 1.00 1.00 r p2
63.43 166.23 1.00 1.00 r p2
65.16 164.71 (<) .5 0 t
65.90 166.23 1.00 1.00 r p2
67.13 166.23 1.00 1.00 r p2
68.37 166.23 1.00 1.00 r p2
69.61 166.23 1.00 1.00 r p2
70.84 166.23 1.00 1.00 r p2
72.08 166.23 1.00 1.00 r p2
73.32 166.23 1.00 1.00 r p2
74.55 166.23 1.00 1.00 r p2
75.79 166.23 1.00 1.00 r p2
77.02 166.23 1.00 1.00 r p2
78.26 166.23 1.00 1.00 r p2
79.50 166.23 1.00 1.00 r p2
81.23 164.71 (>) .5 0 t
82.47 164.71 (>) .5 0 t
83.71 164.71 (>) .5 0 t
84.94 164.71 (>) .5 0 t
85.68 166.23 1.00 1.00 r p2
86.91 166.23 1.00 1.00 r p2
88.15 166.23 1.00 1.00 r p2
89.39 166.23 1.00 1.00 r p2
90.62 166.23 1.00 1.00 r p2
91.86 166.23 1.00 1.00 r p2
93.59 164.71 (<) .5 0 t
94.83 164.71 (<) .5 0 t
96.07 164.71 (<) .5 0 t
97.30 164.71 (<) .5 0 t
98.54 164.71 (<) .5 0 t
99.78 164.71 (<) .5 0 t
101.01 164.71 (<) .5 0 t
101.75 166.23 1.00 1.00 r p2
102.98 166.23 1.00 1.00 r p2
104.22 166.23 1.00 1.00 r p2
105.46 166.23 1.00 1.00 r p2
106.69 166.23 1.00 1.00 r p2
107.93 166.23 1.00 1.00 r p2
109.17 166.23 1.00 1.00 r p2
110.40 166.23 1.00 1.00 r p2
111.64 166.23 1.00 1.00 r p2
112.87 166.23 1.00 1.00 r p2
114.11 166.23 1.00 1.00 r p2
115.35 166.23 1.00 1.00 r p2
116.58 166.23 1.00 1.00 r p2
117.82 166.23 1.00 1.00 r p2
119.56 164.71 (>) .5 0 t
120.79 164.71 (>) .5 0 t
122.03 164.71 (>) .5 0 t
123.26 164.71 (>) .5 0 t
124.50 164.71 (>) .5 0 t
125.74 164.71 (>) .5 0 t
126.97 164.71 (>) .5 0 t
127.71 166.23 1.00 1.00 r p2
128.95 166.23 1.00 1.00 r p2
130.18 166.23 1.00 1.00 r p2
131.42 166.23 1.00 1.00 r p2
132.65 166.23 1.00 1.00 r p2
133.89 166.23 1.00 1.00 r p2
135.13 166.23 1.00 1.00 r p2
136.86 164.71 (<) .5 0 t
138.10 164.71 (<) .5 0 t
139.33 164.71 (<) .5 0 t
140.57 164.71 (<) .5 0 t
141.81 164.71 (<) .5 0 t
143.04 164.71 (<) .5 0 t
143.78 166.23 1.00 1.00 r p2
145.02 166.23 1.00 1.00 r p2
146.25 166.23 1.00 1.00 r p2
147.49 166.23 1.00 1.00 r p2
149.22 164.71 (<) .5 0 t
150.46 164.71 (<) .5 0 t
151.70 164.71 (<) .5 0 t
152.93 164.71 (<) .5 0 t
154.17 164.71 (<) .5 0 t
155.41 164.71 (<) .5 0 t
156.14 166.23 1.00 1.00 r p2
157.38 166.23 1.00 1.00 r p2
158.61 166.23 1.00 1.00 r p2
160.35 164.71 (<) .5 0 t
161.59 164.71 (<) .5 0 t
162.82 164.71 (<) .5 0 t
164.06 164.71 (<) .5 0 t
165.30 164.71 (<) .5 0 t
166.03 166.23 1.00 1.00 r p2
167.27 166.23 1.00 1.00 r p2
168.50 166.23 1.00 1.00 r p2
169.74 166.23 1.00 1.00 r p2
170.98 166.23 1.00 1.00 r p2
172.21 166.23 1.00 1.00 r p2
173.45 166.23 1.00 1.00 r p2
174.69 166.23 1.00 1.00 r p2
175.92 166.23 1.00 1.00 r p2
177.16 166.23 1.00 1.00 r p2
178.39 166.23 1.00 1.00 r p2
179.63 166.23 1.00 1.00 r p2
180.87 166.23 1.00 1.00 r p2
182.10 166.23 1.00 1.00 r p2
183.34 166.23 1.00 1.00 r p2
184.58 166.23 1.00 1.00 r p2
185.81 166.23 1.00 1.00 r p2
187.05 166.23 1.00 1.00 r p2
188.28 166.23 1.00 1.00 r p2
189.52 166.23 1.00 1.00 r p2
190.76 166.23 1.00 1.00 r p2
191.99 166.23 1.00 1.00 r p2
193.23 166.23 1.00 1.00 r p2
194.46 166.23 1.00 1.00 r p2
195.70 166.23 1.00 1.00 r p2
197.44 164.71 (<) .5 0 t
198.67 164.71 (<) .5 0 t
199.91 164.71 (<) .5 0 t
201.15 164.71 (<) .5 0 t
202.38 164.71 (<) .5 0 t
203.62 164.71 (<) .5 0 t
204.85 164.71 (<) .5 0 t
206.09 164.71 (<) .5 0 t
207.33 164.71 (<) .5 0 t
208.56 164.71 (<) .5 0 t
209.80 164.71 (<) .5 0 t
211.04 164.71 (<) .5 0 t
212.27 164.71 (<) .5 0 t
213.01 166.23 1.00 1.00 r p2
214.74 164.71 (<) .5 0 t
215.98 164.71 (<) .5 0 t
217.22 164.71 (<) .5 0 t
217.95 166.23 1.00 1.00 r p2
219.19 166.23 1.00 1.00 r p2
220.43 166.23 1.00 1.00 r p2
221.66 166.23 1.00 1.00 r p2
222.90 166.23 1.00 1.00 r p2
224.13 166.23 1.00 1.00 r p2
225.37 166.23 1.00 1.00 r p2
227.11 164.71 (<) .5 0 t
228.34 164.71 (<) .5 0 t
229.58 164.71 (<) .5 0 t
230.82 164.71 (<) .5 0 t
232.05 164.71 (<) .5 0 t
232.79 166.23 1.00 1.00 r p2
234.02 166.23 1.00 1.00 r p2
235.26 166.23 1.00 1.00 r p2
236.50 166.23 1.00 1.00 r p2
237.73 166.23 1.00 1.00 r p2
238.97 166.23 1.00 1.00 r p2
240.20 166.23 1.00 1.00 r p2
241.94 164.71 (>) .5 0 t
243.18 164.71 (>) .5 0 t
244.41 164.71 (>) .5 0 t
245.65 164.71 (>) .5 0 t
246.89 164.71 (>) .5 0 t
247.62 166.23 1.00 1.00 r p2
248.86 166.23 1.00 1.00 r p2
250.59 164.71 (>) .5 0 t
251.83 164.71 (>) .5 0 t
253.07 164.71 (>) .5 0 t
253.80 166.23 1.00 1.00 r p2
255.54 164.71 (>) .5 0 t
256.78 164.71 (>) .5 0 t
258.01 164.71 (>) .5 0 t
259.25 164.71 (>) .5 0 t
259.98 166.23 1.00 1.00 r p2
261.22 166.23 1.00 1.00 r p2
262.46 166.23 1.00 1.00 r p2
263.69 166.23 1.00 1.00 r p2
265.43 164.71 (>) .5 0 t
266.17 166.23 1.00 1.00 r p2
267.90 164.71 (>) .5 0 t
269.14 164.71 (>) .5 0 t
270.37 164.71 (>) .5 0 t
271.61 164.71 (>) .5 0 t
272.85 164.71 (>) .5 0 t
274.08 164.71 (>) .5 0 t
275.32 164.71 (>) .5 0 t
276.56 164.71 (>) .5 0 t
277.29 166.23 1.00 1.00 r p2
278.53 166.23 1.00 1.00 r p2
279.76 166.23 1.00 1.00 r p2
281.00 166.23 1.00 1.00 r p2
282.24 166.23 1.00 1.00 r p2
283.47 166.23 1.00 1.00 r p2
284.71 166.23 1.00 1.00 r p2
286.44 164.71 (>) .5 0 t
287.68 164.71 (>) .5 0 t
288.92 164.71 (>) .5 0 t
290.15 164.71 (>) .5 0 t
291.39 164.71 (>) .5 0 t
292.13 166.23 1.00 1.00 r p2
293.36 166.23 1.00 1.00 r p2
294.60 166.23 1.00 1.00 r p2
296.33 164.71 (>) .5 0 t
297.57 164.71 (>) .5 0 t
298.81 164.71 (>) .5 0 t
300.04 164.71 (>) .5 0 t
301.28 164.71 (>) .5 0 t
302.52 164.71 (>) .5 0 t
303.75 164.71 (<) .5 0 t
304.99 164.71 (<) .5 0 t
306.22 164.71 (<) .5 0 t
306.96 166.23 1.00 1.00 r p2
308.20 166.23 1.00 1.00 r p2
309.93 164.71 (<) .5 0 t
311.17 164.71 (<) .5 0 t
311.91 166.23 1.00 1.00 r p2
313.64 164.71 (<) .5 0 t
314.88 164.71 (<) .5 0 t
316.11 164.71 (<) .5 0 t
317.35 164.71 (<) .5 0 t
318.59 164.71 (<) .5 0 t
319.32 166.23 1.00 1.00 r p2
320.56 166.23 1.00 1.00 r p2
321.80 166.23 1.00 1.00 r p2
323.03 166.23 1.00 1.00 r p2
324.27 166.23 1.00 1.00 r p2
325.50 166.23 1.00 1.00 r p2
326.74 166.23 1.00 1.00 r p2
327.98 166.23 1.00 1.00 r p2
329.21 166.23 1.00 1.00 r p2
330.45 166.23 1.00 1.00 r p2
331.69 166.23 1.00 1.00 r p2
332.92 166.23 1.00 1.00 r p2
334.16 166.23 1.00 1.00 r p2
335.39 166.23 1.00 1.00 r p2
336.63 166.23 1.00 1.00 r p2
337.87 166.23 1.00 1.00 r p2
339.10 166.23 1.00 1.00 r p2
340.34 166.23 1.00 1.00 r p2
341.57 166.23 1.00 1.00 r p2
342.81 166.23 1.00 1.00 r p2
344.05 166.23 1.00 1.00 r p2
345.28 166.23 1.00 1.00 r p2
346.52 166.23 1.00 1.00 r p2
347.76 166.23 1.00 1.00 r p2
348.99 166.23 1.00 1.00 r p2
350.23 166.23 1.00 1.00 r p2
351.46 166.23 1.00 1.00 r p2
352.70 166.23 1.00 1.00 r p2
353.94 166.23 1.00 1.00 r p2
355.17 166.23 1.00 1.00 r p2
356.41 166.23 1.00 1.00 r p2
357.65 166.23 1.00 1.00 r p2
358.88 166.23 1.00 1.00 r p2
360.12 166.23 1.00 1.00 r p2
361.35 166.23 1.00 1.00 r p2
362.59 166.23 1.00 1.00 r p2
363.83 166.23 1.00 1.00 r p2
365.06 166.23 1.00 1.00 r p2
366.30 166.23 1.00 1.00 r p2
367.54 166.23 1.00 1.00 r p2
368.77 166.23 1.00 1.00 r p2
370.01 166.23 1.00 1.00 r p2
371.24 166.23 1.00 1.00 r p2
372.48 166.23 1.00 1.00 r p2
373.72 166.23 1.00 1.00 r p2
374.95 166.23 1.00 1.00 r p2
376.19 166.23 1.00 1.00 r p2
377.43 166.23 1.00 1.00 r p2
378.66 166.23 1.00 1.00 r p2
379.90 166.23 1.00 1.00 r p2
381.13 166.23 1.00 1.00 r p2
382.37 166.23 1.00 1.00 r p2
383.61 166.23 1.00 1.00 r p2
384.84 166.23 1.00 1.00 r p2
386.08 166.23 1.00 1.00 r p2
387.81 164.71 (>) .5 0 t
389.05 164.71 (>) .5 0 t
390.29 164.71 (>) .5 0 t
391.02 166.23 1.00 1.00 r p2
392.26 166.23 1.00 1.00 r p2
394.00 164.71 (>) .5 0 t
395.23 164.71 (>) .5 0 t
395.97 166.23 1.00 1.00 r p2
397.70 164.71 (>) .5 0 t
398.94 164.71 (>) .5 0 t
399.68 166.23 1.00 1.00 r p2
401.41 164.71 (>) .5 0 t
402.65 164.71 (>) .5 0 t
403.89 164.71 (>) .5 0 t
404.62 166.23 1.00 1.00 r p2
405.86 166.23 1.00 1.00 r p2
407.09 166.23 1.00 1.00 r p2
408.83 163.86 (A) .5 0 t
409.57 166.23 1.00 1.00 r p2
411.30 163.86 (A) .5 0 t
412.54 163.86 (A) .5 0 t
413.78 163.86 (A) .5 0 t
415.01 163.86 (A) .5 0 t
416.25 163.86 (A) .5 0 t
416.98 166.23 1.00 1.00 r p2
418.22 166.23 1.00 1.00 r p2
419.46 166.23 1.00 1.00 r p2
421.19 164.71 (>) .5 0 t
422.43 164.71 (>) .5 0 t
423.67 164.71 (>) .5 0 t
424.90 164.71 (>) .5 0 t
426.14 164.71 (>) .5 0 t
427.37 164.71 (>) .5 0 t
428.61 164.71 (<) .5 0 t
429.85 164.71 (<) .5 0 t
431.08 164.71 (<) .5 0 t
432.32 164.71 (<) .5 0 t
433.56 164.71 (<) .5 0 t
434.79 164.71 (<) .5 0 t
436.03 164.71 (<) .5 0 t
437.26 164.71 (<) .5 0 t
438.50 164.71 (<) .5 0 t
439.74 164.71 (<) .5 0 t
440.47 166.23 1.00 1.00 r p2
441.71 166.23 1.00 1.00 r p2
442.94 166.23 1.00 1.00 r p2
444.18 166.23 1.00 1.00 r p2
445.42 166.23 1.00 1.00 r p2
446.65 166.23 1.00 1.00 r p2
447.89 166.23 1.00 1.00 r p2
449.13 166.23 1.00 1.00 r p2
450.36 166.23 1.00 1.00 r p2
451.60 166.23 1.00 1.00 r p2
452.83 166.23 1.00 1.00 r p2
454.07 166.23 1.00 1.00 r p2
455.31 166.23 1.00 1.00 r p2
456.54 166.23 1.00 1.00 r p2
457.78 166.23 1.00 1.00 r p2
459.02 166.23 1.00 1.00 r p2
460.25 166.23 1.00 1.00 r p2
461.49 166.23 1.00 1.00 r p2
462.72 166.23 1.00 1.00 r p2
463.96 166.23 1.00 1.00 r p2
465.20 166.23 1.00 1.00 r p2
466.43 166.23 1.00 1.00 r p2
467.67 166.23 1.00 1.00 r p2
468.91 166.23 1.00 1.00 r p2
470.14 166.23 1.00 1.00 r p2
471.38 166.23 1.00 1.00 r p2
472.61 166.23 1.00 1.00 r p2
473.85 166.23 1.00 1.00 r p2
475.09 166.23 1.00 1.00 r p2
476.32 166.23 1.00 1.00 r p2
477.56 166.23 1.00 1.00 r p2
478.80 166.23 1.00 1.00 r p2
480.03 166.23 1.00 1.00 r p2
481.27 166.23 1.00 1.00 r p2
482.50 166.23 1.00 1.00 r p2
483.74 166.23 1.00 1.00 r p2
484.98 166.23 1.00 1.00 r p2
486.21 166.23 1.00 1.00 r p2
487.45 166.23 1.00 1.00 r p2
488.68 166.23 1.00 1.00 r p2
489.92 166.23 1.00 1.00 r p2
491.16 166.23 1.00 1.00 r p2
492.39 166.23 1.00 1.00 r p2
493.63 166.23 1.00 1.00 r p2
494.87 166.23 1.00 1.00 r p2
496.10 166.23 1.00 1.00 r p2
497.34 166.23 1.00 1.00 r p2
498.57 166.23 1.00 1.00 r p2
499.81 166.23 1.00 1.00 r p2
501.05 166.23 1.00 1.00 r p2
502.28 166.23 1.00 1.00 r p2
503.52 166.23 1.00 1.00 r p2
504.76 166.23 1.00 1.00 r p2
505.99 166.23 1.00 1.00 r p2
507.23 166.23 1.00 1.00 r p2
508.46 166.23 1.00 1.00 r p2
509.70 166.23 1.00 1.00 r p2
511.44 164.71 (>) .5 0 t
512.67 164.71 (>) .5 0 t
513.41 166.23 1.00 1.00 r p2
515.15 164.71 (>) .5 0 t
516.38 164.71 (>) .5 0 t
517.62 164.71 (>) .5 0 t
518.85 164.71 (>) .5 0 t
520.09 164.71 (>) .5 0 t
521.33 164.71 (>) .5 0 t
522.56 164.71 (>) .5 0 t
523.80 164.71 (>) .5 0 t
524.54 166.23 1.00 1.00 r p2
525.77 166.23 1.00 1.00 r p2
527.01 166.23 1.00 1.00 r p2
528.24 166.23 1.00 1.00 r p2
529.48 166.23 1.00 1.00 r p2
530.72 166.23 1.00 1.00 r p2
532.45 164.64 (a) .5 0 t
533.69 164.64 (a) .5 0 t
534.92 164.64 (a) .5 0 t
536.16 164.64 (a) .5 0 t
537.40 164.64 (a) .5 0 t
538.63 164.64 (a) .5 0 t
539.37 166.23 1.00 1.00 r p2
540.61 166.23 1.00 1.00 r p2
542.34 164.71 (<) .5 0 t
543.58 164.71 (<) .5 0 t
544.81 164.71 (<) .5 0 t
546.05 164.71 (<) .5 0 t
547.29 164.71 (<) .5 0 t
548.52 164.71 (<) .5 0 t
549.76 164.71 (<) .5 0 t
551.00 164.71 (<) .5 0 t
552.23 164.71 (<) .5 0 t
553.47 164.71 (<) .5 0 t
554.70 164.71 (<) .5 0 t
555.94 164.71 (<) .5 0 t
556.68 166.23 1.00 1.00 r p2
557.91 166.23 1.00 1.00 r p2
559.15 166.23 1.00 1.00 r p2
560.39 166.23 1.00 1.00 r p2
561.62 166.23 1.00 1.00 r p2
562.86 166.23 1.00 1.00 r p2
564.09 166.23 1.00 1.00 r p2
565.33 166.23 1.00 1.00 r p2
566.57 166.23 1.00 1.00 r p2
567.80 166.23 1.00 1.00 r p2
569.04 166.23 1.00 1.00 r p2
570.28 166.23 1.00 1.00 r p2
571.51 166.23 1.00 1.00 r p2
572.75 166.23 1.00 1.00 r p2
573.98 166.23 1.00 1.00 r p2
575.22 166.23 1.00 1.00 r p2
576.46 166.23 1.00 1.00 r p2
577.69 166.23 1.00 1.00 r p2
578.93 166.23 1.00 1.00 r p2
580.17 166.23 1.00 1.00 r p2
581.40 166.23 1.00 1.00 r p2
582.64 166.23 1.00 1.00 r p2
583.87 166.23 1.00 1.00 r p2
585.11 166.23 1.00 1.00 r p2
586.35 166.23 1.00 1.00 r p2
587.58 166.23 1.00 1.00 r p2
588.82 166.23 1.00 1.00 r p2
590.05 166.23 1.00 1.00 r p2
591.29 166.23 1.00 1.00 r p2
592.53 166.23 1.00 1.00 r p2
593.76 166.23 1.00 1.00 r p2
595.00 166.23 1.00 1.00 r p2
596.24 166.23 1.00 1.00 r p2
597.47 166.23 1.00 1.00 r p2
598.71 166.23 1.00 1.00 r p2
599.94 166.23 1.00 1.00 r p2
601.18 166.23 1.00 1.00 r p2
602.42 166.23 1.00 1.00 r p2
603.65 166.23 1.00 1.00 r p2
604.89 166.23 1.00 1.00 r p2
606.13 166.23 1.00 1.00 r p2
607.36 166.23 1.00 1.00 r p2
608.60 166.23 1.00 1.00 r p2
609.83 166.23 1.00 1.00 r p2
611.07 166.23 1.00 1.00 r p2
612.31 166.23 1.00 1.00 r p2
613.54 166.23 1.00 1.00 r p2
614.78 166.23 1.00 1.00 r p2
616.02 166.23 1.00 1.00 r p2
617.25 166.23 1.00 1.00 r p2
618.49 166.23 1.00 1.00 r p2
619.72 166.23 1.00 1.00 r p2
620.96 166.23 1.00 1.00 r p2
622.20 166.23 1.00 1.00 r p2
623.43 166.23 1.00 1.00 r p2
624.67 166.23 1.00 1.00 r p2
625.91 166.23 1.00 1.00 r p2
627.14 166.23 1.00 1.00 r p2
628.38 166.23 1.00 1.00 r p2
629.61 166.23 1.00 1.00 r p2
630.85 166.23 1.00 1.00 r p2
632.09 166.23 1.00 1.00 r p2
633.32 166.23 1.00 1.00 r p2
634.56 166.23 1.00 1.00 r p2
635.79 166.23 1.00 1.00 r p2
637.03 166.23 1.00 1.00 r p2
638.27 166.23 1.00 1.00 r p2
640.00 164.71 (>) .5 0 t
641.24 164.71 (>) .5 0 t
642.48 164.71 (>) .5 0 t
643.71 164.71 (>) .5 0 t
644.95 164.71 (>) .5 0 t
646.18 164.71 (>) .5 0 t
647.42 164.71 (>) .5 0 t
648.66 164.71 (>) .5 0 t
649.89 164.71 (>) .5 0 t
651.13 164.71 (>) .5 0 t
652.37 164.71 (>) .5 0 t
653.60 164.71 (>) .5 0 t
654.34 166.23 1.00 1.00 r p2
655.57 166.23 1.00 1.00 r p2
656.81 166.23 1.00 1.00 r p2
658.05 166.23 1.00 1.00 r p2
659.28 166.23 1.00 1.00 r p2
660.52 166.23 1.00 1.00 r p2
661.76 166.23 1.00 1.00 r p2
662.99 166.23 1.00 1.00 r p2
664.23 166.23 1.00 1.00 r p2
665.46 166.23 1.00 1.00 r p2
666.70 166.23 1.00 1.00 r p2
667.94 166.23 1.00 1.00 r p2
669.17 166.23 1.00 1.00 r p2
670.41 166.23 1.00 1.00 r p2
0.00 0.00 720.00 180.00 cl
0.00 0.00 720.00 180.00 cl
0 0 0 srgb
0.75 setlinewidth
[] 0 setdash
1 setlinecap
1 setlinejoin
10.00 setmiterlimit
np
49.09 36.00 m
618.11 0 l
o
np
49.09 36.00 m
0 -7.20 l
o
np
61.45 36.00 m
0 -7.20 l
o
np
73.82 36.00 m
0 -7.20 l
o
np
86.18 36.00 m
0 -7.20 l
o
np
98.54 36.00 m
0 -7.20 l
o
np
110.90 36.00 m
0 -7.20 l
o
np
123.26 36.00 m
0 -7.20 l
o
np
135.63 36.00 m
0 -7.20 l
o
np
147.99 36.00 m
0 -7.20 l
o
np
160.35 36.00 m
0 -7.20 l
o
np
172.71 36.00 m
0 -7.20 l
o
np
185.08 36.00 m
0 -7.20 l
o
np
197.44 36.00 m
0 -7.20 l
o
np
209.80 36.00 m
0 -7.20 l
o
np
222.16 36.00 m
0 -7.20 l
o
np
234.52 36.00 m
0 -7.20 l
o
np
246.89 36.00 m
0 -7.20 l
o
np
259.25 36.00 m
0 -7.20 l
o
np
271.61 36.00 m
0 -7.20 l
o
np
283.97 36.00 m
0 -7.20 l
o
np
296.33 36.00 m
0 -7.20 l
o
np
308.70 36.00 m
0 -7.20 l
o
np
321.06 36.00 m
0 -7.20 l
o
np
333.42 36.00 m
0 -7.20 l
o
np
345.78 36.00 m
0 -7.20 l
o
np
358.15 36.00 m
0 -7.20 l
o
np
370.51 36.00 m
0 -7.20 l
o
np
382.87 36.00 m
0 -7.20 l
o
np
395.23 36.00 m
0 -7.20 l
o
np
407.59 36.00 m
0 -7.20 l
o
np
419.96 36.00 m
0 -7.20 l
o
np
432.32 36.00 m
0 -7.20 l
o
np
444.68 36.00 m
0 -7.20 l
o
np
457.04 36.00 m
0 -7.20 l
o
np
469.41 36.00 m
0 -7.20 l
o
np
481.77 36.00 m
0 -7.20 l
o
np
494.13 36.00 m
0 -7.20 l
o
np
506.49 36.00 m
0 -7.20 l
o
np
518.85 36.00 m
0 -7.20 l
o
np
531.22 36.00 m
0 -7.20 l
o
np
543.58 36.00 m
0 -7.20 l
o
np
555.94 36.00 m
0 -7.20 l
o
np
568.30 36.00 m
0 -7.20 l
o
np
580.67 36.00 m
0 -7.20 l
o
np
593.03 36.00 m
0 -7.20 l
o
np
605.39 36.00 m
0 -7.20 l
o
np
617.75 36.00 m
0 -7.20 l
o
np
630.11 36.00 m
0 -7.20 l
o
np
642.48 36.00 m
0 -7.20 l
o
np
654.84 36.00 m
0 -7.20 l
o
np
667.20 36.00 m
0 -7.20 l
o
/Font1 findfont 12 s
49.09 10.08 (0) .5 0 t
73.82 10.08 (20) .5 0 t
98.54 10.08 (40) .5 0 t
123.26 10.08 (60) .5 0 t
147.99 10.08 (80) .5 0 t
185.08 10.08 (110) .5 0 t
222.16 10.08 (140) .5 0 t
259.25 10.08 (170) .5 0 t
296.33 10.08 (200) .5 0 t
333.42 10.08 (230) .5 0 t
370.51 10.08 (260) .5 0 t
407.59 10.08 (290) .5 0 t
444.68 10.08 (320) .5 0 t
481.77 10.08 (350) .5 0 t
518.85 10.08 (380) .5 0 t
555.94 10.08 (410) .5 0 t
593.03 10.08 (440) .5 0 t
630.11 10.08 (470) .5 0 t
667.20 10.08 (500) .5 0 t
18.00 36.00 702.00 180.00 cl
/bg { 0 0 0 srgb } def
49.83 158.29 1.00 1.00 r p2
51.06 158.29 1.00 1.00 r p2
52.30 158.29 1.00 1.00 r p2
53.54 158.29 1.00 1.00 r p2
54.77 158.29 1.00 1.00 r p2
56.01 158.29 1.00 1.00 r p2
57.24 158.29 1.00 1.00 r p2
/Font1 findfont 8 s
0 0 0 srgb
58.98 156.77 (<) .5 0 t
60.22 156.77 (<) .5 0 t
61.45 156.77 (<) .5 0 t
62.19 158.29 1.00 1.00 r p2
63.43 158.29 1.00 1.00 r p2
65.16 156.77 (<) .5 0 t
65.90 158.29 1.00 1.00 r p2
67.13 158.29 1.00 1.00 r p2
68.37 158.29 1.00 1.00 r p2
69.61 158.29 1.00 1.00 r p2
70.84 158.29 1.00 1.00 r p2
72.08 158.29 1.00 1.00 r p2
73.32 158.29 1.00 1.00 r p2
74.55 158.29 1.00 1.00 r p2
75.79 158.29 1.00 1.00 r p2
77.02 158.29 1.00 1.00 r p2
78.26 158.29 1.00 1.00 r p2
79.50 158.29 1.00 1.00 r p2
81.23 156.77 (>) .5 0 t
82.47 156.77 (>) .5 0 t
83.71 156.77 (>) .5 0 t
84.94 156.77 (>) .5 0 t
85.68 158.29 1.00 1.00 r p2
86.91 158.29 1.00 1.00 r p2
88.15 158.29 1.00 1.00 r p2
89.39 158.29 1.00 1.00 r p2
90.62 158.29 1.00 1.00 r p2
91.86 158.29 1.00 1.00 r p2
93.59 156.77 (<) .5 0 t
94.83 156.77 (<) .5 0 t
96.07 156.77 (<) .5 0 t
97.30 156.77 (<) .5 0 t
98.54 156.77 (<) .5 0 t
99.78 156.77 (<) .5 0 t
101.01 156.77 (<) .5 0 t
101.75 158.29 1.00 1.00 r p2
102.98 158.29 1.00 1.00 r p2
104.22 158.29 1.00 1.00 r p2
105.46 158.29 1.00 1.00 r p2
106.69 158.29 1.00 1.00 r p2
107.93 158.29 1.00 1.00 r p2
109.17 158.29 1.00 1.00 r p2
110.40 158.29 1.00 1.00 r p2
111.64 158.29 1.00 1.00 r p2
112.87 158.29 1.00 1.00 r p2
114.11 158.29 1.00 1.00 r p2
115.35 158.29 1.00 1.00 r p2
116.58 158.29 1.00 1.00 r p2
117.82 158.29 1.00 1.00 r p2
119.56 156.77 (>) .5 0 t
120.79 156.77 (>) .5 0 t
122.03 156.77 (>) .5 0 t
123.26 156.77 (>) .5 0 t
124.50 156.77 (>) .5 0 t
125.74 156.77 (>) .5 0 t
126.97 156.77 (>) .5 0 t
127.71 158.29 1.00 1.00 r p2
128.95 158.29 1.00 1.00 r p2
130.18 158.29 1.00 1.00 r p2
131.42 158.29 1.00 1.00 r p2
132.65 158.29 1.00 1.00 r p2
133.89 158.29 1.00 1.00 r p2
135.13 158.29 1.00 1.00 r p2
136.86 155.92 (A) .5 0 t
138.10 155.92 (A) .5 0 t
139.33 155.92 (A) .5 0 t
140.57 155.92 (A) .5 0 t
141.81 155.92 (A) .5 0 t
143.04 155.92 (A) .5 0 t
143.78 158.29 1.00 1.00 r p2
145.02 158.29 1.00 1.00 r p2
146.25 158.29 1.00 1.00 r p2
147.49 158.29 1.00 1.00 r p2
149.22 156.77 (<) .5 0 t
150.46 156.77 (<) .5 0 t
151.70 156.77 (<) .5 0 t
152.93 156.77 (<) .5 0 t
154.17 156.77 (<) .5 0 t
155.41 156.77 (<) .5 0 t
156.14 158.29 1.00 1.00 r p2
157.38 158.29 1.00 1.00 r p2
158.61 158.29 1.00 1.00 r p2
160.35 156.77 (<) .5 0 t
161.59 156.77 (<) .5 0 t
162.82 156.77 (<) .5 0 t
164.06 156.77 (<) .5 0 t
165.30 156.77 (<) .5 0 t
166.03 158.29 1.00 1.00 r p2
167.27 158.29 1.00 1.00 r p2
168.50 158.29 1.00 1.00 r p2
169.74 158.29 1.00 1.00 r p2
170.98 158.29 1.00 1.00 r p2
172.21 158.29 1.00 1.00 r p2
173.45 158.29 1.00 1.00 r p2
174.69 158.29 1.00 1.00 r p2
175.92 158.29 1.00 1.00 r p2
177.16 158.29 1.00 1.00 r p2
178.39 158.29 1.00 1.00 r p2
179.63 158.29 1.00 1.00 r p2
180.87 158.29 1.00 1.00 r p2
182.10 158.29 1.00 1.00 r p2
183.34 158.29 1.00 1.00 r p2
184.58 158.29 1.00 1.00 r p2
185.81 158.29 1.00 1.00 r p2
187.05 158.29 1.00 1.00 r p2
188.28 158.29 1.00 1.00 r p2
189.52 158.29 1.00 1.00 r p2
190.76 158.29 1.00 1.00 r p2
191.99 158.29 1.00 1.00 r p2
193.23 158.29 1.00 1.00 r p2
194.46 158.29 1.00 1.00 r p2
195.70 158.29 1.00 1.00 r p2
197.44 156.77 (<) .5 0 t
198.67 156.77 (<) .5 0 t
199.91 156.77 (<) .5 0 t
201.15 156.77 (<) .5 0 t
202.38 156.77 (<) .5 0 t
203.62 156.77 (<) .5 0 t
204.85 156.77 (<) .5 0 t
206.09 156.77 (<) .5 0 t
207.33 156.77 (<) .5 0 t
208.56 156.77 (<) .5 0 t
209.80 156.77 (<) .5 0 t
211.04 156.77 (<) .5 0 t
212.27 156.77 (<) .5 0 t
213.01 158.29 1.00 1.00 r p2
214.74 156.77 (<) .5 0 t
215.98 156.77 (<) .5 0 t
217.22 156.77 (<) .5 0 t
217.95 158.29 1.00 1.00 r p2
219.19 158.29 1.00 1.00 r p2
220.43 158.29 1.00 1.00 r p2
221.66 158.29 1.00 1.00 r p2
222.90 158.29 1.00 1.00 r p2
224.13 158.29 1.00 1.00 r p2
225.37 158.29 1.00 1.00 r p2
227.11 156.77 (<) .5 0 t
228.34 156.77 (<) .5 0 t
229.58 156.77 (<) .5 0 t
230.82 156.77 (<) .5 0 t
232.05 156.77 (<) .5 0 t
232.79 158.29 1.00 1.00 r p2
234.02 158.29 1.00 1.00 r p2
235.26 158.29 1.00 1.00 r p2
236.50 158.29 1.00 1.00 r p2
237.73 158.29 1.00 1.00 r p2
238.97 158.29 1.00 1.00 r p2
240.20 158.29 1.00 1.00 r p2
241.94 156.77 (>) .5 0 t
243.18 156.77 (>) .5 0 t
244.41 156.77 (>) .5 0 t
245.65 156.77 (>) .5 0 t
246.89 156.77 (>) .5 0 t
247.62 158.29 1.00 1.00 r p2
248.86 158.29 1.00 1.00 r p2
250.59 156.77 (>) .5 0 t
251.83 156.77 (>) .5 0 t
253.07 156.77 (>) .5 0 t
253.80 158.29 1.00 1.00 r p2
255.54 156.77 (>) .5 0 t
256.78 156.77 (>) .5 0 t
258.01 156.77 (>) .5 0 t
259.25 156.77 (>) .5 0 t
259.98 158.29 1.00 1.00 r p2
261.22 158.29 1.00 1.00 r p2
262.46 158.29 1.00 1.00 r p2
263.69 158.29 1.00 1.00 r p2
265.43 156.77 (>) .5 0 t
266.17 158.29 1.00 1.00 r p2
267.90 156.77 (>) .5 0 t
269.14 156.77 (>) .5 0 t
270.37 156.77 (>) .5 0 t
271.61 156.77 (>) .5 0 t
272.85 156.77 (>) .5 0 t
274.08 156.77 (>) .5 0 t
275.32 156.77 (>) .5 0 t
276.56 156.77 (>) .5 0 t
277.29 158.29 1.00 1.00 r p2
278.53 158.29 1.00 1.00 r p2
279.76 158.29 1.00 1.00 r p2
281.00 158.29 1.00 1.00 r p2
282.24 158.29 1.00 1.00 r p2
283.47 158.29 1.00 1.00 r p2
284.71 158.29 1.00 1.00 r p2
286.44 156.77 (>) .5 0 t
287.68 156.77 (>) .5 0 t
288.92 156.77 (>) .5 0 t
290.15 156.77 (>) .5 0 t
291.39 156.77 (>) .5 0 t
292.13 158.29 1.00 1.00 r p2
293.36 158.29 1.00 1.00 r p2
294.60 158.29 1.00 1.00 r p2
296.33 156.77 (>) .5 0 t
297.57 156.77 (>) .5 0 t
298.81 156.77 (>) .5 0 t
300.04 156.77 (>) .5 0 t
301.28 156.77 (>) .5 0 t
302.52 156.77 (>) .5 0 t
303.75 156.77 (<) .5 0 t
304.99 156.77 (<) .5 0 t
306.22 156.77 (<) .5 0 t
306.96 158.29 1.00 1.00 r p2
308.20 158.29 1.00 1.00 r p2
309.93 156.77 (<) .5 0 t
311.17 156.77 (<) .5 0 t
311.91 158.29 1.00 1.00 r p2
313.64 156.77 (<) .5 0 t
314.88 156.77 (<) .5 0 t
316.11 156.77 (<) .5 0 t
317.35 156.77 (<) .5 0 t
318.59 156.77 (<) .5 0 t
319.32 158.29 1.00 1.00 r p2
320.56 158.29 1.00 1.00 r p2
321.80 158.29 1.00 1.00 r p2
323.03 158.29 1.00 1.00 r p2
324.27 158.29 1.00 1.00 r p2
325.50 158.29 1.00 1.00 r p2
326.74 158.29 1.00 1.00 r p2
327.98 158.29 1.00 1.00 r p2
329.21 158.29 1.00 1.00 r p2
330.45 158.29 1.00 1.00 r p2
331.69 158.29 1.00 1.00 r p2
332.92 158.29 1.00 1.00 r p2
334.16 158.29 1.00 1.00 r p2
335.39 158.29 1.00 1.00 r p2
336.63 158.29 1.00 1.00 r p2
337.87 158.29 1.00 1.00 r p2
339.10 158.29 1.00 1.00 r p2
340.34 158.29 1.00 1.00 r p2
341.57 158.29 1.00 1.00 r p2
342.81 158.29 1.00 1.00 r p2
344.05 158.29 1.00 1.00 r p2
345.28 158.29 1.00 1.00 r p2
346.52 158.29 1.00 1.00 r p2
347.76 158.29 1.00 1.00 r p2
348.99 158.29 1.00 1.00 r p2
350.23 158.29 1.00 1.00 r p2
351.46 158.29 1.00 1.00 r p2
352.70 158.29 1.00 1.00 r p2
353.94 158.29 1.00 1.00 r p2
355.17 158.29 1.00 1.00 r p2
356.41 158.29 1.00 1.00 r p2
357.65 158.29 1.00 1.00 r p2
358.88 158.29 1.00 1.00 r p2
360.12 158.29 1.00 1.00 r p2
361.35 158.29 1.00 1.00 r p2
362.59 158.29 1.00 1.00 r p2
363.83 158.29 1.00 1.00 r p2
365.06 158.29 1.00 1.00 r p2
366.30 158.29 1.00 1.00 r p2
367.54 158.29 1.00 1.00 r p2
368.77 158.29 1.00 1.00 r p2
370.01 158.29 1.00 1.00 r p2
371.24 158.29 1.00 1.00 r p2
372.48 158.29 1.00 1.00 r p2
373.72 158.29 1.00 1.00 r p2
374.95 158.29 1.00 1.00 r p2
376.19 158.29 1.00 1.00 r p2
377.43 158.29 1.00 1.00 r p2
378.66 158.29 1.00 1.00 r p2
379.90 158.29 1.00 1.00 r p2
381.13 158.29 1.00 1.00 r p2
382.37 158.29 1.00 1.00 r p2
383.61 158.29 1.00 1.00 r p2
384.84 158.29 1.00 1.00 r p2
386.08 158.29 1.00 1.00 r p2
387.81 156.77 (>) .5 0 t
389.05 156.77 (>) .5 0 t
390.29 156.77 (>) .5 0 t
391.02 158.29 1.00 1.00 r p2
392.26 158.29 1.00 1.00 r p2
394.00 156.77 (>) .5 0 t
395.23 156.77 (>) .5 0 t
395.97 158.29 1.00 1.00 r p2
397.70 156.77 (>) .5 0 t
398.94 156.77 (>) .5 0 t
399.68 158.29 1.00 1.00 r p2
401.41 156.77 (>) .5 0 t
402.65 156.77 (>) .5 0 t
403.89 156.77 (>) .5 0 t
404.62 158.29 1.00 1.00 r p2
405.86 158.29 1.00 1.00 r p2
407.09 158.29 1.00 1.00 r p2
408.83 156.69 (\() .5 0 t
409.57 158.29 1.00 1.00 r p2
411.30 156.69 (\() .5 0 t
412.54 156.69 (\() .5 0 t
413.78 156.69 (\() .5 0 t
415.01 156.69 (\() .5 0 t
416.25 156.69 (\() .5 0 t
416.98 158.29 1.00 1.00 r p2
418.22 158.29 1.00 1.00 r p2
419.46 158.29 1.00 1.00 r p2
421.19 156.70 (a) .5 0 t
422.43 156.70 (a) .5 0 t
423.67 156.70 (a) .5 0 t
424.90 156.70 (a) .5 0 t
426.14 156.70 (a) .5 0 t
427.37 156.70 (a) .5 0 t
428.61 156.77 (<) .5 0 t
429.85 156.77 (<) .5 0 t
431.08 156.77 (<) .5 0 t
432.32 156.77 (<) .5 0 t
433.56 156.77 (<) .5 0 t
434.79 156.77 (<) .5 0 t
436.03 156.77 (<) .5 0 t
437.26 156.77 (<) .5 0 t
438.50 156.77 (<) .5 0 t
439.74 156.77 (<) .5 0 t
440.47 158.29 1.00 1.00 r p2
441.71 158.29 1.00 1.00 r p2
442.94 158.29 1.00 1.00 r p2
444.18 158.29 1.00 1.00 r p2
445.42 158.29 1.00 1.00 r p2
446.65 158.29 1.00 1.00 r p2
447.89 158.29 1.00 1.00 r p2
449.13 158.29 1.00 1.00 r p2
450.36 158.29 1.00 1.00 r p2
451.60 158.29 1.00 1.00 r p2
452.83 158.29 1.00 1.00 r p2
454.07 158.29 1.00 1.00 r p2
455.31 158.29 1.00 1.00 r p2
456.54 158.29 1.00 1.00 r p2
457.78 158.29 1.00 1.00 r p2
459.02 158.29 1.00 1.00 r p2
460.25 158.29 1.00 1.00 r p2
461.49 158.29 1.00 1.00 r p2
462.72 158.29 1.00 1.00 r p2
463.96 158.29 1.00 1.00 r p2
465.20 158.29 1.00 1.00 r p2
466.43 158.29 1.00 1.00 r p2
467.67 158.29 1.00 1.00 r p2
468.91 158.29 1.00 1.00 r p2
470.14 158.29 1.00 1.00 r p2
471.38 158.29 1.00 1.00 r p2
472.61 158.29 1.00 1.00 r p2
473.85 158.29 1.00 1.00 r p2
475.09 158.29 1.00 1.00 r p2
476.32 158.29 1.00 1.00 r p2
477.56 158.29 1.00 1.00 r p2
478.80 158.29 1.00 1.00 r p2
480.03 158.29 1.00 1.00 r p2
481.27 158.29 1.00 1.00 r p2
482.50 158.29 1.00 1.00 r p2
483.74 158.29 1.00 1.00 r p2
484.98 158.29 1.00 1.00 r p2
486.21 158.29 1.00 1.00 r p2
487.45 158.29 1.00 1.00 r p2
488.68 158.29 1.00 1.00 r p2
489.92 158.29 1.00 1.00 r p2
491.16 158.29 1.00 1.00 r p2
492.39 158.29 1.00 1.00 r p2
493.63 158.29 1.00 1.00 r p2
494.87 158.29 1.00 1.00 r p2
496.10 158.29 1.00 1.00 r p2
497.34 158.29 1.00 1.00 r p2
498.57 158.29 1.00 1.00 r p2
499.81 158.29 1.00 1.00 r p2
501.05 158.29 1.00 1.00 r p2
502.28 158.29 1.00 1.00 r p2
503.52 158.29 1.00 1.00 r p2
504.76 158.29 1.00 1.00 r p2
505.99 158.29 1.00 1.00 r p2
507.23 158.29 1.00 1.00 r p2
508.46 158.29 1.00 1.00 r p2
509.70 158.29 1.00 1.00 r p2
511.44 156.77 (>) .5 0 t
512.67 156.77 (>) .5 0 t
513.41 158.29 1.00 1.00 r p2
515.15 156.77 (>) .5 0 t
516.38 156.77 (>) .5 0 t
517.62 156.77 (>) .5 0 t
518.85 156.77 (>) .5 0 t
520.09 156.77 (>) .5 0 t
521.33 156.77 (>) .5 0 t
522.56 156.77 (>) .5 0 t
523.80 156.77 (>) .5 0 t
524.54 158.29 1.00 1.00 r p2
525.77 158.29 1.00 1.00 r p2
527.01 158.29 1.00 1.00 r p2
528.24 158.29 1.00 1.00 r p2
529.48 158.29 1.00 1.00 r p2
530.72 158.29 1.00 1.00 r p2
532.45 156.69 (\)) .5 0 t
533.69 156.69 (\)) .5 0 t
534.92 156.69 (\)) .5 0 t
536.16 156.69 (\)) .5 0 t
537.40 156.69 (\)) .5 0 t
538.63 156.69 (\)) .5 0 t
539.37 158.29 1.00 1.00 r p2
540.61 158.29 1.00 1.00 r p2
542.34 156.77 (<) .5 0 t
543.58 156.77 (<) .5 0 t
544.81 156.77 (<) .5 0 t
546.05 156.77 (<) .5 0 t
547.29 156.77 (<) .5 0 t
548.52 156.77 (<) .5 0 t
549.76 156.77 (<) .5 0 t
551.00 156.77 (<) .5 0 t
552.23 156.77 (<) .5 0 t
553.47 156.77 (<) .5 0 t
554.70 156.77 (<) .5 0 t
555.94 156.77 (<) .5 0 t
556.68 158.29 1.00 1.00 r p2
557.91 158.29 1.00 1.00 r p2
559.15 158.29 1.00 1.00 r p2
560.39 158.29 1.00 1.00 r p2
561.62 158.29 1.00 1.00 r p2
562.86 158.29 1.00 1.00 r p2
564.09 158.29 1.00 1.00 r p2
565.33 158.29 1.00 1.00 r p2
566.57 158.29 1.00 1.00 r p2
567.80 158.29 1.00 1.00 r p2
569.04 158.29 1.00 1.00 r p2
570.28 158.29 1.00 1.00 r p2
571.51 158.29 1.00 1.00 r p2
572.75 158.29 1.00 1.00 r p2
573.98 158.29 1.00 1.00 r p2
575.22 158.29 1.00 1.00 r p2
576.46 158.29 1.00 1.00 r p2
577.69 158.29 1.00 1.00 r p2
578.93 158.29 1.00 1.00 r p2
580.17 158.29 1.00 1.00 r p2
581.40 158.29 1.00 1.00 r p2
582.64 158.29 1.00 1.00 r p2
583.87 158.29 1.00 1.00 r p2
585.11 158.29 1.00 1.00 r p2
586.35 158.29 1.00 1.00 r p2
587.58 158.29 1.00 1.00 r p2
588.82 158.29 1.00 1.00 r p2
590.05 158.29 1.00 1.00 r p2
591.29 158.29 1.00 1.00 r p2
592.53 158.29 1.00 1.00 r p2
593.76 158.29 1.00 1.00 r p2
595.00 158.29 1.00 1.00 r p2
596.24 158.29 1.00 1.00 r p2
597.47 158.29 1.00 1.00 r p2
598.71 158.29 1.00 1.00 r p2
599.94 158.29 1.00 1.00 r p2
601.18 158.29 1.00 1.00 r p2
602.42 158.29 1.00 1.00 r p2
603.65 158.29 1.00 1.00 r p2
604.89 158.29 1.00 1.00 r p2
606.13 158.29 1.00 1.00 r p2
607.36 158.29 1.00 1.00 r p2
608.60 158.29 1.00 1.00 r p2
609.83 158.29 1.00 1.00 r p2
611.07 158.29 1.00 1.00 r p2
612.31 158.29 1.00 1.00 r p2
613.54 158.29 1.00 1.00 r p2
614.78 158.29 1.00 1.00 r p2
616.02 158.29 1.00 1.00 r p2
617.25 158.29 1.00 1.00 r p2
618.49 158.29 1.00 1.00 r p2
619.72 158.29 1.00 1.00 r p2
620.96 158.29 1.00 1.00 r p2
622.20 158.29 1.00 1.00 r p2
623.43 158.29 1.00 1.00 r p2
624.67 158.29 1.00 1.00 r p2
625.91 158.29 1.00 1.00 r p2
627.14 158.29 1.00 1.00 r p2
628.38 158.29 1.00 1.00 r p2
629.61 158.29 1.00 1.00 r p2
630.85 158.29 1.00 1.00 r p2
632.09 158.29 1.00 1.00 r p2
633.32 158.29 1.00 1.00 r p2
634.56 158.29 1.00 1.00 r p2
635.79 158.29 1.00 1.00 r p2
637.03 158.29 1.00 1.00 r p2
638.27 158.29 1.00 1.00 r p2
640.00 156.77 (>) .5 0 t
641.24 156.77 (>) .5 0 t
642.48 156.77 (>) .5 0 t
643.71 156.77 (>) .5 0 t
644.95 156.77 (>) .5 0 t
646.18 156.77 (>) .5 0 t
647.42 156.77 (>) .5 0 t
648.66 156.77 (>) .5 0 t
649.89 156.77 (>) .5 0 t
651.13 156.77 (>) .5 0 t
652.37 156.77 (>) .5 0 t
653.60 156.77 (>) .5 0 t
654.34 158.29 1.00 1.00 r p2
655.57 158.29 1.00 1.00 r p2
656.81 158.29 1.00 1.00 r p2
658.05 158.29 1.00 1.00 r p2
659.28 158.29 1.00 1.00 r p2
660.52 158.29 1.00 1.00 r p2
661.76 158.29 1.00 1.00 r p2
662.99 158.29 1.00 1.00 r p2
664.23 158.29 1.00 1.00 r p2
665.46 158.29 1.00 1.00 r p2
666.70 158.29 1.00 1.00 r p2
667.94 158.29 1.00 1.00 r p2
669.17 158.29 1.00 1.00 r p2
670.41 158.29 1.00 1.00 r p2
49.83 150.36 1.00 1.00 r p2
51.06 150.36 1.00 1.00 r p2
52.30 150.36 1.00 1.00 r p2
53.54 150.36 1.00 1.00 r p2
54.77 150.36 1.00 1.00 r p2
56.01 150.36 1.00 1.00 r p2
57.24 150.36 1.00 1.00 r p2
58.98 148.05 (1) .5 0 t
60.22 148.05 (1) .5 0 t
61.45 148.05 (1) .5 0 t
62.19 150.36 1.00 1.00 r p2
63.43 150.36 1.00 1.00 r p2
65.16 148.05 (1) .5 0 t
65.90 150.36 1.00 1.00 r p2
67.13 150.36 1.00 1.00 r p2
68.37 150.36 1.00 1.00 r p2
69.61 150.36 1.00 1.00 r p2
70.84 150.36 1.00 1.00 r p2
72.08 150.36 1.00 1.00 r p2
73.32 150.36 1.00 1.00 r p2
74.55 150.36 1.00 1.00 r p2
75.79 150.36 1.00 1.00 r p2
77.02 150.36 1.00 1.00 r p2
78.26 150.36 1.00 1.00 r p2
79.50 150.36 1.00 1.00 r p2
81.23 148.05 (1) .5 0 t
82.47 148.05 (1) .5 0 t
83.71 148.05 (1) .5 0 t
84.94 148.05 (1) .5 0 t
85.68 150.36 1.00 1.00 r p2
86.91 150.36 1.00 1.00 r p2
88.15 150.36 1.00 1.00 r p2
89.39 150.36 1.00 1.00 r p2
90.62 150.36 1.00 1.00 r p2
91.86 150.36 1.00 1.00 r p2
93.59 148.05 (2) .5 0 t
94.83 148.05 (2) .5 0 t
96.07 148.05 (2) .5 0 t
97.30 148.05 (2) .5 0 t
98.54 148.05 (2) .5 0 t
99.78 148.05 (2) .5 0 t
101.01 148.05 (2) .5 0 t
101.75 150.36 1.00 1.00 r p2
102.98 150.36 1.00 1.00 r p2
104.22 150.36 1.00 1.00 r p2
105.46 150.36 1.00 1.00 r p2
106.69 150.36 1.00 1.00 r p2
107.93 150.36 1.00 1.00 r p2
109.17 150.36 1.00 1.00 r p2
110.40 150.36 1.00 1.00 r p2
111.64 150.36 1.00 1.00 r p2
112.87 150.36 1.00 1.00 r p2
114.11 150.36 1.00 1.00 r p2
115.35 150.36 1.00 1.00 r p2
116.58 150.36 1.00 1.00 r p2
117.82 150.36 1.00 1.00 r p2
119.56 148.05 (2) .5 0 t
120.79 148.05 (2) .5 0 t
122.03 148.05 (2) .5 0 t
123.26 148.05 (2) .5 0 t
124.50 148.05 (2) .5 0 t
125.74 148.05 (2) .5 0 t
126.97 148.05 (2) .5 0 t
127.71 150.36 1.00 1.00 r p2
128.95 150.36 1.00 1.00 r p2
130.18 150.36 1.00 1.00 r p2
131.42 150.36 1.00 1.00 r p2
132.65 150.36 1.00 1.00 r p2
133.89 150.36 1.00 1.00 r p2
135.13 150.36 1.00 1.00 r p2
136.86 148.12 (3) .5 0 t
138.10 148.12 (3) .5 0 t
139.33 148.12 (3) .5 0 t
140.57 148.12 (3) .5 0 t
141.81 148.12 (3) .5 0 t
143.04 148.12 (3) .5 0 t
143.78 150.36 1.00 1.00 r p2
145.02 150.36 1.00 1.00 r p2
146.25 150.36 1.00 1.00 r p2
147.49 150.36 1.00 1.00 r p2
149.22 148.05 (4) .5 0 t
150.46 148.05 (4) .5 0 t
151.70 148.05 (4) .5 0 t
152.93 148.05 (4) .5 0 t
154.17 148.05 (4) .5 0 t
155.41 148.05 (4) .5 0 t
156.14 150.36 1.00 1.00 r p2
157.38 150.36 1.00 1.00 r p2
158.61 150.36 1.00 1.00 r p2
160.35 148.05 (4) .5 0 t
161.59 148.05 (4) .5 0 t
162.82 148.05 (4) .5 0 t
164.06 148.05 (4) .5 0 t
165.30 148.05 (4) .5 0 t
166.03 150.36 1.00 1.00 r p2
167.27 150.36 1.00 1.00 r p2
168.50 150.36 1.00 1.00 r p2
169.74 150.36 1.00 1.00 r p2
170.98 150.36 1.00 1.00 r p2
172.21 150.36 1.00 1.00 r p2
173.45 150.36 1.00 1.00 r p2
174.69 150.36 1.00 1.00 r p2
175.92 150.36 1.00 1.00 r p2
177.16 150.36 1.00 1.00 r p2
178.39 150.36 1.00 1.00 r p2
179.63 150.36 1.00 1.00 r p2
180.87 150.36 1.00 1.00 r p2
182.10 150.36 1.00 1.00 r p2
183.34 150.36 1.00 1.00 r p2
184.58 150.36 1.00 1.00 r p2
185.81 150.36 1.00 1.00 r p2
187.05 150.36 1.00 1.00 r p2
188.28 150.36 1.00 1.00 r p2
189.52 150.36 1.00 1.00 r p2
190.76 150.36 1.00 1.00 r p2
191.99 150.36 1.00 1.00 r p2
193.23 150.36 1.00 1.00 r p2
194.46 150.36 1.00 1.00 r p2
195.70 150.36 1.00 1.00 r p2
197.44 148.05 (4) .5 0 t
198.67 148.05 (4) .5 0 t
199.91 148.05 (4) .5 0 t
201.15 148.05 (4) .5 0 t
202.38 148.05 (4) .5 0 t
203.62 148.05 (4) .5 0 t
204.85 148.05 (4) .5 0 t
206.09 148.05 (4) .5 0 t
207.33 148.05 (4) .5 0 t
208.56 148.05 (4) .5 0 t
209.80 148.05 (4) .5 0 t
211.04 148.05 (4) .5 0 t
212.27 148.05 (4) .5 0 t
213.01 150.36 1.00 1.00 r p2
214.74 148.05 (4) .5 0 t
215.98 148.05 (4) .5 0 t
217.22 148.05 (4) .5 0 t
217.95 150.36 1.00 1.00 r p2
219.19 150.36 1.00 1.00 r p2
220.43 150.36 1.00 1.00 r p2
221.66 150.36 1.00 1.00 r p2
222.90 150.36 1.00 1.00 r p2
224.13 150.36 1.00 1.00 r p2
225.37 150.36 1.00 1.00 r p2
227.11 148.05 (4) .5 0 t
228.34 148.05 (4) .5 0 t
229.58 148.05 (4) .5 0 t
230.82 148.05 (4) .5 0 t
232.05 148.05 (4) .5 0 t
232.79 150.36 1.00 1.00 r p2
234.02 150.36 1.00 1.00 r p2
235.26 150.36 1.00 1.00 r p2
236.50 150.36 1.00 1.00 r p2
237.73 150.36 1.00 1.00 r p2
238.97 150.36 1.00 1.00 r p2
240.20 150.36 1.00 1.00 r p2
241.94 148.05 (4) .5 0 t
243.18 148.05 (4) .5 0 t
244.41 148.05 (4) .5 0 t
245.65 148.05 (4) .5 0 t
246.89 148.05 (4) .5 0 t
247.62 150.36 1.00 1.00 r p2
248.86 150.36 1.00 1.00 r p2
250.59 148.05 (4) .5 0 t
251.83 148.05 (4) .5 0 t
253.07 148.05 (4) .5 0 t
253.80 150.36 1.00 1.00 r p2
255.54 148.05 (4) .5 0 t
256.78 148.05 (4) .5 0 t
258.01 148.05 (4) .5 0 t
259.25 148.05 (4) .5 0 t
259.98 150.36 1.00 1.00 r p2
261.22 150.36 1.00 1.00 r p2
262.46 150.36 1.00 1.00 r p2
263.69 150.36 1.00 1.00 r p2
265.43 148.05 (4) .5 0 t
266.17 150.36 1.00 1.00 r p2
267.90 148.05 (4) .5 0 t
269.14 148.05 (4) .5 0 t
270.37 148.05 (4) .5 0 t
271.61 148.05 (4) .5 0 t
272.85 148.05 (4) .5 0 t
274.08 148.05 (4) .5 0 t
275.32 148.05 (4) .5 0 t
276.56 148.05 (4) .5 0 t
277.29 150.36 1.00 1.00 r p2
278.53 150.36 1.00 1.00 r p2
279.76 150.36 1.00 1.00 r p2
281.00 150.36 1.00 1.00 r p2
282.24 150.36 1.00 1.00 r p2
283.47 150.36 1.00 1.00 r p2
284.71 150.36 1.00 1.00 r p2
286.44 148.05 (4) .5 0 t
287.68 148.05 (4) .5 0 t
288.92 148.05 (4) .5 0 t
290.15 148.05 (4) .5 0 t
291.39 148.05 (4) .5 0 t
292.13 150.36 1.00 1.00 r p2
293.36 150.36 1.00 1.00 r p2
294.60 150.36 1.00 1.00 r p2
296.33 148.05 (4) .5 0 t
297.57 148.05 (4) .5 0 t
298.81 148.05 (4) .5 0 t
300.04 148.05 (4) .5 0 t
301.28 148.05 (4) .5 0 t
302.52 148.05 (4) .5 0 t
303.75 148.18 (5) .5 0 t
304.99 148.18 (5) .5 0 t
306.22 148.18 (5) .5 0 t
306.96 150.36 1.00 1.00 r p2
308.20 150.36 1.00 1.00 r p2
309.93 148.18 (5) .5 0 t
311.17 148.18 (5) .5 0 t
311.91 150.36 1.00 1.00 r p2
313.64 148.18 (5) .5 0 t
314.88 148.18 (5) .5 0 t
316.11 148.18 (5) .5 0 t
317.35 148.18 (5) .5 0 t
318.59 148.18 (5) .5 0 t
319.32 150.36 1.00 1.00 r p2
320.56 150.36 1.00 1.00 r p2
321.80 150.36 1.00 1.00 r p2
323.03 150.36 1.00 1.00 r p2
324.27 150.36 1.00 1.00 r p2
325.50 150.36 1.00 1.00 r p2
326.74 150.36 1.00 1.00 r p2
327.98 150.36 1.00 1.00 r p2
329.21 150.36 1.00 1.00 r p2
330.45 150.36 1.00 1.00 r p2
331.69 150.36 1.00 1.00 r p2
332.92 150.36 1.00 1.00 r p2
334.16 150.36 1.00 1.00 r p2
335.39 150.36 1.00 1.00 r p2
336.63 150.36 1.00 1.00 r p2
337.87 150.36 1.00 1.00 r p2
339.10 150.36 1.00 1.00 r p2
340.34 150.36 1.00 1.00 r p2
341.57 150.36 1.00 1.00 r p2
342.81 150.36 1.00 1.00 r p2
344.05 150.36 1.00 1.00 r p2
345.28 150.36 1.00 1.00 r p2
346.52 150.36 1.00 1.00 r p2
347.76 150.36 1.00 1.00 r p2
348.99 150.36 1.00 1.00 r p2
350.23 150.36 1.00 1.00 r p2
351.46 150.36 1.00 1.00 r p2
352.70 150.36 1.00 1.00 r p2
353.94 150.36 1.00 1.00 r p2
355.17 150.36 1.00 1.00 r p2
356.41 150.36 1.00 1.00 r p2
357.65 150.36 1.00 1.00 r p2
358.88 150.36 1.00 1.00 r p2
360.12 150.36 1.00 1.00 r p2
361.35 150.36 1.00 1.00 r p2
362.59 150.36 1.00 1.00 r p2
363.83 150.36 1.00 1.00 r p2
365.06 150.36 1.00 1.00 r p2
366.30 150.36 1.00 1.00 r p2
367.54 150.36 1.00 1.00 r p2
368.77 150.36 1.00 1.00 r p2
370.01 150.36 1.00 1.00 r p2
371.24 150.36 1.00 1.00 r p2
372.48 150.36 1.00 1.00 r p2
373.72 150.36 1.00 1.00 r p2
374.95 150.36 1.00 1.00 r p2
376.19 150.36 1.00 1.00 r p2
377.43 150.36 1.00 1.00 r p2
378.66 150.36 1.00 1.00 r p2
379.90 150.36 1.00 1.00 r p2
381.13 150.36 1.00 1.00 r p2
382.37 150.36 1.00 1.00 r p2
383.61 150.36 1.00 1.00 r p2
384.84 150.36 1.00 1.00 r p2
386.08 150.36 1.00 1.00 r p2
387.81 148.18 (5) .5 0 t
389.05 148.18 (5) .5 0 t
390.29 148.18 (5) .5 0 t
391.02 150.36 1.00 1.00 r p2
392.26 150.36 1.00 1.00 r p2
394.00 148.18 (5) .5 0 t
395.23 148.18 (5) .5 0 t
395.97 150.36 1.00 1.00 r p2
397.70 148.18 (5) .5 0 t
398.94 148.18 (5) .5 0 t
399.68 150.36 1.00 1.00 r p2
401.41 148.18 (5) .5 0 t
402.65 148.18 (5) .5 0 t
403.89 148.18 (5) .5 0 t
404.62 150.36 1.00 1.00 r p2
405.86 150.36 1.00 1.00 r p2
407.09 150.36 1.00 1.00 r p2
408.83 148.12 (6) .5 0 t
409.57 150.36 1.00 1.00 r p2
411.30 148.12 (6) .5 0 t
412.54 148.12 (6) .5 0 t
413.78 148.12 (6) .5 0 t
415.01 148.12 (6) .5 0 t
416.25 148.12 (6) .5 0 t
416.98 150.36 1.00 1.00 r p2
418.22 150.36 1.00 1.00 r p2
419.46 150.36 1.00 1.00 r p2
421.19 148.12 (3) .5 0 t
422.43 148.12 (3) .5 0 t
423.67 148.12 (3) .5 0 t
424.90 148.12 (3) .5 0 t
426.14 148.12 (3) .5 0 t
427.37 148.12 (3) .5 0 t
428.61 148.11 (7) .5 0 t
429.85 148.11 (7) .5 0 t
431.08 148.11 (7) .5 0 t
432.32 148.11 (7) .5 0 t
433.56 148.11 (7) .5 0 t
434.79 148.11 (7) .5 0 t
436.03 148.11 (7) .5 0 t
437.26 148.11 (7) .5 0 t
438.50 148.11 (7) .5 0 t
439.74 148.11 (7) .5 0 t
440.47 150.36 1.00 1.00 r p2
441.71 150.36 1.00 1.00 r p2
442.94 150.36 1.00 1.00 r p2
444.18 150.36 1.00 1.00 r p2
445.42 150.36 1.00 1.00 r p2
446.65 150.36 1.00 1.00 r p2
447.89 150.36 1.00 1.00 r p2
449.13 150.36 1.00 1.00 r p2
450.36 150.36 1.00 1.00 r p2
451.60 150.36 1.00 1.00 r p2
452.83 150.36 1.00 1.00 r p2
454.07 150.36 1.00 1.00 r p2
455.31 150.36 1.00 1.00 r p2
456.54 150.36 1.00 1.00 r p2
457.78 150.36 1.00 1.00 r p2
459.02 150.36 1.00 1.00 r p2
460.25 150.36 1.00 1.00 r p2
461.49 150.36 1.00 1.00 r p2
462.72 150.36 1.00 1.00 r p2
463.96 150.36 1.00 1.00 r p2
465.20 150.36 1.00 1.00 r p2
466.43 150.36 1.00 1.00 r p2
467.67 150.36 1.00 1.00 r p2
468.91 150.36 1.00 1.00 r p2
470.14 150.36 1.00 1.00 r p2
471.38 150.36 1.00 1.00 r p2
472.61 150.36 1.00 1.00 r p2
473.85 150.36 1.00 1.00 r p2
475.09 150.36 1.00 1.00 r p2
476.32 150.36 1.00 1.00 r p2
477.56 150.36 1.00 1.00 r p2
478.80 150.36 1.00 1.00 r p2
480.03 150.36 1.00 1.00 r p2
481.27 150.36 1.00 1.00 r p2
482.50 150.36 1.00 1.00 r p2
483.74 150.36 1.00 1.00 r p2
484.98 150.36 1.00 1.00 r p2
486.21 150.36 1.00 1.00 r p2
487.45 150.36 1.00 1.00 r p2
488.68 150.36 1.00 1.00 r p2
489.92 150.36 1.00 1.00 r p2
491.16 150.36 1.00 1.00 r p2
492.39 150.36 1.00 1.00 r p2
493.63 150.36 1.00 1.00 r p2
494.87 150.36 1.00 1.00 r p2
496.10 150.36 1.00 1.00 r p2
497.34 150.36 1.00 1.00 r p2
498.57 150.36 1.00 1.00 r p2
499.81 150.36 1.00 1.00 r p2
501.05 150.36 1.00 1.00 r p2
502.28 150.36 1.00 1.00 r p2
503.52 150.36 1.00 1.00 r p2
504.76 150.36 1.00 1.00 r p2
505.99 150.36 1.00 1.00 r p2
507.23 150.36 1.00 1.00 r p2
508.46 150.36 1.00 1.00 r p2
509.70 150.36 1.00 1.00 r p2
511.44 148.11 (7) .5 0 t
512.67 148.11 (7) .5 0 t
513.41 150.36 1.00 1.00 r p2
515.15 148.11 (7) .5 0 t
516.38 148.11 (7) .5 0 t
517.62 148.11 (7) .5 0 t
518.85 148.11 (7) .5 0 t
520.09 148.11 (7) .5 0 t
521.33 148.11 (7) .5 0 t
522.56 148.11 (7) .5 0 t
523.80 148.11 (7) .5 0 t
524.54 150.36 1.00 1.00 r p2
525.77 150.36 1.00 1.00 r p2
527.01 150.36 1.00 1.00 r p2
528.24 150.36 1.00 1.00 r p2
529.48 150.36 1.00 1.00 r p2
530.72 150.36 1.00 1.00 r p2
532.45 148.12 (6) .5 0 t
533.69 148.12 (6) .5 0 t
534.92 148.12 (6) .5 0 t
536.16 148.12 (6) .5 0 t
537.40 148.12 (6) .5 0 t
538.63 148.12 (6) .5 0 t
539.37 150.36 1.00 1.00 r p2
540.61 150.36 1.00 1.00 r p2
542.34 148.12 (8) .5 0 t
543.58 148.12 (8) .5 0 t
544.81 148.12 (8) .5 0 t
546.05 148.12 (8) .5 0 t
547.29 148.12 (8) .5 0 t
548.52 148.12 (8) .5 0 t
549.76 148.12 (8) .5 0 t
551.00 148.12 (8) .5 0 t
552.23 148.12 (8) .5 0 t
553.47 148.12 (8) .5 0 t
554.70 148.12 (8) .5 0 t
555.94 148.12 (8) .5 0 t
556.68 150.36 1.00 1.00 r p2
557.91 150.36 1.00 1.00 r p2
559.15 150.36 1.00 1.00 r p2
560.39 150.36 1.00 1.00 r p2
561.62 150.36 1.00 1.00 r p2
562.86 150.36 1.00 1.00 r p2
564.09 150.36 1.00 1.00 r p2
565.33 150.36 1.00 1.00 r p2
566.57 150.36 1.00 1.00 r p2
567.80 150.36 1.00 1.00 r p2
569.04 150.36 1.00 1.00 r p2
570.28 150.36 1.00 1.00 r p2
571.51 150.36 1.00 1.00 r p2
572.75 150.36 1.00 1.00 r p2
573.98 150.36 1.00 1.00 r p2
575.22 150.36 1.00 1.00 r p2
576.46 150.36 1.00 1.00 r p2
577.69 150.36 1.00 1.00 r p2
578.93 150.36 1.00 1.00 r p2
580.17 150.36 1.00 1.00 r p2
581.40 150.36 1.00 1.00 r p2
582.64 150.36 1.00 1.00 r p2
583.87 150.36 1.00 1.00 r p2
585.11 150.36 1.00 1.00 r p2
586.35 150.36 1.00 1.00 r p2
587.58 150.36 1.00 1.00 r p2
588.82 150.36 1.00 1.00 r p2
590.05 150.36 1.00 1.00 r p2
591.29 150.36 1.00 1.00 r p2
592.53 150.36 1.00 1.00 r p2
593.76 150.36 1.00 1.00 r p2
595.00 150.36 1.00 1.00 r p2
596.24 150.36 1.00 1.00 r p2
597.47 150.36 1.00 1.00 r p2
598.71 150.36 1.00 1.00 r p2
599.94 150.36 1.00 1.00 r p2
601.18 150.36 1.00 1.00 r p2
602.42 150.36 1.00 1.00 r p2
603.65 150.36 1.00 1.00 r p2
604.89 150.36 1.00 1.00 r p2
606.13 150.36 1.00 1.00 r p2
607.36 150.36 1.00 1.00 r p2
608.60 150.36 1.00 1.00 r p2
609.83 150.36 1.00 1.00 r p2
611.07 150.36 1.00 1.00 r p2
612.31 150.36 1.00 1.00 r p2
613.54 150.36 1.00 1.00 r p2
614.78 150.36 1.00 1.00 r p2
616.02 150.36 1.00 1.00 r p2
617.25 150.36 1.00 1.00 r p2
618.49 150.36 1.00 1.00 r p2
619.72 150.36 1.00 1.00 r p2
620.96 150.36 1.00 1.00 r p2
622.20 150.36 1.00 1.00 r p2
623.43 150.36 1.00 1.00 r p2
624.67 150.36 1.00 1.00 r p2
625.91 150.36 1.00 1.00 r p2
627.14 150.36 1.00 1.00 r p2
628.38 150.36 1.00 1.00 r p2
629.61 150.36 1.00 1.00 r p2
630.85 150.36 1.00 1.00 r p2
632.09 150.36 1.00 1.00 r p2
633.32 150.36 1.00 1.00 r p2
634.56 150.36 1.00 1.00 r p2
635.79 150.36 1.00 1.00 r p2
637.03 150.36 1.00 1.00 r p2
638.27 150.36 1.00 1.00 r p2
640.00 148.12 (8) .5 0 t
641.24 148.12 (8) .5 0 t
642.48 148.12 (8) .5 0 t
643.71 148.12 (8) .5 0 t
644.95 148.12 (8) .5 0 t
646.18 148.12 (8) .5 0 t
647.42 148.12 (8) .5 0 t
648.66 148.12 (8) .5 0 t
649.89 148.12 (8) .5 0 t
651.13 148.12 (8) .5 0 t
652.37 148.12 (8) .5 0 t
653.60 148.12 (8) .5 0 t
654.34 150.36 1.00 1.00 r p2
655.57 150.36 1.00 1.00 r p2
656.81 150.36 1.00 1.00 r p2
658.05 150.36 1.00 1.00 r p2
659.28 150.36 1.00 1.00 r p2
660.52 150.36 1.00 1.00 r p2
661.76 150.36 1.00 1.00 r p2
662.99 150.36 1.00 1.00 r p2
664.23 150.36 1.00 1.00 r p2
665.46 150.36 1.00 1.00 r p2
666.70 150.36 1.00 1.00 r p2
667.94 150.36 1.00 1.00 r p2
669.17 150.36 1.00 1.00 r p2
670.41 150.36 1.00 1.00 r p2
1 0 0 srgb
0.75 setlinewidth
[] 0 setdash
1 setlinecap
1 setlinejoin
10.00 setmiterlimit
np
50.33 145.86 m
2.54 -4.41 l
-5.09 0 l
2.55 4.41 l
o
np
58.98 145.86 m
2.55 -4.41 l
-5.09 0 l
2.54 4.41 l
o
np
58.98 145.86 m
2.55 -4.41 l
-5.09 0 l
2.54 4.41 l
o
np
81.23 145.86 m
2.55 -4.41 l
-5.09 0 l
2.54 4.41 l
o
np
93.59 145.86 m
2.55 -4.41 l
-5.09 0 l
2.54 4.41 l
o
np
119.56 145.86 m
2.54 -4.41 l
-5.09 0 l
2.55 4.41 l
o
np
136.86 145.86 m
2.55 -4.41 l
-5.09 0 l
2.54 4.41 l
o
np
149.22 145.86 m
2.55 -4.41 l
-5.09 0 l
2.54 4.41 l
o
np
119.56 145.86 m
2.54 -4.41 l
-5.09 0 l
2.55 4.41 l
o
np
136.86 145.86 m
2.55 -4.41 l
-5.09 0 l
2.54 4.41 l
o
np
136.86 145.86 m
2.55 -4.41 l
-5.09 0 l
2.54 4.41 l
o
np
149.22 145.86 m
2.55 -4.41 l
-5.09 0 l
2.54 4.41 l
o
np
241.94 145.86 m
2.55 -4.41 l
-5.09 0 l
2.54 4.41 l
o
np
241.94 145.86 m
2.55 -4.41 l
-5.09 0 l
2.54 4.41 l
o
np
303.75 145.86 m
2.55 -4.41 l
-5.09 0 l
2.54 4.41 l
o
np
387.81 145.86 m
2.55 -4.41 l
-5.09 0 l
2.54 4.41 l
o
np
408.83 145.86 m
2.55 -4.41 l
-5.09 0 l
2.54 4.41 l
o
np
387.81 145.86 m
2.55 -4.41 l
-5.09 0 l
2.54 4.41 l
o
np
408.83 145.86 m
2.55 -4.41 l
-5.09 0 l
2.54 4.41 l
o
np
408.83 145.86 m
2.55 -4.41 l
-5.09 0 l
2.54 4.41 l
o
np
428.61 145.86 m
2.55 -4.41 l
-5.10 0 l
2.55 4.41 l
o
np
428.61 145.86 m
2.55 -4.41 l
-5.10 0 l
2.55 4.41 l
o
np
511.44 145.86 m
2.54 -4.41 l
-5.09 0 l
2.55 4.41 l
o
np
428.61 145.86 m
2.55 -4.41 l
-5.10 0 l
2.55 4.41 l
o
np
511.44 145.86 m
2.54 -4.41 l
-5.09 0 l
2.55 4.41 l
o
np
532.45 145.86 m
2.55 -4.41 l
-5.09 0 l
2.54 4.41 l
o
np
542.34 145.86 m
2.55 -4.41 l
-5.09 0 l
2.54 4.41 l
o
np
84.94 145.86 m
2.55 -4.41 l
-5.09 0 l
2.54 4.41 l
o
np
101.01 145.86 m
2.55 -4.41 l
-5.09 0 l
2.54 4.41 l
o
np
126.97 145.86 m
2.55 -4.41 l
-5.09 0 l
2.54 4.41 l
o
np
126.97 145.86 m
2.55 -4.41 l
-5.09 0 l
2.54 4.41 l
o
np
143.04 145.86 m
2.55 -4.41 l
-5.09 0 l
2.54 4.41 l
o
np
232.05 145.86 m
2.55 -4.41 l
-5.09 0 l
2.54 4.41 l
o
np
232.05 145.86 m
2.55 -4.41 l
-5.09 0 l
2.54 4.41 l
o
np
318.59 145.86 m
2.54 -4.41 l
-5.09 0 l
2.55 4.41 l
o
np
427.37 145.86 m
2.55 -4.41 l
-5.09 0 l
2.54 4.41 l
o
np
416.25 145.86 m
2.54 -4.41 l
-5.09 0 l
2.55 4.41 l
o
np
427.37 145.86 m
2.55 -4.41 l
-5.09 0 l
2.54 4.41 l
o
np
427.37 145.86 m
2.55 -4.41 l
-5.09 0 l
2.54 4.41 l
o
np
403.89 145.86 m
2.54 -4.41 l
-5.09 0 l
2.55 4.41 l
o
np
439.74 145.86 m
2.54 -4.41 l
-5.09 0 l
2.55 4.41 l
o
np
416.25 145.86 m
2.54 -4.41 l
-5.09 0 l
2.55 4.41 l
o
np
439.74 145.86 m
2.54 -4.41 l
-5.09 0 l
2.55 4.41 l
o
np
427.37 145.86 m
2.55 -4.41 l
-5.09 0 l
2.54 4.41 l
o
np
538.63 145.86 m
2.55 -4.41 l
-5.09 0 l
2.54 4.41 l
o
np
538.63 145.86 m
2.55 -4.41 l
-5.09 0 l
2.54 4.41 l
o
np
555.94 145.86 m
2.55 -4.41 l
-5.09 0 l
2.54 4.41 l
o
np
538.63 145.86 m
2.55 -4.41 l
-5.09 0 l
2.54 4.41 l
o
np
555.94 145.86 m
2.55 -4.41 l
-5.09 0 l
2.54 4.41 l
o
np
538.63 145.86 m
2.55 -4.41 l
-5.09 0 l
2.54 4.41 l
o
np
653.60 145.86 m
2.55 -4.41 l
-5.09 0 l
2.54 4.41 l
o
np
653.60 145.86 m
2.55 -4.41 l
-5.09 0 l
2.54 4.41 l
o
np
653.60 145.86 m
2.55 -4.41 l
-5.09 0 l
2.54 4.41 l
o
np
670.91 145.86 m
2.54 -4.41 l
-5.09 0 l
2.55 4.41 l
o
0 0 0.8000 srgb
np
50.33 127.05 m
34.61 0 l
o
/Font1 findfont 7 s
67.63 129.93 (left-P1) .5 0 t
0 0 0.8510 srgb
np
58.98 123.87 m
42.03 0 l
o
80.00 116.80 (P1-L2) .5 0 t
0 0 0.9020 srgb
np
58.98 120.70 m
67.99 0 l
o
92.98 123.58 (P1-P2) .5 0 t
0 0 0.9490 srgb
np
81.23 117.52 m
45.74 0 l
o
104.10 110.46 (R1-P2) .5 0 t
0 0 1 srgb
np
93.59 114.35 m
49.45 0 l
o
118.32 117.23 (P2-L3) .5 0 t
0 0.4510 1 srgb
np
119.56 111.17 m
112.49 0 l
o
175.80 104.11 (R2-L4) .5 0 t
0 0.5490 1 srgb
np
136.86 108.00 m
95.19 0 l
o
184.46 110.88 (L3-L4) .5 0 t
0 0.9490 1 srgb
np
149.22 104.83 m
169.37 0 l
o
233.91 97.76 (P4-L5) .5 0 t
0.1294 1 0.8706 srgb
np
119.56 101.65 m
307.81 0 l
o
273.46 104.53 (R2-P3) .5 0 t
0.1529 1 0.8471 srgb
np
136.86 98.48 m
279.39 0 l
o
276.56 91.41 (L3-L6) .5 0 t
np
136.86 95.30 m
290.51 0 l
o
282.12 98.18 (P3-L4) .5 0 t
0.1804 1 0.8196 srgb
np
149.22 92.13 m
278.15 0 l
o
288.30 85.06 (R3-P4) .5 0 t
0.3333 1 0.6667 srgb
np
241.94 88.95 m
161.95 0 l
o
322.91 91.83 (R4-P5) .5 0 t
0.4118 1 0.5882 srgb
np
241.94 85.78 m
197.80 0 l
o
340.84 78.71 (R4-L7) .5 0 t
0.4863 1 0.5137 srgb
np
303.75 82.60 m
112.50 0 l
o
360.00 85.48 (P5-L6) .5 0 t
0.7176 1 0.2824 srgb
np
387.81 79.43 m
51.93 0 l
o
413.78 72.36 (R5-L7) .5 0 t
np
408.83 76.25 m
18.54 0 l
o
418.10 79.13 (L6-R3) .5 0 t
0.9216 1 0.0784 srgb
np
387.81 73.08 m
150.82 0 l
o
463.22 66.01 (R5-P6) .5 0 t
0.9490 1 0.0510 srgb
np
408.83 69.90 m
129.80 0 l
o
473.73 72.78 (P6-L7) .5 0 t
1 1 0 srgb
np
408.83 66.73 m
147.11 0 l
o
482.39 59.66 (L6-L8) .5 0 t
np
428.61 63.56 m
110.02 0 l
o
483.62 66.44 (R6-P7) .5 0 t
1 0.9490 0 srgb
np
428.61 60.38 m
127.33 0 l
o
492.28 53.31 (P7-L8) .5 0 t
1 0.6510 0 srgb
np
511.44 57.21 m
27.19 0 l
o
525.04 60.09 (R7-R6) .5 0 t
1 0.5490 0 srgb
np
428.61 54.03 m
224.99 0 l
o
541.11 46.96 (P7-P8) .5 0 t
1 0.2000 0 srgb
np
511.44 50.86 m
142.16 0 l
o
582.52 53.74 (R7-P8) .5 0 t
1 0.1490 0 srgb
np
532.45 47.68 m
121.15 0 l
o
593.03 40.61 (R6-P8) .5 0 t
1 0 0 srgb
np
542.34 44.51 m
128.57 0 l
o
593.49 47.39 (P8-r) 0 ta
0.105 (ight) tb gr
ep
%%Trailer
%%Pages: 1
%%EOF
