%!PS-Adobe-3.0
%%DocumentNeededResources: font Helvetica
%%+ font Helvetica-Bold
%%+ font Helvetica-Oblique
%%+ font Helvetica-BoldOblique
%%+ font Symbol
%%DocumentMedia: special 180 720 0 () ()
%%Title: R Graphics Output
%%Creator: R Software
%%Pages: (atend)
%%BoundingBox: 0 0 180 720
%%EndComments
%%BeginProlog
/bp  { gs sRGB 180.00 0 translate 90 rotate gs } def
% begin .ps.prolog
/gs  { gsave } bind def
/gr  { grestore } bind def
/ep  { showpage gr gr } bind def
/m   { moveto } bind def
/l  { rlineto } bind def
/np  { newpath } bind def
/cp  { closepath } bind def
/f   { fill } bind def
/o   { stroke } bind def
/c   { newpath 0 360 arc } bind def
/r   { 4 2 roll moveto 1 copy 3 -1 roll exch 0 exch rlineto 0 rlineto -1 mul 0 exch rlineto closepath } bind def
/p1  { stroke } bind def
/p2  { gsave bg fill grestore newpath } bind def
/p3  { gsave bg fill grestore stroke } bind def
/p6  { gsave bg eofill grestore newpath } bind def
/p7  { gsave bg eofill grestore stroke } bind def
/t   { 5 -2 roll moveto gsave rotate
       1 index stringwidth pop
       mul neg 0 rmoveto show grestore } bind def
/ta  { 4 -2 roll moveto gsave rotate show } bind def
/tb  { 2 -1 roll 0 rmoveto show } bind def
/cl  { grestore gsave newpath 3 index 3 index moveto 1 index
       4 -1 roll lineto  exch 1 index lineto lineto
       closepath clip newpath } bind def
/rgb { setrgbcolor } bind def
/s   { scalefont setfont } bind def
% end   .ps.prolog
/sRGB { [ /CIEBasedABC
          << /DecodeLMN
               [ { dup 0.03928 le
                        {12.92321 div}
                        {0.055 add 1.055 div 2.4 exp }
                     ifelse
                 } bind dup dup
               ]
             /MatrixLMN [0.412457 0.212673 0.019334
                         0.357576 0.715152 0.119192
                         0.180437 0.072175 0.950301]
             /WhitePoint [0.9505 1.0 1.0890]
           >>
         ] setcolorspace } bind def
/srgb { setcolor } bind def
%%IncludeResource: font Helvetica
/Helvetica findfont
dup length dict begin
  {1 index /FID ne {def} {pop pop} ifelse} forall
  /Encoding ISOLatin1Encoding def
  currentdict
  end
/Font1 exch definefont pop
%%IncludeResource: font Helvetica-Bold
/Helvetica-Bold findfont
dup length dict begin
  {1 index /FID ne {def} {pop pop} ifelse} forall
  /Encoding ISOLatin1Encoding def
  currentdict
  end
/Font2 exch definefont pop
%%IncludeResource: font Helvetica-Oblique
/Helvetica-Oblique findfont
dup length dict begin
  {1 index /FID ne {def} {pop pop} ifelse} forall
  /Encoding ISOLatin1Encoding def
  currentdict
  end
/Font3 exch definefont pop
%%IncludeResource: font Helvetica-BoldOblique
/Helvetica-BoldOblique findfont
dup length dict begin
  {1 index /FID ne {def} {pop pop} ifelse} forall
  /Encoding ISOLatin1Encoding def
  currentdict
  end
/Font4 exch definefont pop
%%IncludeResource: font Symbol
/Symbol findfont
dup length dict begin
  {1 index /FID ne {def} {pop pop} ifelse} forall
  currentdict
  end
/Font5 exch definefont pop
%%EndProlog
%%Page: 1 1
bp
18.00 36.00 702.00 180.00 cl
/bg { 0 0 0 srgb } def
49.83 164.91 1.00 1.00 r p2
51.07 164.91 1.00 1.00 r p2
52.31 164.91 1.00 1.00 r p2
53.55 164.91 1.00 1.00 r p2
/Font1 findfont 8 s
0 0 0 srgb
55.28 163.38 (<) .5 0 t
56.52 163.38 (<) .5 0 t
57.76 163.38 (<) .5 0 t
59.00 163.38 (<) .5 0 t
60.24 163.38 (<) .5 0 t
61.48 163.38 (<) .5 0 t
62.22 164.91 1.00 1.00 r p2
63.46 164.91 1.00 1.00 r p2
65.19 163.38 (<) .5 0 t
65.93 164.91 1.00 1.00 r p2
67.17 164.91 1.00 1.00 r p2
68.41 164.91 1.00 1.00 r p2
69.65 164.91 1.00 1.00 r p2
70.89 164.91 1.00 1.00 r p2
72.13 164.91 1.00 1.00 r p2
73.36 164.91 1.00 1.00 r p2
74.60 164.91 1.00 1.00 r p2
75.84 164.91 1.00 1.00 r p2
77.08 164.91 1.00 1.00 r p2
78.32 164.91 1.00 1.00 r p2
79.56 164.91 1.00 1.00 r p2
80.80 164.91 1.00 1.00 r p2
82.04 164.91 1.00 1.00 r p2
83.27 164.91 1.00 1.00 r p2
84.51 164.91 1.00 1.00 r p2
85.75 164.91 1.00 1.00 r p2
87.49 163.38 (>) .5 0 t
88.73 163.38 (>) .5 0 t
89.97 163.38 (>) .5 0 t
91.21 163.38 (>) .5 0 t
92.44 163.38 (>) .5 0 t
93.68 163.38 (>) .5 0 t
94.92 163.38 (>) .5 0 t
95.66 164.91 1.00 1.00 r p2
96.90 164.91 1.00 1.00 r p2
98.14 164.91 1.00 1.00 r p2
99.38 164.91 1.00 1.00 r p2
100.62 164.91 1.00 1.00 r p2
101.85 164.91 1.00 1.00 r p2
103.09 164.91 1.00 1.00 r p2
104.33 164.91 1.00 1.00 r p2
105.57 164.91 1.00 1.00 r p2
106.81 164.91 1.00 1.00 r p2
108.05 164.91 1.00 1.00 r p2
109.29 164.91 1.00 1.00 r p2
110.52 164.91 1.00 1.00 r p2
111.76 164.91 1.00 1.00 r p2
113.00 164.91 1.00 1.00 r p2
114.24 164.91 1.00 1.00 r p2
115.48 164.91 1.00 1.00 r p2
116.72 164.91 1.00 1.00 r p2
117.96 164.91 1.00 1.00 r p2
119.20 164.91 1.00 1.00 r p2
120.43 164.91 1.00 1.00 r p2
121.67 164.91 1.00 1.00 r p2
122.91 164.91 1.00 1.00 r p2
124.15 164.91 1.00 1.00 r p2
125.39 164.91 1.00 1.00 r p2
126.63 164.91 1.00 1.00 r p2
127.87 164.91 1.00 1.00 r p2
129.11 164.91 1.00 1.00 r p2
130.34 164.91 1.00 1.00 r p2
131.58 164.91 1.00 1.00 r p2
132.82 164.91 1.00 1.00 r p2
134.06 164.91 1.00 1.00 r p2
135.30 164.91 1.00 1.00 r p2
136.54 164.91 1.00 1.00 r p2
137.78 164.91 1.00 1.00 r p2
139.01 164.91 1.00 1.00 r p2
140.25 164.91 1.00 1.00 r p2
141.49 164.91 1.00 1.00 r p2
142.73 164.91 1.00 1.00 r p2
143.97 164.91 1.00 1.00 r p2
145.21 164.91 1.00 1.00 r p2
146.45 164.91 1.00 1.00 r p2
147.69 164.91 1.00 1.00 r p2
148.92 164.91 1.00 1.00 r p2
150.16 164.91 1.00 1.00 r p2
151.40 164.91 1.00 1.00 r p2
152.64 164.91 1.00 1.00 r p2
153.88 164.91 1.00 1.00 r p2
155.12 164.91 1.00 1.00 r p2
156.36 164.91 1.00 1.00 r p2
157.59 164.91 1.00 1.00 r p2
158.83 164.91 1.00 1.00 r p2
160.07 164.91 1.00 1.00 r p2
161.31 164.91 1.00 1.00 r p2
162.55 164.91 1.00 1.00 r p2
163.79 164.91 1.00 1.00 r p2
165.03 164.91 1.00 1.00 r p2
166.77 163.38 (<) .5 0 t
168.00 163.38 (<) .5 0 t
169.24 163.38 (<) .5 0 t
170.48 163.38 (<) .5 0 t
171.72 163.38 (<) .5 0 t
172.96 163.38 (<) .5 0 t
173.70 164.91 1.00 1.00 r p2
174.94 164.91 1.00 1.00 r p2
176.18 164.91 1.00 1.00 r p2
177.41 164.91 1.00 1.00 r p2
179.15 163.38 (<) .5 0 t
180.39 163.38 (<) .5 0 t
181.63 163.38 (<) .5 0 t
182.87 163.38 (<) .5 0 t
184.11 163.38 (<) .5 0 t
185.35 163.38 (<) .5 0 t
186.08 164.91 1.00 1.00 r p2
187.32 164.91 1.00 1.00 r p2
188.56 164.91 1.00 1.00 r p2
189.80 164.91 1.00 1.00 r p2
191.54 163.38 (<) .5 0 t
192.78 163.38 (<) .5 0 t
194.02 163.38 (<) .5 0 t
194.76 164.91 1.00 1.00 r p2
195.99 164.91 1.00 1.00 r p2
197.23 164.91 1.00 1.00 r p2
198.47 164.91 1.00 1.00 r p2
199.71 164.91 1.00 1.00 r p2
200.95 164.91 1.00 1.00 r p2
202.19 164.91 1.00 1.00 r p2
203.43 164.91 1.00 1.00 r p2
204.66 164.91 1.00 1.00 r p2
205.90 164.91 1.00 1.00 r p2
207.14 164.91 1.00 1.00 r p2
208.38 164.91 1.00 1.00 r p2
209.62 164.91 1.00 1.00 r p2
210.86 164.91 1.00 1.00 r p2
212.10 164.91 1.00 1.00 r p2
213.34 164.91 1.00 1.00 r p2
214.57 164.91 1.00 1.00 r p2
215.81 164.91 1.00 1.00 r p2
217.05 164.91 1.00 1.00 r p2
218.29 164.91 1.00 1.00 r p2
219.53 164.91 1.00 1.00 r p2
220.77 164.91 1.00 1.00 r p2
222.01 164.91 1.00 1.00 r p2
223.25 164.91 1.00 1.00 r p2
224.48 164.91 1.00 1.00 r p2
225.72 164.91 1.00 1.00 r p2
226.96 164.91 1.00 1.00 r p2
228.20 164.91 1.00 1.00 r p2
229.44 164.91 1.00 1.00 r p2
230.68 164.91 1.00 1.00 r p2
231.92 164.91 1.00 1.00 r p2
233.15 164.91 1.00 1.00 r p2
234.39 164.91 1.00 1.00 r p2
235.63 164.91 1.00 1.00 r p2
237.37 163.38 (<) .5 0 t
238.61 163.38 (<) .5 0 t
239.85 163.38 (<) .5 0 t
241.09 163.38 (<) .5 0 t
242.33 163.38 (<) .5 0 t
243.56 163.38 (<) .5 0 t
244.80 163.38 (<) .5 0 t
246.04 163.38 (<) .5 0 t
247.28 163.38 (<) .5 0 t
248.52 163.38 (<) .5 0 t
249.76 163.38 (<) .5 0 t
250.50 164.91 1.00 1.00 r p2
251.73 164.91 1.00 1.00 r p2
252.97 164.91 1.00 1.00 r p2
254.21 164.91 1.00 1.00 r p2
255.45 164.91 1.00 1.00 r p2
256.69 164.91 1.00 1.00 r p2
257.93 164.91 1.00 1.00 r p2
259.17 164.91 1.00 1.00 r p2
260.41 164.91 1.00 1.00 r p2
261.64 164.91 1.00 1.00 r p2
262.88 164.91 1.00 1.00 r p2
264.12 164.91 1.00 1.00 r p2
265.36 164.91 1.00 1.00 r p2
266.60 164.91 1.00 1.00 r p2
267.84 164.91 1.00 1.00 r p2
269.08 164.91 1.00 1.00 r p2
270.31 164.91 1.00 1.00 r p2
271.55 164.91 1.00 1.00 r p2
273.29 163.38 (>) .5 0 t
274.53 163.38 (>) .5 0 t
275.77 163.38 (>) .5 0 t
276.51 164.91 1.00 1.00 r p2
277.75 164.91 1.00 1.00 r p2
278.99 164.91 1.00 1.00 r p2
280.22 164.91 1.00 1.00 r p2
281.96 163.38 (>) .5 0 t
282.70 164.91 1.00 1.00 r p2
284.44 163.38 (>) .5 0 t
285.68 163.38 (>) .5 0 t
286.92 163.38 (>) .5 0 t
288.16 163.38 (>) .5 0 t
289.40 163.38 (>) .5 0 t
290.63 163.38 (>) .5 0 t
291.87 163.38 (>) .5 0 t
292.61 164.91 1.00 1.00 r p2
293.85 164.91 1.00 1.00 r p2
295.09 164.91 1.00 1.00 r p2
296.33 164.91 1.00 1.00 r p2
297.57 164.91 1.00 1.00 r p2
298.80 164.91 1.00 1.00 r p2
300.04 164.91 1.00 1.00 r p2
301.28 164.91 1.00 1.00 r p2
302.52 164.91 1.00 1.00 r p2
303.76 164.91 1.00 1.00 r p2
305.00 164.91 1.00 1.00 r p2
306.24 164.91 1.00 1.00 r p2
307.48 164.91 1.00 1.00 r p2
308.71 164.91 1.00 1.00 r p2
309.95 164.91 1.00 1.00 r p2
311.19 164.91 1.00 1.00 r p2
312.43 164.91 1.00 1.00 r p2
313.67 164.91 1.00 1.00 r p2
314.91 164.91 1.00 1.00 r p2
316.15 164.91 1.00 1.00 r p2
317.38 164.91 1.00 1.00 r p2
318.62 164.91 1.00 1.00 r p2
319.86 164.91 1.00 1.00 r p2
321.10 164.91 1.00 1.00 r p2
322.34 164.91 1.00 1.00 r p2
323.58 164.91 1.00 1.00 r p2
324.82 164.91 1.00 1.00 r p2
326.06 164.91 1.00 1.00 r p2
327.29 164.91 1.00 1.00 r p2
328.53 164.91 1.00 1.00 r p2
329.77 164.91 1.00 1.00 r p2
331.01 164.91 1.00 1.00 r p2
332.25 164.91 1.00 1.00 r p2
333.49 164.91 1.00 1.00 r p2
334.73 164.91 1.00 1.00 r p2
335.97 164.91 1.00 1.00 r p2
337.20 164.91 1.00 1.00 r p2
338.44 164.91 1.00 1.00 r p2
339.68 164.91 1.00 1.00 r p2
340.92 164.91 1.00 1.00 r p2
342.16 164.91 1.00 1.00 r p2
343.40 164.91 1.00 1.00 r p2
344.64 164.91 1.00 1.00 r p2
345.87 164.91 1.00 1.00 r p2
347.11 164.91 1.00 1.00 r p2
348.35 164.91 1.00 1.00 r p2
349.59 164.91 1.00 1.00 r p2
351.33 163.38 (>) .5 0 t
352.57 163.38 (>) .5 0 t
353.81 163.38 (>) .5 0 t
354.55 164.91 1.00 1.00 r p2
355.78 164.91 1.00 1.00 r p2
357.02 164.91 1.00 1.00 r p2
358.76 163.38 (>) .5 0 t
360.00 163.38 (>) .5 0 t
360.74 164.91 1.00 1.00 r p2
362.48 163.38 (>) .5 0 t
363.72 163.38 (>) .5 0 t
364.95 163.38 (>) .5 0 t
366.19 163.38 (>) .5 0 t
367.43 163.38 (<) .5 0 t
368.67 163.38 (<) .5 0 t
369.91 163.38 (<) .5 0 t
371.15 163.38 (<) .5 0 t
371.89 164.91 1.00 1.00 r p2
373.63 163.38 (<) .5 0 t
374.86 163.38 (<) .5 0 t
376.10 163.38 (<) .5 0 t
376.84 164.91 1.00 1.00 r p2
378.08 164.91 1.00 1.00 r p2
379.82 163.38 (<) .5 0 t
381.06 163.38 (<) .5 0 t
381.80 164.91 1.00 1.00 r p2
383.03 164.91 1.00 1.00 r p2
384.27 164.91 1.00 1.00 r p2
386.01 163.38 (<) .5 0 t
386.75 164.91 1.00 1.00 r p2
387.99 164.91 1.00 1.00 r p2
389.23 164.91 1.00 1.00 r p2
390.47 164.91 1.00 1.00 r p2
391.71 164.91 1.00 1.00 r p2
392.94 164.91 1.00 1.00 r p2
394.18 164.91 1.00 1.00 r p2
395.42 164.91 1.00 1.00 r p2
396.66 164.91 1.00 1.00 r p2
397.90 164.91 1.00 1.00 r p2
399.14 164.91 1.00 1.00 r p2
400.38 164.91 1.00 1.00 r p2
401.62 164.91 1.00 1.00 r p2
402.85 164.91 1.00 1.00 r p2
404.09 164.91 1.00 1.00 r p2
405.33 164.91 1.00 1.00 r p2
406.57 164.91 1.00 1.00 r p2
407.81 164.91 1.00 1.00 r p2
409.05 164.91 1.00 1.00 r p2
410.29 164.91 1.00 1.00 r p2
412.02 163.38 (>) .5 0 t
412.76 164.91 1.00 1.00 r p2
414.50 163.38 (>) .5 0 t
415.74 163.38 (>) .5 0 t
416.98 163.38 (>) .5 0 t
417.72 164.91 1.00 1.00 r p2
418.96 164.91 1.00 1.00 r p2
420.20 164.91 1.00 1.00 r p2
421.43 164.91 1.00 1.00 r p2
422.67 164.91 1.00 1.00 r p2
424.41 163.38 (>) .5 0 t
425.65 163.38 (>) .5 0 t
426.89 163.38 (>) .5 0 t
428.13 163.38 (>) .5 0 t
429.37 163.38 (>) .5 0 t
430.60 163.38 (>) .5 0 t
431.34 164.91 1.00 1.00 r p2
432.58 164.91 1.00 1.00 r p2
433.82 164.91 1.00 1.00 r p2
435.56 162.54 (A) .5 0 t
436.30 164.91 1.00 1.00 r p2
438.04 162.54 (A) .5 0 t
439.28 162.54 (A) .5 0 t
440.51 162.54 (A) .5 0 t
441.75 162.54 (A) .5 0 t
442.99 162.54 (A) .5 0 t
443.73 164.91 1.00 1.00 r p2
444.97 164.91 1.00 1.00 r p2
446.21 164.91 1.00 1.00 r p2
447.95 163.38 (>) .5 0 t
449.19 163.38 (>) .5 0 t
450.42 163.38 (>) .5 0 t
451.66 163.38 (>) .5 0 t
452.90 163.38 (>) .5 0 t
454.14 163.38 (>) .5 0 t
455.38 163.38 (<) .5 0 t
456.62 163.38 (<) .5 0 t
457.86 163.38 (<) .5 0 t
459.09 163.38 (<) .5 0 t
460.33 163.38 (<) .5 0 t
461.57 163.38 (<) .5 0 t
462.81 163.38 (<) .5 0 t
464.05 163.38 (<) .5 0 t
464.79 164.91 1.00 1.00 r p2
466.03 164.91 1.00 1.00 r p2
467.27 164.91 1.00 1.00 r p2
468.50 164.91 1.00 1.00 r p2
469.74 164.91 1.00 1.00 r p2
470.98 164.91 1.00 1.00 r p2
472.22 164.91 1.00 1.00 r p2
473.46 164.91 1.00 1.00 r p2
474.70 164.91 1.00 1.00 r p2
475.94 164.91 1.00 1.00 r p2
477.17 164.91 1.00 1.00 r p2
478.41 164.91 1.00 1.00 r p2
479.65 164.91 1.00 1.00 r p2
480.89 164.91 1.00 1.00 r p2
482.13 164.91 1.00 1.00 r p2
483.37 164.91 1.00 1.00 r p2
484.61 164.91 1.00 1.00 r p2
485.85 164.91 1.00 1.00 r p2
487.08 164.91 1.00 1.00 r p2
488.32 164.91 1.00 1.00 r p2
489.56 164.91 1.00 1.00 r p2
490.80 164.91 1.00 1.00 r p2
492.04 164.91 1.00 1.00 r p2
493.28 164.91 1.00 1.00 r p2
494.52 164.91 1.00 1.00 r p2
495.75 164.91 1.00 1.00 r p2
496.99 164.91 1.00 1.00 r p2
498.23 164.91 1.00 1.00 r p2
499.97 163.38 (>) .5 0 t
501.21 163.38 (>) .5 0 t
502.45 163.38 (>) .5 0 t
503.69 163.38 (>) .5 0 t
504.93 163.38 (>) .5 0 t
506.16 163.38 (>) .5 0 t
507.40 163.38 (>) .5 0 t
508.64 163.38 (>) .5 0 t
509.38 164.91 1.00 1.00 r p2
510.62 164.91 1.00 1.00 r p2
511.86 164.91 1.00 1.00 r p2
513.10 164.91 1.00 1.00 r p2
514.34 164.91 1.00 1.00 r p2
515.57 164.91 1.00 1.00 r p2
517.31 163.32 (a) .5 0 t
518.55 163.32 (a) .5 0 t
519.79 163.32 (a) .5 0 t
521.03 163.32 (a) .5 0 t
522.27 163.32 (a) .5 0 t
523.51 163.32 (a) .5 0 t
524.74 163.38 (<) .5 0 t
525.98 163.38 (<) .5 0 t
527.22 163.38 (<) .5 0 t
528.46 163.38 (<) .5 0 t
529.70 163.38 (<) .5 0 t
530.94 163.38 (<) .5 0 t
532.18 163.38 (<) .5 0 t
533.42 163.38 (<) .5 0 t
534.15 164.91 1.00 1.00 r p2
535.39 164.91 1.00 1.00 r p2
536.63 164.91 1.00 1.00 r p2
537.87 164.91 1.00 1.00 r p2
539.11 164.91 1.00 1.00 r p2
540.35 164.91 1.00 1.00 r p2
541.59 164.91 1.00 1.00 r p2
543.32 163.38 (>) .5 0 t
544.56 163.38 (>) .5 0 t
545.80 163.38 (>) .5 0 t
547.04 163.38 (>) .5 0 t
548.28 163.38 (>) .5 0 t
549.52 163.38 (>) .5 0 t
550.26 164.91 1.00 1.00 r p2
551.50 164.91 1.00 1.00 r p2
552.73 164.91 1.00 1.00 r p2
553.97 164.91 1.00 1.00 r p2
555.21 164.91 1.00 1.00 r p2
556.45 164.91 1.00 1.00 r p2
557.69 164.91 1.00 1.00 r p2
558.93 164.91 1.00 1.00 r p2
560.17 164.91 1.00 1.00 r p2
561.41 164.91 1.00 1.00 r p2
562.64 164.91 1.00 1.00 r p2
563.88 164.91 1.00 1.00 r p2
565.12 164.91 1.00 1.00 r p2
566.36 164.91 1.00 1.00 r p2
567.60 164.91 1.00 1.00 r p2
568.84 164.91 1.00 1.00 r p2
570.08 164.91 1.00 1.00 r p2
571.31 164.91 1.00 1.00 r p2
572.55 164.91 1.00 1.00 r p2
573.79 164.91 1.00 1.00 r p2
575.03 164.91 1.00 1.00 r p2
576.27 164.91 1.00 1.00 r p2
577.51 164.91 1.00 1.00 r p2
578.75 164.91 1.00 1.00 r p2
579.99 164.91 1.00 1.00 r p2
581.22 164.91 1.00 1.00 r p2
582.46 164.91 1.00 1.00 r p2
583.70 164.91 1.00 1.00 r p2
584.94 164.91 1.00 1.00 r p2
586.18 164.91 1.00 1.00 r p2
587.42 164.91 1.00 1.00 r p2
588.66 164.91 1.00 1.00 r p2
589.89 164.91 1.00 1.00 r p2
591.13 164.91 1.00 1.00 r p2
592.37 164.91 1.00 1.00 r p2
593.61 164.91 1.00 1.00 r p2
594.85 164.91 1.00 1.00 r p2
596.09 164.91 1.00 1.00 r p2
597.33 164.91 1.00 1.00 r p2
598.57 164.91 1.00 1.00 r p2
599.80 164.91 1.00 1.00 r p2
601.04 164.91 1.00 1.00 r p2
602.28 164.91 1.00 1.00 r p2
603.52 164.91 1.00 1.00 r p2
604.76 164.91 1.00 1.00 r p2
606.00 164.91 1.00 1.00 r p2
607.24 164.91 1.00 1.00 r p2
608.48 164.91 1.00 1.00 r p2
609.71 164.91 1.00 1.00 r p2
610.95 164.91 1.00 1.00 r p2
612.19 164.91 1.00 1.00 r p2
613.43 164.91 1.00 1.00 r p2
614.67 164.91 1.00 1.00 r p2
615.91 164.91 1.00 1.00 r p2
617.15 164.91 1.00 1.00 r p2
618.38 164.91 1.00 1.00 r p2
619.62 164.91 1.00 1.00 r p2
620.86 164.91 1.00 1.00 r p2
622.10 164.91 1.00 1.00 r p2
623.34 164.91 1.00 1.00 r p2
624.58 164.91 1.00 1.00 r p2
625.82 164.91 1.00 1.00 r p2
627.06 164.91 1.00 1.00 r p2
628.29 164.91 1.00 1.00 r p2
629.53 164.91 1.00 1.00 r p2
630.77 164.91 1.00 1.00 r p2
632.01 164.91 1.00 1.00 r p2
633.25 164.91 1.00 1.00 r p2
634.49 164.91 1.00 1.00 r p2
635.73 164.91 1.00 1.00 r p2
636.96 164.91 1.00 1.00 r p2
638.20 164.91 1.00 1.00 r p2
639.44 164.91 1.00 1.00 r p2
640.68 164.91 1.00 1.00 r p2
641.92 164.91 1.00 1.00 r p2
643.16 164.91 1.00 1.00 r p2
644.40 164.91 1.00 1.00 r p2
645.64 164.91 1.00 1.00 r p2
646.87 164.91 1.00 1.00 r p2
648.11 164.91 1.00 1.00 r p2
649.35 164.91 1.00 1.00 r p2
650.59 164.91 1.00 1.00 r p2
651.83 164.91 1.00 1.00 r p2
653.57 163.38 (>) .5 0 t
654.81 163.38 (>) .5 0 t
655.54 164.91 1.00 1.00 r p2
656.78 164.91 1.00 1.00 r p2
658.02 164.91 1.00 1.00 r p2
659.26 164.91 1.00 1.00 r p2
660.50 164.91 1.00 1.00 r p2
661.74 164.91 1.00 1.00 r p2
662.98 164.91 1.00 1.00 r p2
664.22 164.91 1.00 1.00 r p2
665.45 164.91 1.00 1.00 r p2
666.69 164.91 1.00 1.00 r p2
667.93 164.91 1.00 1.00 r p2
669.17 164.91 1.00 1.00 r p2
670.41 164.91 1.00 1.00 r p2
0.00 0.00 720.00 180.00 cl
0.00 0.00 720.00 180.00 cl
0 0 0 srgb
0.75 setlinewidth
[] 0 setdash
1 setlinecap
1 setlinejoin
10.00 setmiterlimit
np
49.09 36.00 m
619.34 0 l
o
np
49.09 36.00 m
0 -7.20 l
o
np
61.48 36.00 m
0 -7.20 l
o
np
73.86 36.00 m
0 -7.20 l
o
np
86.25 36.00 m
0 -7.20 l
o
np
98.64 36.00 m
0 -7.20 l
o
np
111.02 36.00 m
0 -7.20 l
o
np
123.41 36.00 m
0 -7.20 l
o
np
135.80 36.00 m
0 -7.20 l
o
np
148.19 36.00 m
0 -7.20 l
o
np
160.57 36.00 m
0 -7.20 l
o
np
172.96 36.00 m
0 -7.20 l
o
np
185.35 36.00 m
0 -7.20 l
o
np
197.73 36.00 m
0 -7.20 l
o
np
210.12 36.00 m
0 -7.20 l
o
np
222.51 36.00 m
0 -7.20 l
o
np
234.89 36.00 m
0 -7.20 l
o
np
247.28 36.00 m
0 -7.20 l
o
np
259.67 36.00 m
0 -7.20 l
o
np
272.05 36.00 m
0 -7.20 l
o
np
284.44 36.00 m
0 -7.20 l
o
np
296.83 36.00 m
0 -7.20 l
o
np
309.21 36.00 m
0 -7.20 l
o
np
321.60 36.00 m
0 -7.20 l
o
np
333.99 36.00 m
0 -7.20 l
o
np
346.37 36.00 m
0 -7.20 l
o
np
358.76 36.00 m
0 -7.20 l
o
np
371.15 36.00 m
0 -7.20 l
o
np
383.53 36.00 m
0 -7.20 l
o
np
395.92 36.00 m
0 -7.20 l
o
np
408.31 36.00 m
0 -7.20 l
o
np
420.70 36.00 m
0 -7.20 l
o
np
433.08 36.00 m
0 -7.20 l
o
np
445.47 36.00 m
0 -7.20 l
o
np
457.86 36.00 m
0 -7.20 l
o
np
470.24 36.00 m
0 -7.20 l
o
np
482.63 36.00 m
0 -7.20 l
o
np
495.02 36.00 m
0 -7.20 l
o
np
507.40 36.00 m
0 -7.20 l
o
np
519.79 36.00 m
0 -7.20 l
o
np
532.18 36.00 m
0 -7.20 l
o
np
544.56 36.00 m
0 -7.20 l
o
np
556.95 36.00 m
0 -7.20 l
o
np
569.34 36.00 m
0 -7.20 l
o
np
581.72 36.00 m
0 -7.20 l
o
np
594.11 36.00 m
0 -7.20 l
o
np
606.50 36.00 m
0 -7.20 l
o
np
618.88 36.00 m
0 -7.20 l
o
np
631.27 36.00 m
0 -7.20 l
o
np
643.66 36.00 m
0 -7.20 l
o
np
656.04 36.00 m
0 -7.20 l
o
np
668.43 36.00 m
0 -7.20 l
o
/Font1 findfont 12 s
49.09 10.08 (0) .5 0 t
73.86 10.08 (20) .5 0 t
98.64 10.08 (40) .5 0 t
123.41 10.08 (60) .5 0 t
148.19 10.08 (80) .5 0 t
185.35 10.08 (110) .5 0 t
222.51 10.08 (140) .5 0 t
259.67 10.08 (170) .5 0 t
296.83 10.08 (200) .5 0 t
333.99 10.08 (230) .5 0 t
371.15 10.08 (260) .5 0 t
408.31 10.08 (290) .5 0 t
445.47 10.08 (320) .5 0 t
482.63 10.08 (350) .5 0 t
519.79 10.08 (380) .5 0 t
556.95 10.08 (410) .5 0 t
594.11 10.08 (440) .5 0 t
631.27 10.08 (470) .5 0 t
668.43 10.08 (500) .5 0 t
18.00 36.00 702.00 180.00 cl
/bg { 0 0 0 srgb } def
49.83 155.65 1.00 1.00 r p2
51.07 155.65 1.00 1.00 r p2
52.31 155.65 1.00 1.00 r p2
53.55 155.65 1.00 1.00 r p2
/Font1 findfont 8 s
0 0 0 srgb
55.28 154.12 (<) .5 0 t
56.52 154.12 (<) .5 0 t
57.76 154.12 (<) .5 0 t
59.00 154.12 (<) .5 0 t
60.24 154.12 (<) .5 0 t
61.48 154.12 (<) .5 0 t
62.22 155.65 1.00 1.00 r p2
63.46 155.65 1.00 1.00 r p2
65.19 154.12 (<) .5 0 t
65.93 155.65 1.00 1.00 r p2
67.17 155.65 1.00 1.00 r p2
68.41 155.65 1.00 1.00 r p2
69.65 155.65 1.00 1.00 r p2
70.89 155.65 1.00 1.00 r p2
72.13 155.65 1.00 1.00 r p2
73.36 155.65 1.00 1.00 r p2
74.60 155.65 1.00 1.00 r p2
75.84 155.65 1.00 1.00 r p2
77.08 155.65 1.00 1.00 r p2
78.32 155.65 1.00 1.00 r p2
79.56 155.65 1.00 1.00 r p2
80.80 155.65 1.00 1.00 r p2
82.04 155.65 1.00 1.00 r p2
83.27 155.65 1.00 1.00 r p2
84.51 155.65 1.00 1.00 r p2
85.75 155.65 1.00 1.00 r p2
87.49 154.12 (>) .5 0 t
88.73 154.12 (>) .5 0 t
89.97 154.12 (>) .5 0 t
91.21 154.12 (>) .5 0 t
92.44 154.12 (>) .5 0 t
93.68 154.12 (>) .5 0 t
94.92 154.12 (>) .5 0 t
95.66 155.65 1.00 1.00 r p2
96.90 155.65 1.00 1.00 r p2
98.14 155.65 1.00 1.00 r p2
99.38 155.65 1.00 1.00 r p2
100.62 155.65 1.00 1.00 r p2
101.85 155.65 1.00 1.00 r p2
103.09 155.65 1.00 1.00 r p2
104.33 155.65 1.00 1.00 r p2
105.57 155.65 1.00 1.00 r p2
106.81 155.65 1.00 1.00 r p2
108.05 155.65 1.00 1.00 r p2
109.29 155.65 1.00 1.00 r p2
110.52 155.65 1.00 1.00 r p2
111.76 155.65 1.00 1.00 r p2
113.00 155.65 1.00 1.00 r p2
114.24 155.65 1.00 1.00 r p2
115.48 155.65 1.00 1.00 r p2
116.72 155.65 1.00 1.00 r p2
117.96 155.65 1.00 1.00 r p2
119.20 155.65 1.00 1.00 r p2
120.43 155.65 1.00 1.00 r p2
121.67 155.65 1.00 1.00 r p2
122.91 155.65 1.00 1.00 r p2
124.15 155.65 1.00 1.00 r p2
125.39 155.65 1.00 1.00 r p2
126.63 155.65 1.00 1.00 r p2
127.87 155.65 1.00 1.00 r p2
129.11 155.65 1.00 1.00 r p2
130.34 155.65 1.00 1.00 r p2
131.58 155.65 1.00 1.00 r p2
132.82 155.65 1.00 1.00 r p2
134.06 155.65 1.00 1.00 r p2
135.30 155.65 1.00 1.00 r p2
136.54 155.65 1.00 1.00 r p2
137.78 155.65 1.00 1.00 r p2
139.01 155.65 1.00 1.00 r p2
140.25 155.65 1.00 1.00 r p2
141.49 155.65 1.00 1.00 r p2
142.73 155.65 1.00 1.00 r p2
143.97 155.65 1.00 1.00 r p2
145.21 155.65 1.00 1.00 r p2
146.45 155.65 1.00 1.00 r p2
147.69 155.65 1.00 1.00 r p2
148.92 155.65 1.00 1.00 r p2
150.16 155.65 1.00 1.00 r p2
151.40 155.65 1.00 1.00 r p2
152.64 155.65 1.00 1.00 r p2
153.88 155.65 1.00 1.00 r p2
155.12 155.65 1.00 1.00 r p2
156.36 155.65 1.00 1.00 r p2
157.59 155.65 1.00 1.00 r p2
158.83 155.65 1.00 1.00 r p2
160.07 155.65 1.00 1.00 r p2
161.31 155.65 1.00 1.00 r p2
162.55 155.65 1.00 1.00 r p2
163.79 155.65 1.00 1.00 r p2
165.03 155.65 1.00 1.00 r p2
166.77 153.28 (A) .5 0 t
168.00 153.28 (A) .5 0 t
169.24 153.28 (A) .5 0 t
170.48 153.28 (A) .5 0 t
171.72 153.28 (A) .5 0 t
172.96 153.28 (A) .5 0 t
173.70 155.65 1.00 1.00 r p2
174.94 155.65 1.00 1.00 r p2
176.18 155.65 1.00 1.00 r p2
177.41 155.65 1.00 1.00 r p2
179.15 154.12 (<) .5 0 t
180.39 154.12 (<) .5 0 t
181.63 154.12 (<) .5 0 t
182.87 154.12 (<) .5 0 t
184.11 154.12 (<) .5 0 t
185.35 154.12 (<) .5 0 t
186.08 155.65 1.00 1.00 r p2
187.32 155.65 1.00 1.00 r p2
188.56 155.65 1.00 1.00 r p2
189.80 155.65 1.00 1.00 r p2
191.54 154.12 (<) .5 0 t
192.78 154.12 (<) .5 0 t
194.02 154.12 (<) .5 0 t
194.76 155.65 1.00 1.00 r p2
195.99 155.65 1.00 1.00 r p2
197.23 155.65 1.00 1.00 r p2
198.47 155.65 1.00 1.00 r p2
199.71 155.65 1.00 1.00 r p2
200.95 155.65 1.00 1.00 r p2
202.19 155.65 1.00 1.00 r p2
203.43 155.65 1.00 1.00 r p2
204.66 155.65 1.00 1.00 r p2
205.90 155.65 1.00 1.00 r p2
207.14 155.65 1.00 1.00 r p2
208.38 155.65 1.00 1.00 r p2
209.62 155.65 1.00 1.00 r p2
210.86 155.65 1.00 1.00 r p2
212.10 155.65 1.00 1.00 r p2
213.34 155.65 1.00 1.00 r p2
214.57 155.65 1.00 1.00 r p2
215.81 155.65 1.00 1.00 r p2
217.05 155.65 1.00 1.00 r p2
218.29 155.65 1.00 1.00 r p2
219.53 155.65 1.00 1.00 r p2
220.77 155.65 1.00 1.00 r p2
222.01 155.65 1.00 1.00 r p2
223.25 155.65 1.00 1.00 r p2
224.48 155.65 1.00 1.00 r p2
225.72 155.65 1.00 1.00 r p2
226.96 155.65 1.00 1.00 r p2
228.20 155.65 1.00 1.00 r p2
229.44 155.65 1.00 1.00 r p2
230.68 155.65 1.00 1.00 r p2
231.92 155.65 1.00 1.00 r p2
233.15 155.65 1.00 1.00 r p2
234.39 155.65 1.00 1.00 r p2
235.63 155.65 1.00 1.00 r p2
237.37 154.12 (<) .5 0 t
238.61 154.12 (<) .5 0 t
239.85 154.12 (<) .5 0 t
241.09 154.12 (<) .5 0 t
242.33 154.12 (<) .5 0 t
243.56 154.12 (<) .5 0 t
244.80 154.12 (<) .5 0 t
246.04 154.12 (<) .5 0 t
247.28 154.12 (<) .5 0 t
248.52 154.12 (<) .5 0 t
249.76 154.12 (<) .5 0 t
250.50 155.65 1.00 1.00 r p2
251.73 155.65 1.00 1.00 r p2
252.97 155.65 1.00 1.00 r p2
254.21 155.65 1.00 1.00 r p2
255.45 155.65 1.00 1.00 r p2
256.69 155.65 1.00 1.00 r p2
257.93 155.65 1.00 1.00 r p2
259.17 155.65 1.00 1.00 r p2
260.41 155.65 1.00 1.00 r p2
261.64 155.65 1.00 1.00 r p2
262.88 155.65 1.00 1.00 r p2
264.12 155.65 1.00 1.00 r p2
265.36 155.65 1.00 1.00 r p2
266.60 155.65 1.00 1.00 r p2
267.84 155.65 1.00 1.00 r p2
269.08 155.65 1.00 1.00 r p2
270.31 155.65 1.00 1.00 r p2
271.55 155.65 1.00 1.00 r p2
273.29 154.12 (>) .5 0 t
274.53 154.12 (>) .5 0 t
275.77 154.12 (>) .5 0 t
276.51 155.65 1.00 1.00 r p2
277.75 155.65 1.00 1.00 r p2
278.99 155.65 1.00 1.00 r p2
280.22 155.65 1.00 1.00 r p2
281.96 154.12 (>) .5 0 t
282.70 155.65 1.00 1.00 r p2
284.44 154.12 (>) .5 0 t
285.68 154.12 (>) .5 0 t
286.92 154.12 (>) .5 0 t
288.16 154.12 (>) .5 0 t
289.40 154.12 (>) .5 0 t
290.63 154.12 (>) .5 0 t
291.87 154.12 (>) .5 0 t
292.61 155.65 1.00 1.00 r p2
293.85 155.65 1.00 1.00 r p2
295.09 155.65 1.00 1.00 r p2
296.33 155.65 1.00 1.00 r p2
297.57 155.65 1.00 1.00 r p2
298.80 155.65 1.00 1.00 r p2
300.04 155.65 1.00 1.00 r p2
301.28 155.65 1.00 1.00 r p2
302.52 155.65 1.00 1.00 r p2
303.76 155.65 1.00 1.00 r p2
305.00 155.65 1.00 1.00 r p2
306.24 155.65 1.00 1.00 r p2
307.48 155.65 1.00 1.00 r p2
308.71 155.65 1.00 1.00 r p2
309.95 155.65 1.00 1.00 r p2
311.19 155.65 1.00 1.00 r p2
312.43 155.65 1.00 1.00 r p2
313.67 155.65 1.00 1.00 r p2
314.91 155.65 1.00 1.00 r p2
316.15 155.65 1.00 1.00 r p2
317.38 155.65 1.00 1.00 r p2
318.62 155.65 1.00 1.00 r p2
319.86 155.65 1.00 1.00 r p2
321.10 155.65 1.00 1.00 r p2
322.34 155.65 1.00 1.00 r p2
323.58 155.65 1.00 1.00 r p2
324.82 155.65 1.00 1.00 r p2
326.06 155.65 1.00 1.00 r p2
327.29 155.65 1.00 1.00 r p2
328.53 155.65 1.00 1.00 r p2
329.77 155.65 1.00 1.00 r p2
331.01 155.65 1.00 1.00 r p2
332.25 155.65 1.00 1.00 r p2
333.49 155.65 1.00 1.00 r p2
334.73 155.65 1.00 1.00 r p2
335.97 155.65 1.00 1.00 r p2
337.20 155.65 1.00 1.00 r p2
338.44 155.65 1.00 1.00 r p2
339.68 155.65 1.00 1.00 r p2
340.92 155.65 1.00 1.00 r p2
342.16 155.65 1.00 1.00 r p2
343.40 155.65 1.00 1.00 r p2
344.64 155.65 1.00 1.00 r p2
345.87 155.65 1.00 1.00 r p2
347.11 155.65 1.00 1.00 r p2
348.35 155.65 1.00 1.00 r p2
349.59 155.65 1.00 1.00 r p2
351.33 154.12 (>) .5 0 t
352.57 154.12 (>) .5 0 t
353.81 154.12 (>) .5 0 t
354.55 155.65 1.00 1.00 r p2
355.78 155.65 1.00 1.00 r p2
357.02 155.65 1.00 1.00 r p2
358.76 154.12 (>) .5 0 t
360.00 154.12 (>) .5 0 t
360.74 155.65 1.00 1.00 r p2
362.48 154.12 (>) .5 0 t
363.72 154.12 (>) .5 0 t
364.95 154.12 (>) .5 0 t
366.19 154.12 (>) .5 0 t
367.43 154.12 (<) .5 0 t
368.67 154.12 (<) .5 0 t
369.91 154.12 (<) .5 0 t
371.15 154.12 (<) .5 0 t
371.89 155.65 1.00 1.00 r p2
373.63 154.12 (<) .5 0 t
374.86 154.12 (<) .5 0 t
376.10 154.12 (<) .5 0 t
376.84 155.65 1.00 1.00 r p2
378.08 155.65 1.00 1.00 r p2
379.82 154.12 (<) .5 0 t
381.06 154.12 (<) .5 0 t
381.80 155.65 1.00 1.00 r p2
383.03 155.65 1.00 1.00 r p2
384.27 155.65 1.00 1.00 r p2
386.01 154.12 (<) .5 0 t
386.75 155.65 1.00 1.00 r p2
387.99 155.65 1.00 1.00 r p2
389.23 155.65 1.00 1.00 r p2
390.47 155.65 1.00 1.00 r p2
391.71 155.65 1.00 1.00 r p2
392.94 155.65 1.00 1.00 r p2
394.18 155.65 1.00 1.00 r p2
395.42 155.65 1.00 1.00 r p2
396.66 155.65 1.00 1.00 r p2
397.90 155.65 1.00 1.00 r p2
399.14 155.65 1.00 1.00 r p2
400.38 155.65 1.00 1.00 r p2
401.62 155.65 1.00 1.00 r p2
402.85 155.65 1.00 1.00 r p2
404.09 155.65 1.00 1.00 r p2
405.33 155.65 1.00 1.00 r p2
406.57 155.65 1.00 1.00 r p2
407.81 155.65 1.00 1.00 r p2
409.05 155.65 1.00 1.00 r p2
410.29 155.65 1.00 1.00 r p2
412.02 154.12 (>) .5 0 t
412.76 155.65 1.00 1.00 r p2
414.50 154.12 (>) .5 0 t
415.74 154.12 (>) .5 0 t
416.98 154.12 (>) .5 0 t
417.72 155.65 1.00 1.00 r p2
418.96 155.65 1.00 1.00 r p2
420.20 155.65 1.00 1.00 r p2
421.43 155.65 1.00 1.00 r p2
422.67 155.65 1.00 1.00 r p2
424.41 154.12 (>) .5 0 t
425.65 154.12 (>) .5 0 t
426.89 154.12 (>) .5 0 t
428.13 154.12 (>) .5 0 t
429.37 154.12 (>) .5 0 t
430.60 154.12 (>) .5 0 t
431.34 155.65 1.00 1.00 r p2
432.58 155.65 1.00 1.00 r p2
433.82 155.65 1.00 1.00 r p2
435.56 154.04 (\() .5 0 t
436.30 155.65 1.00 1.00 r p2
438.04 154.04 (\() .5 0 t
439.28 154.04 (\() .5 0 t
440.51 154.04 (\() .5 0 t
441.75 154.04 (\() .5 0 t
442.99 154.04 (\() .5 0 t
443.73 155.65 1.00 1.00 r p2
444.97 155.65 1.00 1.00 r p2
446.21 155.65 1.00 1.00 r p2
447.95 154.06 (a) .5 0 t
449.19 154.06 (a) .5 0 t
450.42 154.06 (a) .5 0 t
451.66 154.06 (a) .5 0 t
452.90 154.06 (a) .5 0 t
454.14 154.06 (a) .5 0 t
455.38 154.12 (<) .5 0 t
456.62 154.12 (<) .5 0 t
457.86 154.12 (<) .5 0 t
459.09 154.12 (<) .5 0 t
460.33 154.12 (<) .5 0 t
461.57 154.12 (<) .5 0 t
462.81 154.12 (<) .5 0 t
464.05 154.12 (<) .5 0 t
464.79 155.65 1.00 1.00 r p2
466.03 155.65 1.00 1.00 r p2
467.27 155.65 1.00 1.00 r p2
468.50 155.65 1.00 1.00 r p2
469.74 155.65 1.00 1.00 r p2
470.98 155.65 1.00 1.00 r p2
472.22 155.65 1.00 1.00 r p2
473.46 155.65 1.00 1.00 r p2
474.70 155.65 1.00 1.00 r p2
475.94 155.65 1.00 1.00 r p2
477.17 155.65 1.00 1.00 r p2
478.41 155.65 1.00 1.00 r p2
479.65 155.65 1.00 1.00 r p2
480.89 155.65 1.00 1.00 r p2
482.13 155.65 1.00 1.00 r p2
483.37 155.65 1.00 1.00 r p2
484.61 155.65 1.00 1.00 r p2
485.85 155.65 1.00 1.00 r p2
487.08 155.65 1.00 1.00 r p2
488.32 155.65 1.00 1.00 r p2
489.56 155.65 1.00 1.00 r p2
490.80 155.65 1.00 1.00 r p2
492.04 155.65 1.00 1.00 r p2
493.28 155.65 1.00 1.00 r p2
494.52 155.65 1.00 1.00 r p2
495.75 155.65 1.00 1.00 r p2
496.99 155.65 1.00 1.00 r p2
498.23 155.65 1.00 1.00 r p2
499.97 154.12 (>) .5 0 t
501.21 154.12 (>) .5 0 t
502.45 154.12 (>) .5 0 t
503.69 154.12 (>) .5 0 t
504.93 154.12 (>) .5 0 t
506.16 154.12 (>) .5 0 t
507.40 154.12 (>) .5 0 t
508.64 154.12 (>) .5 0 t
509.38 155.65 1.00 1.00 r p2
510.62 155.65 1.00 1.00 r p2
511.86 155.65 1.00 1.00 r p2
513.10 155.65 1.00 1.00 r p2
514.34 155.65 1.00 1.00 r p2
515.57 155.65 1.00 1.00 r p2
517.31 154.04 (\)) .5 0 t
518.55 154.04 (\)) .5 0 t
519.79 154.04 (\)) .5 0 t
521.03 154.04 (\)) .5 0 t
522.27 154.04 (\)) .5 0 t
523.51 154.04 (\)) .5 0 t
524.74 154.12 (<) .5 0 t
525.98 154.12 (<) .5 0 t
527.22 154.12 (<) .5 0 t
528.46 154.12 (<) .5 0 t
529.70 154.12 (<) .5 0 t
530.94 154.12 (<) .5 0 t
532.18 154.12 (<) .5 0 t
533.42 154.12 (<) .5 0 t
534.15 155.65 1.00 1.00 r p2
535.39 155.65 1.00 1.00 r p2
536.63 155.65 1.00 1.00 r p2
537.87 155.65 1.00 1.00 r p2
539.11 155.65 1.00 1.00 r p2
540.35 155.65 1.00 1.00 r p2
541.59 155.65 1.00 1.00 r p2
543.32 154.12 (>) .5 0 t
544.56 154.12 (>) .5 0 t
545.80 154.12 (>) .5 0 t
547.04 154.12 (>) .5 0 t
548.28 154.12 (>) .5 0 t
549.52 154.12 (>) .5 0 t
550.26 155.65 1.00 1.00 r p2
551.50 155.65 1.00 1.00 r p2
552.73 155.65 1.00 1.00 r p2
553.97 155.65 1.00 1.00 r p2
555.21 155.65 1.00 1.00 r p2
556.45 155.65 1.00 1.00 r p2
557.69 155.65 1.00 1.00 r p2
558.93 155.65 1.00 1.00 r p2
560.17 155.65 1.00 1.00 r p2
561.41 155.65 1.00 1.00 r p2
562.64 155.65 1.00 1.00 r p2
563.88 155.65 1.00 1.00 r p2
565.12 155.65 1.00 1.00 r p2
566.36 155.65 1.00 1.00 r p2
567.60 155.65 1.00 1.00 r p2
568.84 155.65 1.00 1.00 r p2
570.08 155.65 1.00 1.00 r p2
571.31 155.65 1.00 1.00 r p2
572.55 155.65 1.00 1.00 r p2
573.79 155.65 1.00 1.00 r p2
575.03 155.65 1.00 1.00 r p2
576.27 155.65 1.00 1.00 r p2
577.51 155.65 1.00 1.00 r p2
578.75 155.65 1.00 1.00 r p2
579.99 155.65 1.00 1.00 r p2
581.22 155.65 1.00 1.00 r p2
582.46 155.65 1.00 1.00 r p2
583.70 155.65 1.00 1.00 r p2
584.94 155.65 1.00 1.00 r p2
586.18 155.65 1.00 1.00 r p2
587.42 155.65 1.00 1.00 r p2
588.66 155.65 1.00 1.00 r p2
589.89 155.65 1.00 1.00 r p2
591.13 155.65 1.00 1.00 r p2
592.37 155.65 1.00 1.00 r p2
593.61 155.65 1.00 1.00 r p2
594.85 155.65 1.00 1.00 r p2
596.09 155.65 1.00 1.00 r p2
597.33 155.65 1.00 1.00 r p2
598.57 155.65 1.00 1.00 r p2
599.80 155.65 1.00 1.00 r p2
601.04 155.65 1.00 1.00 r p2
602.28 155.65 1.00 1.00 r p2
603.52 155.65 1.00 1.00 r p2
604.76 155.65 1.00 1.00 r p2
606.00 155.65 1.00 1.00 r p2
607.24 155.65 1.00 1.00 r p2
608.48 155.65 1.00 1.00 r p2
609.71 155.65 1.00 1.00 r p2
610.95 155.65 1.00 1.00 r p2
612.19 155.65 1.00 1.00 r p2
613.43 155.65 1.00 1.00 r p2
614.67 155.65 1.00 1.00 r p2
615.91 155.65 1.00 1.00 r p2
617.15 155.65 1.00 1.00 r p2
618.38 155.65 1.00 1.00 r p2
619.62 155.65 1.00 1.00 r p2
620.86 155.65 1.00 1.00 r p2
622.10 155.65 1.00 1.00 r p2
623.34 155.65 1.00 1.00 r p2
624.58 155.65 1.00 1.00 r p2
625.82 155.65 1.00 1.00 r p2
627.06 155.65 1.00 1.00 r p2
628.29 155.65 1.00 1.00 r p2
629.53 155.65 1.00 1.00 r p2
630.77 155.65 1.00 1.00 r p2
632.01 155.65 1.00 1.00 r p2
633.25 155.65 1.00 1.00 r p2
634.49 155.65 1.00 1.00 r p2
635.73 155.65 1.00 1.00 r p2
636.96 155.65 1.00 1.00 r p2
638.20 155.65 1.00 1.00 r p2
639.44 155.65 1.00 1.00 r p2
640.68 155.65 1.00 1.00 r p2
641.92 155.65 1.00 1.00 r p2
643.16 155.65 1.00 1.00 r p2
644.40 155.65 1.00 1.00 r p2
645.64 155.65 1.00 1.00 r p2
646.87 155.65 1.00 1.00 r p2
648.11 155.65 1.00 1.00 r p2
649.35 155.65 1.00 1.00 r p2
650.59 155.65 1.00 1.00 r p2
651.83 155.65 1.00 1.00 r p2
653.57 154.12 (>) .5 0 t
654.81 154.12 (>) .5 0 t
655.54 155.65 1.00 1.00 r p2
656.78 155.65 1.00 1.00 r p2
658.02 155.65 1.00 1.00 r p2
659.26 155.65 1.00 1.00 r p2
660.50 155.65 1.00 1.00 r p2
661.74 155.65 1.00 1.00 r p2
662.98 155.65 1.00 1.00 r p2
664.22 155.65 1.00 1.00 r p2
665.45 155.65 1.00 1.00 r p2
666.69 155.65 1.00 1.00 r p2
667.93 155.65 1.00 1.00 r p2
669.17 155.65 1.00 1.00 r p2
670.41 155.65 1.00 1.00 r p2
49.83 146.39 1.00 1.00 r p2
51.07 146.39 1.00 1.00 r p2
52.31 146.39 1.00 1.00 r p2
53.55 146.39 1.00 1.00 r p2
55.28 144.08 (1) .5 0 t
56.52 144.08 (1) .5 0 t
57.76 144.08 (1) .5 0 t
59.00 144.08 (1) .5 0 t
60.24 144.08 (1) .5 0 t
61.48 144.08 (1) .5 0 t
62.22 146.39 1.00 1.00 r p2
63.46 146.39 1.00 1.00 r p2
65.19 144.08 (1) .5 0 t
65.93 146.39 1.00 1.00 r p2
67.17 146.39 1.00 1.00 r p2
68.41 146.39 1.00 1.00 r p2
69.65 146.39 1.00 1.00 r p2
70.89 146.39 1.00 1.00 r p2
72.13 146.39 1.00 1.00 r p2
73.36 146.39 1.00 1.00 r p2
74.60 146.39 1.00 1.00 r p2
75.84 146.39 1.00 1.00 r p2
77.08 146.39 1.00 1.00 r p2
78.32 146.39 1.00 1.00 r p2
79.56 146.39 1.00 1.00 r p2
80.80 146.39 1.00 1.00 r p2
82.04 146.39 1.00 1.00 r p2
83.27 146.39 1.00 1.00 r p2
84.51 146.39 1.00 1.00 r p2
85.75 146.39 1.00 1.00 r p2
87.49 144.08 (1) .5 0 t
88.73 144.08 (1) .5 0 t
89.97 144.08 (1) .5 0 t
91.21 144.08 (1) .5 0 t
92.44 144.08 (1) .5 0 t
93.68 144.08 (1) .5 0 t
94.92 144.08 (1) .5 0 t
95.66 146.39 1.00 1.00 r p2
96.90 146.39 1.00 1.00 r p2
98.14 146.39 1.00 1.00 r p2
99.38 146.39 1.00 1.00 r p2
100.62 146.39 1.00 1.00 r p2
101.85 146.39 1.00 1.00 r p2
103.09 146.39 1.00 1.00 r p2
104.33 146.39 1.00 1.00 r p2
105.57 146.39 1.00 1.00 r p2
106.81 146.39 1.00 1.00 r p2
108.05 146.39 1.00 1.00 r p2
109.29 146.39 1.00 1.00 r p2
110.52 146.39 1.00 1.00 r p2
111.76 146.39 1.00 1.00 r p2
113.00 146.39 1.00 1.00 r p2
114.24 146.39 1.00 1.00 r p2
115.48 146.39 1.00 1.00 r p2
116.72 146.39 1.00 1.00 r p2
117.96 146.39 1.00 1.00 r p2
119.20 146.39 1.00 1.00 r p2
120.43 146.39 1.00 1.00 r p2
121.67 146.39 1.00 1.00 r p2
122.91 146.39 1.00 1.00 r p2
124.15 146.39 1.00 1.00 r p2
125.39 146.39 1.00 1.00 r p2
126.63 146.39 1.00 1.00 r p2
127.87 146.39 1.00 1.00 r p2
129.11 146.39 1.00 1.00 r p2
130.34 146.39 1.00 1.00 r p2
131.58 146.39 1.00 1.00 r p2
132.82 146.39 1.00 1.00 r p2
134.06 146.39 1.00 1.00 r p2
135.30 146.39 1.00 1.00 r p2
136.54 146.39 1.00 1.00 r p2
137.78 146.39 1.00 1.00 r p2
139.01 146.39 1.00 1.00 r p2
140.25 146.39 1.00 1.00 r p2
141.49 146.39 1.00 1.00 r p2
142.73 146.39 1.00 1.00 r p2
143.97 146.39 1.00 1.00 r p2
145.21 146.39 1.00 1.00 r p2
146.45 146.39 1.00 1.00 r p2
147.69 146.39 1.00 1.00 r p2
148.92 146.39 1.00 1.00 r p2
150.16 146.39 1.00 1.00 r p2
151.40 146.39 1.00 1.00 r p2
152.64 146.39 1.00 1.00 r p2
153.88 146.39 1.00 1.00 r p2
155.12 146.39 1.00 1.00 r p2
156.36 146.39 1.00 1.00 r p2
157.59 146.39 1.00 1.00 r p2
158.83 146.39 1.00 1.00 r p2
160.07 146.39 1.00 1.00 r p2
161.31 146.39 1.00 1.00 r p2
162.55 146.39 1.00 1.00 r p2
163.79 146.39 1.00 1.00 r p2
165.03 146.39 1.00 1.00 r p2
166.77 144.15 (3) .5 0 t
168.00 144.15 (3) .5 0 t
169.24 144.15 (3) .5 0 t
170.48 144.15 (3) .5 0 t
171.72 144.15 (3) .5 0 t
172.96 144.15 (3) .5 0 t
173.70 146.39 1.00 1.00 r p2
174.94 146.39 1.00 1.00 r p2
176.18 146.39 1.00 1.00 r p2
177.41 146.39 1.00 1.00 r p2
179.15 144.08 (4) .5 0 t
180.39 144.08 (4) .5 0 t
181.63 144.08 (4) .5 0 t
182.87 144.08 (4) .5 0 t
184.11 144.08 (4) .5 0 t
185.35 144.08 (4) .5 0 t
186.08 146.39 1.00 1.00 r p2
187.32 146.39 1.00 1.00 r p2
188.56 146.39 1.00 1.00 r p2
189.80 146.39 1.00 1.00 r p2
191.54 144.08 (4) .5 0 t
192.78 144.08 (4) .5 0 t
194.02 144.08 (4) .5 0 t
194.76 146.39 1.00 1.00 r p2
195.99 146.39 1.00 1.00 r p2
197.23 146.39 1.00 1.00 r p2
198.47 146.39 1.00 1.00 r p2
199.71 146.39 1.00 1.00 r p2
200.95 146.39 1.00 1.00 r p2
202.19 146.39 1.00 1.00 r p2
203.43 146.39 1.00 1.00 r p2
204.66 146.39 1.00 1.00 r p2
205.90 146.39 1.00 1.00 r p2
207.14 146.39 1.00 1.00 r p2
208.38 146.39 1.00 1.00 r p2
209.62 146.39 1.00 1.00 r p2
210.86 146.39 1.00 1.00 r p2
212.10 146.39 1.00 1.00 r p2
213.34 146.39 1.00 1.00 r p2
214.57 146.39 1.00 1.00 r p2
215.81 146.39 1.00 1.00 r p2
217.05 146.39 1.00 1.00 r p2
218.29 146.39 1.00 1.00 r p2
219.53 146.39 1.00 1.00 r p2
220.77 146.39 1.00 1.00 r p2
222.01 146.39 1.00 1.00 r p2
223.25 146.39 1.00 1.00 r p2
224.48 146.39 1.00 1.00 r p2
225.72 146.39 1.00 1.00 r p2
226.96 146.39 1.00 1.00 r p2
228.20 146.39 1.00 1.00 r p2
229.44 146.39 1.00 1.00 r p2
230.68 146.39 1.00 1.00 r p2
231.92 146.39 1.00 1.00 r p2
233.15 146.39 1.00 1.00 r p2
234.39 146.39 1.00 1.00 r p2
235.63 146.39 1.00 1.00 r p2
237.37 144.08 (4) .5 0 t
238.61 144.08 (4) .5 0 t
239.85 144.08 (4) .5 0 t
241.09 144.08 (4) .5 0 t
242.33 144.08 (4) .5 0 t
243.56 144.08 (4) .5 0 t
244.80 144.08 (4) .5 0 t
246.04 144.08 (4) .5 0 t
247.28 144.08 (4) .5 0 t
248.52 144.08 (4) .5 0 t
249.76 144.08 (4) .5 0 t
250.50 146.39 1.00 1.00 r p2
251.73 146.39 1.00 1.00 r p2
252.97 146.39 1.00 1.00 r p2
254.21 146.39 1.00 1.00 r p2
255.45 146.39 1.00 1.00 r p2
256.69 146.39 1.00 1.00 r p2
257.93 146.39 1.00 1.00 r p2
259.17 146.39 1.00 1.00 r p2
260.41 146.39 1.00 1.00 r p2
261.64 146.39 1.00 1.00 r p2
262.88 146.39 1.00 1.00 r p2
264.12 146.39 1.00 1.00 r p2
265.36 146.39 1.00 1.00 r p2
266.60 146.39 1.00 1.00 r p2
267.84 146.39 1.00 1.00 r p2
269.08 146.39 1.00 1.00 r p2
270.31 146.39 1.00 1.00 r p2
271.55 146.39 1.00 1.00 r p2
273.29 144.08 (4) .5 0 t
274.53 144.08 (4) .5 0 t
275.77 144.08 (4) .5 0 t
276.51 146.39 1.00 1.00 r p2
277.75 146.39 1.00 1.00 r p2
278.99 146.39 1.00 1.00 r p2
280.22 146.39 1.00 1.00 r p2
281.96 144.08 (4) .5 0 t
282.70 146.39 1.00 1.00 r p2
284.44 144.08 (4) .5 0 t
285.68 144.08 (4) .5 0 t
286.92 144.08 (4) .5 0 t
288.16 144.08 (4) .5 0 t
289.40 144.08 (4) .5 0 t
290.63 144.08 (4) .5 0 t
291.87 144.08 (4) .5 0 t
292.61 146.39 1.00 1.00 r p2
293.85 146.39 1.00 1.00 r p2
295.09 146.39 1.00 1.00 r p2
296.33 146.39 1.00 1.00 r p2
297.57 146.39 1.00 1.00 r p2
298.80 146.39 1.00 1.00 r p2
300.04 146.39 1.00 1.00 r p2
301.28 146.39 1.00 1.00 r p2
302.52 146.39 1.00 1.00 r p2
303.76 146.39 1.00 1.00 r p2
305.00 146.39 1.00 1.00 r p2
306.24 146.39 1.00 1.00 r p2
307.48 146.39 1.00 1.00 r p2
308.71 146.39 1.00 1.00 r p2
309.95 146.39 1.00 1.00 r p2
311.19 146.39 1.00 1.00 r p2
312.43 146.39 1.00 1.00 r p2
313.67 146.39 1.00 1.00 r p2
314.91 146.39 1.00 1.00 r p2
316.15 146.39 1.00 1.00 r p2
317.38 146.39 1.00 1.00 r p2
318.62 146.39 1.00 1.00 r p2
319.86 146.39 1.00 1.00 r p2
321.10 146.39 1.00 1.00 r p2
322.34 146.39 1.00 1.00 r p2
323.58 146.39 1.00 1.00 r p2
324.82 146.39 1.00 1.00 r p2
326.06 146.39 1.00 1.00 r p2
327.29 146.39 1.00 1.00 r p2
328.53 146.39 1.00 1.00 r p2
329.77 146.39 1.00 1.00 r p2
331.01 146.39 1.00 1.00 r p2
332.25 146.39 1.00 1.00 r p2
333.49 146.39 1.00 1.00 r p2
334.73 146.39 1.00 1.00 r p2
335.97 146.39 1.00 1.00 r p2
337.20 146.39 1.00 1.00 r p2
338.44 146.39 1.00 1.00 r p2
339.68 146.39 1.00 1.00 r p2
340.92 146.39 1.00 1.00 r p2
342.16 146.39 1.00 1.00 r p2
343.40 146.39 1.00 1.00 r p2
344.64 146.39 1.00 1.00 r p2
345.87 146.39 1.00 1.00 r p2
347.11 146.39 1.00 1.00 r p2
348.35 146.39 1.00 1.00 r p2
349.59 146.39 1.00 1.00 r p2
351.33 144.08 (4) .5 0 t
352.57 144.08 (4) .5 0 t
353.81 144.08 (4) .5 0 t
354.55 146.39 1.00 1.00 r p2
355.78 146.39 1.00 1.00 r p2
357.02 146.39 1.00 1.00 r p2
358.76 144.08 (4) .5 0 t
360.00 144.08 (4) .5 0 t
360.74 146.39 1.00 1.00 r p2
362.48 144.08 (4) .5 0 t
363.72 144.08 (4) .5 0 t
364.95 144.08 (4) .5 0 t
366.19 144.08 (4) .5 0 t
367.43 144.21 (5) .5 0 t
368.67 144.21 (5) .5 0 t
369.91 144.21 (5) .5 0 t
371.15 144.21 (5) .5 0 t
371.89 146.39 1.00 1.00 r p2
373.63 144.21 (5) .5 0 t
374.86 144.21 (5) .5 0 t
376.10 144.21 (5) .5 0 t
376.84 146.39 1.00 1.00 r p2
378.08 146.39 1.00 1.00 r p2
379.82 144.21 (5) .5 0 t
381.06 144.21 (5) .5 0 t
381.80 146.39 1.00 1.00 r p2
383.03 146.39 1.00 1.00 r p2
384.27 146.39 1.00 1.00 r p2
386.01 144.21 (5) .5 0 t
386.75 146.39 1.00 1.00 r p2
387.99 146.39 1.00 1.00 r p2
389.23 146.39 1.00 1.00 r p2
390.47 146.39 1.00 1.00 r p2
391.71 146.39 1.00 1.00 r p2
392.94 146.39 1.00 1.00 r p2
394.18 146.39 1.00 1.00 r p2
395.42 146.39 1.00 1.00 r p2
396.66 146.39 1.00 1.00 r p2
397.90 146.39 1.00 1.00 r p2
399.14 146.39 1.00 1.00 r p2
400.38 146.39 1.00 1.00 r p2
401.62 146.39 1.00 1.00 r p2
402.85 146.39 1.00 1.00 r p2
404.09 146.39 1.00 1.00 r p2
405.33 146.39 1.00 1.00 r p2
406.57 146.39 1.00 1.00 r p2
407.81 146.39 1.00 1.00 r p2
409.05 146.39 1.00 1.00 r p2
410.29 146.39 1.00 1.00 r p2
412.02 144.21 (5) .5 0 t
412.76 146.39 1.00 1.00 r p2
414.50 144.21 (5) .5 0 t
415.74 144.21 (5) .5 0 t
416.98 144.21 (5) .5 0 t
417.72 146.39 1.00 1.00 r p2
418.96 146.39 1.00 1.00 r p2
420.20 146.39 1.00 1.00 r p2
421.43 146.39 1.00 1.00 r p2
422.67 146.39 1.00 1.00 r p2
424.41 144.21 (5) .5 0 t
425.65 144.21 (5) .5 0 t
426.89 144.21 (5) .5 0 t
428.13 144.21 (5) .5 0 t
429.37 144.21 (5) .5 0 t
430.60 144.21 (5) .5 0 t
431.34 146.39 1.00 1.00 r p2
432.58 146.39 1.00 1.00 r p2
433.82 146.39 1.00 1.00 r p2
435.56 144.15 (6) .5 0 t
436.30 146.39 1.00 1.00 r p2
438.04 144.15 (6) .5 0 t
439.28 144.15 (6) .5 0 t
440.51 144.15 (6) .5 0 t
441.75 144.15 (6) .5 0 t
442.99 144.15 (6) .5 0 t
443.73 146.39 1.00 1.00 r p2
444.97 146.39 1.00 1.00 r p2
446.21 146.39 1.00 1.00 r p2
447.95 144.15 (3) .5 0 t
449.19 144.15 (3) .5 0 t
450.42 144.15 (3) .5 0 t
451.66 144.15 (3) .5 0 t
452.90 144.15 (3) .5 0 t
454.14 144.15 (3) .5 0 t
455.38 144.14 (7) .5 0 t
456.62 144.14 (7) .5 0 t
457.86 144.14 (7) .5 0 t
459.09 144.14 (7) .5 0 t
460.33 144.14 (7) .5 0 t
461.57 144.14 (7) .5 0 t
462.81 144.14 (7) .5 0 t
464.05 144.14 (7) .5 0 t
464.79 146.39 1.00 1.00 r p2
466.03 146.39 1.00 1.00 r p2
467.27 146.39 1.00 1.00 r p2
468.50 146.39 1.00 1.00 r p2
469.74 146.39 1.00 1.00 r p2
470.98 146.39 1.00 1.00 r p2
472.22 146.39 1.00 1.00 r p2
473.46 146.39 1.00 1.00 r p2
474.70 146.39 1.00 1.00 r p2
475.94 146.39 1.00 1.00 r p2
477.17 146.39 1.00 1.00 r p2
478.41 146.39 1.00 1.00 r p2
479.65 146.39 1.00 1.00 r p2
480.89 146.39 1.00 1.00 r p2
482.13 146.39 1.00 1.00 r p2
483.37 146.39 1.00 1.00 r p2
484.61 146.39 1.00 1.00 r p2
485.85 146.39 1.00 1.00 r p2
487.08 146.39 1.00 1.00 r p2
488.32 146.39 1.00 1.00 r p2
489.56 146.39 1.00 1.00 r p2
490.80 146.39 1.00 1.00 r p2
492.04 146.39 1.00 1.00 r p2
493.28 146.39 1.00 1.00 r p2
494.52 146.39 1.00 1.00 r p2
495.75 146.39 1.00 1.00 r p2
496.99 146.39 1.00 1.00 r p2
498.23 146.39 1.00 1.00 r p2
499.97 144.14 (7) .5 0 t
501.21 144.14 (7) .5 0 t
502.45 144.14 (7) .5 0 t
503.69 144.14 (7) .5 0 t
504.93 144.14 (7) .5 0 t
506.16 144.14 (7) .5 0 t
507.40 144.14 (7) .5 0 t
508.64 144.14 (7) .5 0 t
509.38 146.39 1.00 1.00 r p2
510.62 146.39 1.00 1.00 r p2
511.86 146.39 1.00 1.00 r p2
513.10 146.39 1.00 1.00 r p2
514.34 146.39 1.00 1.00 r p2
515.57 146.39 1.00 1.00 r p2
517.31 144.15 (6) .5 0 t
518.55 144.15 (6) .5 0 t
519.79 144.15 (6) .5 0 t
521.03 144.15 (6) .5 0 t
522.27 144.15 (6) .5 0 t
523.51 144.15 (6) .5 0 t
524.74 144.15 (8) .5 0 t
525.98 144.15 (8) .5 0 t
527.22 144.15 (8) .5 0 t
528.46 144.15 (8) .5 0 t
529.70 144.15 (8) .5 0 t
530.94 144.15 (8) .5 0 t
532.18 144.15 (8) .5 0 t
533.42 144.15 (8) .5 0 t
534.15 146.39 1.00 1.00 r p2
535.39 146.39 1.00 1.00 r p2
536.63 146.39 1.00 1.00 r p2
537.87 146.39 1.00 1.00 r p2
539.11 146.39 1.00 1.00 r p2
540.35 146.39 1.00 1.00 r p2
541.59 146.39 1.00 1.00 r p2
543.32 144.15 (8) .5 0 t
544.56 144.15 (8) .5 0 t
545.80 144.15 (8) .5 0 t
547.04 144.15 (8) .5 0 t
548.28 144.15 (8) .5 0 t
549.52 144.15 (8) .5 0 t
550.26 146.39 1.00 1.00 r p2
551.50 146.39 1.00 1.00 r p2
552.73 146.39 1.00 1.00 r p2
553.97 146.39 1.00 1.00 r p2
555.21 146.39 1.00 1.00 r p2
556.45 146.39 1.00 1.00 r p2
557.69 146.39 1.00 1.00 r p2
558.93 146.39 1.00 1.00 r p2
560.17 146.39 1.00 1.00 r p2
561.41 146.39 1.00 1.00 r p2
562.64 146.39 1.00 1.00 r p2
563.88 146.39 1.00 1.00 r p2
565.12 146.39 1.00 1.00 r p2
566.36 146.39 1.00 1.00 r p2
567.60 146.39 1.00 1.00 r p2
568.84 146.39 1.00 1.00 r p2
570.08 146.39 1.00 1.00 r p2
571.31 146.39 1.00 1.00 r p2
572.55 146.39 1.00 1.00 r p2
573.79 146.39 1.00 1.00 r p2
575.03 146.39 1.00 1.00 r p2
576.27 146.39 1.00 1.00 r p2
577.51 146.39 1.00 1.00 r p2
578.75 146.39 1.00 1.00 r p2
579.99 146.39 1.00 1.00 r p2
581.22 146.39 1.00 1.00 r p2
582.46 146.39 1.00 1.00 r p2
583.70 146.39 1.00 1.00 r p2
584.94 146.39 1.00 1.00 r p2
586.18 146.39 1.00 1.00 r p2
587.42 146.39 1.00 1.00 r p2
588.66 146.39 1.00 1.00 r p2
589.89 146.39 1.00 1.00 r p2
591.13 146.39 1.00 1.00 r p2
592.37 146.39 1.00 1.00 r p2
593.61 146.39 1.00 1.00 r p2
594.85 146.39 1.00 1.00 r p2
596.09 146.39 1.00 1.00 r p2
597.33 146.39 1.00 1.00 r p2
598.57 146.39 1.00 1.00 r p2
599.80 146.39 1.00 1.00 r p2
601.04 146.39 1.00 1.00 r p2
602.28 146.39 1.00 1.00 r p2
603.52 146.39 1.00 1.00 r p2
604.76 146.39 1.00 1.00 r p2
606.00 146.39 1.00 1.00 r p2
607.24 146.39 1.00 1.00 r p2
608.48 146.39 1.00 1.00 r p2
609.71 146.39 1.00 1.00 r p2
610.95 146.39 1.00 1.00 r p2
612.19 146.39 1.00 1.00 r p2
613.43 146.39 1.00 1.00 r p2
614.67 146.39 1.00 1.00 r p2
615.91 146.39 1.00 1.00 r p2
617.15 146.39 1.00 1.00 r p2
618.38 146.39 1.00 1.00 r p2
619.62 146.39 1.00 1.00 r p2
620.86 146.39 1.00 1.00 r p2
622.10 146.39 1.00 1.00 r p2
623.34 146.39 1.00 1.00 r p2
624.58 146.39 1.00 1.00 r p2
625.82 146.39 1.00 1.00 r p2
627.06 146.39 1.00 1.00 r p2
628.29 146.39 1.00 1.00 r p2
629.53 146.39 1.00 1.00 r p2
630.77 146.39 1.00 1.00 r p2
632.01 146.39 1.00 1.00 r p2
633.25 146.39 1.00 1.00 r p2
634.49 146.39 1.00 1.00 r p2
635.73 146.39 1.00 1.00 r p2
636.96 146.39 1.00 1.00 r p2
638.20 146.39 1.00 1.00 r p2
639.44 146.39 1.00 1.00 r p2
640.68 146.39 1.00 1.00 r p2
641.92 146.39 1.00 1.00 r p2
643.16 146.39 1.00 1.00 r p2
644.40 146.39 1.00 1.00 r p2
645.64 146.39 1.00 1.00 r p2
646.87 146.39 1.00 1.00 r p2
648.11 146.39 1.00 1.00 r p2
649.35 146.39 1.00 1.00 r p2
650.59 146.39 1.00 1.00 r p2
651.83 146.39 1.00 1.00 r p2
653.57 144.15 (8) .5 0 t
654.81 144.15 (8) .5 0 t
655.54 146.39 1.00 1.00 r p2
656.78 146.39 1.00 1.00 r p2
658.02 146.39 1.00 1.00 r p2
659.26 146.39 1.00 1.00 r p2
660.50 146.39 1.00 1.00 r p2
661.74 146.39 1.00 1.00 r p2
662.98 146.39 1.00 1.00 r p2
664.22 146.39 1.00 1.00 r p2
665.45 146.39 1.00 1.00 r p2
666.69 146.39 1.00 1.00 r p2
667.93 146.39 1.00 1.00 r p2
669.17 146.39 1.00 1.00 r p2
670.41 146.39 1.00 1.00 r p2
1 0 0 srgb
0.75 setlinewidth
[] 0 setdash
1 setlinecap
1 setlinejoin
10.00 setmiterlimit
np
50.33 140.57 m
2.54 -4.41 l
-5.09 0 l
2.55 4.41 l
o
np
166.77 140.57 m
2.54 -4.41 l
-5.09 0 l
2.55 4.41 l
o
np
179.15 140.57 m
2.55 -4.41 l
-5.09 0 l
2.54 4.41 l
o
np
166.77 140.57 m
2.54 -4.41 l
-5.09 0 l
2.55 4.41 l
o
np
166.77 140.57 m
2.54 -4.41 l
-5.09 0 l
2.55 4.41 l
o
np
179.15 140.57 m
2.55 -4.41 l
-5.09 0 l
2.54 4.41 l
o
np
273.29 140.57 m
2.55 -4.41 l
-5.09 0 l
2.54 4.41 l
o
np
273.29 140.57 m
2.55 -4.41 l
-5.09 0 l
2.54 4.41 l
o
np
367.43 140.57 m
2.55 -4.41 l
-5.09 0 l
2.54 4.41 l
o
np
412.02 140.57 m
2.55 -4.41 l
-5.09 0 l
2.54 4.41 l
o
np
435.56 140.57 m
2.54 -4.41 l
-5.09 0 l
2.55 4.41 l
o
np
412.02 140.57 m
2.55 -4.41 l
-5.09 0 l
2.54 4.41 l
o
np
435.56 140.57 m
2.54 -4.41 l
-5.09 0 l
2.55 4.41 l
o
np
435.56 140.57 m
2.54 -4.41 l
-5.09 0 l
2.55 4.41 l
o
np
455.38 140.57 m
2.54 -4.41 l
-5.09 0 l
2.55 4.41 l
o
np
455.38 140.57 m
2.54 -4.41 l
-5.09 0 l
2.55 4.41 l
o
np
499.97 140.57 m
2.55 -4.41 l
-5.09 0 l
2.54 4.41 l
o
np
455.38 140.57 m
2.54 -4.41 l
-5.09 0 l
2.55 4.41 l
o
np
499.97 140.57 m
2.55 -4.41 l
-5.09 0 l
2.54 4.41 l
o
np
517.31 140.57 m
2.55 -4.41 l
-5.09 0 l
2.54 4.41 l
o
np
524.74 140.57 m
2.55 -4.41 l
-5.09 0 l
2.54 4.41 l
o
np
94.92 140.57 m
2.55 -4.41 l
-5.09 0 l
2.54 4.41 l
o
np
249.76 140.57 m
2.54 -4.41 l
-5.09 0 l
2.55 4.41 l
o
np
386.01 140.57 m
2.55 -4.41 l
-5.09 0 l
2.54 4.41 l
o
np
442.99 140.57 m
2.55 -4.41 l
-5.09 0 l
2.54 4.41 l
o
np
454.14 140.57 m
2.55 -4.41 l
-5.10 0 l
2.55 4.41 l
o
np
454.14 140.57 m
2.55 -4.41 l
-5.10 0 l
2.55 4.41 l
o
np
430.60 140.57 m
2.55 -4.41 l
-5.09 0 l
2.54 4.41 l
o
np
464.05 140.57 m
2.54 -4.41 l
-5.09 0 l
2.55 4.41 l
o
np
442.99 140.57 m
2.55 -4.41 l
-5.09 0 l
2.54 4.41 l
o
np
464.05 140.57 m
2.54 -4.41 l
-5.09 0 l
2.55 4.41 l
o
np
454.14 140.57 m
2.55 -4.41 l
-5.10 0 l
2.55 4.41 l
o
np
523.51 140.57 m
2.54 -4.41 l
-5.09 0 l
2.55 4.41 l
o
np
523.51 140.57 m
2.54 -4.41 l
-5.09 0 l
2.55 4.41 l
o
np
533.42 140.57 m
2.54 -4.41 l
-5.09 0 l
2.55 4.41 l
o
np
523.51 140.57 m
2.54 -4.41 l
-5.09 0 l
2.55 4.41 l
o
np
533.42 140.57 m
2.54 -4.41 l
-5.09 0 l
2.55 4.41 l
o
np
523.51 140.57 m
2.54 -4.41 l
-5.09 0 l
2.55 4.41 l
o
np
654.81 140.57 m
2.54 -4.41 l
-5.09 0 l
2.55 4.41 l
o
np
654.81 140.57 m
2.54 -4.41 l
-5.09 0 l
2.55 4.41 l
o
np
654.81 140.57 m
2.54 -4.41 l
-5.09 0 l
2.55 4.41 l
o
np
670.91 140.57 m
2.54 -4.41 l
-5.09 0 l
2.55 4.41 l
o
0 0 0.8235 srgb
np
50.33 119.11 m
44.59 0 l
o
/Font1 findfont 7 s
72.63 121.99 (left-P1) .5 0 t
0 0.7490 1 srgb
np
166.77 115.41 m
82.99 0 l
o
208.26 108.34 (L3-L4) .5 0 t
0.1804 1 0.8196 srgb
np
179.15 111.70 m
206.86 0 l
o
282.58 114.58 (P4-L5) .5 0 t
0.2549 1 0.7451 srgb
np
166.77 108.00 m
276.22 0 l
o
304.88 100.93 (L3-L6) .5 0 t
0.2824 1 0.7176 srgb
np
166.77 104.30 m
287.37 0 l
o
310.45 107.18 (P3-L4) .5 0 t
0.3059 1 0.6941 srgb
np
179.15 100.59 m
274.99 0 l
o
316.65 93.52 (R3-P4) .5 0 t
0.4627 1 0.5373 srgb
np
273.29 96.89 m
157.31 0 l
o
351.95 99.77 (R4-P5) .5 0 t
0.5137 1 0.4863 srgb
np
273.29 93.19 m
190.76 0 l
o
368.67 86.12 (R4-L7) .5 0 t
0.6667 1 0.3333 srgb
np
367.43 89.48 m
75.56 0 l
o
405.21 92.36 (P5-L6) .5 0 t
0.8196 1 0.1804 srgb
np
412.02 85.78 m
52.03 0 l
o
438.04 78.71 (R5-L7) .5 0 t
0.8471 1 0.1529 srgb
np
435.56 82.07 m
18.58 0 l
o
444.85 84.95 (L6-R3) .5 0 t
0.9216 1 0.0784 srgb
np
412.02 78.37 m
111.49 0 l
o
467.77 71.30 (R5-P6) .5 0 t
0.9725 1 0.0275 srgb
np
435.56 74.67 m
87.95 0 l
o
479.53 77.55 (P6-L7) .5 0 t
1 1 0 srgb
np
435.56 70.96 m
97.86 0 l
o
484.49 63.89 (L6-L8) .5 0 t
1 0.9490 0 srgb
np
455.38 67.26 m
68.13 0 l
o
489.44 70.14 (R6-P7) .5 0 t
1 0.9020 0 srgb
np
455.38 63.56 m
78.04 0 l
o
494.40 56.49 (P7-L8) .5 0 t
1 0.8000 0 srgb
np
499.97 59.85 m
23.54 0 l
o
511.74 62.73 (R7-R6) .5 0 t
1 0.4510 0 srgb
np
455.38 56.15 m
199.43 0 l
o
555.09 49.08 (P7-P8) .5 0 t
1 0.2510 0 srgb
np
499.97 52.44 m
154.84 0 l
o
577.39 55.32 (R7-P8) .5 0 t
1 0.2000 0 srgb
np
517.31 48.74 m
137.50 0 l
o
586.06 41.67 (R6-P8) .5 0 t
1 0.0980 0 srgb
np
524.74 45.04 m
146.17 0 l
o
584.69 47.92 (P8-r) 0 ta
0.105 (ight) tb gr
ep
%%Trailer
%%Pages: 1
%%EOF
