%!PS-Adobe-3.0
%%Creator: graphviz version 2.28.0 (20120127.1553)
%%Title: _anonymous_0
%%Pages: (atend)
%%BoundingBox: (atend)
%%EndComments
save
%%BeginProlog
/DotDict 200 dict def
DotDict begin

/setupLatin1 {
mark
/EncodingVector 256 array def
 EncodingVector 0

ISOLatin1Encoding 0 255 getinterval putinterval
EncodingVector 45 /hyphen put

% Set up ISO Latin 1 character encoding
/starnetISO {
        dup dup findfont dup length dict begin
        { 1 index /FID ne { def }{ pop pop } ifelse
        } forall
        /Encoding EncodingVector def
        currentdict end definefont
} def
/Times-Roman starnetISO def
/Times-Italic starnetISO def
/Times-Bold starnetISO def
/Times-BoldItalic starnetISO def
/Helvetica starnetISO def
/Helvetica-Oblique starnetISO def
/Helvetica-Bold starnetISO def
/Helvetica-BoldOblique starnetISO def
/Courier starnetISO def
/Courier-Oblique starnetISO def
/Courier-Bold starnetISO def
/Courier-BoldOblique starnetISO def
cleartomark
} bind def

%%BeginResource: procset graphviz 0 0
/coord-font-family /Times-Roman def
/default-font-family /Times-Roman def
/coordfont coord-font-family findfont 8 scalefont def

/InvScaleFactor 1.0 def
/set_scale {
       dup 1 exch div /InvScaleFactor exch def
       scale
} bind def

% styles
/solid { [] 0 setdash } bind def
/dashed { [9 InvScaleFactor mul dup ] 0 setdash } bind def
/dotted { [1 InvScaleFactor mul 6 InvScaleFactor mul] 0 setdash } bind def
/invis {/fill {newpath} def /stroke {newpath} def /show {pop newpath} def} bind def
/bold { 2 setlinewidth } bind def
/filled { } bind def
/unfilled { } bind def
/rounded { } bind def
/diagonals { } bind def

% hooks for setting color 
/nodecolor { sethsbcolor } bind def
/edgecolor { sethsbcolor } bind def
/graphcolor { sethsbcolor } bind def
/nopcolor {pop pop pop} bind def

/beginpage {	% i j npages
	/npages exch def
	/j exch def
	/i exch def
	/str 10 string def
	npages 1 gt {
		gsave
			coordfont setfont
			0 0 moveto
			(\() show i str cvs show (,) show j str cvs show (\)) show
		grestore
	} if
} bind def

/set_font {
	findfont exch
	scalefont setfont
} def

% draw text fitted to its expected width
/alignedtext {			% width text
	/text exch def
	/width exch def
	gsave
		width 0 gt {
			[] 0 setdash
			text stringwidth pop width exch sub text length div 0 text ashow
		} if
	grestore
} def

/boxprim {				% xcorner ycorner xsize ysize
		4 2 roll
		moveto
		2 copy
		exch 0 rlineto
		0 exch rlineto
		pop neg 0 rlineto
		closepath
} bind def

/ellipse_path {
	/ry exch def
	/rx exch def
	/y exch def
	/x exch def
	matrix currentmatrix
	newpath
	x y translate
	rx ry scale
	0 0 1 0 360 arc
	setmatrix
} bind def

/endpage { showpage } bind def
/showpage { } def

/layercolorseq
	[	% layer color sequence - darkest to lightest
		[0 0 0]
		[.2 .8 .8]
		[.4 .8 .8]
		[.6 .8 .8]
		[.8 .8 .8]
	]
def

/layerlen layercolorseq length def

/setlayer {/maxlayer exch def /curlayer exch def
	layercolorseq curlayer 1 sub layerlen mod get
	aload pop sethsbcolor
	/nodecolor {nopcolor} def
	/edgecolor {nopcolor} def
	/graphcolor {nopcolor} def
} bind def

/onlayer { curlayer ne {invis} if } def

/onlayers {
	/myupper exch def
	/mylower exch def
	curlayer mylower lt
	curlayer myupper gt
	or
	{invis} if
} def

/curlayer 0 def

%%EndResource
%%EndProlog
%%BeginSetup
14 default-font-family set_font
1 setmiterlimit
% /arrowlength 10 def
% /arrowwidth 5 def

% make sure pdfmark is harmless for PS-interpreters other than Distiller
/pdfmark where {pop} {userdict /pdfmark /cleartomark load put} ifelse
% make '<<' and '>>' safe on PS Level 1 devices
/languagelevel where {pop languagelevel}{1} ifelse
2 lt {
    userdict (<<) cvn ([) cvn load put
    userdict (>>) cvn ([) cvn load put
} if

%%EndSetup
setupLatin1
%%Page: 1 1
%%PageBoundingBox: 36 36 1082 1304
%%PageOrientation: Portrait
0 0 1 beginpage
gsave
36 36 1046 1268 boxprim clip newpath
1 1 set_scale 0 rotate 40 41 translate
% P3_L4
gsave
1 setlinewidth
0 0 0 nodecolor
473 1242 34.17 18 ellipse_path stroke
0 0 0 nodecolor
14 /Times-Roman set_font
454.5 1238.3 moveto 37 (P3_L4) alignedtext
grestore
% L3_L4
gsave
1 setlinewidth
0 0 0 nodecolor
442 1170 34.17 18 ellipse_path stroke
0 0 0 nodecolor
14 /Times-Roman set_font
423.5 1166.3 moveto 37 (L3_L4) alignedtext
grestore
% P3_L4->L3_L4
gsave
1 setlinewidth
0 0 0 edgecolor
newpath 465.65 1224.41 moveto
462.08 1216.34 457.69 1206.43 453.67 1197.35 curveto
stroke
0 0 0 edgecolor
newpath 456.76 1195.68 moveto
449.51 1187.96 lineto
450.36 1198.52 lineto
closepath fill
1 setlinewidth
solid
0 0 0 edgecolor
newpath 456.76 1195.68 moveto
449.51 1187.96 lineto
450.36 1198.52 lineto
closepath stroke
grestore
% L3_L6
gsave
1 setlinewidth
0 0 0 nodecolor
573 1098 34.17 18 ellipse_path stroke
0 0 0 nodecolor
14 /Times-Roman set_font
554.5 1094.3 moveto 37 (L3_L6) alignedtext
grestore
% P3_L4->L3_L6
gsave
1 setlinewidth
0 0 0 edgecolor
newpath 487.44 1225.27 moveto
496.6 1214.99 508.49 1201.08 518 1188 curveto
533.01 1167.36 548.11 1142.57 558.68 1124.4 curveto
stroke
0 0 0 edgecolor
newpath 561.82 1125.97 moveto
563.77 1115.55 lineto
555.75 1122.47 lineto
closepath fill
1 setlinewidth
solid
0 0 0 edgecolor
newpath 561.82 1125.97 moveto
563.77 1115.55 lineto
555.75 1122.47 lineto
closepath stroke
grestore
% R3_P4
gsave
1 setlinewidth
0 0 0 nodecolor
391 1026 34.17 18 ellipse_path stroke
0 0 0 nodecolor
14 /Times-Roman set_font
372.5 1022.3 moveto 37 (R3_P4) alignedtext
grestore
% P3_L4->R3_P4
gsave
1 setlinewidth
0 0 0 edgecolor
newpath 447.35 1229.99 moveto
430.43 1221.25 409.52 1207.28 399 1188 curveto
376.02 1145.88 380.23 1087.97 385.52 1054.3 curveto
stroke
0 0 0 edgecolor
newpath 389 1054.73 moveto
387.24 1044.28 lineto
382.1 1053.54 lineto
closepath fill
1 setlinewidth
solid
0 0 0 edgecolor
newpath 389 1054.73 moveto
387.24 1044.28 lineto
382.1 1053.54 lineto
closepath stroke
grestore
% P4_L5
gsave
1 setlinewidth
0 0 0 nodecolor
518 954 34.17 18 ellipse_path stroke
0 0 0 nodecolor
14 /Times-Roman set_font
499.5 950.3 moveto 37 (P4_L5) alignedtext
grestore
% P3_L4->P4_L5
gsave
1 setlinewidth
0 0 0 edgecolor
newpath 477.25 1223.89 moveto
479.72 1213.54 482.78 1200.06 485 1188 curveto
498.61 1113.91 509.73 1025.68 514.89 982.11 curveto
stroke
0 0 0 edgecolor
newpath 518.39 982.37 moveto
516.07 972.03 lineto
511.43 981.56 lineto
closepath fill
1 setlinewidth
solid
0 0 0 edgecolor
newpath 518.39 982.37 moveto
516.07 972.03 lineto
511.43 981.56 lineto
closepath stroke
grestore
% R4_P5
gsave
1 setlinewidth
0 0 0 nodecolor
632 882 34.17 18 ellipse_path stroke
0 0 0 nodecolor
14 /Times-Roman set_font
613.5 878.3 moveto 37 (R4_P5) alignedtext
grestore
% P3_L4->R4_P5
gsave
1 setlinewidth
0 0 0 edgecolor
newpath 507.07 1240.12 moveto
585.08 1236.12 770 1214.45 770 1099 curveto
770 1099 770 1099 770 1025 curveto
770 965.52 706.96 921.58 666.1 899.34 curveto
stroke
0 0 0 edgecolor
newpath 667.47 896.11 moveto
656.99 894.54 lineto
664.21 902.3 lineto
closepath fill
1 setlinewidth
solid
0 0 0 edgecolor
newpath 667.47 896.11 moveto
656.99 894.54 lineto
664.21 902.3 lineto
closepath stroke
grestore
% R4_L7
gsave
1 setlinewidth
0 0 0 nodecolor
575 810 35.15 18 ellipse_path stroke
0 0 0 nodecolor
14 /Times-Roman set_font
556 806.3 moveto 38 (R4_L7) alignedtext
grestore
% P3_L4->R4_L7
gsave
1 setlinewidth
0 0 0 edgecolor
newpath 507.28 1241.76 moveto
592.66 1241.69 808 1228.65 808 1099 curveto
808 1099 808 1099 808 1025 curveto
808 919.99 678.05 852.47 612.24 825.01 curveto
stroke
0 0 0 edgecolor
newpath 613.22 821.63 moveto
602.64 821.1 lineto
610.58 828.12 lineto
closepath fill
1 setlinewidth
solid
0 0 0 edgecolor
newpath 613.22 821.63 moveto
602.64 821.1 lineto
610.58 828.12 lineto
closepath stroke
grestore
% P5_L6
gsave
1 setlinewidth
0 0 0 nodecolor
394 738 34.17 18 ellipse_path stroke
0 0 0 nodecolor
14 /Times-Roman set_font
375.5 734.3 moveto 37 (P5_L6) alignedtext
grestore
% P3_L4->P5_L6
gsave
1 setlinewidth
0 0 0 edgecolor
newpath 440.83 1235.42 moveto
352.71 1219.24 114 1168.96 114 1099 curveto
114 1099 114 1099 114 1025 curveto
114 886.4 283.99 790.15 359.07 754.4 curveto
stroke
0 0 0 edgecolor
newpath 360.59 757.56 moveto
368.16 750.15 lineto
357.62 751.22 lineto
closepath fill
1 setlinewidth
solid
0 0 0 edgecolor
newpath 360.59 757.56 moveto
368.16 750.15 lineto
357.62 751.22 lineto
closepath stroke
grestore
% R5_P6
gsave
1 setlinewidth
0 0 0 nodecolor
848 666 34.17 18 ellipse_path stroke
0 0 0 nodecolor
14 /Times-Roman set_font
829.5 662.3 moveto 37 (R5_P6) alignedtext
grestore
% P3_L4->R5_P6
gsave
1 setlinewidth
0 0 0 edgecolor
newpath 507.42 1240.67 moveto
602 1239.2 863.58 1231.23 936 1188 curveto
977.39 1163.29 998 1147.21 998 1099 curveto
998 1099 998 1099 998 809 curveto
998 746.36 928.16 703.09 883.79 681.92 curveto
stroke
0 0 0 edgecolor
newpath 885.02 678.63 moveto
874.47 677.62 lineto
882.08 684.99 lineto
closepath fill
1 setlinewidth
solid
0 0 0 edgecolor
newpath 885.02 678.63 moveto
874.47 677.62 lineto
882.08 684.99 lineto
closepath stroke
grestore
% R5_L7
gsave
1 setlinewidth
0 0 0 nodecolor
557 594 35.15 18 ellipse_path stroke
0 0 0 nodecolor
14 /Times-Roman set_font
538 590.3 moveto 38 (R5_L7) alignedtext
grestore
% P3_L4->R5_L7
gsave
1 setlinewidth
0 0 0 edgecolor
newpath 507.47 1239.94 moveto
566.94 1237.09 691.8 1226.59 789 1188 curveto
855.11 1161.75 922 1170.12 922 1099 curveto
922 1099 922 1099 922 881 curveto
922 804.57 732.38 690.72 669 648 curveto
655.72 639.05 619.98 622.57 592.41 610.36 curveto
stroke
0 0 0 edgecolor
newpath 593.61 607.06 moveto
583.05 606.23 lineto
590.79 613.47 lineto
closepath fill
1 setlinewidth
solid
0 0 0 edgecolor
newpath 593.61 607.06 moveto
583.05 606.23 lineto
590.79 613.47 lineto
closepath stroke
grestore
% P6_L7
gsave
1 setlinewidth
0 0 0 nodecolor
394 522 34.17 18 ellipse_path stroke
0 0 0 nodecolor
14 /Times-Roman set_font
375.5 518.3 moveto 37 (P6_L7) alignedtext
grestore
% P3_L4->P6_L7
gsave
1 setlinewidth
0 0 0 edgecolor
newpath 438.72 1241.86 moveto
379.14 1241.95 254.15 1235.8 163 1188 curveto
114.01 1162.31 76 1154.32 76 1099 curveto
76 1099 76 1099 76 1025 curveto
76 840.65 144.43 799.83 249 648 curveto
272.31 614.16 276.11 603.09 307 576 curveto
323.16 561.83 343.57 549.17 360.57 539.78 curveto
stroke
0 0 0 edgecolor
newpath 362.46 542.74 moveto
369.61 534.92 lineto
359.15 536.58 lineto
closepath fill
1 setlinewidth
solid
0 0 0 edgecolor
newpath 362.46 542.74 moveto
369.61 534.92 lineto
359.15 536.58 lineto
closepath stroke
grestore
% L6_L8
gsave
1 setlinewidth
0 0 0 nodecolor
534 450 34.17 18 ellipse_path stroke
0 0 0 nodecolor
14 /Times-Roman set_font
515.5 446.3 moveto 37 (L6_L8) alignedtext
grestore
% P3_L4->L6_L8
gsave
1 setlinewidth
0 0 0 edgecolor
newpath 438.8 1239.77 moveto
357 1236.26 152.68 1224.05 96 1188 curveto
56.16 1162.66 38 1146.21 38 1099 curveto
38 1099 38 1099 38 1025 curveto
38 763.17 97.78 653.11 313 504 curveto
366.33 467.05 442.33 455.7 489.87 452.31 curveto
stroke
0 0 0 edgecolor
newpath 490.1 455.8 moveto
499.86 451.69 lineto
489.66 448.82 lineto
closepath fill
1 setlinewidth
solid
0 0 0 edgecolor
newpath 490.1 455.8 moveto
499.86 451.69 lineto
489.66 448.82 lineto
closepath stroke
grestore
% L6_R3
gsave
1 setlinewidth
0 0 0 nodecolor
152 378 35.15 18 ellipse_path stroke
0 0 0 nodecolor
14 /Times-Roman set_font
133 374.3 moveto 38 (L6_R3) alignedtext
grestore
% P3_L4->L6_R3
gsave
1 setlinewidth
0 0 0 edgecolor
newpath 438.78 1240.6 moveto
349.76 1238.97 113.42 1230.63 50 1188 curveto
12.35 1162.69 0 1144.37 0 1099 curveto
0 1099 0 1099 0 521 curveto
0 475.41 18.17 463.63 51 432 curveto
68.97 414.68 93.73 401.57 114.24 392.72 curveto
stroke
0 0 0 edgecolor
newpath 115.71 395.9 moveto
123.61 388.84 lineto
113.04 389.43 lineto
closepath fill
1 setlinewidth
solid
0 0 0 edgecolor
newpath 115.71 395.9 moveto
123.61 388.84 lineto
113.04 389.43 lineto
closepath stroke
grestore
% L3_L4->L3_L6
gsave
1 setlinewidth
0 0 0 edgecolor
newpath 465.12 1156.65 moveto
486.13 1145.42 517.33 1128.75 540.78 1116.21 curveto
stroke
0 0 0 edgecolor
newpath 542.5 1119.27 moveto
549.67 1111.47 lineto
539.2 1113.09 lineto
closepath fill
1 setlinewidth
solid
0 0 0 edgecolor
newpath 542.5 1119.27 moveto
549.67 1111.47 lineto
539.2 1113.09 lineto
closepath stroke
grestore
% L3_L4->R3_P4
gsave
1 setlinewidth
0 0 0 edgecolor
newpath 435.95 1152.15 moveto
427.17 1127.71 410.81 1082.17 400.44 1053.29 curveto
stroke
0 0 0 edgecolor
newpath 403.72 1052.05 moveto
397.04 1043.82 lineto
397.13 1054.42 lineto
closepath fill
1 setlinewidth
solid
0 0 0 edgecolor
newpath 403.72 1052.05 moveto
397.04 1043.82 lineto
397.13 1054.42 lineto
closepath stroke
grestore
% L3_L4->P4_L5
gsave
1 setlinewidth
0 0 0 edgecolor
newpath 445.97 1151.7 moveto
453.1 1121.79 469.26 1058.76 490 1008 curveto
493.82 998.66 498.76 988.8 503.42 980.14 curveto
stroke
0 0 0 edgecolor
newpath 506.53 981.75 moveto
508.31 971.31 lineto
500.41 978.36 lineto
closepath fill
1 setlinewidth
solid
0 0 0 edgecolor
newpath 506.53 981.75 moveto
508.31 971.31 lineto
500.41 978.36 lineto
closepath stroke
grestore
% L3_L6->R3_P4
gsave
1 setlinewidth
0 0 0 edgecolor
newpath 546.15 1086.67 moveto
514.69 1074.57 462.44 1054.48 427.37 1040.99 curveto
stroke
0 0 0 edgecolor
newpath 428.55 1037.69 moveto
417.96 1037.37 lineto
426.04 1044.23 lineto
closepath fill
1 setlinewidth
solid
0 0 0 edgecolor
newpath 428.55 1037.69 moveto
417.96 1037.37 lineto
426.04 1044.23 lineto
closepath stroke
grestore
% L3_L6->P4_L5
gsave
1 setlinewidth
0 0 0 edgecolor
newpath 566.47 1080.15 moveto
557.01 1055.71 539.37 1010.17 528.18 981.29 curveto
stroke
0 0 0 edgecolor
newpath 531.39 979.89 moveto
524.52 971.82 lineto
524.86 982.41 lineto
closepath fill
1 setlinewidth
solid
0 0 0 edgecolor
newpath 531.39 979.89 moveto
524.52 971.82 lineto
524.86 982.41 lineto
closepath stroke
grestore
% L3_L6->R4_P5
gsave
1 setlinewidth
0 0 0 edgecolor
newpath 603.42 1089.4 moveto
626.17 1081.95 655.71 1068.1 670 1044 curveto
694.49 1002.72 684.69 981.7 670 936 curveto
666.53 925.22 659.97 914.77 653.27 906.04 curveto
stroke
0 0 0 edgecolor
newpath 655.93 903.77 moveto
646.89 898.24 lineto
650.51 908.2 lineto
closepath fill
1 setlinewidth
solid
0 0 0 edgecolor
newpath 655.93 903.77 moveto
646.89 898.24 lineto
650.51 908.2 lineto
closepath stroke
grestore
% L3_L6->R4_L7
gsave
1 setlinewidth
0 0 0 edgecolor
newpath 581.5 1080.31 moveto
586.21 1070.11 591.59 1056.64 594 1044 curveto
603 996.85 597.62 983.86 594 936 curveto
593.28 926.47 584.75 872.06 579.36 838.24 curveto
stroke
0 0 0 edgecolor
newpath 582.77 837.39 moveto
577.74 828.07 lineto
575.86 838.49 lineto
closepath fill
1 setlinewidth
solid
0 0 0 edgecolor
newpath 582.77 837.39 moveto
577.74 828.07 lineto
575.86 838.49 lineto
closepath stroke
grestore
% L3_L6->P5_L6
gsave
1 setlinewidth
0 0 0 edgecolor
newpath 574.86 1079.86 moveto
577.45 1049.65 579.94 985.47 561 936 curveto
532.11 860.53 504.18 851.96 450 792 curveto
440.37 781.34 428.97 770.31 418.98 761.08 curveto
stroke
0 0 0 edgecolor
newpath 421.08 758.26 moveto
411.33 754.12 lineto
416.37 763.44 lineto
closepath fill
1 setlinewidth
solid
0 0 0 edgecolor
newpath 421.08 758.26 moveto
411.33 754.12 lineto
416.37 763.44 lineto
closepath stroke
grestore
% L3_L6->R5_P6
gsave
1 setlinewidth
0 0 0 edgecolor
newpath 607.14 1095.94 moveto
676.1 1093.01 828.15 1082.26 860 1044 curveto
946.06 940.59 886.26 760.34 859.28 693.19 curveto
stroke
0 0 0 edgecolor
newpath 862.45 691.69 moveto
855.41 683.77 lineto
855.98 694.35 lineto
closepath fill
1 setlinewidth
solid
0 0 0 edgecolor
newpath 862.45 691.69 moveto
855.41 683.77 lineto
855.98 694.35 lineto
closepath stroke
grestore
% L3_L6->R5_L7
gsave
1 setlinewidth
0 0 0 edgecolor
newpath 603.65 1089.95 moveto
630.02 1082.49 667.57 1068.35 692 1044 curveto
722.72 1013.39 732 998.37 732 955 curveto
732 955 732 955 732 809 curveto
732 725.69 694.82 707 636 648 curveto
622.25 634.21 604.42 621.89 589.18 612.6 curveto
stroke
0 0 0 edgecolor
newpath 590.94 609.58 moveto
580.55 607.49 lineto
587.37 615.6 lineto
closepath fill
1 setlinewidth
solid
0 0 0 edgecolor
newpath 590.94 609.58 moveto
580.55 607.49 lineto
587.37 615.6 lineto
closepath stroke
grestore
% L3_L6->P6_L7
gsave
1 setlinewidth
0 0 0 edgecolor
newpath 540.35 1092.11 moveto
447.73 1077.31 190 1029.46 190 955 curveto
190 955 190 955 190 881 curveto
190 730.71 246.44 696.68 336 576 curveto
344.81 564.13 356.55 552.81 367.17 543.7 curveto
stroke
0 0 0 edgecolor
newpath 369.55 546.28 moveto
375 537.2 lineto
365.07 540.9 lineto
closepath fill
1 setlinewidth
solid
0 0 0 edgecolor
newpath 369.55 546.28 moveto
375 537.2 lineto
365.07 540.9 lineto
closepath stroke
grestore
% L3_L6->L6_L8
gsave
1 setlinewidth
0 0 0 edgecolor
newpath 606.75 1094.9 moveto
679.79 1088.35 846 1061.71 846 955 curveto
846 955 846 955 846 881 curveto
846 689.17 640.06 525.22 562.81 470.46 curveto
stroke
0 0 0 edgecolor
newpath 564.67 467.49 moveto
554.47 464.62 lineto
560.66 473.22 lineto
closepath fill
1 setlinewidth
solid
0 0 0 edgecolor
newpath 564.67 467.49 moveto
554.47 464.62 lineto
560.66 473.22 lineto
closepath stroke
grestore
% L3_L6->L6_R3
gsave
1 setlinewidth
0 0 0 edgecolor
newpath 539.16 1094.72 moveto
464.06 1089.19 285.96 1073.29 234 1044 curveto
116.11 977.55 38 946.32 38 811 curveto
38 811 38 811 38 521 curveto
38 467.46 87.9 422.61 121.67 398.38 curveto
stroke
0 0 0 edgecolor
newpath 124.08 400.97 moveto
130.29 392.39 lineto
120.08 395.23 lineto
closepath fill
1 setlinewidth
solid
0 0 0 edgecolor
newpath 124.08 400.97 moveto
130.29 392.39 lineto
120.08 395.23 lineto
closepath stroke
grestore
% R3_P4->P4_L5
gsave
1 setlinewidth
0 0 0 edgecolor
newpath 413.71 1012.49 moveto
433.9 1001.36 463.63 984.97 486.19 972.53 curveto
stroke
0 0 0 edgecolor
newpath 488 975.53 moveto
495.06 967.64 lineto
484.62 969.4 lineto
closepath fill
1 setlinewidth
solid
0 0 0 edgecolor
newpath 488 975.53 moveto
495.06 967.64 lineto
484.62 969.4 lineto
closepath stroke
grestore
% R3_P4->R4_P5
gsave
1 setlinewidth
0 0 0 edgecolor
newpath 396.31 1007.91 moveto
403.46 987.74 418.11 954.59 442 936 curveto
484.48 902.95 546.42 890.5 587.91 885.82 curveto
stroke
0 0 0 edgecolor
newpath 588.4 889.29 moveto
598 884.79 lineto
587.69 882.32 lineto
closepath fill
1 setlinewidth
solid
0 0 0 edgecolor
newpath 588.4 889.29 moveto
598 884.79 lineto
587.69 882.32 lineto
closepath stroke
grestore
% R3_P4->R4_L7
gsave
1 setlinewidth
0 0 0 edgecolor
newpath 391.18 1007.94 moveto
392.12 988.98 395.93 958.13 410 936 curveto
442.18 885.4 502.51 847.66 540.62 827.51 curveto
stroke
0 0 0 edgecolor
newpath 542.52 830.46 moveto
549.8 822.77 lineto
539.31 824.24 lineto
closepath fill
1 setlinewidth
solid
0 0 0 edgecolor
newpath 542.52 830.46 moveto
549.8 822.77 lineto
539.31 824.24 lineto
closepath stroke
grestore
% R3_P4->P5_L6
gsave
1 setlinewidth
0 0 0 edgecolor
newpath 391.18 1007.97 moveto
391.68 960.29 393.1 825.18 393.71 766.63 curveto
stroke
0 0 0 edgecolor
newpath 397.21 766.34 moveto
393.82 756.31 lineto
390.21 766.27 lineto
closepath fill
1 setlinewidth
solid
0 0 0 edgecolor
newpath 397.21 766.34 moveto
393.82 756.31 lineto
390.21 766.27 lineto
closepath stroke
grestore
% R3_P4->R5_P6
gsave
1 setlinewidth
0 0 0 edgecolor
newpath 423.38 1020.13 moveto
485.71 1009.21 623.67 977.41 708 900 curveto
774.08 839.35 819.2 740.33 838.07 693.34 curveto
stroke
0 0 0 edgecolor
newpath 841.39 694.46 moveto
841.8 683.88 lineto
834.88 691.9 lineto
closepath fill
1 setlinewidth
solid
0 0 0 edgecolor
newpath 841.39 694.46 moveto
841.8 683.88 lineto
834.88 691.9 lineto
closepath stroke
grestore
% R3_P4->R5_L7
gsave
1 setlinewidth
0 0 0 edgecolor
newpath 406.28 1009.33 moveto
416.46 998.83 430.11 984.66 442 972 curveto
456.86 956.18 455.99 946.47 475 936 curveto
554.11 892.42 617.07 969.29 675 900 curveto
748.76 811.78 631.94 672.24 579.94 617.81 curveto
stroke
0 0 0 edgecolor
newpath 582.24 615.15 moveto
572.77 610.41 lineto
577.21 620.02 lineto
closepath fill
1 setlinewidth
solid
0 0 0 edgecolor
newpath 582.24 615.15 moveto
572.77 610.41 lineto
577.21 620.02 lineto
closepath stroke
grestore
% R3_P4->P6_L7
gsave
1 setlinewidth
0 0 0 edgecolor
newpath 374.23 1010.25 moveto
348.94 986.28 304 936.2 304 883 curveto
304 883 304 883 304 737 curveto
304 663.31 349.91 585.72 376.15 547.39 curveto
stroke
0 0 0 edgecolor
newpath 379.19 549.15 moveto
382.05 538.95 lineto
373.45 545.14 lineto
closepath fill
1 setlinewidth
solid
0 0 0 edgecolor
newpath 379.19 549.15 moveto
382.05 538.95 lineto
373.45 545.14 lineto
closepath stroke
grestore
% R3_P4->L6_L8
gsave
1 setlinewidth
0 0 0 edgecolor
newpath 367.78 1012.49 moveto
331.63 991.11 266 943.93 266 883 curveto
266 883 266 883 266 737 curveto
266 626.77 270.45 579.25 351 504 curveto
388.8 468.69 448.71 456.74 489.61 452.79 curveto
stroke
0 0 0 edgecolor
newpath 490.16 456.25 moveto
499.83 451.93 lineto
489.57 449.28 lineto
closepath fill
1 setlinewidth
solid
0 0 0 edgecolor
newpath 490.16 456.25 moveto
499.83 451.93 lineto
489.57 449.28 lineto
closepath stroke
grestore
% R3_P4->L6_R3
gsave
1 setlinewidth
0 0 0 edgecolor
newpath 361.95 1016.47 moveto
337.94 1008.24 304.16 993.79 281 972 curveto
142.1 841.3 76 785.73 76 595 curveto
76 595 76 595 76 521 curveto
76 474.63 107.9 428.74 130.36 402.18 curveto
stroke
0 0 0 edgecolor
newpath 133.06 404.41 moveto
136.98 394.57 lineto
127.78 399.81 lineto
closepath fill
1 setlinewidth
solid
0 0 0 edgecolor
newpath 133.06 404.41 moveto
136.98 394.57 lineto
127.78 399.81 lineto
closepath stroke
grestore
% P4_L5->R4_P5
gsave
1 setlinewidth
0 0 0 edgecolor
newpath 539.44 939.83 moveto
557.12 928.98 582.39 913.46 602.06 901.39 curveto
stroke
0 0 0 edgecolor
newpath 603.96 904.32 moveto
610.65 896.11 lineto
600.3 898.36 lineto
closepath fill
1 setlinewidth
solid
0 0 0 edgecolor
newpath 603.96 904.32 moveto
610.65 896.11 lineto
600.3 898.36 lineto
closepath stroke
grestore
% P4_L5->R4_L7
gsave
1 setlinewidth
0 0 0 edgecolor
newpath 524.76 936.15 moveto
534.58 911.71 552.85 866.17 564.45 837.29 curveto
stroke
0 0 0 edgecolor
newpath 567.77 838.41 moveto
568.25 827.82 lineto
561.27 835.8 lineto
closepath fill
1 setlinewidth
solid
0 0 0 edgecolor
newpath 567.77 838.41 moveto
568.25 827.82 lineto
561.27 835.8 lineto
closepath stroke
grestore
% P4_L5->P5_L6
gsave
1 setlinewidth
0 0 0 edgecolor
newpath 508.48 936.56 moveto
486.93 899.37 434.31 808.57 408.61 764.22 curveto
stroke
0 0 0 edgecolor
newpath 411.6 762.39 moveto
403.56 755.49 lineto
405.54 765.9 lineto
closepath fill
1 setlinewidth
solid
0 0 0 edgecolor
newpath 411.6 762.39 moveto
403.56 755.49 lineto
405.54 765.9 lineto
closepath stroke
grestore
% R4_P5->R4_L7
gsave
1 setlinewidth
0 0 0 edgecolor
newpath 619.07 865.12 moveto
611.78 856.17 602.53 844.81 594.39 834.81 curveto
stroke
0 0 0 edgecolor
newpath 596.91 832.37 moveto
587.88 826.82 lineto
591.48 836.79 lineto
closepath fill
1 setlinewidth
solid
0 0 0 edgecolor
newpath 596.91 832.37 moveto
587.88 826.82 lineto
591.48 836.79 lineto
closepath stroke
grestore
% R4_P5->P5_L6
gsave
1 setlinewidth
0 0 0 edgecolor
newpath 606.66 869.57 moveto
585.71 859.68 555.52 844.42 531 828 curveto
510.29 814.13 508.5 806.18 488 792 curveto
468.49 778.5 445.29 765.39 426.82 755.59 curveto
stroke
0 0 0 edgecolor
newpath 428.38 752.46 moveto
417.9 750.92 lineto
425.13 758.66 lineto
closepath fill
1 setlinewidth
solid
0 0 0 edgecolor
newpath 428.38 752.46 moveto
417.9 750.92 lineto
425.13 758.66 lineto
closepath stroke
grestore
% R4_P5->R5_P6
gsave
1 setlinewidth
0 0 0 edgecolor
newpath 647.53 865.61 moveto
685.13 828.36 781.17 733.22 825.25 689.54 curveto
stroke
0 0 0 edgecolor
newpath 827.97 691.78 moveto
832.61 682.25 lineto
823.04 686.8 lineto
closepath fill
1 setlinewidth
solid
0 0 0 edgecolor
newpath 827.97 691.78 moveto
832.61 682.25 lineto
823.04 686.8 lineto
closepath stroke
grestore
% R4_P5->R5_L7
gsave
1 setlinewidth
0 0 0 edgecolor
newpath 630.17 863.82 moveto
628.1 845.8 624.3 816.73 619 792 curveto
605.05 726.94 599.39 711.01 578 648 curveto
575.03 639.24 571.43 629.82 568.05 621.38 curveto
stroke
0 0 0 edgecolor
newpath 571.26 619.97 moveto
564.25 612.02 lineto
564.77 622.61 lineto
closepath fill
1 setlinewidth
solid
0 0 0 edgecolor
newpath 571.26 619.97 moveto
564.25 612.02 lineto
564.77 622.61 lineto
closepath stroke
grestore
% R4_L7->P5_L6
gsave
1 setlinewidth
0 0 0 edgecolor
newpath 547.9 798.52 moveto
516.67 786.44 465.18 766.53 430.45 753.1 curveto
stroke
0 0 0 edgecolor
newpath 431.28 749.67 moveto
420.69 749.32 lineto
428.76 756.19 lineto
closepath fill
1 setlinewidth
solid
0 0 0 edgecolor
newpath 431.28 749.67 moveto
420.69 749.32 lineto
428.76 756.19 lineto
closepath stroke
grestore
% R4_L7->R5_P6
gsave
1 setlinewidth
0 0 0 edgecolor
newpath 575.68 791.89 moveto
577.44 771.69 583.5 738.52 604 720 curveto
632.96 693.83 741.92 678.25 803.99 671.31 curveto
stroke
0 0 0 edgecolor
newpath 804.71 674.76 moveto
814.27 670.2 lineto
803.95 667.8 lineto
closepath fill
1 setlinewidth
solid
0 0 0 edgecolor
newpath 804.71 674.76 moveto
814.27 670.2 lineto
803.95 667.8 lineto
closepath stroke
grestore
% R4_L7->R5_L7
gsave
1 setlinewidth
0 0 0 edgecolor
newpath 573.56 791.85 moveto
570.44 754.83 563.07 667.18 559.3 622.39 curveto
stroke
0 0 0 edgecolor
newpath 562.78 621.9 moveto
558.45 612.23 lineto
555.8 622.49 lineto
closepath fill
1 setlinewidth
solid
0 0 0 edgecolor
newpath 562.78 621.9 moveto
558.45 612.23 lineto
555.8 622.49 lineto
closepath stroke
grestore
% R4_L7->P6_L7
gsave
1 setlinewidth
0 0 0 edgecolor
newpath 548.54 797.86 moveto
530.01 788.9 505.83 774.72 490 756 curveto
436.79 693.09 409.91 596.64 399.42 550.05 curveto
stroke
0 0 0 edgecolor
newpath 402.81 549.14 moveto
397.27 540.11 lineto
395.97 550.62 lineto
closepath fill
1 setlinewidth
solid
0 0 0 edgecolor
newpath 402.81 549.14 moveto
397.27 540.11 lineto
395.97 550.62 lineto
closepath stroke
grestore
% R4_L7->L6_L8
gsave
1 setlinewidth
0 0 0 edgecolor
newpath 566.4 792.41 moveto
547.8 754.71 506.04 659.43 513 576 curveto
515.83 542.04 522.92 503.42 528.08 478.21 curveto
stroke
0 0 0 edgecolor
newpath 531.54 478.78 moveto
530.16 468.28 lineto
524.69 477.35 lineto
closepath fill
1 setlinewidth
solid
0 0 0 edgecolor
newpath 531.54 478.78 moveto
530.16 468.28 lineto
524.69 477.35 lineto
closepath stroke
grestore
% R4_L7->L6_R3
gsave
1 setlinewidth
0 0 0 edgecolor
newpath 539.97 808.81 moveto
432.39 806.23 114 782.73 114 595 curveto
114 595 114 595 114 521 curveto
114 479.41 129.4 433.22 140.6 405.14 curveto
stroke
0 0 0 edgecolor
newpath 143.93 406.24 moveto
144.49 395.66 lineto
137.45 403.58 lineto
closepath fill
1 setlinewidth
solid
0 0 0 edgecolor
newpath 143.93 406.24 moveto
144.49 395.66 lineto
137.45 403.58 lineto
closepath stroke
grestore
% R6_P7
gsave
1 setlinewidth
0 0 0 nodecolor
748 378 34.17 18 ellipse_path stroke
0 0 0 nodecolor
14 /Times-Roman set_font
729.5 374.3 moveto 37 (R6_P7) alignedtext
grestore
% R4_L7->R6_P7
gsave
1 setlinewidth
0 0 0 edgecolor
newpath 609.78 807.25 moveto
677.59 801.75 826.49 778.9 891 684 curveto
957.57 586.07 829.38 452.26 772.87 400.58 curveto
stroke
0 0 0 edgecolor
newpath 775.17 397.94 moveto
765.4 393.85 lineto
770.48 403.14 lineto
closepath fill
1 setlinewidth
solid
0 0 0 edgecolor
newpath 775.17 397.94 moveto
765.4 393.85 lineto
770.48 403.14 lineto
closepath stroke
grestore
% P7_L8
gsave
1 setlinewidth
0 0 0 nodecolor
841 306 34.17 18 ellipse_path stroke
0 0 0 nodecolor
14 /Times-Roman set_font
822.5 302.3 moveto 37 (P7_L8) alignedtext
grestore
% R4_L7->P7_L8
gsave
1 setlinewidth
0 0 0 edgecolor
newpath 610.17 809.13 moveto
664.62 807.86 771.07 799.45 848 756 curveto
885.54 734.8 895.59 723.44 913 684 curveto
967.77 559.91 889.92 394.81 855.72 332.36 curveto
stroke
0 0 0 edgecolor
newpath 858.75 330.61 moveto
850.83 323.58 lineto
852.64 334.02 lineto
closepath fill
1 setlinewidth
solid
0 0 0 edgecolor
newpath 858.75 330.61 moveto
850.83 323.58 lineto
852.64 334.02 lineto
closepath stroke
grestore
% P5_L6->R5_P6
gsave
1 setlinewidth
0 0 0 edgecolor
newpath 426.29 732.02 moveto
506.57 719.64 715.23 687.47 805.43 673.56 curveto
stroke
0 0 0 edgecolor
newpath 806.22 676.98 moveto
815.57 672 lineto
805.16 670.06 lineto
closepath fill
1 setlinewidth
solid
0 0 0 edgecolor
newpath 806.22 676.98 moveto
815.57 672 lineto
805.16 670.06 lineto
closepath stroke
grestore
% P5_L6->R5_L7
gsave
1 setlinewidth
0 0 0 edgecolor
newpath 411.14 722.07 moveto
439.92 697 498.11 646.3 531.64 617.09 curveto
stroke
0 0 0 edgecolor
newpath 534.36 619.36 moveto
539.6 610.16 lineto
529.76 614.09 lineto
closepath fill
1 setlinewidth
solid
0 0 0 edgecolor
newpath 534.36 619.36 moveto
539.6 610.16 lineto
529.76 614.09 lineto
closepath stroke
grestore
% P5_L6->P6_L7
gsave
1 setlinewidth
0 0 0 edgecolor
newpath 394 719.85 moveto
394 682.83 394 595.18 394 550.39 curveto
stroke
0 0 0 edgecolor
newpath 397.5 550.23 moveto
394 540.23 lineto
390.5 550.23 lineto
closepath fill
1 setlinewidth
solid
0 0 0 edgecolor
newpath 397.5 550.23 moveto
394 540.23 lineto
390.5 550.23 lineto
closepath stroke
grestore
% P5_L6->L6_L8
gsave
1 setlinewidth
0 0 0 edgecolor
newpath 397.55 720.03 moveto
406.5 679.92 432.69 577.13 480 504 curveto
487.6 492.25 498.23 481.1 508.04 472.09 curveto
stroke
0 0 0 edgecolor
newpath 510.49 474.59 moveto
515.67 465.35 lineto
505.86 469.35 lineto
closepath fill
1 setlinewidth
solid
0 0 0 edgecolor
newpath 510.49 474.59 moveto
515.67 465.35 lineto
505.86 469.35 lineto
closepath stroke
grestore
% P5_L6->L6_R3
gsave
1 setlinewidth
0 0 0 edgecolor
newpath 379.31 721.5 moveto
342.51 682.01 245.1 573.27 186 468 curveto
174.85 448.13 165.85 423.88 159.92 405.71 curveto
stroke
0 0 0 edgecolor
newpath 163.22 404.54 moveto
156.87 396.06 lineto
156.55 406.65 lineto
closepath fill
1 setlinewidth
solid
0 0 0 edgecolor
newpath 163.22 404.54 moveto
156.87 396.06 lineto
156.55 406.65 lineto
closepath stroke
grestore
% R5_P6->R5_L7
gsave
1 setlinewidth
0 0 0 edgecolor
newpath 816.76 658.64 moveto
760.79 647.16 645.53 623.14 606 612 curveto
602.16 610.92 598.18 609.7 594.23 608.43 curveto
stroke
0 0 0 edgecolor
newpath 595.14 605.04 moveto
584.55 605.2 lineto
592.92 611.68 lineto
closepath fill
1 setlinewidth
solid
0 0 0 edgecolor
newpath 595.14 605.04 moveto
584.55 605.2 lineto
592.92 611.68 lineto
closepath stroke
grestore
% R5_P6->P6_L7
gsave
1 setlinewidth
0 0 0 edgecolor
newpath 822 654.27 moveto
796.13 643.58 755.3 626.7 720 612 curveto
681.75 596.07 673.5 588.52 634 576 curveto
566.17 554.5 484.87 538.52 436.43 529.99 curveto
stroke
0 0 0 edgecolor
newpath 436.77 526.5 moveto
426.31 528.24 lineto
435.57 533.4 lineto
closepath fill
1 setlinewidth
solid
0 0 0 edgecolor
newpath 436.77 526.5 moveto
426.31 528.24 lineto
435.57 533.4 lineto
closepath stroke
grestore
% R5_P6->L6_L8
gsave
1 setlinewidth
0 0 0 edgecolor
newpath 823.11 653.47 moveto
804.09 643.96 777.85 629.24 758 612 curveto
711.68 571.76 721.49 540.27 672 504 curveto
642.84 482.62 603.98 468.72 574.92 460.55 curveto
stroke
0 0 0 edgecolor
newpath 575.66 457.12 moveto
565.09 457.89 lineto
573.83 463.88 lineto
closepath fill
1 setlinewidth
solid
0 0 0 edgecolor
newpath 575.66 457.12 moveto
565.09 457.89 lineto
573.83 463.88 lineto
closepath stroke
grestore
% R5_P6->L6_R3
gsave
1 setlinewidth
0 0 0 edgecolor
newpath 816.66 658.29 moveto
761.1 646.24 649.72 621.33 634 612 curveto
615.34 600.92 620.19 586.14 601 576 curveto
501.74 523.57 453.88 584.91 351 540 curveto
348.49 538.9 231.48 443.73 178.08 400.25 curveto
stroke
0 0 0 edgecolor
newpath 180.05 397.34 moveto
170.09 393.74 lineto
175.63 402.76 lineto
closepath fill
1 setlinewidth
solid
0 0 0 edgecolor
newpath 180.05 397.34 moveto
170.09 393.74 lineto
175.63 402.76 lineto
closepath stroke
grestore
% R5_P6->R6_P7
gsave
1 setlinewidth
0 0 0 edgecolor
newpath 842.04 647.97 moveto
825.27 599.98 777.52 463.41 757.26 405.49 curveto
stroke
0 0 0 edgecolor
newpath 760.53 404.23 moveto
753.92 395.94 lineto
753.92 406.54 lineto
closepath fill
1 setlinewidth
solid
0 0 0 edgecolor
newpath 760.53 404.23 moveto
753.92 395.94 lineto
753.92 406.54 lineto
closepath stroke
grestore
% R5_P6->P7_L8
gsave
1 setlinewidth
0 0 0 edgecolor
newpath 847.66 647.73 moveto
846.54 590.19 842.91 404.66 841.53 334.35 curveto
stroke
0 0 0 edgecolor
newpath 845.03 334.02 moveto
841.33 324.09 lineto
838.03 334.16 lineto
closepath fill
1 setlinewidth
solid
0 0 0 edgecolor
newpath 845.03 334.02 moveto
841.33 324.09 lineto
838.03 334.16 lineto
closepath stroke
grestore
% R7_P8
gsave
1 setlinewidth
0 0 0 nodecolor
634 234 34.17 18 ellipse_path stroke
0 0 0 nodecolor
14 /Times-Roman set_font
615.5 230.3 moveto 37 (R7_P8) alignedtext
grestore
% R5_P6->R7_P8
gsave
1 setlinewidth
0 0 0 edgecolor
newpath 836.83 648.56 moveto
829.97 638.23 821.16 624.53 814 612 curveto
741.43 484.92 671.44 323.97 645.04 261.48 curveto
stroke
0 0 0 edgecolor
newpath 648.15 259.84 moveto
641.05 251.98 lineto
641.7 262.56 lineto
closepath fill
1 setlinewidth
solid
0 0 0 edgecolor
newpath 648.15 259.84 moveto
641.05 251.98 lineto
641.7 262.56 lineto
closepath stroke
grestore
% R7_R6
gsave
1 setlinewidth
0 0 0 nodecolor
698 162 35.62 18 ellipse_path stroke
0 0 0 nodecolor
14 /Times-Roman set_font
678.5 158.3 moveto 39 (R7_R6) alignedtext
grestore
% R5_P6->R7_R6
gsave
1 setlinewidth
0 0 0 edgecolor
newpath 859.13 648.87 moveto
871.48 631 892.04 601.36 910 576 curveto
949.57 520.13 1000 519.46 1000 451 curveto
1000 451 1000 451 1000 305 curveto
1000 192.93 827.58 169.15 743.3 164.22 curveto
stroke
0 0 0 edgecolor
newpath 743.4 160.72 moveto
733.23 163.69 lineto
743.04 167.71 lineto
closepath fill
1 setlinewidth
solid
0 0 0 edgecolor
newpath 743.4 160.72 moveto
733.23 163.69 lineto
743.04 167.71 lineto
closepath stroke
grestore
% R6_P8
gsave
1 setlinewidth
0 0 0 nodecolor
666 90 34.17 18 ellipse_path stroke
0 0 0 nodecolor
14 /Times-Roman set_font
647.5 86.3 moveto 37 (R6_P8) alignedtext
grestore
% R5_P6->R6_P8
gsave
1 setlinewidth
0 0 0 edgecolor
newpath 871.68 652.81 moveto
922.61 624.71 1038 550.12 1038 451 curveto
1038 451 1038 451 1038 305 curveto
1038 154.93 807.73 108.54 709.53 95.57 curveto
stroke
0 0 0 edgecolor
newpath 709.7 92.06 moveto
699.34 94.28 lineto
708.82 99.01 lineto
closepath fill
1 setlinewidth
solid
0 0 0 edgecolor
newpath 709.7 92.06 moveto
699.34 94.28 lineto
708.82 99.01 lineto
closepath stroke
grestore
% R5_L7->P6_L7
gsave
1 setlinewidth
0 0 0 edgecolor
newpath 530.81 581.75 moveto
503.2 569.9 459.56 551.15 429.01 538.03 curveto
stroke
0 0 0 edgecolor
newpath 430.16 534.72 moveto
419.59 533.99 lineto
427.39 541.15 lineto
closepath fill
1 setlinewidth
solid
0 0 0 edgecolor
newpath 430.16 534.72 moveto
419.59 533.99 lineto
427.39 541.15 lineto
closepath stroke
grestore
% R5_L7->L6_L8
gsave
1 setlinewidth
0 0 0 edgecolor
newpath 554.23 575.87 moveto
550.31 551.67 543.1 507.21 538.44 478.39 curveto
stroke
0 0 0 edgecolor
newpath 541.84 477.5 moveto
536.78 468.19 lineto
534.93 478.62 lineto
closepath fill
1 setlinewidth
solid
0 0 0 edgecolor
newpath 541.84 477.5 moveto
536.78 468.19 lineto
534.93 478.62 lineto
closepath stroke
grestore
% R5_L7->L6_R3
gsave
1 setlinewidth
0 0 0 edgecolor
newpath 522.14 592.13 moveto
471.31 589.49 375.27 579.22 305 540 curveto
244.16 506.04 192.98 439.82 168.14 403.79 curveto
stroke
0 0 0 edgecolor
newpath 170.91 401.63 moveto
162.4 395.32 lineto
165.11 405.56 lineto
closepath fill
1 setlinewidth
solid
0 0 0 edgecolor
newpath 170.91 401.63 moveto
162.4 395.32 lineto
165.11 405.56 lineto
closepath stroke
grestore
% R5_L7->R6_P7
gsave
1 setlinewidth
0 0 0 edgecolor
newpath 571.04 577.26 moveto
604.38 539.92 688.39 445.79 727.44 402.03 curveto
stroke
0 0 0 edgecolor
newpath 730.14 404.26 moveto
734.19 394.47 lineto
724.92 399.6 lineto
closepath fill
1 setlinewidth
solid
0 0 0 edgecolor
newpath 730.14 404.26 moveto
734.19 394.47 lineto
724.92 399.6 lineto
closepath stroke
grestore
% R5_L7->P7_L8
gsave
1 setlinewidth
0 0 0 edgecolor
newpath 582.63 581.43 moveto
635.77 556.04 758.07 490.11 819 396 curveto
831 377.46 836.46 352.87 838.94 334.23 curveto
stroke
0 0 0 edgecolor
newpath 842.44 334.37 moveto
840.08 324.04 lineto
835.49 333.59 lineto
closepath fill
1 setlinewidth
solid
0 0 0 edgecolor
newpath 842.44 334.37 moveto
840.08 324.04 lineto
835.49 333.59 lineto
closepath stroke
grestore
% P6_L7->L6_L8
gsave
1 setlinewidth
0 0 0 edgecolor
newpath 418.07 508.97 moveto
440.8 497.6 475.12 480.44 500.52 467.74 curveto
stroke
0 0 0 edgecolor
newpath 502.4 470.71 moveto
509.78 463.11 lineto
499.27 464.45 lineto
closepath fill
1 setlinewidth
solid
0 0 0 edgecolor
newpath 502.4 470.71 moveto
509.78 463.11 lineto
499.27 464.45 lineto
closepath stroke
grestore
% P6_L7->L6_R3
gsave
1 setlinewidth
0 0 0 edgecolor
newpath 384.38 504.42 moveto
371.96 484.43 348.53 451.16 320 432 curveto
282.1 406.55 231.28 392.76 195.5 385.68 curveto
stroke
0 0 0 edgecolor
newpath 195.84 382.19 moveto
185.36 383.78 lineto
194.55 389.07 lineto
closepath fill
1 setlinewidth
solid
0 0 0 edgecolor
newpath 195.84 382.19 moveto
185.36 383.78 lineto
194.55 389.07 lineto
closepath stroke
grestore
% P6_L7->R6_P7
gsave
1 setlinewidth
0 0 0 edgecolor
newpath 424.73 514.07 moveto
461.6 505.32 524.95 488.84 577 468 curveto
627.98 447.59 683.85 416.78 717.41 397.29 curveto
stroke
0 0 0 edgecolor
newpath 719.39 400.18 moveto
726.26 392.11 lineto
715.86 394.14 lineto
closepath fill
1 setlinewidth
solid
0 0 0 edgecolor
newpath 719.39 400.18 moveto
726.26 392.11 lineto
715.86 394.14 lineto
closepath stroke
grestore
% P6_L7->P7_L8
gsave
1 setlinewidth
0 0 0 edgecolor
newpath 428.2 519.6 moveto
503.35 514.75 684.65 493.05 791 396 curveto
809.84 378.81 823.3 352.82 831.47 333.36 curveto
stroke
0 0 0 edgecolor
newpath 834.81 334.44 moveto
835.27 323.85 lineto
828.31 331.84 lineto
closepath fill
1 setlinewidth
solid
0 0 0 edgecolor
newpath 834.81 334.44 moveto
835.27 323.85 lineto
828.31 331.84 lineto
closepath stroke
grestore
% P6_L7->R7_P8
gsave
1 setlinewidth
0 0 0 edgecolor
newpath 406.56 505.25 moveto
436.86 467.36 516.61 368.32 586 288 curveto
594.54 278.12 604.16 267.41 612.54 258.22 curveto
stroke
0 0 0 edgecolor
newpath 615.35 260.34 moveto
619.52 250.6 lineto
610.19 255.61 lineto
closepath fill
1 setlinewidth
solid
0 0 0 edgecolor
newpath 615.35 260.34 moveto
619.52 250.6 lineto
610.19 255.61 lineto
closepath stroke
grestore
% P6_L7->R7_R6
gsave
1 setlinewidth
0 0 0 edgecolor
newpath 400.71 504.01 moveto
421.49 453.41 489.49 301.95 591 216 curveto
611.3 198.81 638.14 185.53 659.86 176.57 curveto
stroke
0 0 0 edgecolor
newpath 661.44 179.71 moveto
669.44 172.75 lineto
658.85 173.2 lineto
closepath fill
1 setlinewidth
solid
0 0 0 edgecolor
newpath 661.44 179.71 moveto
669.44 172.75 lineto
658.85 173.2 lineto
closepath stroke
grestore
% P6_L7->R6_P8
gsave
1 setlinewidth
0 0 0 edgecolor
newpath 396.28 503.9 moveto
399.01 485.71 404.35 456.26 413 432 curveto
464.75 286.87 500.99 256.76 606 144 curveto
616.42 132.81 628.95 121.46 639.87 112.14 curveto
stroke
0 0 0 edgecolor
newpath 642.43 114.56 moveto
647.84 105.45 lineto
637.93 109.2 lineto
closepath fill
1 setlinewidth
solid
0 0 0 edgecolor
newpath 642.43 114.56 moveto
647.84 105.45 lineto
637.93 109.2 lineto
closepath stroke
grestore
% L6_L8->L6_R3
gsave
1 setlinewidth
0 0 0 edgecolor
newpath 502.09 443.15 moveto
433.36 430.56 271.33 400.87 194.22 386.74 curveto
stroke
0 0 0 edgecolor
newpath 194.83 383.29 moveto
184.36 384.93 lineto
193.57 390.18 lineto
closepath fill
1 setlinewidth
solid
0 0 0 edgecolor
newpath 194.83 383.29 moveto
184.36 384.93 lineto
193.57 390.18 lineto
closepath stroke
grestore
% L6_L8->R6_P7
gsave
1 setlinewidth
0 0 0 edgecolor
newpath 562.42 439.7 moveto
600.42 427.28 667.88 405.21 710.15 391.38 curveto
stroke
0 0 0 edgecolor
newpath 711.39 394.66 moveto
719.81 388.22 lineto
709.21 388 lineto
closepath fill
1 setlinewidth
solid
0 0 0 edgecolor
newpath 711.39 394.66 moveto
719.81 388.22 lineto
709.21 388 lineto
closepath stroke
grestore
% L6_L8->P7_L8
gsave
1 setlinewidth
0 0 0 edgecolor
newpath 556.57 436.25 moveto
588.92 418.21 650.59 384.67 705 360 curveto
737.78 345.13 776.06 330.45 803.64 320.32 curveto
stroke
0 0 0 edgecolor
newpath 805.09 323.51 moveto
813.29 316.8 lineto
802.69 316.94 lineto
closepath fill
1 setlinewidth
solid
0 0 0 edgecolor
newpath 805.09 323.51 moveto
813.29 316.8 lineto
802.69 316.94 lineto
closepath stroke
grestore
% L6_L8->R7_P8
gsave
1 setlinewidth
0 0 0 edgecolor
newpath 541.01 432.38 moveto
553.49 402.99 580.66 340.03 606 288 curveto
610.42 278.93 615.5 269.13 620.12 260.45 curveto
stroke
0 0 0 edgecolor
newpath 623.25 262.03 moveto
624.89 251.57 lineto
617.08 258.72 lineto
closepath fill
1 setlinewidth
solid
0 0 0 edgecolor
newpath 623.25 262.03 moveto
624.89 251.57 lineto
617.08 258.72 lineto
closepath stroke
grestore
% L6_L8->R7_R6
gsave
1 setlinewidth
0 0 0 edgecolor
newpath 548.83 433.62 moveto
578.21 402.25 643.8 327.43 677 252 curveto
685.77 232.08 691.17 207.97 694.29 189.87 curveto
stroke
0 0 0 edgecolor
newpath 697.75 190.42 moveto
695.88 179.99 lineto
690.84 189.31 lineto
closepath fill
1 setlinewidth
solid
0 0 0 edgecolor
newpath 697.75 190.42 moveto
695.88 179.99 lineto
690.84 189.31 lineto
closepath stroke
grestore
% L6_L8->R6_P8
gsave
1 setlinewidth
0 0 0 edgecolor
newpath 537.68 431.9 moveto
541.58 413.96 547.99 384.94 554 360 curveto
569.47 295.76 565.51 276.97 591 216 curveto
606.47 178.98 631.54 139.88 648.39 115.46 curveto
stroke
0 0 0 edgecolor
newpath 651.33 117.37 moveto
654.19 107.17 lineto
645.6 113.36 lineto
closepath fill
1 setlinewidth
solid
0 0 0 edgecolor
newpath 651.33 117.37 moveto
654.19 107.17 lineto
645.6 113.36 lineto
closepath stroke
grestore
% P8_right
gsave
1 setlinewidth
0 0 0 nodecolor
581 18 40.42 18 ellipse_path stroke
0 0 0 nodecolor
14 /Times-Roman set_font
557.5 14.3 moveto 47 (P8_right) alignedtext
grestore
% L6_L8->P8_right
gsave
1 setlinewidth
0 0 0 edgecolor
newpath 523.91 432.78 moveto
503.23 397.96 458 312.87 458 235 curveto
458 235 458 235 458 161 curveto
458 105.98 511.42 61.81 547.85 38.08 curveto
stroke
0 0 0 edgecolor
newpath 550.11 40.79 moveto
556.7 32.49 lineto
546.37 34.87 lineto
closepath fill
1 setlinewidth
solid
0 0 0 edgecolor
newpath 550.11 40.79 moveto
556.7 32.49 lineto
546.37 34.87 lineto
closepath stroke
grestore
% R6_P7->P7_L8
gsave
1 setlinewidth
0 0 0 edgecolor
newpath 766.82 362.83 moveto
780.43 352.59 799.02 338.59 814.19 327.18 curveto
stroke
0 0 0 edgecolor
newpath 816.32 329.95 moveto
822.21 321.14 lineto
812.11 324.36 lineto
closepath fill
1 setlinewidth
solid
0 0 0 edgecolor
newpath 816.32 329.95 moveto
822.21 321.14 lineto
812.11 324.36 lineto
closepath stroke
grestore
% R6_P7->R7_P8
gsave
1 setlinewidth
0 0 0 edgecolor
newpath 735.36 361.26 moveto
715.42 336.42 676.51 287.95 653.13 258.83 curveto
stroke
0 0 0 edgecolor
newpath 655.68 256.42 moveto
646.69 250.81 lineto
650.22 260.8 lineto
closepath fill
1 setlinewidth
solid
0 0 0 edgecolor
newpath 655.68 256.42 moveto
646.69 250.81 lineto
650.22 260.8 lineto
closepath stroke
grestore
% R6_P7->R7_R6
gsave
1 setlinewidth
0 0 0 edgecolor
newpath 743.99 359.85 moveto
735.3 322.66 714.68 234.37 704.26 189.77 curveto
stroke
0 0 0 edgecolor
newpath 707.64 188.88 moveto
701.96 179.94 lineto
700.82 190.47 lineto
closepath fill
1 setlinewidth
solid
0 0 0 edgecolor
newpath 707.64 188.88 moveto
701.96 179.94 lineto
700.82 190.47 lineto
closepath stroke
grestore
% R6_P7->R6_P8
gsave
1 setlinewidth
0 0 0 edgecolor
newpath 752.49 359.87 moveto
762.11 319.42 780.81 215.94 742 144 curveto
733.12 127.55 716.65 115.11 701.3 106.44 curveto
stroke
0 0 0 edgecolor
newpath 702.94 103.34 moveto
692.46 101.76 lineto
699.66 109.53 lineto
closepath fill
1 setlinewidth
solid
0 0 0 edgecolor
newpath 702.94 103.34 moveto
692.46 101.76 lineto
699.66 109.53 lineto
closepath stroke
grestore
% P7_L8->R7_P8
gsave
1 setlinewidth
0 0 0 edgecolor
newpath 813.08 295.56 moveto
776.59 283.22 712.51 261.55 671.72 247.76 curveto
stroke
0 0 0 edgecolor
newpath 672.73 244.4 moveto
662.14 244.51 lineto
670.49 251.03 lineto
closepath fill
1 setlinewidth
solid
0 0 0 edgecolor
newpath 672.73 244.4 moveto
662.14 244.51 lineto
670.49 251.03 lineto
closepath stroke
grestore
% P7_L8->R7_R6
gsave
1 setlinewidth
0 0 0 edgecolor
newpath 825.7 289.8 moveto
800.56 264.85 750.4 215.04 720.98 185.82 curveto
stroke
0 0 0 edgecolor
newpath 723.19 183.08 moveto
713.63 178.52 lineto
718.26 188.05 lineto
closepath fill
1 setlinewidth
solid
0 0 0 edgecolor
newpath 723.19 183.08 moveto
713.63 178.52 lineto
718.26 188.05 lineto
closepath stroke
grestore
% P7_L8->R6_P8
gsave
1 setlinewidth
0 0 0 edgecolor
newpath 839.59 287.68 moveto
836.1 255.46 824.33 185.8 786 144 curveto
765.28 121.4 733.16 107.91 707.37 100.2 curveto
stroke
0 0 0 edgecolor
newpath 708.05 96.76 moveto
697.47 97.43 lineto
706.16 103.5 lineto
closepath fill
1 setlinewidth
solid
0 0 0 edgecolor
newpath 708.05 96.76 moveto
697.47 97.43 lineto
706.16 103.5 lineto
closepath stroke
grestore
% P7_L8->P8_right
gsave
1 setlinewidth
0 0 0 edgecolor
newpath 842.22 287.82 moveto
842.89 277.46 843.66 263.98 844 252 curveto
844.45 236.01 847.32 231.65 844 216 curveto
836.73 181.74 834.28 171.02 812 144 curveto
762.4 83.84 676.01 48.28 624.1 31.3 curveto
stroke
0 0 0 edgecolor
newpath 625.1 27.94 moveto
614.51 28.24 lineto
622.98 34.61 lineto
closepath fill
1 setlinewidth
solid
0 0 0 edgecolor
newpath 625.1 27.94 moveto
614.51 28.24 lineto
622.98 34.61 lineto
closepath stroke
grestore
% R7_P8->R7_R6
gsave
1 setlinewidth
0 0 0 edgecolor
newpath 648.2 217.46 moveto
656.54 208.35 667.23 196.65 676.57 186.43 curveto
stroke
0 0 0 edgecolor
newpath 679.23 188.72 moveto
683.39 178.98 lineto
674.06 184 lineto
closepath fill
1 setlinewidth
solid
0 0 0 edgecolor
newpath 679.23 188.72 moveto
683.39 178.98 lineto
674.06 184 lineto
closepath stroke
grestore
% R7_P8->R6_P8
gsave
1 setlinewidth
0 0 0 edgecolor
newpath 637.49 215.9 moveto
641.19 197.96 647.28 168.95 653 144 curveto
654.94 135.56 657.15 126.39 659.19 118.09 curveto
stroke
0 0 0 edgecolor
newpath 662.64 118.7 moveto
661.65 108.15 lineto
655.85 117.02 lineto
closepath fill
1 setlinewidth
solid
0 0 0 edgecolor
newpath 662.64 118.7 moveto
661.65 108.15 lineto
655.85 117.02 lineto
closepath stroke
grestore
% R7_P8->P8_right
gsave
1 setlinewidth
0 0 0 edgecolor
newpath 629.75 215.85 moveto
620.54 178.66 598.68 90.37 587.63 45.77 curveto
stroke
0 0 0 edgecolor
newpath 591 44.8 moveto
585.19 35.94 lineto
584.2 46.48 lineto
closepath fill
1 setlinewidth
solid
0 0 0 edgecolor
newpath 591 44.8 moveto
585.19 35.94 lineto
584.2 46.48 lineto
closepath stroke
grestore
% R7_R6->R6_P8
gsave
1 setlinewidth
0 0 0 edgecolor
newpath 690.42 144.41 moveto
686.69 136.25 682.1 126.22 677.92 117.07 curveto
stroke
0 0 0 edgecolor
newpath 681.09 115.6 moveto
673.75 107.96 lineto
674.73 118.51 lineto
closepath fill
1 setlinewidth
solid
0 0 0 edgecolor
newpath 681.09 115.6 moveto
673.75 107.96 lineto
674.73 118.51 lineto
closepath stroke
grestore
% R6_P8->P8_right
gsave
1 setlinewidth
0 0 0 edgecolor
newpath 648.39 74.5 moveto
636.55 64.75 620.73 51.72 607.4 40.74 curveto
stroke
0 0 0 edgecolor
newpath 609.42 37.87 moveto
599.47 34.21 lineto
604.97 43.27 lineto
closepath fill
1 setlinewidth
solid
0 0 0 edgecolor
newpath 609.42 37.87 moveto
599.47 34.21 lineto
604.97 43.27 lineto
closepath stroke
grestore
endpage
showpage
grestore
%%PageTrailer
%%EndPage: 1
%%Trailer
%%Pages: 1
%%BoundingBox: 36 36 1082 1304
end
restore
%%EOF
