%!PS-Adobe-3.0
%%DocumentNeededResources: font Helvetica
%%+ font Helvetica-Bold
%%+ font Helvetica-Oblique
%%+ font Helvetica-BoldOblique
%%+ font Symbol
%%DocumentMedia: special 180 720 0 () ()
%%Title: R Graphics Output
%%Creator: R Software
%%Pages: (atend)
%%BoundingBox: 0 0 180 720
%%EndComments
%%BeginProlog
/bp  { gs sRGB 180.00 0 translate 90 rotate gs } def
% begin .ps.prolog
/gs  { gsave } bind def
/gr  { grestore } bind def
/ep  { showpage gr gr } bind def
/m   { moveto } bind def
/l  { rlineto } bind def
/np  { newpath } bind def
/cp  { closepath } bind def
/f   { fill } bind def
/o   { stroke } bind def
/c   { newpath 0 360 arc } bind def
/r   { 4 2 roll moveto 1 copy 3 -1 roll exch 0 exch rlineto 0 rlineto -1 mul 0 exch rlineto closepath } bind def
/p1  { stroke } bind def
/p2  { gsave bg fill grestore newpath } bind def
/p3  { gsave bg fill grestore stroke } bind def
/p6  { gsave bg eofill grestore newpath } bind def
/p7  { gsave bg eofill grestore stroke } bind def
/t   { 5 -2 roll moveto gsave rotate
       1 index stringwidth pop
       mul neg 0 rmoveto show grestore } bind def
/ta  { 4 -2 roll moveto gsave rotate show } bind def
/tb  { 2 -1 roll 0 rmoveto show } bind def
/cl  { grestore gsave newpath 3 index 3 index moveto 1 index
       4 -1 roll lineto  exch 1 index lineto lineto
       closepath clip newpath } bind def
/rgb { setrgbcolor } bind def
/s   { scalefont setfont } bind def
% end   .ps.prolog
/sRGB { [ /CIEBasedABC
          << /DecodeLMN
               [ { dup 0.03928 le
                        {12.92321 div}
                        {0.055 add 1.055 div 2.4 exp }
                     ifelse
                 } bind dup dup
               ]
             /MatrixLMN [0.412457 0.212673 0.019334
                         0.357576 0.715152 0.119192
                         0.180437 0.072175 0.950301]
             /WhitePoint [0.9505 1.0 1.0890]
           >>
         ] setcolorspace } bind def
/srgb { setcolor } bind def
%%IncludeResource: font Helvetica
/Helvetica findfont
dup length dict begin
  {1 index /FID ne {def} {pop pop} ifelse} forall
  /Encoding ISOLatin1Encoding def
  currentdict
  end
/Font1 exch definefont pop
%%IncludeResource: font Helvetica-Bold
/Helvetica-Bold findfont
dup length dict begin
  {1 index /FID ne {def} {pop pop} ifelse} forall
  /Encoding ISOLatin1Encoding def
  currentdict
  end
/Font2 exch definefont pop
%%IncludeResource: font Helvetica-Oblique
/Helvetica-Oblique findfont
dup length dict begin
  {1 index /FID ne {def} {pop pop} ifelse} forall
  /Encoding ISOLatin1Encoding def
  currentdict
  end
/Font3 exch definefont pop
%%IncludeResource: font Helvetica-BoldOblique
/Helvetica-BoldOblique findfont
dup length dict begin
  {1 index /FID ne {def} {pop pop} ifelse} forall
  /Encoding ISOLatin1Encoding def
  currentdict
  end
/Font4 exch definefont pop
%%IncludeResource: font Symbol
/Symbol findfont
dup length dict begin
  {1 index /FID ne {def} {pop pop} ifelse} forall
  currentdict
  end
/Font5 exch definefont pop
%%EndProlog
%%Page: 1 1
bp
18.00 36.00 702.00 180.00 cl
/bg { 0 0 0 srgb } def
50.26 164.91 1.00 1.00 r p2
51.93 164.91 1.00 1.00 r p2
53.59 164.91 1.00 1.00 r p2
55.26 164.91 1.00 1.00 r p2
/Font1 findfont 8 s
0 0 0 srgb
57.43 163.38 (<) .5 0 t
59.09 163.38 (<) .5 0 t
60.76 163.38 (<) .5 0 t
62.43 163.38 (<) .5 0 t
64.09 163.38 (<) .5 0 t
65.76 163.38 (<) .5 0 t
66.93 164.91 1.00 1.00 r p2
68.60 164.91 1.00 1.00 r p2
70.76 163.38 (<) .5 0 t
72.43 163.38 (<) .5 0 t
73.60 164.91 1.00 1.00 r p2
75.26 164.91 1.00 1.00 r p2
76.93 164.91 1.00 1.00 r p2
78.60 164.91 1.00 1.00 r p2
80.27 164.91 1.00 1.00 r p2
81.93 164.91 1.00 1.00 r p2
83.60 164.91 1.00 1.00 r p2
85.27 164.91 1.00 1.00 r p2
86.93 164.91 1.00 1.00 r p2
88.60 164.91 1.00 1.00 r p2
90.27 164.91 1.00 1.00 r p2
91.93 164.91 1.00 1.00 r p2
93.60 164.91 1.00 1.00 r p2
95.27 164.91 1.00 1.00 r p2
96.94 164.91 1.00 1.00 r p2
98.60 164.91 1.00 1.00 r p2
100.27 164.91 1.00 1.00 r p2
102.44 163.38 (>) .5 0 t
104.10 163.38 (>) .5 0 t
105.77 163.38 (>) .5 0 t
107.44 163.38 (>) .5 0 t
109.11 163.38 (>) .5 0 t
110.77 163.38 (>) .5 0 t
112.44 163.38 (>) .5 0 t
114.11 163.38 (>) .5 0 t
115.27 164.91 1.00 1.00 r p2
116.94 164.91 1.00 1.00 r p2
118.61 164.91 1.00 1.00 r p2
120.28 164.91 1.00 1.00 r p2
121.94 164.91 1.00 1.00 r p2
123.61 164.91 1.00 1.00 r p2
125.28 164.91 1.00 1.00 r p2
127.44 163.38 (<) .5 0 t
129.11 163.38 (<) .5 0 t
130.78 163.38 (<) .5 0 t
132.44 163.38 (<) .5 0 t
134.11 163.38 (<) .5 0 t
135.78 163.38 (<) .5 0 t
136.95 164.91 1.00 1.00 r p2
138.61 164.91 1.00 1.00 r p2
140.28 164.91 1.00 1.00 r p2
141.95 164.91 1.00 1.00 r p2
144.11 163.38 (<) .5 0 t
145.78 163.38 (<) .5 0 t
147.45 163.38 (<) .5 0 t
149.12 163.38 (<) .5 0 t
150.78 163.38 (<) .5 0 t
152.45 163.38 (<) .5 0 t
153.62 164.91 1.00 1.00 r p2
155.28 164.91 1.00 1.00 r p2
156.95 164.91 1.00 1.00 r p2
159.12 163.38 (<) .5 0 t
160.78 163.38 (<) .5 0 t
162.45 163.38 (<) .5 0 t
164.12 163.38 (<) .5 0 t
165.79 163.38 (<) .5 0 t
167.45 163.38 (<) .5 0 t
169.12 163.38 (<) .5 0 t
170.29 164.91 1.00 1.00 r p2
172.45 163.38 (<) .5 0 t
174.12 163.38 (<) .5 0 t
175.79 163.38 (<) .5 0 t
177.46 163.38 (<) .5 0 t
179.12 163.38 (<) .5 0 t
180.79 163.38 (<) .5 0 t
181.96 164.91 1.00 1.00 r p2
183.62 164.91 1.00 1.00 r p2
185.29 164.91 1.00 1.00 r p2
186.96 164.91 1.00 1.00 r p2
188.63 164.91 1.00 1.00 r p2
190.29 164.91 1.00 1.00 r p2
191.96 164.91 1.00 1.00 r p2
193.63 164.91 1.00 1.00 r p2
195.29 164.91 1.00 1.00 r p2
196.96 164.91 1.00 1.00 r p2
198.63 164.91 1.00 1.00 r p2
200.29 164.91 1.00 1.00 r p2
201.96 164.91 1.00 1.00 r p2
203.63 164.91 1.00 1.00 r p2
205.30 164.91 1.00 1.00 r p2
206.96 164.91 1.00 1.00 r p2
208.63 164.91 1.00 1.00 r p2
210.30 164.91 1.00 1.00 r p2
211.96 164.91 1.00 1.00 r p2
213.63 164.91 1.00 1.00 r p2
215.30 164.91 1.00 1.00 r p2
216.97 164.91 1.00 1.00 r p2
218.63 164.91 1.00 1.00 r p2
220.30 164.91 1.00 1.00 r p2
221.97 164.91 1.00 1.00 r p2
223.63 164.91 1.00 1.00 r p2
225.30 164.91 1.00 1.00 r p2
226.97 164.91 1.00 1.00 r p2
228.63 164.91 1.00 1.00 r p2
230.30 164.91 1.00 1.00 r p2
231.97 164.91 1.00 1.00 r p2
233.64 164.91 1.00 1.00 r p2
235.30 164.91 1.00 1.00 r p2
236.97 164.91 1.00 1.00 r p2
238.64 164.91 1.00 1.00 r p2
240.30 164.91 1.00 1.00 r p2
241.97 164.91 1.00 1.00 r p2
243.64 164.91 1.00 1.00 r p2
245.31 164.91 1.00 1.00 r p2
246.97 164.91 1.00 1.00 r p2
248.64 164.91 1.00 1.00 r p2
250.31 164.91 1.00 1.00 r p2
251.97 164.91 1.00 1.00 r p2
253.64 164.91 1.00 1.00 r p2
255.31 164.91 1.00 1.00 r p2
256.98 164.91 1.00 1.00 r p2
258.64 164.91 1.00 1.00 r p2
260.31 164.91 1.00 1.00 r p2
261.98 164.91 1.00 1.00 r p2
263.64 164.91 1.00 1.00 r p2
265.31 164.91 1.00 1.00 r p2
266.98 164.91 1.00 1.00 r p2
268.64 164.91 1.00 1.00 r p2
270.31 164.91 1.00 1.00 r p2
271.98 164.91 1.00 1.00 r p2
273.65 164.91 1.00 1.00 r p2
275.31 164.91 1.00 1.00 r p2
276.98 164.91 1.00 1.00 r p2
278.65 164.91 1.00 1.00 r p2
280.31 164.91 1.00 1.00 r p2
281.98 164.91 1.00 1.00 r p2
284.15 163.38 (>) .5 0 t
285.82 163.38 (>) .5 0 t
287.48 163.38 (>) .5 0 t
289.15 163.38 (>) .5 0 t
290.82 163.38 (>) .5 0 t
292.48 163.38 (>) .5 0 t
294.15 163.38 (>) .5 0 t
295.82 163.38 (>) .5 0 t
297.48 163.38 (>) .5 0 t
299.15 163.38 (>) .5 0 t
300.82 163.38 (>) .5 0 t
302.49 163.38 (>) .5 0 t
304.15 163.38 (>) .5 0 t
305.32 164.91 1.00 1.00 r p2
306.99 164.91 1.00 1.00 r p2
308.65 164.91 1.00 1.00 r p2
310.82 163.38 (>) .5 0 t
312.49 163.38 (>) .5 0 t
314.16 163.38 (>) .5 0 t
315.82 163.38 (>) .5 0 t
317.49 163.38 (>) .5 0 t
319.16 163.38 (>) .5 0 t
320.82 163.38 (<) .5 0 t
322.49 163.38 (<) .5 0 t
324.16 163.38 (<) .5 0 t
325.33 164.91 1.00 1.00 r p2
326.99 164.91 1.00 1.00 r p2
329.16 163.38 (<) .5 0 t
330.83 163.38 (<) .5 0 t
332.49 163.38 (<) .5 0 t
333.66 164.91 1.00 1.00 r p2
335.83 163.38 (<) .5 0 t
337.49 163.38 (<) .5 0 t
339.16 163.38 (<) .5 0 t
340.83 163.38 (<) .5 0 t
342.50 163.38 (<) .5 0 t
344.16 163.38 (<) .5 0 t
345.83 163.38 (<) .5 0 t
347.50 163.38 (<) .5 0 t
348.66 164.91 1.00 1.00 r p2
350.33 164.91 1.00 1.00 r p2
352.00 164.91 1.00 1.00 r p2
353.67 164.91 1.00 1.00 r p2
355.33 164.91 1.00 1.00 r p2
357.00 164.91 1.00 1.00 r p2
358.67 164.91 1.00 1.00 r p2
360.33 164.91 1.00 1.00 r p2
362.00 164.91 1.00 1.00 r p2
363.67 164.91 1.00 1.00 r p2
365.33 164.91 1.00 1.00 r p2
367.00 164.91 1.00 1.00 r p2
368.67 164.91 1.00 1.00 r p2
370.34 164.91 1.00 1.00 r p2
372.00 164.91 1.00 1.00 r p2
374.17 163.38 (>) .5 0 t
375.84 163.38 (>) .5 0 t
377.50 163.38 (>) .5 0 t
379.17 163.38 (>) .5 0 t
380.84 163.38 (>) .5 0 t
382.51 163.38 (>) .5 0 t
384.17 163.38 (>) .5 0 t
385.84 163.38 (>) .5 0 t
387.51 163.38 (>) .5 0 t
389.17 163.38 (>) .5 0 t
390.84 163.38 (>) .5 0 t
392.01 164.91 1.00 1.00 r p2
394.17 163.38 (>) .5 0 t
395.84 163.38 (>) .5 0 t
397.51 163.38 (>) .5 0 t
398.68 164.91 1.00 1.00 r p2
400.34 164.91 1.00 1.00 r p2
402.01 164.91 1.00 1.00 r p2
404.18 162.54 (A) .5 0 t
405.34 164.91 1.00 1.00 r p2
407.51 162.54 (A) .5 0 t
409.18 162.54 (A) .5 0 t
410.85 162.54 (A) .5 0 t
412.51 162.54 (A) .5 0 t
414.18 162.54 (A) .5 0 t
415.35 164.91 1.00 1.00 r p2
417.01 164.91 1.00 1.00 r p2
418.68 164.91 1.00 1.00 r p2
420.85 163.38 (>) .5 0 t
422.52 163.38 (>) .5 0 t
424.18 163.38 (>) .5 0 t
425.85 163.38 (>) .5 0 t
427.52 163.38 (>) .5 0 t
429.18 163.38 (>) .5 0 t
430.85 163.38 (<) .5 0 t
432.52 163.38 (<) .5 0 t
434.18 163.38 (<) .5 0 t
435.85 163.38 (<) .5 0 t
437.52 163.38 (<) .5 0 t
439.19 163.38 (<) .5 0 t
440.85 163.38 (<) .5 0 t
442.52 163.38 (<) .5 0 t
444.19 163.38 (<) .5 0 t
445.85 163.38 (<) .5 0 t
447.52 163.38 (<) .5 0 t
449.19 163.38 (<) .5 0 t
450.36 164.91 1.00 1.00 r p2
452.02 164.91 1.00 1.00 r p2
453.69 164.91 1.00 1.00 r p2
455.36 164.91 1.00 1.00 r p2
457.02 164.91 1.00 1.00 r p2
458.69 164.91 1.00 1.00 r p2
460.36 164.91 1.00 1.00 r p2
462.02 164.91 1.00 1.00 r p2
463.69 164.91 1.00 1.00 r p2
465.36 164.91 1.00 1.00 r p2
467.03 164.91 1.00 1.00 r p2
468.69 164.91 1.00 1.00 r p2
470.36 164.91 1.00 1.00 r p2
472.03 164.91 1.00 1.00 r p2
473.69 164.91 1.00 1.00 r p2
475.86 163.38 (>) .5 0 t
477.53 163.38 (>) .5 0 t
479.20 163.38 (>) .5 0 t
480.86 163.38 (>) .5 0 t
482.53 163.38 (>) .5 0 t
484.20 163.38 (>) .5 0 t
485.86 163.38 (>) .5 0 t
487.53 163.38 (>) .5 0 t
489.20 163.38 (>) .5 0 t
490.87 163.38 (>) .5 0 t
492.53 163.38 (>) .5 0 t
494.20 163.38 (>) .5 0 t
495.37 164.91 1.00 1.00 r p2
497.03 164.91 1.00 1.00 r p2
498.70 164.91 1.00 1.00 r p2
500.37 164.91 1.00 1.00 r p2
502.03 164.91 1.00 1.00 r p2
503.70 164.91 1.00 1.00 r p2
505.87 163.32 (a) .5 0 t
507.54 163.32 (a) .5 0 t
509.20 163.32 (a) .5 0 t
510.87 163.32 (a) .5 0 t
512.54 163.32 (a) .5 0 t
514.20 163.32 (a) .5 0 t
515.37 164.91 1.00 1.00 r p2
517.54 163.38 (<) .5 0 t
518.71 164.91 1.00 1.00 r p2
520.37 164.91 1.00 1.00 r p2
522.54 163.38 (<) .5 0 t
524.21 163.38 (<) .5 0 t
525.87 163.38 (<) .5 0 t
527.54 163.38 (<) .5 0 t
529.21 163.38 (<) .5 0 t
530.87 163.38 (<) .5 0 t
532.04 164.91 1.00 1.00 r p2
533.71 164.91 1.00 1.00 r p2
535.38 164.91 1.00 1.00 r p2
537.04 164.91 1.00 1.00 r p2
538.71 164.91 1.00 1.00 r p2
540.38 164.91 1.00 1.00 r p2
542.54 163.38 (>) .5 0 t
544.21 163.38 (>) .5 0 t
545.88 163.38 (>) .5 0 t
547.55 163.38 (>) .5 0 t
549.21 163.38 (>) .5 0 t
550.88 163.38 (>) .5 0 t
552.05 164.91 1.00 1.00 r p2
553.71 164.91 1.00 1.00 r p2
555.38 164.91 1.00 1.00 r p2
557.05 164.91 1.00 1.00 r p2
558.72 164.91 1.00 1.00 r p2
560.38 164.91 1.00 1.00 r p2
562.05 164.91 1.00 1.00 r p2
563.72 164.91 1.00 1.00 r p2
565.38 164.91 1.00 1.00 r p2
567.05 164.91 1.00 1.00 r p2
568.72 164.91 1.00 1.00 r p2
570.38 164.91 1.00 1.00 r p2
572.05 164.91 1.00 1.00 r p2
573.72 164.91 1.00 1.00 r p2
575.39 164.91 1.00 1.00 r p2
577.05 164.91 1.00 1.00 r p2
578.72 164.91 1.00 1.00 r p2
580.39 164.91 1.00 1.00 r p2
582.05 164.91 1.00 1.00 r p2
583.72 164.91 1.00 1.00 r p2
585.39 164.91 1.00 1.00 r p2
587.06 164.91 1.00 1.00 r p2
588.72 164.91 1.00 1.00 r p2
590.39 164.91 1.00 1.00 r p2
592.06 164.91 1.00 1.00 r p2
593.72 164.91 1.00 1.00 r p2
595.39 164.91 1.00 1.00 r p2
597.06 164.91 1.00 1.00 r p2
598.72 164.91 1.00 1.00 r p2
600.39 164.91 1.00 1.00 r p2
602.06 164.91 1.00 1.00 r p2
603.73 164.91 1.00 1.00 r p2
605.39 164.91 1.00 1.00 r p2
607.06 164.91 1.00 1.00 r p2
608.73 164.91 1.00 1.00 r p2
610.39 164.91 1.00 1.00 r p2
612.06 164.91 1.00 1.00 r p2
613.73 164.91 1.00 1.00 r p2
615.40 164.91 1.00 1.00 r p2
617.06 164.91 1.00 1.00 r p2
618.73 164.91 1.00 1.00 r p2
620.40 164.91 1.00 1.00 r p2
622.06 164.91 1.00 1.00 r p2
623.73 164.91 1.00 1.00 r p2
625.40 164.91 1.00 1.00 r p2
627.07 164.91 1.00 1.00 r p2
628.73 164.91 1.00 1.00 r p2
630.40 164.91 1.00 1.00 r p2
632.07 164.91 1.00 1.00 r p2
633.73 164.91 1.00 1.00 r p2
635.40 164.91 1.00 1.00 r p2
637.07 164.91 1.00 1.00 r p2
638.73 164.91 1.00 1.00 r p2
640.40 164.91 1.00 1.00 r p2
642.07 164.91 1.00 1.00 r p2
643.74 164.91 1.00 1.00 r p2
645.40 164.91 1.00 1.00 r p2
647.07 164.91 1.00 1.00 r p2
649.24 163.38 (>) .5 0 t
650.40 164.91 1.00 1.00 r p2
652.07 164.91 1.00 1.00 r p2
653.74 164.91 1.00 1.00 r p2
655.41 164.91 1.00 1.00 r p2
657.07 164.91 1.00 1.00 r p2
658.74 164.91 1.00 1.00 r p2
660.41 164.91 1.00 1.00 r p2
662.07 164.91 1.00 1.00 r p2
663.74 164.91 1.00 1.00 r p2
665.41 164.91 1.00 1.00 r p2
667.07 164.91 1.00 1.00 r p2
668.74 164.91 1.00 1.00 r p2
670.41 164.91 1.00 1.00 r p2
0.00 0.00 720.00 180.00 cl
0.00 0.00 720.00 180.00 cl
0 0 0 srgb
0.75 setlinewidth
[] 0 setdash
1 setlinecap
1 setlinejoin
10.00 setmiterlimit
np
49.09 36.00 m
616.82 0 l
o
np
49.09 36.00 m
0 -7.20 l
o
np
65.76 36.00 m
0 -7.20 l
o
np
82.43 36.00 m
0 -7.20 l
o
np
99.10 36.00 m
0 -7.20 l
o
np
115.77 36.00 m
0 -7.20 l
o
np
132.44 36.00 m
0 -7.20 l
o
np
149.12 36.00 m
0 -7.20 l
o
np
165.79 36.00 m
0 -7.20 l
o
np
182.46 36.00 m
0 -7.20 l
o
np
199.13 36.00 m
0 -7.20 l
o
np
215.80 36.00 m
0 -7.20 l
o
np
232.47 36.00 m
0 -7.20 l
o
np
249.14 36.00 m
0 -7.20 l
o
np
265.81 36.00 m
0 -7.20 l
o
np
282.48 36.00 m
0 -7.20 l
o
np
299.15 36.00 m
0 -7.20 l
o
np
315.82 36.00 m
0 -7.20 l
o
np
332.49 36.00 m
0 -7.20 l
o
np
349.16 36.00 m
0 -7.20 l
o
np
365.83 36.00 m
0 -7.20 l
o
np
382.51 36.00 m
0 -7.20 l
o
np
399.18 36.00 m
0 -7.20 l
o
np
415.85 36.00 m
0 -7.20 l
o
np
432.52 36.00 m
0 -7.20 l
o
np
449.19 36.00 m
0 -7.20 l
o
np
465.86 36.00 m
0 -7.20 l
o
np
482.53 36.00 m
0 -7.20 l
o
np
499.20 36.00 m
0 -7.20 l
o
np
515.87 36.00 m
0 -7.20 l
o
np
532.54 36.00 m
0 -7.20 l
o
np
549.21 36.00 m
0 -7.20 l
o
np
565.88 36.00 m
0 -7.20 l
o
np
582.55 36.00 m
0 -7.20 l
o
np
599.22 36.00 m
0 -7.20 l
o
np
615.90 36.00 m
0 -7.20 l
o
np
632.57 36.00 m
0 -7.20 l
o
np
649.24 36.00 m
0 -7.20 l
o
np
665.91 36.00 m
0 -7.20 l
o
/Font1 findfont 12 s
49.09 10.08 (0) .5 0 t
82.43 10.08 (20) .5 0 t
115.77 10.08 (40) .5 0 t
149.12 10.08 (60) .5 0 t
182.46 10.08 (80) .5 0 t
215.80 10.08 (100) .5 0 t
249.14 10.08 (120) .5 0 t
282.48 10.08 (140) .5 0 t
315.82 10.08 (160) .5 0 t
349.16 10.08 (180) .5 0 t
382.51 10.08 (200) .5 0 t
415.85 10.08 (220) .5 0 t
449.19 10.08 (240) .5 0 t
482.53 10.08 (260) .5 0 t
515.87 10.08 (280) .5 0 t
549.21 10.08 (300) .5 0 t
582.55 10.08 (320) .5 0 t
615.90 10.08 (340) .5 0 t
649.24 10.08 (360) .5 0 t
18.00 36.00 702.00 180.00 cl
/bg { 0 0 0 srgb } def
50.26 155.65 1.00 1.00 r p2
51.93 155.65 1.00 1.00 r p2
53.59 155.65 1.00 1.00 r p2
55.26 155.65 1.00 1.00 r p2
/Font1 findfont 8 s
0 0 0 srgb
57.43 154.12 (<) .5 0 t
59.09 154.12 (<) .5 0 t
60.76 154.12 (<) .5 0 t
62.43 154.12 (<) .5 0 t
64.09 154.12 (<) .5 0 t
65.76 154.12 (<) .5 0 t
66.93 155.65 1.00 1.00 r p2
68.60 155.65 1.00 1.00 r p2
70.76 154.12 (<) .5 0 t
72.43 154.12 (<) .5 0 t
73.60 155.65 1.00 1.00 r p2
75.26 155.65 1.00 1.00 r p2
76.93 155.65 1.00 1.00 r p2
78.60 155.65 1.00 1.00 r p2
80.27 155.65 1.00 1.00 r p2
81.93 155.65 1.00 1.00 r p2
83.60 155.65 1.00 1.00 r p2
85.27 155.65 1.00 1.00 r p2
86.93 155.65 1.00 1.00 r p2
88.60 155.65 1.00 1.00 r p2
90.27 155.65 1.00 1.00 r p2
91.93 155.65 1.00 1.00 r p2
93.60 155.65 1.00 1.00 r p2
95.27 155.65 1.00 1.00 r p2
96.94 155.65 1.00 1.00 r p2
98.60 155.65 1.00 1.00 r p2
100.27 155.65 1.00 1.00 r p2
102.44 154.12 (>) .5 0 t
104.10 154.12 (>) .5 0 t
105.77 154.12 (>) .5 0 t
107.44 154.12 (>) .5 0 t
109.11 154.12 (>) .5 0 t
110.77 154.12 (>) .5 0 t
112.44 154.12 (>) .5 0 t
114.11 154.12 (>) .5 0 t
115.27 155.65 1.00 1.00 r p2
116.94 155.65 1.00 1.00 r p2
118.61 155.65 1.00 1.00 r p2
120.28 155.65 1.00 1.00 r p2
121.94 155.65 1.00 1.00 r p2
123.61 155.65 1.00 1.00 r p2
125.28 155.65 1.00 1.00 r p2
127.44 153.28 (A) .5 0 t
129.11 153.28 (A) .5 0 t
130.78 153.28 (A) .5 0 t
132.44 153.28 (A) .5 0 t
134.11 153.28 (A) .5 0 t
135.78 153.28 (A) .5 0 t
136.95 155.65 1.00 1.00 r p2
138.61 155.65 1.00 1.00 r p2
140.28 155.65 1.00 1.00 r p2
141.95 155.65 1.00 1.00 r p2
144.11 154.12 (<) .5 0 t
145.78 154.12 (<) .5 0 t
147.45 154.12 (<) .5 0 t
149.12 154.12 (<) .5 0 t
150.78 154.12 (<) .5 0 t
152.45 154.12 (<) .5 0 t
153.62 155.65 1.00 1.00 r p2
155.28 155.65 1.00 1.00 r p2
156.95 155.65 1.00 1.00 r p2
159.12 154.12 (<) .5 0 t
160.78 154.12 (<) .5 0 t
162.45 154.12 (<) .5 0 t
164.12 154.12 (<) .5 0 t
165.79 154.12 (<) .5 0 t
167.45 154.12 (<) .5 0 t
169.12 154.12 (<) .5 0 t
170.29 155.65 1.00 1.00 r p2
172.45 154.12 (<) .5 0 t
174.12 154.12 (<) .5 0 t
175.79 154.12 (<) .5 0 t
177.46 154.12 (<) .5 0 t
179.12 154.12 (<) .5 0 t
180.79 154.12 (<) .5 0 t
181.96 155.65 1.00 1.00 r p2
183.62 155.65 1.00 1.00 r p2
185.29 155.65 1.00 1.00 r p2
186.96 155.65 1.00 1.00 r p2
188.63 155.65 1.00 1.00 r p2
190.29 155.65 1.00 1.00 r p2
191.96 155.65 1.00 1.00 r p2
193.63 155.65 1.00 1.00 r p2
195.29 155.65 1.00 1.00 r p2
196.96 155.65 1.00 1.00 r p2
198.63 155.65 1.00 1.00 r p2
200.29 155.65 1.00 1.00 r p2
201.96 155.65 1.00 1.00 r p2
203.63 155.65 1.00 1.00 r p2
205.30 155.65 1.00 1.00 r p2
206.96 155.65 1.00 1.00 r p2
208.63 155.65 1.00 1.00 r p2
210.30 155.65 1.00 1.00 r p2
211.96 155.65 1.00 1.00 r p2
213.63 155.65 1.00 1.00 r p2
215.30 155.65 1.00 1.00 r p2
216.97 155.65 1.00 1.00 r p2
218.63 155.65 1.00 1.00 r p2
220.30 155.65 1.00 1.00 r p2
221.97 155.65 1.00 1.00 r p2
223.63 155.65 1.00 1.00 r p2
225.30 155.65 1.00 1.00 r p2
226.97 155.65 1.00 1.00 r p2
228.63 155.65 1.00 1.00 r p2
230.30 155.65 1.00 1.00 r p2
231.97 155.65 1.00 1.00 r p2
233.64 155.65 1.00 1.00 r p2
235.30 155.65 1.00 1.00 r p2
236.97 155.65 1.00 1.00 r p2
238.64 155.65 1.00 1.00 r p2
240.30 155.65 1.00 1.00 r p2
241.97 155.65 1.00 1.00 r p2
243.64 155.65 1.00 1.00 r p2
245.31 155.65 1.00 1.00 r p2
246.97 155.65 1.00 1.00 r p2
248.64 155.65 1.00 1.00 r p2
250.31 155.65 1.00 1.00 r p2
251.97 155.65 1.00 1.00 r p2
253.64 155.65 1.00 1.00 r p2
255.31 155.65 1.00 1.00 r p2
256.98 155.65 1.00 1.00 r p2
258.64 155.65 1.00 1.00 r p2
260.31 155.65 1.00 1.00 r p2
261.98 155.65 1.00 1.00 r p2
263.64 155.65 1.00 1.00 r p2
265.31 155.65 1.00 1.00 r p2
266.98 155.65 1.00 1.00 r p2
268.64 155.65 1.00 1.00 r p2
270.31 155.65 1.00 1.00 r p2
271.98 155.65 1.00 1.00 r p2
273.65 155.65 1.00 1.00 r p2
275.31 155.65 1.00 1.00 r p2
276.98 155.65 1.00 1.00 r p2
278.65 155.65 1.00 1.00 r p2
280.31 155.65 1.00 1.00 r p2
281.98 155.65 1.00 1.00 r p2
284.15 154.12 (>) .5 0 t
285.82 154.12 (>) .5 0 t
287.48 154.12 (>) .5 0 t
289.15 154.12 (>) .5 0 t
290.82 154.12 (>) .5 0 t
292.48 154.12 (>) .5 0 t
294.15 154.12 (>) .5 0 t
295.82 154.12 (>) .5 0 t
297.48 154.12 (>) .5 0 t
299.15 154.12 (>) .5 0 t
300.82 154.12 (>) .5 0 t
302.49 154.12 (>) .5 0 t
304.15 154.12 (>) .5 0 t
305.32 155.65 1.00 1.00 r p2
306.99 155.65 1.00 1.00 r p2
308.65 155.65 1.00 1.00 r p2
310.82 154.12 (>) .5 0 t
312.49 154.12 (>) .5 0 t
314.16 154.12 (>) .5 0 t
315.82 154.12 (>) .5 0 t
317.49 154.12 (>) .5 0 t
319.16 154.12 (>) .5 0 t
320.82 154.12 (<) .5 0 t
322.49 154.12 (<) .5 0 t
324.16 154.12 (<) .5 0 t
325.33 155.65 1.00 1.00 r p2
326.99 155.65 1.00 1.00 r p2
329.16 154.12 (<) .5 0 t
330.83 154.12 (<) .5 0 t
332.49 154.12 (<) .5 0 t
333.66 155.65 1.00 1.00 r p2
335.83 154.12 (<) .5 0 t
337.49 154.12 (<) .5 0 t
339.16 154.12 (<) .5 0 t
340.83 154.12 (<) .5 0 t
342.50 154.12 (<) .5 0 t
344.16 154.12 (<) .5 0 t
345.83 154.12 (<) .5 0 t
347.50 154.12 (<) .5 0 t
348.66 155.65 1.00 1.00 r p2
350.33 155.65 1.00 1.00 r p2
352.00 155.65 1.00 1.00 r p2
353.67 155.65 1.00 1.00 r p2
355.33 155.65 1.00 1.00 r p2
357.00 155.65 1.00 1.00 r p2
358.67 155.65 1.00 1.00 r p2
360.33 155.65 1.00 1.00 r p2
362.00 155.65 1.00 1.00 r p2
363.67 155.65 1.00 1.00 r p2
365.33 155.65 1.00 1.00 r p2
367.00 155.65 1.00 1.00 r p2
368.67 155.65 1.00 1.00 r p2
370.34 155.65 1.00 1.00 r p2
372.00 155.65 1.00 1.00 r p2
374.17 154.12 (>) .5 0 t
375.84 154.12 (>) .5 0 t
377.50 154.12 (>) .5 0 t
379.17 154.12 (>) .5 0 t
380.84 154.12 (>) .5 0 t
382.51 154.12 (>) .5 0 t
384.17 154.12 (>) .5 0 t
385.84 154.12 (>) .5 0 t
387.51 154.12 (>) .5 0 t
389.17 154.12 (>) .5 0 t
390.84 154.12 (>) .5 0 t
392.01 155.65 1.00 1.00 r p2
394.17 154.12 (>) .5 0 t
395.84 154.12 (>) .5 0 t
397.51 154.12 (>) .5 0 t
398.68 155.65 1.00 1.00 r p2
400.34 155.65 1.00 1.00 r p2
402.01 155.65 1.00 1.00 r p2
404.18 154.04 (\() .5 0 t
405.34 155.65 1.00 1.00 r p2
407.51 154.04 (\() .5 0 t
409.18 154.04 (\() .5 0 t
410.85 154.04 (\() .5 0 t
412.51 154.04 (\() .5 0 t
414.18 154.04 (\() .5 0 t
415.35 155.65 1.00 1.00 r p2
417.01 155.65 1.00 1.00 r p2
418.68 155.65 1.00 1.00 r p2
420.85 154.06 (a) .5 0 t
422.52 154.06 (a) .5 0 t
424.18 154.06 (a) .5 0 t
425.85 154.06 (a) .5 0 t
427.52 154.06 (a) .5 0 t
429.18 154.06 (a) .5 0 t
430.85 154.12 (<) .5 0 t
432.52 154.12 (<) .5 0 t
434.18 154.12 (<) .5 0 t
435.85 154.12 (<) .5 0 t
437.52 154.12 (<) .5 0 t
439.19 154.12 (<) .5 0 t
440.85 154.12 (<) .5 0 t
442.52 154.12 (<) .5 0 t
444.19 154.12 (<) .5 0 t
445.85 154.12 (<) .5 0 t
447.52 154.12 (<) .5 0 t
449.19 154.12 (<) .5 0 t
450.36 155.65 1.00 1.00 r p2
452.02 155.65 1.00 1.00 r p2
453.69 155.65 1.00 1.00 r p2
455.36 155.65 1.00 1.00 r p2
457.02 155.65 1.00 1.00 r p2
458.69 155.65 1.00 1.00 r p2
460.36 155.65 1.00 1.00 r p2
462.02 155.65 1.00 1.00 r p2
463.69 155.65 1.00 1.00 r p2
465.36 155.65 1.00 1.00 r p2
467.03 155.65 1.00 1.00 r p2
468.69 155.65 1.00 1.00 r p2
470.36 155.65 1.00 1.00 r p2
472.03 155.65 1.00 1.00 r p2
473.69 155.65 1.00 1.00 r p2
475.86 154.12 (>) .5 0 t
477.53 154.12 (>) .5 0 t
479.20 154.12 (>) .5 0 t
480.86 154.12 (>) .5 0 t
482.53 154.12 (>) .5 0 t
484.20 154.12 (>) .5 0 t
485.86 154.12 (>) .5 0 t
487.53 154.12 (>) .5 0 t
489.20 154.12 (>) .5 0 t
490.87 154.12 (>) .5 0 t
492.53 154.12 (>) .5 0 t
494.20 154.12 (>) .5 0 t
495.37 155.65 1.00 1.00 r p2
497.03 155.65 1.00 1.00 r p2
498.70 155.65 1.00 1.00 r p2
500.37 155.65 1.00 1.00 r p2
502.03 155.65 1.00 1.00 r p2
503.70 155.65 1.00 1.00 r p2
505.87 154.04 (\)) .5 0 t
507.54 154.04 (\)) .5 0 t
509.20 154.04 (\)) .5 0 t
510.87 154.04 (\)) .5 0 t
512.54 154.04 (\)) .5 0 t
514.20 154.04 (\)) .5 0 t
515.37 155.65 1.00 1.00 r p2
517.54 154.12 (<) .5 0 t
518.71 155.65 1.00 1.00 r p2
520.37 155.65 1.00 1.00 r p2
522.54 154.12 (<) .5 0 t
524.21 154.12 (<) .5 0 t
525.87 154.12 (<) .5 0 t
527.54 154.12 (<) .5 0 t
529.21 154.12 (<) .5 0 t
530.87 154.12 (<) .5 0 t
532.04 155.65 1.00 1.00 r p2
533.71 155.65 1.00 1.00 r p2
535.38 155.65 1.00 1.00 r p2
537.04 155.65 1.00 1.00 r p2
538.71 155.65 1.00 1.00 r p2
540.38 155.65 1.00 1.00 r p2
542.54 154.12 (>) .5 0 t
544.21 154.12 (>) .5 0 t
545.88 154.12 (>) .5 0 t
547.55 154.12 (>) .5 0 t
549.21 154.12 (>) .5 0 t
550.88 154.12 (>) .5 0 t
552.05 155.65 1.00 1.00 r p2
553.71 155.65 1.00 1.00 r p2
555.38 155.65 1.00 1.00 r p2
557.05 155.65 1.00 1.00 r p2
558.72 155.65 1.00 1.00 r p2
560.38 155.65 1.00 1.00 r p2
562.05 155.65 1.00 1.00 r p2
563.72 155.65 1.00 1.00 r p2
565.38 155.65 1.00 1.00 r p2
567.05 155.65 1.00 1.00 r p2
568.72 155.65 1.00 1.00 r p2
570.38 155.65 1.00 1.00 r p2
572.05 155.65 1.00 1.00 r p2
573.72 155.65 1.00 1.00 r p2
575.39 155.65 1.00 1.00 r p2
577.05 155.65 1.00 1.00 r p2
578.72 155.65 1.00 1.00 r p2
580.39 155.65 1.00 1.00 r p2
582.05 155.65 1.00 1.00 r p2
583.72 155.65 1.00 1.00 r p2
585.39 155.65 1.00 1.00 r p2
587.06 155.65 1.00 1.00 r p2
588.72 155.65 1.00 1.00 r p2
590.39 155.65 1.00 1.00 r p2
592.06 155.65 1.00 1.00 r p2
593.72 155.65 1.00 1.00 r p2
595.39 155.65 1.00 1.00 r p2
597.06 155.65 1.00 1.00 r p2
598.72 155.65 1.00 1.00 r p2
600.39 155.65 1.00 1.00 r p2
602.06 155.65 1.00 1.00 r p2
603.73 155.65 1.00 1.00 r p2
605.39 155.65 1.00 1.00 r p2
607.06 155.65 1.00 1.00 r p2
608.73 155.65 1.00 1.00 r p2
610.39 155.65 1.00 1.00 r p2
612.06 155.65 1.00 1.00 r p2
613.73 155.65 1.00 1.00 r p2
615.40 155.65 1.00 1.00 r p2
617.06 155.65 1.00 1.00 r p2
618.73 155.65 1.00 1.00 r p2
620.40 155.65 1.00 1.00 r p2
622.06 155.65 1.00 1.00 r p2
623.73 155.65 1.00 1.00 r p2
625.40 155.65 1.00 1.00 r p2
627.07 155.65 1.00 1.00 r p2
628.73 155.65 1.00 1.00 r p2
630.40 155.65 1.00 1.00 r p2
632.07 155.65 1.00 1.00 r p2
633.73 155.65 1.00 1.00 r p2
635.40 155.65 1.00 1.00 r p2
637.07 155.65 1.00 1.00 r p2
638.73 155.65 1.00 1.00 r p2
640.40 155.65 1.00 1.00 r p2
642.07 155.65 1.00 1.00 r p2
643.74 155.65 1.00 1.00 r p2
645.40 155.65 1.00 1.00 r p2
647.07 155.65 1.00 1.00 r p2
649.24 154.12 (>) .5 0 t
650.40 155.65 1.00 1.00 r p2
652.07 155.65 1.00 1.00 r p2
653.74 155.65 1.00 1.00 r p2
655.41 155.65 1.00 1.00 r p2
657.07 155.65 1.00 1.00 r p2
658.74 155.65 1.00 1.00 r p2
660.41 155.65 1.00 1.00 r p2
662.07 155.65 1.00 1.00 r p2
663.74 155.65 1.00 1.00 r p2
665.41 155.65 1.00 1.00 r p2
667.07 155.65 1.00 1.00 r p2
668.74 155.65 1.00 1.00 r p2
670.41 155.65 1.00 1.00 r p2
50.26 146.39 1.00 1.00 r p2
51.93 146.39 1.00 1.00 r p2
53.59 146.39 1.00 1.00 r p2
55.26 146.39 1.00 1.00 r p2
57.43 144.08 (1) .5 0 t
59.09 144.08 (1) .5 0 t
60.76 144.08 (1) .5 0 t
62.43 144.08 (1) .5 0 t
64.09 144.08 (1) .5 0 t
65.76 144.08 (1) .5 0 t
66.93 146.39 1.00 1.00 r p2
68.60 146.39 1.00 1.00 r p2
70.76 144.08 (1) .5 0 t
72.43 144.08 (1) .5 0 t
73.60 146.39 1.00 1.00 r p2
75.26 146.39 1.00 1.00 r p2
76.93 146.39 1.00 1.00 r p2
78.60 146.39 1.00 1.00 r p2
80.27 146.39 1.00 1.00 r p2
81.93 146.39 1.00 1.00 r p2
83.60 146.39 1.00 1.00 r p2
85.27 146.39 1.00 1.00 r p2
86.93 146.39 1.00 1.00 r p2
88.60 146.39 1.00 1.00 r p2
90.27 146.39 1.00 1.00 r p2
91.93 146.39 1.00 1.00 r p2
93.60 146.39 1.00 1.00 r p2
95.27 146.39 1.00 1.00 r p2
96.94 146.39 1.00 1.00 r p2
98.60 146.39 1.00 1.00 r p2
100.27 146.39 1.00 1.00 r p2
102.44 144.08 (1) .5 0 t
104.10 144.08 (1) .5 0 t
105.77 144.08 (1) .5 0 t
107.44 144.08 (1) .5 0 t
109.11 144.08 (1) .5 0 t
110.77 144.08 (1) .5 0 t
112.44 144.08 (1) .5 0 t
114.11 144.08 (1) .5 0 t
115.27 146.39 1.00 1.00 r p2
116.94 146.39 1.00 1.00 r p2
118.61 146.39 1.00 1.00 r p2
120.28 146.39 1.00 1.00 r p2
121.94 146.39 1.00 1.00 r p2
123.61 146.39 1.00 1.00 r p2
125.28 146.39 1.00 1.00 r p2
127.44 144.15 (3) .5 0 t
129.11 144.15 (3) .5 0 t
130.78 144.15 (3) .5 0 t
132.44 144.15 (3) .5 0 t
134.11 144.15 (3) .5 0 t
135.78 144.15 (3) .5 0 t
136.95 146.39 1.00 1.00 r p2
138.61 146.39 1.00 1.00 r p2
140.28 146.39 1.00 1.00 r p2
141.95 146.39 1.00 1.00 r p2
144.11 144.08 (4) .5 0 t
145.78 144.08 (4) .5 0 t
147.45 144.08 (4) .5 0 t
149.12 144.08 (4) .5 0 t
150.78 144.08 (4) .5 0 t
152.45 144.08 (4) .5 0 t
153.62 146.39 1.00 1.00 r p2
155.28 146.39 1.00 1.00 r p2
156.95 146.39 1.00 1.00 r p2
159.12 144.08 (4) .5 0 t
160.78 144.08 (4) .5 0 t
162.45 144.08 (4) .5 0 t
164.12 144.08 (4) .5 0 t
165.79 144.08 (4) .5 0 t
167.45 144.08 (4) .5 0 t
169.12 144.08 (4) .5 0 t
170.29 146.39 1.00 1.00 r p2
172.45 144.08 (4) .5 0 t
174.12 144.08 (4) .5 0 t
175.79 144.08 (4) .5 0 t
177.46 144.08 (4) .5 0 t
179.12 144.08 (4) .5 0 t
180.79 144.08 (4) .5 0 t
181.96 146.39 1.00 1.00 r p2
183.62 146.39 1.00 1.00 r p2
185.29 146.39 1.00 1.00 r p2
186.96 146.39 1.00 1.00 r p2
188.63 146.39 1.00 1.00 r p2
190.29 146.39 1.00 1.00 r p2
191.96 146.39 1.00 1.00 r p2
193.63 146.39 1.00 1.00 r p2
195.29 146.39 1.00 1.00 r p2
196.96 146.39 1.00 1.00 r p2
198.63 146.39 1.00 1.00 r p2
200.29 146.39 1.00 1.00 r p2
201.96 146.39 1.00 1.00 r p2
203.63 146.39 1.00 1.00 r p2
205.30 146.39 1.00 1.00 r p2
206.96 146.39 1.00 1.00 r p2
208.63 146.39 1.00 1.00 r p2
210.30 146.39 1.00 1.00 r p2
211.96 146.39 1.00 1.00 r p2
213.63 146.39 1.00 1.00 r p2
215.30 146.39 1.00 1.00 r p2
216.97 146.39 1.00 1.00 r p2
218.63 146.39 1.00 1.00 r p2
220.30 146.39 1.00 1.00 r p2
221.97 146.39 1.00 1.00 r p2
223.63 146.39 1.00 1.00 r p2
225.30 146.39 1.00 1.00 r p2
226.97 146.39 1.00 1.00 r p2
228.63 146.39 1.00 1.00 r p2
230.30 146.39 1.00 1.00 r p2
231.97 146.39 1.00 1.00 r p2
233.64 146.39 1.00 1.00 r p2
235.30 146.39 1.00 1.00 r p2
236.97 146.39 1.00 1.00 r p2
238.64 146.39 1.00 1.00 r p2
240.30 146.39 1.00 1.00 r p2
241.97 146.39 1.00 1.00 r p2
243.64 146.39 1.00 1.00 r p2
245.31 146.39 1.00 1.00 r p2
246.97 146.39 1.00 1.00 r p2
248.64 146.39 1.00 1.00 r p2
250.31 146.39 1.00 1.00 r p2
251.97 146.39 1.00 1.00 r p2
253.64 146.39 1.00 1.00 r p2
255.31 146.39 1.00 1.00 r p2
256.98 146.39 1.00 1.00 r p2
258.64 146.39 1.00 1.00 r p2
260.31 146.39 1.00 1.00 r p2
261.98 146.39 1.00 1.00 r p2
263.64 146.39 1.00 1.00 r p2
265.31 146.39 1.00 1.00 r p2
266.98 146.39 1.00 1.00 r p2
268.64 146.39 1.00 1.00 r p2
270.31 146.39 1.00 1.00 r p2
271.98 146.39 1.00 1.00 r p2
273.65 146.39 1.00 1.00 r p2
275.31 146.39 1.00 1.00 r p2
276.98 146.39 1.00 1.00 r p2
278.65 146.39 1.00 1.00 r p2
280.31 146.39 1.00 1.00 r p2
281.98 146.39 1.00 1.00 r p2
284.15 144.08 (4) .5 0 t
285.82 144.08 (4) .5 0 t
287.48 144.08 (4) .5 0 t
289.15 144.08 (4) .5 0 t
290.82 144.08 (4) .5 0 t
292.48 144.08 (4) .5 0 t
294.15 144.08 (4) .5 0 t
295.82 144.08 (4) .5 0 t
297.48 144.08 (4) .5 0 t
299.15 144.08 (4) .5 0 t
300.82 144.08 (4) .5 0 t
302.49 144.08 (4) .5 0 t
304.15 144.08 (4) .5 0 t
305.32 146.39 1.00 1.00 r p2
306.99 146.39 1.00 1.00 r p2
308.65 146.39 1.00 1.00 r p2
310.82 144.08 (4) .5 0 t
312.49 144.08 (4) .5 0 t
314.16 144.08 (4) .5 0 t
315.82 144.08 (4) .5 0 t
317.49 144.08 (4) .5 0 t
319.16 144.08 (4) .5 0 t
320.82 144.21 (5) .5 0 t
322.49 144.21 (5) .5 0 t
324.16 144.21 (5) .5 0 t
325.33 146.39 1.00 1.00 r p2
326.99 146.39 1.00 1.00 r p2
329.16 144.21 (5) .5 0 t
330.83 144.21 (5) .5 0 t
332.49 144.21 (5) .5 0 t
333.66 146.39 1.00 1.00 r p2
335.83 144.21 (5) .5 0 t
337.49 144.21 (5) .5 0 t
339.16 144.21 (5) .5 0 t
340.83 144.21 (5) .5 0 t
342.50 144.21 (5) .5 0 t
344.16 144.21 (5) .5 0 t
345.83 144.21 (5) .5 0 t
347.50 144.21 (5) .5 0 t
348.66 146.39 1.00 1.00 r p2
350.33 146.39 1.00 1.00 r p2
352.00 146.39 1.00 1.00 r p2
353.67 146.39 1.00 1.00 r p2
355.33 146.39 1.00 1.00 r p2
357.00 146.39 1.00 1.00 r p2
358.67 146.39 1.00 1.00 r p2
360.33 146.39 1.00 1.00 r p2
362.00 146.39 1.00 1.00 r p2
363.67 146.39 1.00 1.00 r p2
365.33 146.39 1.00 1.00 r p2
367.00 146.39 1.00 1.00 r p2
368.67 146.39 1.00 1.00 r p2
370.34 146.39 1.00 1.00 r p2
372.00 146.39 1.00 1.00 r p2
374.17 144.21 (5) .5 0 t
375.84 144.21 (5) .5 0 t
377.50 144.21 (5) .5 0 t
379.17 144.21 (5) .5 0 t
380.84 144.21 (5) .5 0 t
382.51 144.21 (5) .5 0 t
384.17 144.21 (5) .5 0 t
385.84 144.21 (5) .5 0 t
387.51 144.21 (5) .5 0 t
389.17 144.21 (5) .5 0 t
390.84 144.21 (5) .5 0 t
392.01 146.39 1.00 1.00 r p2
394.17 144.21 (5) .5 0 t
395.84 144.21 (5) .5 0 t
397.51 144.21 (5) .5 0 t
398.68 146.39 1.00 1.00 r p2
400.34 146.39 1.00 1.00 r p2
402.01 146.39 1.00 1.00 r p2
404.18 144.15 (6) .5 0 t
405.34 146.39 1.00 1.00 r p2
407.51 144.15 (6) .5 0 t
409.18 144.15 (6) .5 0 t
410.85 144.15 (6) .5 0 t
412.51 144.15 (6) .5 0 t
414.18 144.15 (6) .5 0 t
415.35 146.39 1.00 1.00 r p2
417.01 146.39 1.00 1.00 r p2
418.68 146.39 1.00 1.00 r p2
420.85 144.15 (3) .5 0 t
422.52 144.15 (3) .5 0 t
424.18 144.15 (3) .5 0 t
425.85 144.15 (3) .5 0 t
427.52 144.15 (3) .5 0 t
429.18 144.15 (3) .5 0 t
430.85 144.14 (7) .5 0 t
432.52 144.14 (7) .5 0 t
434.18 144.14 (7) .5 0 t
435.85 144.14 (7) .5 0 t
437.52 144.14 (7) .5 0 t
439.19 144.14 (7) .5 0 t
440.85 144.14 (7) .5 0 t
442.52 144.14 (7) .5 0 t
444.19 144.14 (7) .5 0 t
445.85 144.14 (7) .5 0 t
447.52 144.14 (7) .5 0 t
449.19 144.14 (7) .5 0 t
450.36 146.39 1.00 1.00 r p2
452.02 146.39 1.00 1.00 r p2
453.69 146.39 1.00 1.00 r p2
455.36 146.39 1.00 1.00 r p2
457.02 146.39 1.00 1.00 r p2
458.69 146.39 1.00 1.00 r p2
460.36 146.39 1.00 1.00 r p2
462.02 146.39 1.00 1.00 r p2
463.69 146.39 1.00 1.00 r p2
465.36 146.39 1.00 1.00 r p2
467.03 146.39 1.00 1.00 r p2
468.69 146.39 1.00 1.00 r p2
470.36 146.39 1.00 1.00 r p2
472.03 146.39 1.00 1.00 r p2
473.69 146.39 1.00 1.00 r p2
475.86 144.14 (7) .5 0 t
477.53 144.14 (7) .5 0 t
479.20 144.14 (7) .5 0 t
480.86 144.14 (7) .5 0 t
482.53 144.14 (7) .5 0 t
484.20 144.14 (7) .5 0 t
485.86 144.14 (7) .5 0 t
487.53 144.14 (7) .5 0 t
489.20 144.14 (7) .5 0 t
490.87 144.14 (7) .5 0 t
492.53 144.14 (7) .5 0 t
494.20 144.14 (7) .5 0 t
495.37 146.39 1.00 1.00 r p2
497.03 146.39 1.00 1.00 r p2
498.70 146.39 1.00 1.00 r p2
500.37 146.39 1.00 1.00 r p2
502.03 146.39 1.00 1.00 r p2
503.70 146.39 1.00 1.00 r p2
505.87 144.15 (6) .5 0 t
507.54 144.15 (6) .5 0 t
509.20 144.15 (6) .5 0 t
510.87 144.15 (6) .5 0 t
512.54 144.15 (6) .5 0 t
514.20 144.15 (6) .5 0 t
515.37 146.39 1.00 1.00 r p2
517.54 144.15 (8) .5 0 t
518.71 146.39 1.00 1.00 r p2
520.37 146.39 1.00 1.00 r p2
522.54 144.15 (8) .5 0 t
524.21 144.15 (8) .5 0 t
525.87 144.15 (8) .5 0 t
527.54 144.15 (8) .5 0 t
529.21 144.15 (8) .5 0 t
530.87 144.15 (8) .5 0 t
532.04 146.39 1.00 1.00 r p2
533.71 146.39 1.00 1.00 r p2
535.38 146.39 1.00 1.00 r p2
537.04 146.39 1.00 1.00 r p2
538.71 146.39 1.00 1.00 r p2
540.38 146.39 1.00 1.00 r p2
542.54 144.15 (8) .5 0 t
544.21 144.15 (8) .5 0 t
545.88 144.15 (8) .5 0 t
547.55 144.15 (8) .5 0 t
549.21 144.15 (8) .5 0 t
550.88 144.15 (8) .5 0 t
552.05 146.39 1.00 1.00 r p2
553.71 146.39 1.00 1.00 r p2
555.38 146.39 1.00 1.00 r p2
557.05 146.39 1.00 1.00 r p2
558.72 146.39 1.00 1.00 r p2
560.38 146.39 1.00 1.00 r p2
562.05 146.39 1.00 1.00 r p2
563.72 146.39 1.00 1.00 r p2
565.38 146.39 1.00 1.00 r p2
567.05 146.39 1.00 1.00 r p2
568.72 146.39 1.00 1.00 r p2
570.38 146.39 1.00 1.00 r p2
572.05 146.39 1.00 1.00 r p2
573.72 146.39 1.00 1.00 r p2
575.39 146.39 1.00 1.00 r p2
577.05 146.39 1.00 1.00 r p2
578.72 146.39 1.00 1.00 r p2
580.39 146.39 1.00 1.00 r p2
582.05 146.39 1.00 1.00 r p2
583.72 146.39 1.00 1.00 r p2
585.39 146.39 1.00 1.00 r p2
587.06 146.39 1.00 1.00 r p2
588.72 146.39 1.00 1.00 r p2
590.39 146.39 1.00 1.00 r p2
592.06 146.39 1.00 1.00 r p2
593.72 146.39 1.00 1.00 r p2
595.39 146.39 1.00 1.00 r p2
597.06 146.39 1.00 1.00 r p2
598.72 146.39 1.00 1.00 r p2
600.39 146.39 1.00 1.00 r p2
602.06 146.39 1.00 1.00 r p2
603.73 146.39 1.00 1.00 r p2
605.39 146.39 1.00 1.00 r p2
607.06 146.39 1.00 1.00 r p2
608.73 146.39 1.00 1.00 r p2
610.39 146.39 1.00 1.00 r p2
612.06 146.39 1.00 1.00 r p2
613.73 146.39 1.00 1.00 r p2
615.40 146.39 1.00 1.00 r p2
617.06 146.39 1.00 1.00 r p2
618.73 146.39 1.00 1.00 r p2
620.40 146.39 1.00 1.00 r p2
622.06 146.39 1.00 1.00 r p2
623.73 146.39 1.00 1.00 r p2
625.40 146.39 1.00 1.00 r p2
627.07 146.39 1.00 1.00 r p2
628.73 146.39 1.00 1.00 r p2
630.40 146.39 1.00 1.00 r p2
632.07 146.39 1.00 1.00 r p2
633.73 146.39 1.00 1.00 r p2
635.40 146.39 1.00 1.00 r p2
637.07 146.39 1.00 1.00 r p2
638.73 146.39 1.00 1.00 r p2
640.40 146.39 1.00 1.00 r p2
642.07 146.39 1.00 1.00 r p2
643.74 146.39 1.00 1.00 r p2
645.40 146.39 1.00 1.00 r p2
647.07 146.39 1.00 1.00 r p2
649.24 144.15 (8) .5 0 t
650.40 146.39 1.00 1.00 r p2
652.07 146.39 1.00 1.00 r p2
653.74 146.39 1.00 1.00 r p2
655.41 146.39 1.00 1.00 r p2
657.07 146.39 1.00 1.00 r p2
658.74 146.39 1.00 1.00 r p2
660.41 146.39 1.00 1.00 r p2
662.07 146.39 1.00 1.00 r p2
663.74 146.39 1.00 1.00 r p2
665.41 146.39 1.00 1.00 r p2
667.07 146.39 1.00 1.00 r p2
668.74 146.39 1.00 1.00 r p2
670.41 146.39 1.00 1.00 r p2
1 0 0 srgb
0.75 setlinewidth
[] 0 setdash
1 setlinecap
1 setlinejoin
10.00 setmiterlimit
np
50.76 140.57 m
2.54 -4.41 l
-5.09 0 l
2.55 4.41 l
o
np
127.44 140.57 m
2.55 -4.41 l
-5.09 0 l
2.54 4.41 l
o
np
144.11 140.57 m
2.55 -4.41 l
-5.09 0 l
2.54 4.41 l
o
np
127.44 140.57 m
2.55 -4.41 l
-5.09 0 l
2.54 4.41 l
o
np
127.44 140.57 m
2.55 -4.41 l
-5.09 0 l
2.54 4.41 l
o
np
144.11 140.57 m
2.55 -4.41 l
-5.09 0 l
2.54 4.41 l
o
np
284.15 140.57 m
2.54 -4.41 l
-5.09 0 l
2.55 4.41 l
o
np
284.15 140.57 m
2.54 -4.41 l
-5.09 0 l
2.55 4.41 l
o
np
320.82 140.57 m
2.55 -4.41 l
-5.09 0 l
2.54 4.41 l
o
np
374.17 140.57 m
2.55 -4.41 l
-5.10 0 l
2.55 4.41 l
o
np
404.18 140.57 m
2.54 -4.41 l
-5.09 0 l
2.55 4.41 l
o
np
374.17 140.57 m
2.55 -4.41 l
-5.10 0 l
2.55 4.41 l
o
np
404.18 140.57 m
2.54 -4.41 l
-5.09 0 l
2.55 4.41 l
o
np
404.18 140.57 m
2.54 -4.41 l
-5.09 0 l
2.55 4.41 l
o
np
430.85 140.57 m
2.55 -4.41 l
-5.09 0 l
2.54 4.41 l
o
np
430.85 140.57 m
2.55 -4.41 l
-5.09 0 l
2.54 4.41 l
o
np
475.86 140.57 m
2.55 -4.41 l
-5.09 0 l
2.54 4.41 l
o
np
430.85 140.57 m
2.55 -4.41 l
-5.09 0 l
2.54 4.41 l
o
np
475.86 140.57 m
2.55 -4.41 l
-5.09 0 l
2.54 4.41 l
o
np
505.87 140.57 m
2.54 -4.41 l
-5.09 0 l
2.55 4.41 l
o
np
517.54 140.57 m
2.54 -4.41 l
-5.09 0 l
2.55 4.41 l
o
np
114.11 140.57 m
2.54 -4.41 l
-5.09 0 l
2.55 4.41 l
o
np
180.79 140.57 m
2.55 -4.41 l
-5.10 0 l
2.55 4.41 l
o
np
347.50 140.57 m
2.54 -4.41 l
-5.09 0 l
2.55 4.41 l
o
np
414.18 140.57 m
2.55 -4.41 l
-5.10 0 l
2.55 4.41 l
o
np
429.18 140.57 m
2.55 -4.41 l
-5.09 0 l
2.54 4.41 l
o
np
429.18 140.57 m
2.55 -4.41 l
-5.09 0 l
2.54 4.41 l
o
np
397.51 140.57 m
2.54 -4.41 l
-5.09 0 l
2.55 4.41 l
o
np
449.19 140.57 m
2.54 -4.41 l
-5.09 0 l
2.55 4.41 l
o
np
414.18 140.57 m
2.55 -4.41 l
-5.10 0 l
2.55 4.41 l
o
np
449.19 140.57 m
2.54 -4.41 l
-5.09 0 l
2.55 4.41 l
o
np
429.18 140.57 m
2.55 -4.41 l
-5.09 0 l
2.54 4.41 l
o
np
514.20 140.57 m
2.55 -4.41 l
-5.09 0 l
2.54 4.41 l
o
np
514.20 140.57 m
2.55 -4.41 l
-5.09 0 l
2.54 4.41 l
o
np
530.87 140.57 m
2.55 -4.41 l
-5.09 0 l
2.54 4.41 l
o
np
514.20 140.57 m
2.55 -4.41 l
-5.09 0 l
2.54 4.41 l
o
np
530.87 140.57 m
2.55 -4.41 l
-5.09 0 l
2.54 4.41 l
o
np
514.20 140.57 m
2.55 -4.41 l
-5.09 0 l
2.54 4.41 l
o
np
649.24 140.57 m
2.54 -4.41 l
-5.09 0 l
2.55 4.41 l
o
np
649.24 140.57 m
2.54 -4.41 l
-5.09 0 l
2.55 4.41 l
o
np
649.24 140.57 m
2.54 -4.41 l
-5.09 0 l
2.55 4.41 l
o
np
670.91 140.57 m
2.54 -4.41 l
-5.09 0 l
2.55 4.41 l
o
0 0 0.8510 srgb
np
50.76 119.11 m
63.35 0 l
o
/Font1 findfont 7 s
82.43 121.99 (left-P1) .5 0 t
0 0.3020 1 srgb
np
127.44 115.41 m
53.35 0 l
o
154.12 108.34 (L3-L4) .5 0 t
0.0275 1 0.9725 srgb
np
144.11 111.70 m
203.39 0 l
o
245.81 114.58 (P4-L5) .5 0 t
0.1294 1 0.8706 srgb
np
127.44 108.00 m
286.74 0 l
o
270.81 100.93 (L3-L6) .5 0 t
0.1529 1 0.8471 srgb
np
127.44 104.30 m
301.74 0 l
o
278.31 107.18 (P3-L4) .5 0 t
0.1804 1 0.8196 srgb
np
144.11 100.59 m
285.07 0 l
o
286.65 93.52 (R3-P4) .5 0 t
0.4118 1 0.5882 srgb
np
284.15 96.89 m
113.36 0 l
o
340.83 99.77 (R4-P5) .5 0 t
0.5137 1 0.4863 srgb
np
284.15 93.19 m
165.04 0 l
o
366.67 86.12 (R4-L7) .5 0 t
np
320.82 89.48 m
93.36 0 l
o
367.50 92.36 (P5-L6) .5 0 t
0.6941 1 0.3059 srgb
np
374.17 85.78 m
75.02 0 l
o
411.68 78.71 (R5-L7) .5 0 t
0.7176 1 0.2824 srgb
np
404.18 82.07 m
25.00 0 l
o
416.68 84.95 (L6-R3) .5 0 t
0.8471 1 0.1529 srgb
np
374.17 78.37 m
140.03 0 l
o
444.19 71.30 (R5-P6) .5 0 t
0.8980 1 0.1020 srgb
np
404.18 74.67 m
110.02 0 l
o
459.19 77.55 (P6-L7) .5 0 t
0.9216 1 0.0784 srgb
np
404.18 70.96 m
126.69 0 l
o
467.53 63.89 (L6-L8) .5 0 t
0.9490 1 0.0510 srgb
np
430.85 67.26 m
83.35 0 l
o
472.53 70.14 (R6-P7) .5 0 t
0.9725 1 0.0275 srgb
np
430.85 63.56 m
100.02 0 l
o
480.86 56.49 (P7-L8) .5 0 t
1 0.9020 0 srgb
np
475.86 59.85 m
38.34 0 l
o
495.03 62.73 (R7-R6) .5 0 t
1 0.5490 0 srgb
np
430.85 56.15 m
218.39 0 l
o
540.04 49.08 (P7-P8) .5 0 t
1 0.3490 0 srgb
np
475.86 52.44 m
173.38 0 l
o
562.55 55.32 (R7-P8) .5 0 t
1 0.2510 0 srgb
np
505.87 48.74 m
143.37 0 l
o
577.55 41.67 (R6-P8) .5 0 t
1 0.0980 0 srgb
np
517.54 45.04 m
153.37 0 l
o
581.09 47.92 (P8-r) 0 ta
0.105 (ight) tb gr
ep
%%Trailer
%%Pages: 1
%%EOF
