%!PS-Adobe-3.0
%%DocumentNeededResources: font Helvetica
%%+ font Helvetica-Bold
%%+ font Helvetica-Oblique
%%+ font Helvetica-BoldOblique
%%+ font Symbol
%%DocumentMedia: special 180 720 0 () ()
%%Title: R Graphics Output
%%Creator: R Software
%%Pages: (atend)
%%BoundingBox: 0 0 180 720
%%EndComments
%%BeginProlog
/bp  { gs sRGB 180.00 0 translate 90 rotate gs } def
% begin .ps.prolog
/gs  { gsave } bind def
/gr  { grestore } bind def
/ep  { showpage gr gr } bind def
/m   { moveto } bind def
/l  { rlineto } bind def
/np  { newpath } bind def
/cp  { closepath } bind def
/f   { fill } bind def
/o   { stroke } bind def
/c   { newpath 0 360 arc } bind def
/r   { 4 2 roll moveto 1 copy 3 -1 roll exch 0 exch rlineto 0 rlineto -1 mul 0 exch rlineto closepath } bind def
/p1  { stroke } bind def
/p2  { gsave bg fill grestore newpath } bind def
/p3  { gsave bg fill grestore stroke } bind def
/p6  { gsave bg eofill grestore newpath } bind def
/p7  { gsave bg eofill grestore stroke } bind def
/t   { 5 -2 roll moveto gsave rotate
       1 index stringwidth pop
       mul neg 0 rmoveto show grestore } bind def
/ta  { 4 -2 roll moveto gsave rotate show } bind def
/tb  { 2 -1 roll 0 rmoveto show } bind def
/cl  { grestore gsave newpath 3 index 3 index moveto 1 index
       4 -1 roll lineto  exch 1 index lineto lineto
       closepath clip newpath } bind def
/rgb { setrgbcolor } bind def
/s   { scalefont setfont } bind def
% end   .ps.prolog
/sRGB { [ /CIEBasedABC
          << /DecodeLMN
               [ { dup 0.03928 le
                        {12.92321 div}
                        {0.055 add 1.055 div 2.4 exp }
                     ifelse
                 } bind dup dup
               ]
             /MatrixLMN [0.412457 0.212673 0.019334
                         0.357576 0.715152 0.119192
                         0.180437 0.072175 0.950301]
             /WhitePoint [0.9505 1.0 1.0890]
           >>
         ] setcolorspace } bind def
/srgb { setcolor } bind def
%%IncludeResource: font Helvetica
/Helvetica findfont
dup length dict begin
  {1 index /FID ne {def} {pop pop} ifelse} forall
  /Encoding ISOLatin1Encoding def
  currentdict
  end
/Font1 exch definefont pop
%%IncludeResource: font Helvetica-Bold
/Helvetica-Bold findfont
dup length dict begin
  {1 index /FID ne {def} {pop pop} ifelse} forall
  /Encoding ISOLatin1Encoding def
  currentdict
  end
/Font2 exch definefont pop
%%IncludeResource: font Helvetica-Oblique
/Helvetica-Oblique findfont
dup length dict begin
  {1 index /FID ne {def} {pop pop} ifelse} forall
  /Encoding ISOLatin1Encoding def
  currentdict
  end
/Font3 exch definefont pop
%%IncludeResource: font Helvetica-BoldOblique
/Helvetica-BoldOblique findfont
dup length dict begin
  {1 index /FID ne {def} {pop pop} ifelse} forall
  /Encoding ISOLatin1Encoding def
  currentdict
  end
/Font4 exch definefont pop
%%IncludeResource: font Symbol
/Symbol findfont
dup length dict begin
  {1 index /FID ne {def} {pop pop} ifelse} forall
  currentdict
  end
/Font5 exch definefont pop
%%EndProlog
%%Page: 1 1
bp
18.00 36.00 702.00 180.00 cl
/bg { 0 0 0 srgb } def
49.53 164.91 1.00 1.00 r p2
50.47 164.91 1.00 1.00 r p2
51.41 164.91 1.00 1.00 r p2
52.35 164.91 1.00 1.00 r p2
53.29 164.91 1.00 1.00 r p2
/Font1 findfont 8 s
0 0 0 srgb
54.73 163.38 (<) .5 0 t
55.67 163.38 (<) .5 0 t
56.61 163.38 (<) .5 0 t
57.54 163.38 (<) .5 0 t
58.48 163.38 (<) .5 0 t
59.42 163.38 (<) .5 0 t
59.86 164.91 1.00 1.00 r p2
61.30 163.38 (<) .5 0 t
61.74 164.91 1.00 1.00 r p2
62.68 164.91 1.00 1.00 r p2
63.62 164.91 1.00 1.00 r p2
64.56 164.91 1.00 1.00 r p2
65.50 164.91 1.00 1.00 r p2
66.44 164.91 1.00 1.00 r p2
67.38 164.91 1.00 1.00 r p2
68.32 164.91 1.00 1.00 r p2
69.26 164.91 1.00 1.00 r p2
70.19 164.91 1.00 1.00 r p2
71.13 164.91 1.00 1.00 r p2
72.07 164.91 1.00 1.00 r p2
73.01 164.91 1.00 1.00 r p2
73.95 164.91 1.00 1.00 r p2
74.89 164.91 1.00 1.00 r p2
75.83 164.91 1.00 1.00 r p2
76.77 164.91 1.00 1.00 r p2
78.21 163.38 (>) .5 0 t
78.65 164.91 1.00 1.00 r p2
80.09 163.38 (>) .5 0 t
81.03 163.38 (>) .5 0 t
81.97 163.38 (>) .5 0 t
82.91 163.38 (>) .5 0 t
83.85 163.38 (>) .5 0 t
84.78 163.38 (>) .5 0 t
85.22 164.91 1.00 1.00 r p2
86.16 164.91 1.00 1.00 r p2
87.10 164.91 1.00 1.00 r p2
88.04 164.91 1.00 1.00 r p2
88.98 164.91 1.00 1.00 r p2
89.92 164.91 1.00 1.00 r p2
90.86 164.91 1.00 1.00 r p2
91.80 164.91 1.00 1.00 r p2
92.74 164.91 1.00 1.00 r p2
93.68 164.91 1.00 1.00 r p2
94.62 164.91 1.00 1.00 r p2
95.56 164.91 1.00 1.00 r p2
96.50 164.91 1.00 1.00 r p2
97.43 164.91 1.00 1.00 r p2
98.37 164.91 1.00 1.00 r p2
99.31 164.91 1.00 1.00 r p2
100.25 164.91 1.00 1.00 r p2
101.19 164.91 1.00 1.00 r p2
102.13 164.91 1.00 1.00 r p2
103.07 164.91 1.00 1.00 r p2
104.01 164.91 1.00 1.00 r p2
104.95 164.91 1.00 1.00 r p2
105.89 164.91 1.00 1.00 r p2
106.83 164.91 1.00 1.00 r p2
107.77 164.91 1.00 1.00 r p2
108.71 164.91 1.00 1.00 r p2
109.65 164.91 1.00 1.00 r p2
110.58 164.91 1.00 1.00 r p2
111.52 164.91 1.00 1.00 r p2
112.46 164.91 1.00 1.00 r p2
113.40 164.91 1.00 1.00 r p2
114.34 164.91 1.00 1.00 r p2
115.28 164.91 1.00 1.00 r p2
116.22 164.91 1.00 1.00 r p2
117.16 164.91 1.00 1.00 r p2
118.10 164.91 1.00 1.00 r p2
119.04 164.91 1.00 1.00 r p2
119.98 164.91 1.00 1.00 r p2
120.92 164.91 1.00 1.00 r p2
122.36 163.38 (<) .5 0 t
123.30 163.38 (<) .5 0 t
124.24 163.38 (<) .5 0 t
125.17 163.38 (<) .5 0 t
126.11 163.38 (<) .5 0 t
127.05 163.38 (<) .5 0 t
127.49 164.91 1.00 1.00 r p2
128.43 164.91 1.00 1.00 r p2
129.37 164.91 1.00 1.00 r p2
130.31 164.91 1.00 1.00 r p2
131.25 164.91 1.00 1.00 r p2
132.19 164.91 1.00 1.00 r p2
133.13 164.91 1.00 1.00 r p2
134.57 163.38 (<) .5 0 t
135.51 163.38 (<) .5 0 t
136.45 163.38 (<) .5 0 t
137.39 163.38 (<) .5 0 t
138.32 163.38 (<) .5 0 t
139.26 163.38 (<) .5 0 t
139.70 164.91 1.00 1.00 r p2
140.64 164.91 1.00 1.00 r p2
141.58 164.91 1.00 1.00 r p2
142.52 164.91 1.00 1.00 r p2
143.96 163.38 (<) .5 0 t
144.90 163.38 (<) .5 0 t
145.84 163.38 (<) .5 0 t
146.78 163.38 (<) .5 0 t
147.22 164.91 1.00 1.00 r p2
148.16 164.91 1.00 1.00 r p2
149.10 164.91 1.00 1.00 r p2
150.04 164.91 1.00 1.00 r p2
150.97 164.91 1.00 1.00 r p2
151.91 164.91 1.00 1.00 r p2
152.85 164.91 1.00 1.00 r p2
153.79 164.91 1.00 1.00 r p2
154.73 164.91 1.00 1.00 r p2
155.67 164.91 1.00 1.00 r p2
157.11 163.38 (<) .5 0 t
158.05 163.38 (<) .5 0 t
158.99 163.38 (<) .5 0 t
159.93 163.38 (<) .5 0 t
160.87 163.38 (<) .5 0 t
161.81 163.38 (<) .5 0 t
162.75 163.38 (<) .5 0 t
163.69 163.38 (<) .5 0 t
164.63 163.38 (<) .5 0 t
165.56 163.38 (<) .5 0 t
166.50 163.38 (<) .5 0 t
166.94 164.91 1.00 1.00 r p2
167.88 164.91 1.00 1.00 r p2
168.82 164.91 1.00 1.00 r p2
169.76 164.91 1.00 1.00 r p2
170.70 164.91 1.00 1.00 r p2
171.64 164.91 1.00 1.00 r p2
172.58 164.91 1.00 1.00 r p2
173.52 164.91 1.00 1.00 r p2
174.46 164.91 1.00 1.00 r p2
175.40 164.91 1.00 1.00 r p2
176.34 164.91 1.00 1.00 r p2
177.28 164.91 1.00 1.00 r p2
178.21 164.91 1.00 1.00 r p2
179.15 164.91 1.00 1.00 r p2
180.09 164.91 1.00 1.00 r p2
181.03 164.91 1.00 1.00 r p2
181.97 164.91 1.00 1.00 r p2
182.91 164.91 1.00 1.00 r p2
183.85 164.91 1.00 1.00 r p2
184.79 164.91 1.00 1.00 r p2
185.73 164.91 1.00 1.00 r p2
186.67 164.91 1.00 1.00 r p2
187.61 164.91 1.00 1.00 r p2
188.55 164.91 1.00 1.00 r p2
189.49 164.91 1.00 1.00 r p2
190.43 164.91 1.00 1.00 r p2
191.36 164.91 1.00 1.00 r p2
192.30 164.91 1.00 1.00 r p2
193.24 164.91 1.00 1.00 r p2
194.18 164.91 1.00 1.00 r p2
195.12 164.91 1.00 1.00 r p2
196.06 164.91 1.00 1.00 r p2
197.00 164.91 1.00 1.00 r p2
197.94 164.91 1.00 1.00 r p2
198.88 164.91 1.00 1.00 r p2
199.82 164.91 1.00 1.00 r p2
200.76 164.91 1.00 1.00 r p2
201.70 164.91 1.00 1.00 r p2
202.64 164.91 1.00 1.00 r p2
203.58 164.91 1.00 1.00 r p2
204.52 164.91 1.00 1.00 r p2
205.45 164.91 1.00 1.00 r p2
206.39 164.91 1.00 1.00 r p2
207.33 164.91 1.00 1.00 r p2
208.27 164.91 1.00 1.00 r p2
209.21 164.91 1.00 1.00 r p2
210.15 164.91 1.00 1.00 r p2
211.09 164.91 1.00 1.00 r p2
212.03 164.91 1.00 1.00 r p2
212.97 164.91 1.00 1.00 r p2
213.91 164.91 1.00 1.00 r p2
214.85 164.91 1.00 1.00 r p2
215.79 164.91 1.00 1.00 r p2
216.73 164.91 1.00 1.00 r p2
217.67 164.91 1.00 1.00 r p2
218.60 164.91 1.00 1.00 r p2
219.54 164.91 1.00 1.00 r p2
220.48 164.91 1.00 1.00 r p2
221.42 164.91 1.00 1.00 r p2
222.36 164.91 1.00 1.00 r p2
223.30 164.91 1.00 1.00 r p2
224.24 164.91 1.00 1.00 r p2
225.18 164.91 1.00 1.00 r p2
226.12 164.91 1.00 1.00 r p2
227.06 164.91 1.00 1.00 r p2
228.00 164.91 1.00 1.00 r p2
228.94 164.91 1.00 1.00 r p2
229.88 164.91 1.00 1.00 r p2
230.82 164.91 1.00 1.00 r p2
231.75 164.91 1.00 1.00 r p2
232.69 164.91 1.00 1.00 r p2
233.63 164.91 1.00 1.00 r p2
234.57 164.91 1.00 1.00 r p2
235.51 164.91 1.00 1.00 r p2
236.45 164.91 1.00 1.00 r p2
237.39 164.91 1.00 1.00 r p2
238.33 164.91 1.00 1.00 r p2
239.27 164.91 1.00 1.00 r p2
240.21 164.91 1.00 1.00 r p2
241.15 164.91 1.00 1.00 r p2
242.59 163.38 (>) .5 0 t
243.53 163.38 (>) .5 0 t
244.47 163.38 (>) .5 0 t
244.91 164.91 1.00 1.00 r p2
245.84 164.91 1.00 1.00 r p2
246.78 164.91 1.00 1.00 r p2
247.72 164.91 1.00 1.00 r p2
248.66 164.91 1.00 1.00 r p2
250.10 163.38 (>) .5 0 t
250.54 164.91 1.00 1.00 r p2
251.98 163.38 (>) .5 0 t
252.92 163.38 (>) .5 0 t
253.86 163.38 (>) .5 0 t
254.80 163.38 (>) .5 0 t
255.74 163.38 (>) .5 0 t
256.68 163.38 (>) .5 0 t
257.62 163.38 (>) .5 0 t
258.06 164.91 1.00 1.00 r p2
258.99 164.91 1.00 1.00 r p2
259.93 164.91 1.00 1.00 r p2
260.87 164.91 1.00 1.00 r p2
261.81 164.91 1.00 1.00 r p2
262.75 164.91 1.00 1.00 r p2
263.69 164.91 1.00 1.00 r p2
264.63 164.91 1.00 1.00 r p2
265.57 164.91 1.00 1.00 r p2
266.51 164.91 1.00 1.00 r p2
267.45 164.91 1.00 1.00 r p2
268.39 164.91 1.00 1.00 r p2
269.33 164.91 1.00 1.00 r p2
270.27 164.91 1.00 1.00 r p2
271.21 164.91 1.00 1.00 r p2
272.14 164.91 1.00 1.00 r p2
273.08 164.91 1.00 1.00 r p2
274.52 163.38 (>) .5 0 t
275.46 163.38 (>) .5 0 t
276.40 163.38 (>) .5 0 t
277.34 163.38 (>) .5 0 t
278.28 163.38 (>) .5 0 t
278.72 164.91 1.00 1.00 r p2
279.66 164.91 1.00 1.00 r p2
280.60 164.91 1.00 1.00 r p2
282.04 163.38 (>) .5 0 t
282.98 163.38 (>) .5 0 t
283.92 163.38 (>) .5 0 t
284.86 163.38 (>) .5 0 t
285.80 163.38 (>) .5 0 t
286.73 163.38 (>) .5 0 t
287.67 163.38 (<) .5 0 t
288.61 163.38 (<) .5 0 t
289.55 163.38 (<) .5 0 t
289.99 164.91 1.00 1.00 r p2
290.93 164.91 1.00 1.00 r p2
292.37 163.38 (<) .5 0 t
293.31 163.38 (<) .5 0 t
294.25 163.38 (<) .5 0 t
295.19 163.38 (<) .5 0 t
296.13 163.38 (<) .5 0 t
296.57 164.91 1.00 1.00 r p2
298.01 163.38 (<) .5 0 t
298.95 163.38 (<) .5 0 t
299.88 163.38 (<) .5 0 t
300.32 164.91 1.00 1.00 r p2
301.26 164.91 1.00 1.00 r p2
302.20 164.91 1.00 1.00 r p2
303.14 164.91 1.00 1.00 r p2
304.08 164.91 1.00 1.00 r p2
305.02 164.91 1.00 1.00 r p2
305.96 164.91 1.00 1.00 r p2
306.90 164.91 1.00 1.00 r p2
307.84 164.91 1.00 1.00 r p2
308.78 164.91 1.00 1.00 r p2
309.72 164.91 1.00 1.00 r p2
310.66 164.91 1.00 1.00 r p2
311.60 164.91 1.00 1.00 r p2
312.53 164.91 1.00 1.00 r p2
313.47 164.91 1.00 1.00 r p2
314.41 164.91 1.00 1.00 r p2
315.35 164.91 1.00 1.00 r p2
316.29 164.91 1.00 1.00 r p2
317.23 164.91 1.00 1.00 r p2
318.17 164.91 1.00 1.00 r p2
319.11 164.91 1.00 1.00 r p2
320.05 164.91 1.00 1.00 r p2
320.99 164.91 1.00 1.00 r p2
321.93 164.91 1.00 1.00 r p2
322.87 164.91 1.00 1.00 r p2
323.81 164.91 1.00 1.00 r p2
324.75 164.91 1.00 1.00 r p2
325.69 164.91 1.00 1.00 r p2
326.62 164.91 1.00 1.00 r p2
327.56 164.91 1.00 1.00 r p2
328.50 164.91 1.00 1.00 r p2
329.44 164.91 1.00 1.00 r p2
330.38 164.91 1.00 1.00 r p2
331.32 164.91 1.00 1.00 r p2
332.26 164.91 1.00 1.00 r p2
333.20 164.91 1.00 1.00 r p2
334.14 164.91 1.00 1.00 r p2
335.08 164.91 1.00 1.00 r p2
336.02 164.91 1.00 1.00 r p2
336.96 164.91 1.00 1.00 r p2
337.90 164.91 1.00 1.00 r p2
338.84 164.91 1.00 1.00 r p2
339.77 164.91 1.00 1.00 r p2
340.71 164.91 1.00 1.00 r p2
341.65 164.91 1.00 1.00 r p2
342.59 164.91 1.00 1.00 r p2
343.53 164.91 1.00 1.00 r p2
344.97 163.38 (>) .5 0 t
345.91 163.38 (>) .5 0 t
346.85 163.38 (>) .5 0 t
347.79 163.38 (>) .5 0 t
348.73 163.38 (>) .5 0 t
349.67 163.38 (>) .5 0 t
350.61 163.38 (>) .5 0 t
351.05 164.91 1.00 1.00 r p2
351.99 164.91 1.00 1.00 r p2
353.42 163.38 (>) .5 0 t
354.36 163.38 (>) .5 0 t
355.30 163.38 (>) .5 0 t
355.74 164.91 1.00 1.00 r p2
356.68 164.91 1.00 1.00 r p2
357.62 164.91 1.00 1.00 r p2
359.06 162.54 (A) .5 0 t
359.50 164.91 1.00 1.00 r p2
360.94 162.54 (A) .5 0 t
361.88 162.54 (A) .5 0 t
362.82 162.54 (A) .5 0 t
363.76 162.54 (A) .5 0 t
364.70 162.54 (A) .5 0 t
365.14 164.91 1.00 1.00 r p2
366.08 164.91 1.00 1.00 r p2
367.01 164.91 1.00 1.00 r p2
367.95 164.91 1.00 1.00 r p2
368.89 164.91 1.00 1.00 r p2
369.83 164.91 1.00 1.00 r p2
370.77 164.91 1.00 1.00 r p2
371.71 164.91 1.00 1.00 r p2
372.65 164.91 1.00 1.00 r p2
373.59 164.91 1.00 1.00 r p2
374.53 164.91 1.00 1.00 r p2
375.47 164.91 1.00 1.00 r p2
376.41 164.91 1.00 1.00 r p2
377.35 164.91 1.00 1.00 r p2
378.29 164.91 1.00 1.00 r p2
379.23 164.91 1.00 1.00 r p2
380.16 164.91 1.00 1.00 r p2
381.10 164.91 1.00 1.00 r p2
382.04 164.91 1.00 1.00 r p2
382.98 164.91 1.00 1.00 r p2
383.92 164.91 1.00 1.00 r p2
384.86 164.91 1.00 1.00 r p2
385.80 164.91 1.00 1.00 r p2
386.74 164.91 1.00 1.00 r p2
387.68 164.91 1.00 1.00 r p2
388.62 164.91 1.00 1.00 r p2
389.56 164.91 1.00 1.00 r p2
390.50 164.91 1.00 1.00 r p2
391.44 164.91 1.00 1.00 r p2
392.38 164.91 1.00 1.00 r p2
393.31 164.91 1.00 1.00 r p2
394.25 164.91 1.00 1.00 r p2
395.19 164.91 1.00 1.00 r p2
396.13 164.91 1.00 1.00 r p2
397.07 164.91 1.00 1.00 r p2
398.01 164.91 1.00 1.00 r p2
398.95 164.91 1.00 1.00 r p2
399.89 164.91 1.00 1.00 r p2
400.83 164.91 1.00 1.00 r p2
401.77 164.91 1.00 1.00 r p2
402.71 164.91 1.00 1.00 r p2
403.65 164.91 1.00 1.00 r p2
404.59 164.91 1.00 1.00 r p2
405.53 164.91 1.00 1.00 r p2
406.47 164.91 1.00 1.00 r p2
407.40 164.91 1.00 1.00 r p2
408.34 164.91 1.00 1.00 r p2
409.28 164.91 1.00 1.00 r p2
410.22 164.91 1.00 1.00 r p2
411.16 164.91 1.00 1.00 r p2
412.10 164.91 1.00 1.00 r p2
413.04 164.91 1.00 1.00 r p2
413.98 164.91 1.00 1.00 r p2
414.92 164.91 1.00 1.00 r p2
416.36 163.38 (>) .5 0 t
417.30 163.38 (>) .5 0 t
418.24 163.38 (>) .5 0 t
419.18 163.38 (>) .5 0 t
420.12 163.38 (>) .5 0 t
421.05 163.38 (>) .5 0 t
421.99 163.38 (<) .5 0 t
422.93 163.38 (<) .5 0 t
423.87 163.38 (<) .5 0 t
424.81 163.38 (<) .5 0 t
425.75 163.38 (<) .5 0 t
426.69 163.38 (<) .5 0 t
427.63 163.38 (<) .5 0 t
428.57 163.38 (<) .5 0 t
429.51 163.38 (<) .5 0 t
429.95 164.91 1.00 1.00 r p2
430.89 164.91 1.00 1.00 r p2
431.83 164.91 1.00 1.00 r p2
432.77 164.91 1.00 1.00 r p2
433.70 164.91 1.00 1.00 r p2
434.64 164.91 1.00 1.00 r p2
435.58 164.91 1.00 1.00 r p2
436.52 164.91 1.00 1.00 r p2
437.46 164.91 1.00 1.00 r p2
438.40 164.91 1.00 1.00 r p2
439.34 164.91 1.00 1.00 r p2
440.28 164.91 1.00 1.00 r p2
441.22 164.91 1.00 1.00 r p2
442.16 164.91 1.00 1.00 r p2
443.10 164.91 1.00 1.00 r p2
444.04 164.91 1.00 1.00 r p2
444.98 164.91 1.00 1.00 r p2
445.92 164.91 1.00 1.00 r p2
446.86 164.91 1.00 1.00 r p2
447.79 164.91 1.00 1.00 r p2
448.73 164.91 1.00 1.00 r p2
449.67 164.91 1.00 1.00 r p2
450.61 164.91 1.00 1.00 r p2
451.55 164.91 1.00 1.00 r p2
452.49 164.91 1.00 1.00 r p2
453.43 164.91 1.00 1.00 r p2
454.37 164.91 1.00 1.00 r p2
455.31 164.91 1.00 1.00 r p2
456.25 164.91 1.00 1.00 r p2
457.19 164.91 1.00 1.00 r p2
458.13 164.91 1.00 1.00 r p2
459.07 164.91 1.00 1.00 r p2
460.01 164.91 1.00 1.00 r p2
460.94 164.91 1.00 1.00 r p2
461.88 164.91 1.00 1.00 r p2
462.82 164.91 1.00 1.00 r p2
463.76 164.91 1.00 1.00 r p2
464.70 164.91 1.00 1.00 r p2
465.64 164.91 1.00 1.00 r p2
466.58 164.91 1.00 1.00 r p2
467.52 164.91 1.00 1.00 r p2
468.46 164.91 1.00 1.00 r p2
469.40 164.91 1.00 1.00 r p2
470.34 164.91 1.00 1.00 r p2
471.28 164.91 1.00 1.00 r p2
472.22 164.91 1.00 1.00 r p2
473.16 164.91 1.00 1.00 r p2
474.09 164.91 1.00 1.00 r p2
475.03 164.91 1.00 1.00 r p2
476.47 163.38 (>) .5 0 t
477.41 163.38 (>) .5 0 t
478.35 163.38 (>) .5 0 t
479.29 163.38 (>) .5 0 t
480.23 163.38 (>) .5 0 t
481.17 163.38 (>) .5 0 t
482.11 163.38 (>) .5 0 t
483.05 163.38 (>) .5 0 t
483.99 163.38 (>) .5 0 t
484.43 164.91 1.00 1.00 r p2
485.37 164.91 1.00 1.00 r p2
486.31 164.91 1.00 1.00 r p2
487.25 164.91 1.00 1.00 r p2
488.18 164.91 1.00 1.00 r p2
489.12 164.91 1.00 1.00 r p2
490.06 164.91 1.00 1.00 r p2
491.50 163.32 (a) .5 0 t
492.44 163.32 (a) .5 0 t
493.38 163.32 (a) .5 0 t
494.32 163.32 (a) .5 0 t
495.26 163.32 (a) .5 0 t
496.20 163.32 (a) .5 0 t
496.64 164.91 1.00 1.00 r p2
497.58 164.91 1.00 1.00 r p2
499.02 163.38 (<) .5 0 t
499.96 163.38 (<) .5 0 t
500.40 164.91 1.00 1.00 r p2
501.83 163.38 (<) .5 0 t
502.77 163.38 (<) .5 0 t
503.71 163.38 (<) .5 0 t
504.65 163.38 (<) .5 0 t
505.59 163.38 (<) .5 0 t
506.53 163.38 (<) .5 0 t
507.47 163.38 (<) .5 0 t
507.91 164.91 1.00 1.00 r p2
508.85 164.91 1.00 1.00 r p2
509.79 164.91 1.00 1.00 r p2
510.73 164.91 1.00 1.00 r p2
511.67 164.91 1.00 1.00 r p2
512.61 164.91 1.00 1.00 r p2
513.55 164.91 1.00 1.00 r p2
514.48 164.91 1.00 1.00 r p2
515.42 164.91 1.00 1.00 r p2
516.36 164.91 1.00 1.00 r p2
517.30 164.91 1.00 1.00 r p2
518.24 164.91 1.00 1.00 r p2
519.18 164.91 1.00 1.00 r p2
520.12 164.91 1.00 1.00 r p2
521.06 164.91 1.00 1.00 r p2
522.00 164.91 1.00 1.00 r p2
522.94 164.91 1.00 1.00 r p2
523.88 164.91 1.00 1.00 r p2
524.82 164.91 1.00 1.00 r p2
525.76 164.91 1.00 1.00 r p2
527.20 163.38 (>) .5 0 t
528.14 163.38 (>) .5 0 t
529.07 163.38 (>) .5 0 t
530.01 163.38 (>) .5 0 t
530.95 163.38 (>) .5 0 t
531.89 163.38 (>) .5 0 t
532.83 163.38 (>) .5 0 t
533.27 164.91 1.00 1.00 r p2
534.21 164.91 1.00 1.00 r p2
535.15 164.91 1.00 1.00 r p2
536.59 163.38 (<) .5 0 t
537.53 163.38 (<) .5 0 t
538.47 163.38 (<) .5 0 t
539.41 163.38 (<) .5 0 t
539.85 164.91 1.00 1.00 r p2
540.79 164.91 1.00 1.00 r p2
541.72 164.91 1.00 1.00 r p2
542.66 164.91 1.00 1.00 r p2
543.60 164.91 1.00 1.00 r p2
544.54 164.91 1.00 1.00 r p2
545.48 164.91 1.00 1.00 r p2
546.42 164.91 1.00 1.00 r p2
547.36 164.91 1.00 1.00 r p2
548.30 164.91 1.00 1.00 r p2
549.24 164.91 1.00 1.00 r p2
550.18 164.91 1.00 1.00 r p2
551.12 164.91 1.00 1.00 r p2
552.06 164.91 1.00 1.00 r p2
553.00 164.91 1.00 1.00 r p2
553.94 164.91 1.00 1.00 r p2
554.87 164.91 1.00 1.00 r p2
555.81 164.91 1.00 1.00 r p2
556.75 164.91 1.00 1.00 r p2
557.69 164.91 1.00 1.00 r p2
558.63 164.91 1.00 1.00 r p2
559.57 164.91 1.00 1.00 r p2
560.51 164.91 1.00 1.00 r p2
561.45 164.91 1.00 1.00 r p2
562.39 164.91 1.00 1.00 r p2
563.33 164.91 1.00 1.00 r p2
564.27 164.91 1.00 1.00 r p2
565.21 164.91 1.00 1.00 r p2
566.15 164.91 1.00 1.00 r p2
567.09 164.91 1.00 1.00 r p2
568.03 164.91 1.00 1.00 r p2
568.96 164.91 1.00 1.00 r p2
569.90 164.91 1.00 1.00 r p2
570.84 164.91 1.00 1.00 r p2
571.78 164.91 1.00 1.00 r p2
572.72 164.91 1.00 1.00 r p2
573.66 164.91 1.00 1.00 r p2
574.60 164.91 1.00 1.00 r p2
575.54 164.91 1.00 1.00 r p2
576.48 164.91 1.00 1.00 r p2
577.42 164.91 1.00 1.00 r p2
578.36 164.91 1.00 1.00 r p2
579.30 164.91 1.00 1.00 r p2
580.24 164.91 1.00 1.00 r p2
581.18 164.91 1.00 1.00 r p2
582.11 164.91 1.00 1.00 r p2
583.05 164.91 1.00 1.00 r p2
583.99 164.91 1.00 1.00 r p2
584.93 164.91 1.00 1.00 r p2
586.37 163.38 (>) .5 0 t
587.31 163.38 (>) .5 0 t
588.25 163.38 (>) .5 0 t
589.19 163.38 (>) .5 0 t
589.63 164.91 1.00 1.00 r p2
590.57 164.91 1.00 1.00 r p2
591.51 164.91 1.00 1.00 r p2
592.45 164.91 1.00 1.00 r p2
593.39 164.91 1.00 1.00 r p2
594.33 164.91 1.00 1.00 r p2
595.26 164.91 1.00 1.00 r p2
596.20 164.91 1.00 1.00 r p2
597.14 164.91 1.00 1.00 r p2
598.08 164.91 1.00 1.00 r p2
599.02 164.91 1.00 1.00 r p2
599.96 164.91 1.00 1.00 r p2
600.90 164.91 1.00 1.00 r p2
601.84 164.91 1.00 1.00 r p2
602.78 164.91 1.00 1.00 r p2
603.72 164.91 1.00 1.00 r p2
604.66 164.91 1.00 1.00 r p2
605.60 164.91 1.00 1.00 r p2
606.54 164.91 1.00 1.00 r p2
607.48 164.91 1.00 1.00 r p2
608.42 164.91 1.00 1.00 r p2
609.35 164.91 1.00 1.00 r p2
610.29 164.91 1.00 1.00 r p2
611.23 164.91 1.00 1.00 r p2
612.17 164.91 1.00 1.00 r p2
613.11 164.91 1.00 1.00 r p2
614.05 164.91 1.00 1.00 r p2
614.99 164.91 1.00 1.00 r p2
615.93 164.91 1.00 1.00 r p2
616.87 164.91 1.00 1.00 r p2
617.81 164.91 1.00 1.00 r p2
618.75 164.91 1.00 1.00 r p2
619.69 164.91 1.00 1.00 r p2
620.63 164.91 1.00 1.00 r p2
621.57 164.91 1.00 1.00 r p2
622.50 164.91 1.00 1.00 r p2
623.44 164.91 1.00 1.00 r p2
624.38 164.91 1.00 1.00 r p2
625.32 164.91 1.00 1.00 r p2
626.26 164.91 1.00 1.00 r p2
627.20 164.91 1.00 1.00 r p2
628.14 164.91 1.00 1.00 r p2
629.08 164.91 1.00 1.00 r p2
630.02 164.91 1.00 1.00 r p2
630.96 164.91 1.00 1.00 r p2
631.90 164.91 1.00 1.00 r p2
632.84 164.91 1.00 1.00 r p2
633.78 164.91 1.00 1.00 r p2
634.72 164.91 1.00 1.00 r p2
635.65 164.91 1.00 1.00 r p2
636.59 164.91 1.00 1.00 r p2
637.53 164.91 1.00 1.00 r p2
638.47 164.91 1.00 1.00 r p2
639.41 164.91 1.00 1.00 r p2
640.35 164.91 1.00 1.00 r p2
641.29 164.91 1.00 1.00 r p2
642.23 164.91 1.00 1.00 r p2
643.17 164.91 1.00 1.00 r p2
644.11 164.91 1.00 1.00 r p2
645.05 164.91 1.00 1.00 r p2
645.99 164.91 1.00 1.00 r p2
646.93 164.91 1.00 1.00 r p2
647.87 164.91 1.00 1.00 r p2
648.81 164.91 1.00 1.00 r p2
649.74 164.91 1.00 1.00 r p2
650.68 164.91 1.00 1.00 r p2
651.62 164.91 1.00 1.00 r p2
652.56 164.91 1.00 1.00 r p2
653.50 164.91 1.00 1.00 r p2
654.44 164.91 1.00 1.00 r p2
655.38 164.91 1.00 1.00 r p2
656.32 164.91 1.00 1.00 r p2
657.26 164.91 1.00 1.00 r p2
658.70 163.38 (>) .5 0 t
659.64 163.38 (>) .5 0 t
660.08 164.91 1.00 1.00 r p2
661.02 164.91 1.00 1.00 r p2
661.96 164.91 1.00 1.00 r p2
662.89 164.91 1.00 1.00 r p2
663.83 164.91 1.00 1.00 r p2
664.77 164.91 1.00 1.00 r p2
665.71 164.91 1.00 1.00 r p2
666.65 164.91 1.00 1.00 r p2
667.59 164.91 1.00 1.00 r p2
668.53 164.91 1.00 1.00 r p2
669.47 164.91 1.00 1.00 r p2
670.41 164.91 1.00 1.00 r p2
0.00 0.00 720.00 180.00 cl
0.00 0.00 720.00 180.00 cl
0 0 0 srgb
0.75 setlinewidth
[] 0 setdash
1 setlinecap
1 setlinejoin
10.00 setmiterlimit
np
49.09 36.00 m
619.94 0 l
o
np
49.09 36.00 m
0 -7.20 l
o
np
58.48 36.00 m
0 -7.20 l
o
np
67.88 36.00 m
0 -7.20 l
o
np
77.27 36.00 m
0 -7.20 l
o
np
86.66 36.00 m
0 -7.20 l
o
np
96.06 36.00 m
0 -7.20 l
o
np
105.45 36.00 m
0 -7.20 l
o
np
114.84 36.00 m
0 -7.20 l
o
np
124.24 36.00 m
0 -7.20 l
o
np
133.63 36.00 m
0 -7.20 l
o
np
143.02 36.00 m
0 -7.20 l
o
np
152.41 36.00 m
0 -7.20 l
o
np
161.81 36.00 m
0 -7.20 l
o
np
171.20 36.00 m
0 -7.20 l
o
np
180.59 36.00 m
0 -7.20 l
o
np
189.99 36.00 m
0 -7.20 l
o
np
199.38 36.00 m
0 -7.20 l
o
np
208.77 36.00 m
0 -7.20 l
o
np
218.17 36.00 m
0 -7.20 l
o
np
227.56 36.00 m
0 -7.20 l
o
np
236.95 36.00 m
0 -7.20 l
o
np
246.34 36.00 m
0 -7.20 l
o
np
255.74 36.00 m
0 -7.20 l
o
np
265.13 36.00 m
0 -7.20 l
o
np
274.52 36.00 m
0 -7.20 l
o
np
283.92 36.00 m
0 -7.20 l
o
np
293.31 36.00 m
0 -7.20 l
o
np
302.70 36.00 m
0 -7.20 l
o
np
312.10 36.00 m
0 -7.20 l
o
np
321.49 36.00 m
0 -7.20 l
o
np
330.88 36.00 m
0 -7.20 l
o
np
340.27 36.00 m
0 -7.20 l
o
np
349.67 36.00 m
0 -7.20 l
o
np
359.06 36.00 m
0 -7.20 l
o
np
368.45 36.00 m
0 -7.20 l
o
np
377.85 36.00 m
0 -7.20 l
o
np
387.24 36.00 m
0 -7.20 l
o
np
396.63 36.00 m
0 -7.20 l
o
np
406.03 36.00 m
0 -7.20 l
o
np
415.42 36.00 m
0 -7.20 l
o
np
424.81 36.00 m
0 -7.20 l
o
np
434.20 36.00 m
0 -7.20 l
o
np
443.60 36.00 m
0 -7.20 l
o
np
452.99 36.00 m
0 -7.20 l
o
np
462.38 36.00 m
0 -7.20 l
o
np
471.78 36.00 m
0 -7.20 l
o
np
481.17 36.00 m
0 -7.20 l
o
np
490.56 36.00 m
0 -7.20 l
o
np
499.96 36.00 m
0 -7.20 l
o
np
509.35 36.00 m
0 -7.20 l
o
np
518.74 36.00 m
0 -7.20 l
o
np
528.14 36.00 m
0 -7.20 l
o
np
537.53 36.00 m
0 -7.20 l
o
np
546.92 36.00 m
0 -7.20 l
o
np
556.31 36.00 m
0 -7.20 l
o
np
565.71 36.00 m
0 -7.20 l
o
np
575.10 36.00 m
0 -7.20 l
o
np
584.49 36.00 m
0 -7.20 l
o
np
593.89 36.00 m
0 -7.20 l
o
np
603.28 36.00 m
0 -7.20 l
o
np
612.67 36.00 m
0 -7.20 l
o
np
622.07 36.00 m
0 -7.20 l
o
np
631.46 36.00 m
0 -7.20 l
o
np
640.85 36.00 m
0 -7.20 l
o
np
650.24 36.00 m
0 -7.20 l
o
np
659.64 36.00 m
0 -7.20 l
o
np
669.03 36.00 m
0 -7.20 l
o
/Font1 findfont 12 s
49.09 10.08 (0) .5 0 t
77.27 10.08 (30) .5 0 t
105.45 10.08 (60) .5 0 t
133.63 10.08 (90) .5 0 t
161.81 10.08 (120) .5 0 t
199.38 10.08 (160) .5 0 t
236.95 10.08 (200) .5 0 t
274.52 10.08 (240) .5 0 t
312.10 10.08 (280) .5 0 t
349.67 10.08 (320) .5 0 t
387.24 10.08 (360) .5 0 t
424.81 10.08 (400) .5 0 t
462.38 10.08 (440) .5 0 t
499.96 10.08 (480) .5 0 t
537.53 10.08 (520) .5 0 t
575.10 10.08 (560) .5 0 t
612.67 10.08 (600) .5 0 t
650.24 10.08 (640) .5 0 t
18.00 36.00 702.00 180.00 cl
/bg { 0 0 0 srgb } def
49.53 155.65 1.00 1.00 r p2
50.47 155.65 1.00 1.00 r p2
51.41 155.65 1.00 1.00 r p2
52.35 155.65 1.00 1.00 r p2
53.29 155.65 1.00 1.00 r p2
/Font1 findfont 8 s
0 0 0 srgb
54.73 154.12 (<) .5 0 t
55.67 154.12 (<) .5 0 t
56.61 154.12 (<) .5 0 t
57.54 154.12 (<) .5 0 t
58.48 154.12 (<) .5 0 t
59.42 154.12 (<) .5 0 t
59.86 155.65 1.00 1.00 r p2
61.30 154.12 (<) .5 0 t
61.74 155.65 1.00 1.00 r p2
62.68 155.65 1.00 1.00 r p2
63.62 155.65 1.00 1.00 r p2
64.56 155.65 1.00 1.00 r p2
65.50 155.65 1.00 1.00 r p2
66.44 155.65 1.00 1.00 r p2
67.38 155.65 1.00 1.00 r p2
68.32 155.65 1.00 1.00 r p2
69.26 155.65 1.00 1.00 r p2
70.19 155.65 1.00 1.00 r p2
71.13 155.65 1.00 1.00 r p2
72.07 155.65 1.00 1.00 r p2
73.01 155.65 1.00 1.00 r p2
73.95 155.65 1.00 1.00 r p2
74.89 155.65 1.00 1.00 r p2
75.83 155.65 1.00 1.00 r p2
76.77 155.65 1.00 1.00 r p2
78.21 154.12 (>) .5 0 t
78.65 155.65 1.00 1.00 r p2
80.09 154.12 (>) .5 0 t
81.03 154.12 (>) .5 0 t
81.97 154.12 (>) .5 0 t
82.91 154.12 (>) .5 0 t
83.85 154.12 (>) .5 0 t
84.78 154.12 (>) .5 0 t
85.22 155.65 1.00 1.00 r p2
86.16 155.65 1.00 1.00 r p2
87.10 155.65 1.00 1.00 r p2
88.04 155.65 1.00 1.00 r p2
88.98 155.65 1.00 1.00 r p2
89.92 155.65 1.00 1.00 r p2
90.86 155.65 1.00 1.00 r p2
91.80 155.65 1.00 1.00 r p2
92.74 155.65 1.00 1.00 r p2
93.68 155.65 1.00 1.00 r p2
94.62 155.65 1.00 1.00 r p2
95.56 155.65 1.00 1.00 r p2
96.50 155.65 1.00 1.00 r p2
97.43 155.65 1.00 1.00 r p2
98.37 155.65 1.00 1.00 r p2
99.31 155.65 1.00 1.00 r p2
100.25 155.65 1.00 1.00 r p2
101.19 155.65 1.00 1.00 r p2
102.13 155.65 1.00 1.00 r p2
103.07 155.65 1.00 1.00 r p2
104.01 155.65 1.00 1.00 r p2
104.95 155.65 1.00 1.00 r p2
105.89 155.65 1.00 1.00 r p2
106.83 155.65 1.00 1.00 r p2
107.77 155.65 1.00 1.00 r p2
108.71 155.65 1.00 1.00 r p2
109.65 155.65 1.00 1.00 r p2
110.58 155.65 1.00 1.00 r p2
111.52 155.65 1.00 1.00 r p2
112.46 155.65 1.00 1.00 r p2
113.40 155.65 1.00 1.00 r p2
114.34 155.65 1.00 1.00 r p2
115.28 155.65 1.00 1.00 r p2
116.22 155.65 1.00 1.00 r p2
117.16 155.65 1.00 1.00 r p2
118.10 155.65 1.00 1.00 r p2
119.04 155.65 1.00 1.00 r p2
119.98 155.65 1.00 1.00 r p2
120.92 155.65 1.00 1.00 r p2
122.36 153.28 (A) .5 0 t
123.30 153.28 (A) .5 0 t
124.24 153.28 (A) .5 0 t
125.17 153.28 (A) .5 0 t
126.11 153.28 (A) .5 0 t
127.05 154.12 (<) .5 0 t
127.49 155.65 1.00 1.00 r p2
128.43 155.65 1.00 1.00 r p2
129.37 155.65 1.00 1.00 r p2
130.31 155.65 1.00 1.00 r p2
131.25 155.65 1.00 1.00 r p2
132.19 155.65 1.00 1.00 r p2
133.13 155.65 1.00 1.00 r p2
134.57 154.12 (<) .5 0 t
135.51 154.12 (<) .5 0 t
136.45 154.12 (<) .5 0 t
137.39 154.12 (<) .5 0 t
138.32 154.12 (<) .5 0 t
139.26 154.12 (<) .5 0 t
139.70 155.65 1.00 1.00 r p2
140.64 155.65 1.00 1.00 r p2
141.58 155.65 1.00 1.00 r p2
142.52 155.65 1.00 1.00 r p2
143.96 154.12 (<) .5 0 t
144.90 154.12 (<) .5 0 t
145.84 154.12 (<) .5 0 t
146.78 154.12 (<) .5 0 t
147.22 155.65 1.00 1.00 r p2
148.16 155.65 1.00 1.00 r p2
149.10 155.65 1.00 1.00 r p2
150.04 155.65 1.00 1.00 r p2
150.97 155.65 1.00 1.00 r p2
151.91 155.65 1.00 1.00 r p2
152.85 155.65 1.00 1.00 r p2
153.79 155.65 1.00 1.00 r p2
154.73 155.65 1.00 1.00 r p2
155.67 155.65 1.00 1.00 r p2
157.11 154.12 (<) .5 0 t
158.05 154.12 (<) .5 0 t
158.99 154.12 (<) .5 0 t
159.93 154.12 (<) .5 0 t
160.87 154.12 (<) .5 0 t
161.81 154.12 (<) .5 0 t
162.75 154.12 (<) .5 0 t
163.69 154.12 (<) .5 0 t
164.63 154.12 (<) .5 0 t
165.56 154.12 (<) .5 0 t
166.50 154.12 (<) .5 0 t
166.94 155.65 1.00 1.00 r p2
167.88 155.65 1.00 1.00 r p2
168.82 155.65 1.00 1.00 r p2
169.76 155.65 1.00 1.00 r p2
170.70 155.65 1.00 1.00 r p2
171.64 155.65 1.00 1.00 r p2
172.58 155.65 1.00 1.00 r p2
173.52 155.65 1.00 1.00 r p2
174.46 155.65 1.00 1.00 r p2
175.40 155.65 1.00 1.00 r p2
176.34 155.65 1.00 1.00 r p2
177.28 155.65 1.00 1.00 r p2
178.21 155.65 1.00 1.00 r p2
179.15 155.65 1.00 1.00 r p2
180.09 155.65 1.00 1.00 r p2
181.03 155.65 1.00 1.00 r p2
181.97 155.65 1.00 1.00 r p2
182.91 155.65 1.00 1.00 r p2
183.85 155.65 1.00 1.00 r p2
184.79 155.65 1.00 1.00 r p2
185.73 155.65 1.00 1.00 r p2
186.67 155.65 1.00 1.00 r p2
187.61 155.65 1.00 1.00 r p2
188.55 155.65 1.00 1.00 r p2
189.49 155.65 1.00 1.00 r p2
190.43 155.65 1.00 1.00 r p2
191.36 155.65 1.00 1.00 r p2
192.30 155.65 1.00 1.00 r p2
193.24 155.65 1.00 1.00 r p2
194.18 155.65 1.00 1.00 r p2
195.12 155.65 1.00 1.00 r p2
196.06 155.65 1.00 1.00 r p2
197.00 155.65 1.00 1.00 r p2
197.94 155.65 1.00 1.00 r p2
198.88 155.65 1.00 1.00 r p2
199.82 155.65 1.00 1.00 r p2
200.76 155.65 1.00 1.00 r p2
201.70 155.65 1.00 1.00 r p2
202.64 155.65 1.00 1.00 r p2
203.58 155.65 1.00 1.00 r p2
204.52 155.65 1.00 1.00 r p2
205.45 155.65 1.00 1.00 r p2
206.39 155.65 1.00 1.00 r p2
207.33 155.65 1.00 1.00 r p2
208.27 155.65 1.00 1.00 r p2
209.21 155.65 1.00 1.00 r p2
210.15 155.65 1.00 1.00 r p2
211.09 155.65 1.00 1.00 r p2
212.03 155.65 1.00 1.00 r p2
212.97 155.65 1.00 1.00 r p2
213.91 155.65 1.00 1.00 r p2
214.85 155.65 1.00 1.00 r p2
215.79 155.65 1.00 1.00 r p2
216.73 155.65 1.00 1.00 r p2
217.67 155.65 1.00 1.00 r p2
218.60 155.65 1.00 1.00 r p2
219.54 155.65 1.00 1.00 r p2
220.48 155.65 1.00 1.00 r p2
221.42 155.65 1.00 1.00 r p2
222.36 155.65 1.00 1.00 r p2
223.30 155.65 1.00 1.00 r p2
224.24 155.65 1.00 1.00 r p2
225.18 155.65 1.00 1.00 r p2
226.12 155.65 1.00 1.00 r p2
227.06 155.65 1.00 1.00 r p2
228.00 155.65 1.00 1.00 r p2
228.94 155.65 1.00 1.00 r p2
229.88 155.65 1.00 1.00 r p2
230.82 155.65 1.00 1.00 r p2
231.75 155.65 1.00 1.00 r p2
232.69 155.65 1.00 1.00 r p2
233.63 155.65 1.00 1.00 r p2
234.57 155.65 1.00 1.00 r p2
235.51 155.65 1.00 1.00 r p2
236.45 155.65 1.00 1.00 r p2
237.39 155.65 1.00 1.00 r p2
238.33 155.65 1.00 1.00 r p2
239.27 155.65 1.00 1.00 r p2
240.21 155.65 1.00 1.00 r p2
241.15 155.65 1.00 1.00 r p2
242.59 154.12 (>) .5 0 t
243.53 154.12 (>) .5 0 t
244.47 154.12 (>) .5 0 t
244.91 155.65 1.00 1.00 r p2
245.84 155.65 1.00 1.00 r p2
246.78 155.65 1.00 1.00 r p2
247.72 155.65 1.00 1.00 r p2
248.66 155.65 1.00 1.00 r p2
250.10 154.12 (>) .5 0 t
250.54 155.65 1.00 1.00 r p2
251.98 154.12 (>) .5 0 t
252.92 154.12 (>) .5 0 t
253.86 154.12 (>) .5 0 t
254.80 154.12 (>) .5 0 t
255.74 154.12 (>) .5 0 t
256.68 154.12 (>) .5 0 t
257.62 154.12 (>) .5 0 t
258.06 155.65 1.00 1.00 r p2
258.99 155.65 1.00 1.00 r p2
259.93 155.65 1.00 1.00 r p2
260.87 155.65 1.00 1.00 r p2
261.81 155.65 1.00 1.00 r p2
262.75 155.65 1.00 1.00 r p2
263.69 155.65 1.00 1.00 r p2
264.63 155.65 1.00 1.00 r p2
265.57 155.65 1.00 1.00 r p2
266.51 155.65 1.00 1.00 r p2
267.45 155.65 1.00 1.00 r p2
268.39 155.65 1.00 1.00 r p2
269.33 155.65 1.00 1.00 r p2
270.27 155.65 1.00 1.00 r p2
271.21 155.65 1.00 1.00 r p2
272.14 155.65 1.00 1.00 r p2
273.08 155.65 1.00 1.00 r p2
274.52 154.12 (>) .5 0 t
275.46 154.12 (>) .5 0 t
276.40 154.12 (>) .5 0 t
277.34 154.12 (>) .5 0 t
278.28 154.12 (>) .5 0 t
278.72 155.65 1.00 1.00 r p2
279.66 155.65 1.00 1.00 r p2
280.60 155.65 1.00 1.00 r p2
282.04 154.12 (>) .5 0 t
282.98 154.12 (>) .5 0 t
283.92 154.12 (>) .5 0 t
284.86 154.12 (>) .5 0 t
285.80 154.12 (>) .5 0 t
286.73 154.12 (>) .5 0 t
287.67 153.28 (A) .5 0 t
288.61 154.12 (<) .5 0 t
289.55 154.12 (<) .5 0 t
289.99 155.65 1.00 1.00 r p2
290.93 155.65 1.00 1.00 r p2
292.37 154.12 (<) .5 0 t
293.31 154.12 (<) .5 0 t
294.25 154.12 (<) .5 0 t
295.19 154.12 (<) .5 0 t
296.13 154.12 (<) .5 0 t
296.57 155.65 1.00 1.00 r p2
298.01 154.12 (<) .5 0 t
298.95 154.12 (<) .5 0 t
299.88 154.12 (<) .5 0 t
300.32 155.65 1.00 1.00 r p2
301.26 155.65 1.00 1.00 r p2
302.20 155.65 1.00 1.00 r p2
303.14 155.65 1.00 1.00 r p2
304.08 155.65 1.00 1.00 r p2
305.02 155.65 1.00 1.00 r p2
305.96 155.65 1.00 1.00 r p2
306.90 155.65 1.00 1.00 r p2
307.84 155.65 1.00 1.00 r p2
308.78 155.65 1.00 1.00 r p2
309.72 155.65 1.00 1.00 r p2
310.66 155.65 1.00 1.00 r p2
311.60 155.65 1.00 1.00 r p2
312.53 155.65 1.00 1.00 r p2
313.47 155.65 1.00 1.00 r p2
314.41 155.65 1.00 1.00 r p2
315.35 155.65 1.00 1.00 r p2
316.29 155.65 1.00 1.00 r p2
317.23 155.65 1.00 1.00 r p2
318.17 155.65 1.00 1.00 r p2
319.11 155.65 1.00 1.00 r p2
320.05 155.65 1.00 1.00 r p2
320.99 155.65 1.00 1.00 r p2
321.93 155.65 1.00 1.00 r p2
322.87 155.65 1.00 1.00 r p2
323.81 155.65 1.00 1.00 r p2
324.75 155.65 1.00 1.00 r p2
325.69 155.65 1.00 1.00 r p2
326.62 155.65 1.00 1.00 r p2
327.56 155.65 1.00 1.00 r p2
328.50 155.65 1.00 1.00 r p2
329.44 155.65 1.00 1.00 r p2
330.38 155.65 1.00 1.00 r p2
331.32 155.65 1.00 1.00 r p2
332.26 155.65 1.00 1.00 r p2
333.20 155.65 1.00 1.00 r p2
334.14 155.65 1.00 1.00 r p2
335.08 155.65 1.00 1.00 r p2
336.02 155.65 1.00 1.00 r p2
336.96 155.65 1.00 1.00 r p2
337.90 155.65 1.00 1.00 r p2
338.84 155.65 1.00 1.00 r p2
339.77 155.65 1.00 1.00 r p2
340.71 155.65 1.00 1.00 r p2
341.65 155.65 1.00 1.00 r p2
342.59 155.65 1.00 1.00 r p2
343.53 155.65 1.00 1.00 r p2
344.97 154.12 (>) .5 0 t
345.91 154.12 (>) .5 0 t
346.85 154.12 (>) .5 0 t
347.79 154.12 (>) .5 0 t
348.73 154.12 (>) .5 0 t
349.67 154.12 (>) .5 0 t
350.61 154.12 (>) .5 0 t
351.05 155.65 1.00 1.00 r p2
351.99 155.65 1.00 1.00 r p2
353.42 154.12 (>) .5 0 t
354.36 154.12 (>) .5 0 t
355.30 154.12 (>) .5 0 t
355.74 155.65 1.00 1.00 r p2
356.68 155.65 1.00 1.00 r p2
357.62 155.65 1.00 1.00 r p2
359.06 154.04 (\() .5 0 t
359.50 155.65 1.00 1.00 r p2
360.94 154.04 (\() .5 0 t
361.88 154.04 (\() .5 0 t
362.82 154.04 (\() .5 0 t
363.76 154.04 (\() .5 0 t
364.70 154.04 (\() .5 0 t
365.14 155.65 1.00 1.00 r p2
366.08 155.65 1.00 1.00 r p2
367.01 155.65 1.00 1.00 r p2
367.95 155.65 1.00 1.00 r p2
368.89 155.65 1.00 1.00 r p2
369.83 155.65 1.00 1.00 r p2
370.77 155.65 1.00 1.00 r p2
371.71 155.65 1.00 1.00 r p2
372.65 155.65 1.00 1.00 r p2
373.59 155.65 1.00 1.00 r p2
374.53 155.65 1.00 1.00 r p2
375.47 155.65 1.00 1.00 r p2
376.41 155.65 1.00 1.00 r p2
377.35 155.65 1.00 1.00 r p2
378.29 155.65 1.00 1.00 r p2
379.23 155.65 1.00 1.00 r p2
380.16 155.65 1.00 1.00 r p2
381.10 155.65 1.00 1.00 r p2
382.04 155.65 1.00 1.00 r p2
382.98 155.65 1.00 1.00 r p2
383.92 155.65 1.00 1.00 r p2
384.86 155.65 1.00 1.00 r p2
385.80 155.65 1.00 1.00 r p2
386.74 155.65 1.00 1.00 r p2
387.68 155.65 1.00 1.00 r p2
388.62 155.65 1.00 1.00 r p2
389.56 155.65 1.00 1.00 r p2
390.50 155.65 1.00 1.00 r p2
391.44 155.65 1.00 1.00 r p2
392.38 155.65 1.00 1.00 r p2
393.31 155.65 1.00 1.00 r p2
394.25 155.65 1.00 1.00 r p2
395.19 155.65 1.00 1.00 r p2
396.13 155.65 1.00 1.00 r p2
397.07 155.65 1.00 1.00 r p2
398.01 155.65 1.00 1.00 r p2
398.95 155.65 1.00 1.00 r p2
399.89 155.65 1.00 1.00 r p2
400.83 155.65 1.00 1.00 r p2
401.77 155.65 1.00 1.00 r p2
402.71 155.65 1.00 1.00 r p2
403.65 155.65 1.00 1.00 r p2
404.59 155.65 1.00 1.00 r p2
405.53 155.65 1.00 1.00 r p2
406.47 155.65 1.00 1.00 r p2
407.40 155.65 1.00 1.00 r p2
408.34 155.65 1.00 1.00 r p2
409.28 155.65 1.00 1.00 r p2
410.22 155.65 1.00 1.00 r p2
411.16 155.65 1.00 1.00 r p2
412.10 155.65 1.00 1.00 r p2
413.04 155.65 1.00 1.00 r p2
413.98 155.65 1.00 1.00 r p2
414.92 155.65 1.00 1.00 r p2
416.36 154.06 (a) .5 0 t
417.30 154.06 (a) .5 0 t
418.24 154.06 (a) .5 0 t
419.18 154.06 (a) .5 0 t
420.12 154.06 (a) .5 0 t
421.05 154.06 (a) .5 0 t
421.99 154.12 (<) .5 0 t
422.93 154.12 (<) .5 0 t
423.87 154.12 (<) .5 0 t
424.81 154.12 (<) .5 0 t
425.75 154.12 (<) .5 0 t
426.69 154.12 (<) .5 0 t
427.63 154.12 (<) .5 0 t
428.57 154.12 (<) .5 0 t
429.51 154.12 (<) .5 0 t
429.95 155.65 1.00 1.00 r p2
430.89 155.65 1.00 1.00 r p2
431.83 155.65 1.00 1.00 r p2
432.77 155.65 1.00 1.00 r p2
433.70 155.65 1.00 1.00 r p2
434.64 155.65 1.00 1.00 r p2
435.58 155.65 1.00 1.00 r p2
436.52 155.65 1.00 1.00 r p2
437.46 155.65 1.00 1.00 r p2
438.40 155.65 1.00 1.00 r p2
439.34 155.65 1.00 1.00 r p2
440.28 155.65 1.00 1.00 r p2
441.22 155.65 1.00 1.00 r p2
442.16 155.65 1.00 1.00 r p2
443.10 155.65 1.00 1.00 r p2
444.04 155.65 1.00 1.00 r p2
444.98 155.65 1.00 1.00 r p2
445.92 155.65 1.00 1.00 r p2
446.86 155.65 1.00 1.00 r p2
447.79 155.65 1.00 1.00 r p2
448.73 155.65 1.00 1.00 r p2
449.67 155.65 1.00 1.00 r p2
450.61 155.65 1.00 1.00 r p2
451.55 155.65 1.00 1.00 r p2
452.49 155.65 1.00 1.00 r p2
453.43 155.65 1.00 1.00 r p2
454.37 155.65 1.00 1.00 r p2
455.31 155.65 1.00 1.00 r p2
456.25 155.65 1.00 1.00 r p2
457.19 155.65 1.00 1.00 r p2
458.13 155.65 1.00 1.00 r p2
459.07 155.65 1.00 1.00 r p2
460.01 155.65 1.00 1.00 r p2
460.94 155.65 1.00 1.00 r p2
461.88 155.65 1.00 1.00 r p2
462.82 155.65 1.00 1.00 r p2
463.76 155.65 1.00 1.00 r p2
464.70 155.65 1.00 1.00 r p2
465.64 155.65 1.00 1.00 r p2
466.58 155.65 1.00 1.00 r p2
467.52 155.65 1.00 1.00 r p2
468.46 155.65 1.00 1.00 r p2
469.40 155.65 1.00 1.00 r p2
470.34 155.65 1.00 1.00 r p2
471.28 155.65 1.00 1.00 r p2
472.22 155.65 1.00 1.00 r p2
473.16 155.65 1.00 1.00 r p2
474.09 155.65 1.00 1.00 r p2
475.03 155.65 1.00 1.00 r p2
476.47 154.12 (>) .5 0 t
477.41 154.12 (>) .5 0 t
478.35 154.12 (>) .5 0 t
479.29 154.12 (>) .5 0 t
480.23 154.12 (>) .5 0 t
481.17 154.12 (>) .5 0 t
482.11 154.12 (>) .5 0 t
483.05 154.12 (>) .5 0 t
483.99 154.12 (>) .5 0 t
484.43 155.65 1.00 1.00 r p2
485.37 155.65 1.00 1.00 r p2
486.31 155.65 1.00 1.00 r p2
487.25 155.65 1.00 1.00 r p2
488.18 155.65 1.00 1.00 r p2
489.12 155.65 1.00 1.00 r p2
490.06 155.65 1.00 1.00 r p2
491.50 154.04 (\)) .5 0 t
492.44 154.04 (\)) .5 0 t
493.38 154.04 (\)) .5 0 t
494.32 154.04 (\)) .5 0 t
495.26 154.04 (\)) .5 0 t
496.20 154.04 (\)) .5 0 t
496.64 155.65 1.00 1.00 r p2
497.58 155.65 1.00 1.00 r p2
499.02 154.12 (<) .5 0 t
499.96 154.12 (<) .5 0 t
500.40 155.65 1.00 1.00 r p2
501.83 154.12 (<) .5 0 t
502.77 154.12 (<) .5 0 t
503.71 154.12 (<) .5 0 t
504.65 154.12 (<) .5 0 t
505.59 154.12 (<) .5 0 t
506.53 154.12 (<) .5 0 t
507.47 154.12 (<) .5 0 t
507.91 155.65 1.00 1.00 r p2
508.85 155.65 1.00 1.00 r p2
509.79 155.65 1.00 1.00 r p2
510.73 155.65 1.00 1.00 r p2
511.67 155.65 1.00 1.00 r p2
512.61 155.65 1.00 1.00 r p2
513.55 155.65 1.00 1.00 r p2
514.48 155.65 1.00 1.00 r p2
515.42 155.65 1.00 1.00 r p2
516.36 155.65 1.00 1.00 r p2
517.30 155.65 1.00 1.00 r p2
518.24 155.65 1.00 1.00 r p2
519.18 155.65 1.00 1.00 r p2
520.12 155.65 1.00 1.00 r p2
521.06 155.65 1.00 1.00 r p2
522.00 155.65 1.00 1.00 r p2
522.94 155.65 1.00 1.00 r p2
523.88 155.65 1.00 1.00 r p2
524.82 155.65 1.00 1.00 r p2
525.76 155.65 1.00 1.00 r p2
527.20 154.12 (>) .5 0 t
528.14 154.12 (>) .5 0 t
529.07 154.12 (>) .5 0 t
530.01 154.12 (>) .5 0 t
530.95 154.12 (>) .5 0 t
531.89 154.12 (>) .5 0 t
532.83 154.12 (>) .5 0 t
533.27 155.65 1.00 1.00 r p2
534.21 155.65 1.00 1.00 r p2
535.15 155.65 1.00 1.00 r p2
536.59 154.12 (<) .5 0 t
537.53 154.12 (<) .5 0 t
538.47 154.12 (<) .5 0 t
539.41 154.12 (<) .5 0 t
539.85 155.65 1.00 1.00 r p2
540.79 155.65 1.00 1.00 r p2
541.72 155.65 1.00 1.00 r p2
542.66 155.65 1.00 1.00 r p2
543.60 155.65 1.00 1.00 r p2
544.54 155.65 1.00 1.00 r p2
545.48 155.65 1.00 1.00 r p2
546.42 155.65 1.00 1.00 r p2
547.36 155.65 1.00 1.00 r p2
548.30 155.65 1.00 1.00 r p2
549.24 155.65 1.00 1.00 r p2
550.18 155.65 1.00 1.00 r p2
551.12 155.65 1.00 1.00 r p2
552.06 155.65 1.00 1.00 r p2
553.00 155.65 1.00 1.00 r p2
553.94 155.65 1.00 1.00 r p2
554.87 155.65 1.00 1.00 r p2
555.81 155.65 1.00 1.00 r p2
556.75 155.65 1.00 1.00 r p2
557.69 155.65 1.00 1.00 r p2
558.63 155.65 1.00 1.00 r p2
559.57 155.65 1.00 1.00 r p2
560.51 155.65 1.00 1.00 r p2
561.45 155.65 1.00 1.00 r p2
562.39 155.65 1.00 1.00 r p2
563.33 155.65 1.00 1.00 r p2
564.27 155.65 1.00 1.00 r p2
565.21 155.65 1.00 1.00 r p2
566.15 155.65 1.00 1.00 r p2
567.09 155.65 1.00 1.00 r p2
568.03 155.65 1.00 1.00 r p2
568.96 155.65 1.00 1.00 r p2
569.90 155.65 1.00 1.00 r p2
570.84 155.65 1.00 1.00 r p2
571.78 155.65 1.00 1.00 r p2
572.72 155.65 1.00 1.00 r p2
573.66 155.65 1.00 1.00 r p2
574.60 155.65 1.00 1.00 r p2
575.54 155.65 1.00 1.00 r p2
576.48 155.65 1.00 1.00 r p2
577.42 155.65 1.00 1.00 r p2
578.36 155.65 1.00 1.00 r p2
579.30 155.65 1.00 1.00 r p2
580.24 155.65 1.00 1.00 r p2
581.18 155.65 1.00 1.00 r p2
582.11 155.65 1.00 1.00 r p2
583.05 155.65 1.00 1.00 r p2
583.99 155.65 1.00 1.00 r p2
584.93 155.65 1.00 1.00 r p2
586.37 154.12 (>) .5 0 t
587.31 154.12 (>) .5 0 t
588.25 154.12 (>) .5 0 t
589.19 154.12 (>) .5 0 t
589.63 155.65 1.00 1.00 r p2
590.57 155.65 1.00 1.00 r p2
591.51 155.65 1.00 1.00 r p2
592.45 155.65 1.00 1.00 r p2
593.39 155.65 1.00 1.00 r p2
594.33 155.65 1.00 1.00 r p2
595.26 155.65 1.00 1.00 r p2
596.20 155.65 1.00 1.00 r p2
597.14 155.65 1.00 1.00 r p2
598.08 155.65 1.00 1.00 r p2
599.02 155.65 1.00 1.00 r p2
599.96 155.65 1.00 1.00 r p2
600.90 155.65 1.00 1.00 r p2
601.84 155.65 1.00 1.00 r p2
602.78 155.65 1.00 1.00 r p2
603.72 155.65 1.00 1.00 r p2
604.66 155.65 1.00 1.00 r p2
605.60 155.65 1.00 1.00 r p2
606.54 155.65 1.00 1.00 r p2
607.48 155.65 1.00 1.00 r p2
608.42 155.65 1.00 1.00 r p2
609.35 155.65 1.00 1.00 r p2
610.29 155.65 1.00 1.00 r p2
611.23 155.65 1.00 1.00 r p2
612.17 155.65 1.00 1.00 r p2
613.11 155.65 1.00 1.00 r p2
614.05 155.65 1.00 1.00 r p2
614.99 155.65 1.00 1.00 r p2
615.93 155.65 1.00 1.00 r p2
616.87 155.65 1.00 1.00 r p2
617.81 155.65 1.00 1.00 r p2
618.75 155.65 1.00 1.00 r p2
619.69 155.65 1.00 1.00 r p2
620.63 155.65 1.00 1.00 r p2
621.57 155.65 1.00 1.00 r p2
622.50 155.65 1.00 1.00 r p2
623.44 155.65 1.00 1.00 r p2
624.38 155.65 1.00 1.00 r p2
625.32 155.65 1.00 1.00 r p2
626.26 155.65 1.00 1.00 r p2
627.20 155.65 1.00 1.00 r p2
628.14 155.65 1.00 1.00 r p2
629.08 155.65 1.00 1.00 r p2
630.02 155.65 1.00 1.00 r p2
630.96 155.65 1.00 1.00 r p2
631.90 155.65 1.00 1.00 r p2
632.84 155.65 1.00 1.00 r p2
633.78 155.65 1.00 1.00 r p2
634.72 155.65 1.00 1.00 r p2
635.65 155.65 1.00 1.00 r p2
636.59 155.65 1.00 1.00 r p2
637.53 155.65 1.00 1.00 r p2
638.47 155.65 1.00 1.00 r p2
639.41 155.65 1.00 1.00 r p2
640.35 155.65 1.00 1.00 r p2
641.29 155.65 1.00 1.00 r p2
642.23 155.65 1.00 1.00 r p2
643.17 155.65 1.00 1.00 r p2
644.11 155.65 1.00 1.00 r p2
645.05 155.65 1.00 1.00 r p2
645.99 155.65 1.00 1.00 r p2
646.93 155.65 1.00 1.00 r p2
647.87 155.65 1.00 1.00 r p2
648.81 155.65 1.00 1.00 r p2
649.74 155.65 1.00 1.00 r p2
650.68 155.65 1.00 1.00 r p2
651.62 155.65 1.00 1.00 r p2
652.56 155.65 1.00 1.00 r p2
653.50 155.65 1.00 1.00 r p2
654.44 155.65 1.00 1.00 r p2
655.38 155.65 1.00 1.00 r p2
656.32 155.65 1.00 1.00 r p2
657.26 155.65 1.00 1.00 r p2
658.70 154.12 (>) .5 0 t
659.64 154.12 (>) .5 0 t
660.08 155.65 1.00 1.00 r p2
661.02 155.65 1.00 1.00 r p2
661.96 155.65 1.00 1.00 r p2
662.89 155.65 1.00 1.00 r p2
663.83 155.65 1.00 1.00 r p2
664.77 155.65 1.00 1.00 r p2
665.71 155.65 1.00 1.00 r p2
666.65 155.65 1.00 1.00 r p2
667.59 155.65 1.00 1.00 r p2
668.53 155.65 1.00 1.00 r p2
669.47 155.65 1.00 1.00 r p2
670.41 155.65 1.00 1.00 r p2
49.53 146.39 1.00 1.00 r p2
50.47 146.39 1.00 1.00 r p2
51.41 146.39 1.00 1.00 r p2
52.35 146.39 1.00 1.00 r p2
53.29 146.39 1.00 1.00 r p2
54.73 144.08 (1) .5 0 t
55.67 144.08 (1) .5 0 t
56.61 144.08 (1) .5 0 t
57.54 144.08 (1) .5 0 t
58.48 144.08 (1) .5 0 t
59.42 144.08 (1) .5 0 t
59.86 146.39 1.00 1.00 r p2
61.30 144.08 (1) .5 0 t
61.74 146.39 1.00 1.00 r p2
62.68 146.39 1.00 1.00 r p2
63.62 146.39 1.00 1.00 r p2
64.56 146.39 1.00 1.00 r p2
65.50 146.39 1.00 1.00 r p2
66.44 146.39 1.00 1.00 r p2
67.38 146.39 1.00 1.00 r p2
68.32 146.39 1.00 1.00 r p2
69.26 146.39 1.00 1.00 r p2
70.19 146.39 1.00 1.00 r p2
71.13 146.39 1.00 1.00 r p2
72.07 146.39 1.00 1.00 r p2
73.01 146.39 1.00 1.00 r p2
73.95 146.39 1.00 1.00 r p2
74.89 146.39 1.00 1.00 r p2
75.83 146.39 1.00 1.00 r p2
76.77 146.39 1.00 1.00 r p2
78.21 144.08 (1) .5 0 t
78.65 146.39 1.00 1.00 r p2
80.09 144.08 (1) .5 0 t
81.03 144.08 (1) .5 0 t
81.97 144.08 (1) .5 0 t
82.91 144.08 (1) .5 0 t
83.85 144.08 (1) .5 0 t
84.78 144.08 (1) .5 0 t
85.22 146.39 1.00 1.00 r p2
86.16 146.39 1.00 1.00 r p2
87.10 146.39 1.00 1.00 r p2
88.04 146.39 1.00 1.00 r p2
88.98 146.39 1.00 1.00 r p2
89.92 146.39 1.00 1.00 r p2
90.86 146.39 1.00 1.00 r p2
91.80 146.39 1.00 1.00 r p2
92.74 146.39 1.00 1.00 r p2
93.68 146.39 1.00 1.00 r p2
94.62 146.39 1.00 1.00 r p2
95.56 146.39 1.00 1.00 r p2
96.50 146.39 1.00 1.00 r p2
97.43 146.39 1.00 1.00 r p2
98.37 146.39 1.00 1.00 r p2
99.31 146.39 1.00 1.00 r p2
100.25 146.39 1.00 1.00 r p2
101.19 146.39 1.00 1.00 r p2
102.13 146.39 1.00 1.00 r p2
103.07 146.39 1.00 1.00 r p2
104.01 146.39 1.00 1.00 r p2
104.95 146.39 1.00 1.00 r p2
105.89 146.39 1.00 1.00 r p2
106.83 146.39 1.00 1.00 r p2
107.77 146.39 1.00 1.00 r p2
108.71 146.39 1.00 1.00 r p2
109.65 146.39 1.00 1.00 r p2
110.58 146.39 1.00 1.00 r p2
111.52 146.39 1.00 1.00 r p2
112.46 146.39 1.00 1.00 r p2
113.40 146.39 1.00 1.00 r p2
114.34 146.39 1.00 1.00 r p2
115.28 146.39 1.00 1.00 r p2
116.22 146.39 1.00 1.00 r p2
117.16 146.39 1.00 1.00 r p2
118.10 146.39 1.00 1.00 r p2
119.04 146.39 1.00 1.00 r p2
119.98 146.39 1.00 1.00 r p2
120.92 146.39 1.00 1.00 r p2
122.36 144.15 (3) .5 0 t
123.30 144.15 (3) .5 0 t
124.24 144.15 (3) .5 0 t
125.17 144.15 (3) .5 0 t
126.11 144.15 (3) .5 0 t
127.05 144.08 (4) .5 0 t
127.49 146.39 1.00 1.00 r p2
128.43 146.39 1.00 1.00 r p2
129.37 146.39 1.00 1.00 r p2
130.31 146.39 1.00 1.00 r p2
131.25 146.39 1.00 1.00 r p2
132.19 146.39 1.00 1.00 r p2
133.13 146.39 1.00 1.00 r p2
134.57 144.08 (4) .5 0 t
135.51 144.08 (4) .5 0 t
136.45 144.08 (4) .5 0 t
137.39 144.08 (4) .5 0 t
138.32 144.08 (4) .5 0 t
139.26 144.08 (4) .5 0 t
139.70 146.39 1.00 1.00 r p2
140.64 146.39 1.00 1.00 r p2
141.58 146.39 1.00 1.00 r p2
142.52 146.39 1.00 1.00 r p2
143.96 144.08 (4) .5 0 t
144.90 144.08 (4) .5 0 t
145.84 144.08 (4) .5 0 t
146.78 144.08 (4) .5 0 t
147.22 146.39 1.00 1.00 r p2
148.16 146.39 1.00 1.00 r p2
149.10 146.39 1.00 1.00 r p2
150.04 146.39 1.00 1.00 r p2
150.97 146.39 1.00 1.00 r p2
151.91 146.39 1.00 1.00 r p2
152.85 146.39 1.00 1.00 r p2
153.79 146.39 1.00 1.00 r p2
154.73 146.39 1.00 1.00 r p2
155.67 146.39 1.00 1.00 r p2
157.11 144.08 (4) .5 0 t
158.05 144.08 (4) .5 0 t
158.99 144.08 (4) .5 0 t
159.93 144.08 (4) .5 0 t
160.87 144.08 (4) .5 0 t
161.81 144.08 (4) .5 0 t
162.75 144.08 (4) .5 0 t
163.69 144.08 (4) .5 0 t
164.63 144.08 (4) .5 0 t
165.56 144.08 (4) .5 0 t
166.50 144.08 (4) .5 0 t
166.94 146.39 1.00 1.00 r p2
167.88 146.39 1.00 1.00 r p2
168.82 146.39 1.00 1.00 r p2
169.76 146.39 1.00 1.00 r p2
170.70 146.39 1.00 1.00 r p2
171.64 146.39 1.00 1.00 r p2
172.58 146.39 1.00 1.00 r p2
173.52 146.39 1.00 1.00 r p2
174.46 146.39 1.00 1.00 r p2
175.40 146.39 1.00 1.00 r p2
176.34 146.39 1.00 1.00 r p2
177.28 146.39 1.00 1.00 r p2
178.21 146.39 1.00 1.00 r p2
179.15 146.39 1.00 1.00 r p2
180.09 146.39 1.00 1.00 r p2
181.03 146.39 1.00 1.00 r p2
181.97 146.39 1.00 1.00 r p2
182.91 146.39 1.00 1.00 r p2
183.85 146.39 1.00 1.00 r p2
184.79 146.39 1.00 1.00 r p2
185.73 146.39 1.00 1.00 r p2
186.67 146.39 1.00 1.00 r p2
187.61 146.39 1.00 1.00 r p2
188.55 146.39 1.00 1.00 r p2
189.49 146.39 1.00 1.00 r p2
190.43 146.39 1.00 1.00 r p2
191.36 146.39 1.00 1.00 r p2
192.30 146.39 1.00 1.00 r p2
193.24 146.39 1.00 1.00 r p2
194.18 146.39 1.00 1.00 r p2
195.12 146.39 1.00 1.00 r p2
196.06 146.39 1.00 1.00 r p2
197.00 146.39 1.00 1.00 r p2
197.94 146.39 1.00 1.00 r p2
198.88 146.39 1.00 1.00 r p2
199.82 146.39 1.00 1.00 r p2
200.76 146.39 1.00 1.00 r p2
201.70 146.39 1.00 1.00 r p2
202.64 146.39 1.00 1.00 r p2
203.58 146.39 1.00 1.00 r p2
204.52 146.39 1.00 1.00 r p2
205.45 146.39 1.00 1.00 r p2
206.39 146.39 1.00 1.00 r p2
207.33 146.39 1.00 1.00 r p2
208.27 146.39 1.00 1.00 r p2
209.21 146.39 1.00 1.00 r p2
210.15 146.39 1.00 1.00 r p2
211.09 146.39 1.00 1.00 r p2
212.03 146.39 1.00 1.00 r p2
212.97 146.39 1.00 1.00 r p2
213.91 146.39 1.00 1.00 r p2
214.85 146.39 1.00 1.00 r p2
215.79 146.39 1.00 1.00 r p2
216.73 146.39 1.00 1.00 r p2
217.67 146.39 1.00 1.00 r p2
218.60 146.39 1.00 1.00 r p2
219.54 146.39 1.00 1.00 r p2
220.48 146.39 1.00 1.00 r p2
221.42 146.39 1.00 1.00 r p2
222.36 146.39 1.00 1.00 r p2
223.30 146.39 1.00 1.00 r p2
224.24 146.39 1.00 1.00 r p2
225.18 146.39 1.00 1.00 r p2
226.12 146.39 1.00 1.00 r p2
227.06 146.39 1.00 1.00 r p2
228.00 146.39 1.00 1.00 r p2
228.94 146.39 1.00 1.00 r p2
229.88 146.39 1.00 1.00 r p2
230.82 146.39 1.00 1.00 r p2
231.75 146.39 1.00 1.00 r p2
232.69 146.39 1.00 1.00 r p2
233.63 146.39 1.00 1.00 r p2
234.57 146.39 1.00 1.00 r p2
235.51 146.39 1.00 1.00 r p2
236.45 146.39 1.00 1.00 r p2
237.39 146.39 1.00 1.00 r p2
238.33 146.39 1.00 1.00 r p2
239.27 146.39 1.00 1.00 r p2
240.21 146.39 1.00 1.00 r p2
241.15 146.39 1.00 1.00 r p2
242.59 144.08 (4) .5 0 t
243.53 144.08 (4) .5 0 t
244.47 144.08 (4) .5 0 t
244.91 146.39 1.00 1.00 r p2
245.84 146.39 1.00 1.00 r p2
246.78 146.39 1.00 1.00 r p2
247.72 146.39 1.00 1.00 r p2
248.66 146.39 1.00 1.00 r p2
250.10 144.08 (4) .5 0 t
250.54 146.39 1.00 1.00 r p2
251.98 144.08 (4) .5 0 t
252.92 144.08 (4) .5 0 t
253.86 144.08 (4) .5 0 t
254.80 144.08 (4) .5 0 t
255.74 144.08 (4) .5 0 t
256.68 144.08 (4) .5 0 t
257.62 144.08 (4) .5 0 t
258.06 146.39 1.00 1.00 r p2
258.99 146.39 1.00 1.00 r p2
259.93 146.39 1.00 1.00 r p2
260.87 146.39 1.00 1.00 r p2
261.81 146.39 1.00 1.00 r p2
262.75 146.39 1.00 1.00 r p2
263.69 146.39 1.00 1.00 r p2
264.63 146.39 1.00 1.00 r p2
265.57 146.39 1.00 1.00 r p2
266.51 146.39 1.00 1.00 r p2
267.45 146.39 1.00 1.00 r p2
268.39 146.39 1.00 1.00 r p2
269.33 146.39 1.00 1.00 r p2
270.27 146.39 1.00 1.00 r p2
271.21 146.39 1.00 1.00 r p2
272.14 146.39 1.00 1.00 r p2
273.08 146.39 1.00 1.00 r p2
274.52 144.08 (4) .5 0 t
275.46 144.08 (4) .5 0 t
276.40 144.08 (4) .5 0 t
277.34 144.08 (4) .5 0 t
278.28 144.08 (4) .5 0 t
278.72 146.39 1.00 1.00 r p2
279.66 146.39 1.00 1.00 r p2
280.60 146.39 1.00 1.00 r p2
282.04 144.08 (4) .5 0 t
282.98 144.08 (4) .5 0 t
283.92 144.08 (4) .5 0 t
284.86 144.08 (4) .5 0 t
285.80 144.08 (4) .5 0 t
286.73 144.08 (4) .5 0 t
287.67 144.21 (5) .5 0 t
288.61 144.21 (5) .5 0 t
289.55 144.21 (5) .5 0 t
289.99 146.39 1.00 1.00 r p2
290.93 146.39 1.00 1.00 r p2
292.37 144.21 (5) .5 0 t
293.31 144.21 (5) .5 0 t
294.25 144.21 (5) .5 0 t
295.19 144.21 (5) .5 0 t
296.13 144.21 (5) .5 0 t
296.57 146.39 1.00 1.00 r p2
298.01 144.21 (5) .5 0 t
298.95 144.21 (5) .5 0 t
299.88 144.21 (5) .5 0 t
300.32 146.39 1.00 1.00 r p2
301.26 146.39 1.00 1.00 r p2
302.20 146.39 1.00 1.00 r p2
303.14 146.39 1.00 1.00 r p2
304.08 146.39 1.00 1.00 r p2
305.02 146.39 1.00 1.00 r p2
305.96 146.39 1.00 1.00 r p2
306.90 146.39 1.00 1.00 r p2
307.84 146.39 1.00 1.00 r p2
308.78 146.39 1.00 1.00 r p2
309.72 146.39 1.00 1.00 r p2
310.66 146.39 1.00 1.00 r p2
311.60 146.39 1.00 1.00 r p2
312.53 146.39 1.00 1.00 r p2
313.47 146.39 1.00 1.00 r p2
314.41 146.39 1.00 1.00 r p2
315.35 146.39 1.00 1.00 r p2
316.29 146.39 1.00 1.00 r p2
317.23 146.39 1.00 1.00 r p2
318.17 146.39 1.00 1.00 r p2
319.11 146.39 1.00 1.00 r p2
320.05 146.39 1.00 1.00 r p2
320.99 146.39 1.00 1.00 r p2
321.93 146.39 1.00 1.00 r p2
322.87 146.39 1.00 1.00 r p2
323.81 146.39 1.00 1.00 r p2
324.75 146.39 1.00 1.00 r p2
325.69 146.39 1.00 1.00 r p2
326.62 146.39 1.00 1.00 r p2
327.56 146.39 1.00 1.00 r p2
328.50 146.39 1.00 1.00 r p2
329.44 146.39 1.00 1.00 r p2
330.38 146.39 1.00 1.00 r p2
331.32 146.39 1.00 1.00 r p2
332.26 146.39 1.00 1.00 r p2
333.20 146.39 1.00 1.00 r p2
334.14 146.39 1.00 1.00 r p2
335.08 146.39 1.00 1.00 r p2
336.02 146.39 1.00 1.00 r p2
336.96 146.39 1.00 1.00 r p2
337.90 146.39 1.00 1.00 r p2
338.84 146.39 1.00 1.00 r p2
339.77 146.39 1.00 1.00 r p2
340.71 146.39 1.00 1.00 r p2
341.65 146.39 1.00 1.00 r p2
342.59 146.39 1.00 1.00 r p2
343.53 146.39 1.00 1.00 r p2
344.97 144.21 (5) .5 0 t
345.91 144.21 (5) .5 0 t
346.85 144.21 (5) .5 0 t
347.79 144.21 (5) .5 0 t
348.73 144.21 (5) .5 0 t
349.67 144.21 (5) .5 0 t
350.61 144.21 (5) .5 0 t
351.05 146.39 1.00 1.00 r p2
351.99 146.39 1.00 1.00 r p2
353.42 144.21 (5) .5 0 t
354.36 144.21 (5) .5 0 t
355.30 144.21 (5) .5 0 t
355.74 146.39 1.00 1.00 r p2
356.68 146.39 1.00 1.00 r p2
357.62 146.39 1.00 1.00 r p2
359.06 144.15 (6) .5 0 t
359.50 146.39 1.00 1.00 r p2
360.94 144.15 (6) .5 0 t
361.88 144.15 (6) .5 0 t
362.82 144.15 (6) .5 0 t
363.76 144.15 (6) .5 0 t
364.70 144.15 (6) .5 0 t
365.14 146.39 1.00 1.00 r p2
366.08 146.39 1.00 1.00 r p2
367.01 146.39 1.00 1.00 r p2
367.95 146.39 1.00 1.00 r p2
368.89 146.39 1.00 1.00 r p2
369.83 146.39 1.00 1.00 r p2
370.77 146.39 1.00 1.00 r p2
371.71 146.39 1.00 1.00 r p2
372.65 146.39 1.00 1.00 r p2
373.59 146.39 1.00 1.00 r p2
374.53 146.39 1.00 1.00 r p2
375.47 146.39 1.00 1.00 r p2
376.41 146.39 1.00 1.00 r p2
377.35 146.39 1.00 1.00 r p2
378.29 146.39 1.00 1.00 r p2
379.23 146.39 1.00 1.00 r p2
380.16 146.39 1.00 1.00 r p2
381.10 146.39 1.00 1.00 r p2
382.04 146.39 1.00 1.00 r p2
382.98 146.39 1.00 1.00 r p2
383.92 146.39 1.00 1.00 r p2
384.86 146.39 1.00 1.00 r p2
385.80 146.39 1.00 1.00 r p2
386.74 146.39 1.00 1.00 r p2
387.68 146.39 1.00 1.00 r p2
388.62 146.39 1.00 1.00 r p2
389.56 146.39 1.00 1.00 r p2
390.50 146.39 1.00 1.00 r p2
391.44 146.39 1.00 1.00 r p2
392.38 146.39 1.00 1.00 r p2
393.31 146.39 1.00 1.00 r p2
394.25 146.39 1.00 1.00 r p2
395.19 146.39 1.00 1.00 r p2
396.13 146.39 1.00 1.00 r p2
397.07 146.39 1.00 1.00 r p2
398.01 146.39 1.00 1.00 r p2
398.95 146.39 1.00 1.00 r p2
399.89 146.39 1.00 1.00 r p2
400.83 146.39 1.00 1.00 r p2
401.77 146.39 1.00 1.00 r p2
402.71 146.39 1.00 1.00 r p2
403.65 146.39 1.00 1.00 r p2
404.59 146.39 1.00 1.00 r p2
405.53 146.39 1.00 1.00 r p2
406.47 146.39 1.00 1.00 r p2
407.40 146.39 1.00 1.00 r p2
408.34 146.39 1.00 1.00 r p2
409.28 146.39 1.00 1.00 r p2
410.22 146.39 1.00 1.00 r p2
411.16 146.39 1.00 1.00 r p2
412.10 146.39 1.00 1.00 r p2
413.04 146.39 1.00 1.00 r p2
413.98 146.39 1.00 1.00 r p2
414.92 146.39 1.00 1.00 r p2
416.36 144.21 (5) .5 0 t
417.30 144.15 (3) .5 0 t
418.24 144.15 (3) .5 0 t
419.18 144.15 (3) .5 0 t
420.12 144.15 (3) .5 0 t
421.05 144.15 (3) .5 0 t
421.99 144.14 (7) .5 0 t
422.93 144.14 (7) .5 0 t
423.87 144.14 (7) .5 0 t
424.81 144.14 (7) .5 0 t
425.75 144.14 (7) .5 0 t
426.69 144.14 (7) .5 0 t
427.63 144.14 (7) .5 0 t
428.57 144.14 (7) .5 0 t
429.51 144.14 (7) .5 0 t
429.95 146.39 1.00 1.00 r p2
430.89 146.39 1.00 1.00 r p2
431.83 146.39 1.00 1.00 r p2
432.77 146.39 1.00 1.00 r p2
433.70 146.39 1.00 1.00 r p2
434.64 146.39 1.00 1.00 r p2
435.58 146.39 1.00 1.00 r p2
436.52 146.39 1.00 1.00 r p2
437.46 146.39 1.00 1.00 r p2
438.40 146.39 1.00 1.00 r p2
439.34 146.39 1.00 1.00 r p2
440.28 146.39 1.00 1.00 r p2
441.22 146.39 1.00 1.00 r p2
442.16 146.39 1.00 1.00 r p2
443.10 146.39 1.00 1.00 r p2
444.04 146.39 1.00 1.00 r p2
444.98 146.39 1.00 1.00 r p2
445.92 146.39 1.00 1.00 r p2
446.86 146.39 1.00 1.00 r p2
447.79 146.39 1.00 1.00 r p2
448.73 146.39 1.00 1.00 r p2
449.67 146.39 1.00 1.00 r p2
450.61 146.39 1.00 1.00 r p2
451.55 146.39 1.00 1.00 r p2
452.49 146.39 1.00 1.00 r p2
453.43 146.39 1.00 1.00 r p2
454.37 146.39 1.00 1.00 r p2
455.31 146.39 1.00 1.00 r p2
456.25 146.39 1.00 1.00 r p2
457.19 146.39 1.00 1.00 r p2
458.13 146.39 1.00 1.00 r p2
459.07 146.39 1.00 1.00 r p2
460.01 146.39 1.00 1.00 r p2
460.94 146.39 1.00 1.00 r p2
461.88 146.39 1.00 1.00 r p2
462.82 146.39 1.00 1.00 r p2
463.76 146.39 1.00 1.00 r p2
464.70 146.39 1.00 1.00 r p2
465.64 146.39 1.00 1.00 r p2
466.58 146.39 1.00 1.00 r p2
467.52 146.39 1.00 1.00 r p2
468.46 146.39 1.00 1.00 r p2
469.40 146.39 1.00 1.00 r p2
470.34 146.39 1.00 1.00 r p2
471.28 146.39 1.00 1.00 r p2
472.22 146.39 1.00 1.00 r p2
473.16 146.39 1.00 1.00 r p2
474.09 146.39 1.00 1.00 r p2
475.03 146.39 1.00 1.00 r p2
476.47 144.14 (7) .5 0 t
477.41 144.14 (7) .5 0 t
478.35 144.14 (7) .5 0 t
479.29 144.14 (7) .5 0 t
480.23 144.14 (7) .5 0 t
481.17 144.14 (7) .5 0 t
482.11 144.14 (7) .5 0 t
483.05 144.14 (7) .5 0 t
483.99 144.14 (7) .5 0 t
484.43 146.39 1.00 1.00 r p2
485.37 146.39 1.00 1.00 r p2
486.31 146.39 1.00 1.00 r p2
487.25 146.39 1.00 1.00 r p2
488.18 146.39 1.00 1.00 r p2
489.12 146.39 1.00 1.00 r p2
490.06 146.39 1.00 1.00 r p2
491.50 144.15 (6) .5 0 t
492.44 144.15 (6) .5 0 t
493.38 144.15 (6) .5 0 t
494.32 144.15 (6) .5 0 t
495.26 144.15 (6) .5 0 t
496.20 144.15 (6) .5 0 t
496.64 146.39 1.00 1.00 r p2
497.58 146.39 1.00 1.00 r p2
499.02 144.15 (8) .5 0 t
499.96 144.15 (8) .5 0 t
500.40 146.39 1.00 1.00 r p2
501.83 144.15 (8) .5 0 t
502.77 144.15 (8) .5 0 t
503.71 144.15 (8) .5 0 t
504.65 144.15 (8) .5 0 t
505.59 144.15 (8) .5 0 t
506.53 144.15 (8) .5 0 t
507.47 144.15 (8) .5 0 t
507.91 146.39 1.00 1.00 r p2
508.85 146.39 1.00 1.00 r p2
509.79 146.39 1.00 1.00 r p2
510.73 146.39 1.00 1.00 r p2
511.67 146.39 1.00 1.00 r p2
512.61 146.39 1.00 1.00 r p2
513.55 146.39 1.00 1.00 r p2
514.48 146.39 1.00 1.00 r p2
515.42 146.39 1.00 1.00 r p2
516.36 146.39 1.00 1.00 r p2
517.30 146.39 1.00 1.00 r p2
518.24 146.39 1.00 1.00 r p2
519.18 146.39 1.00 1.00 r p2
520.12 146.39 1.00 1.00 r p2
521.06 146.39 1.00 1.00 r p2
522.00 146.39 1.00 1.00 r p2
522.94 146.39 1.00 1.00 r p2
523.88 146.39 1.00 1.00 r p2
524.82 146.39 1.00 1.00 r p2
525.76 146.39 1.00 1.00 r p2
527.20 144.15 (8) .5 0 t
528.14 144.15 (8) .5 0 t
529.07 144.15 (8) .5 0 t
530.01 144.15 (8) .5 0 t
530.95 144.15 (8) .5 0 t
531.89 144.15 (8) .5 0 t
532.83 144.15 (8) .5 0 t
533.27 146.39 1.00 1.00 r p2
534.21 146.39 1.00 1.00 r p2
535.15 146.39 1.00 1.00 r p2
536.59 144.86 (<) .5 0 t
537.53 144.86 (<) .5 0 t
538.47 144.86 (<) .5 0 t
539.41 144.86 (<) .5 0 t
539.85 146.39 1.00 1.00 r p2
540.79 146.39 1.00 1.00 r p2
541.72 146.39 1.00 1.00 r p2
542.66 146.39 1.00 1.00 r p2
543.60 146.39 1.00 1.00 r p2
544.54 146.39 1.00 1.00 r p2
545.48 146.39 1.00 1.00 r p2
546.42 146.39 1.00 1.00 r p2
547.36 146.39 1.00 1.00 r p2
548.30 146.39 1.00 1.00 r p2
549.24 146.39 1.00 1.00 r p2
550.18 146.39 1.00 1.00 r p2
551.12 146.39 1.00 1.00 r p2
552.06 146.39 1.00 1.00 r p2
553.00 146.39 1.00 1.00 r p2
553.94 146.39 1.00 1.00 r p2
554.87 146.39 1.00 1.00 r p2
555.81 146.39 1.00 1.00 r p2
556.75 146.39 1.00 1.00 r p2
557.69 146.39 1.00 1.00 r p2
558.63 146.39 1.00 1.00 r p2
559.57 146.39 1.00 1.00 r p2
560.51 146.39 1.00 1.00 r p2
561.45 146.39 1.00 1.00 r p2
562.39 146.39 1.00 1.00 r p2
563.33 146.39 1.00 1.00 r p2
564.27 146.39 1.00 1.00 r p2
565.21 146.39 1.00 1.00 r p2
566.15 146.39 1.00 1.00 r p2
567.09 146.39 1.00 1.00 r p2
568.03 146.39 1.00 1.00 r p2
568.96 146.39 1.00 1.00 r p2
569.90 146.39 1.00 1.00 r p2
570.84 146.39 1.00 1.00 r p2
571.78 146.39 1.00 1.00 r p2
572.72 146.39 1.00 1.00 r p2
573.66 146.39 1.00 1.00 r p2
574.60 146.39 1.00 1.00 r p2
575.54 146.39 1.00 1.00 r p2
576.48 146.39 1.00 1.00 r p2
577.42 146.39 1.00 1.00 r p2
578.36 146.39 1.00 1.00 r p2
579.30 146.39 1.00 1.00 r p2
580.24 146.39 1.00 1.00 r p2
581.18 146.39 1.00 1.00 r p2
582.11 146.39 1.00 1.00 r p2
583.05 146.39 1.00 1.00 r p2
583.99 146.39 1.00 1.00 r p2
584.93 146.39 1.00 1.00 r p2
586.37 144.86 (>) .5 0 t
587.31 144.86 (>) .5 0 t
588.25 144.86 (>) .5 0 t
589.19 144.86 (>) .5 0 t
589.63 146.39 1.00 1.00 r p2
590.57 146.39 1.00 1.00 r p2
591.51 146.39 1.00 1.00 r p2
592.45 146.39 1.00 1.00 r p2
593.39 146.39 1.00 1.00 r p2
594.33 146.39 1.00 1.00 r p2
595.26 146.39 1.00 1.00 r p2
596.20 146.39 1.00 1.00 r p2
597.14 146.39 1.00 1.00 r p2
598.08 146.39 1.00 1.00 r p2
599.02 146.39 1.00 1.00 r p2
599.96 146.39 1.00 1.00 r p2
600.90 146.39 1.00 1.00 r p2
601.84 146.39 1.00 1.00 r p2
602.78 146.39 1.00 1.00 r p2
603.72 146.39 1.00 1.00 r p2
604.66 146.39 1.00 1.00 r p2
605.60 146.39 1.00 1.00 r p2
606.54 146.39 1.00 1.00 r p2
607.48 146.39 1.00 1.00 r p2
608.42 146.39 1.00 1.00 r p2
609.35 146.39 1.00 1.00 r p2
610.29 146.39 1.00 1.00 r p2
611.23 146.39 1.00 1.00 r p2
612.17 146.39 1.00 1.00 r p2
613.11 146.39 1.00 1.00 r p2
614.05 146.39 1.00 1.00 r p2
614.99 146.39 1.00 1.00 r p2
615.93 146.39 1.00 1.00 r p2
616.87 146.39 1.00 1.00 r p2
617.81 146.39 1.00 1.00 r p2
618.75 146.39 1.00 1.00 r p2
619.69 146.39 1.00 1.00 r p2
620.63 146.39 1.00 1.00 r p2
621.57 146.39 1.00 1.00 r p2
622.50 146.39 1.00 1.00 r p2
623.44 146.39 1.00 1.00 r p2
624.38 146.39 1.00 1.00 r p2
625.32 146.39 1.00 1.00 r p2
626.26 146.39 1.00 1.00 r p2
627.20 146.39 1.00 1.00 r p2
628.14 146.39 1.00 1.00 r p2
629.08 146.39 1.00 1.00 r p2
630.02 146.39 1.00 1.00 r p2
630.96 146.39 1.00 1.00 r p2
631.90 146.39 1.00 1.00 r p2
632.84 146.39 1.00 1.00 r p2
633.78 146.39 1.00 1.00 r p2
634.72 146.39 1.00 1.00 r p2
635.65 146.39 1.00 1.00 r p2
636.59 146.39 1.00 1.00 r p2
637.53 146.39 1.00 1.00 r p2
638.47 146.39 1.00 1.00 r p2
639.41 146.39 1.00 1.00 r p2
640.35 146.39 1.00 1.00 r p2
641.29 146.39 1.00 1.00 r p2
642.23 146.39 1.00 1.00 r p2
643.17 146.39 1.00 1.00 r p2
644.11 146.39 1.00 1.00 r p2
645.05 146.39 1.00 1.00 r p2
645.99 146.39 1.00 1.00 r p2
646.93 146.39 1.00 1.00 r p2
647.87 146.39 1.00 1.00 r p2
648.81 146.39 1.00 1.00 r p2
649.74 146.39 1.00 1.00 r p2
650.68 146.39 1.00 1.00 r p2
651.62 146.39 1.00 1.00 r p2
652.56 146.39 1.00 1.00 r p2
653.50 146.39 1.00 1.00 r p2
654.44 146.39 1.00 1.00 r p2
655.38 146.39 1.00 1.00 r p2
656.32 146.39 1.00 1.00 r p2
657.26 146.39 1.00 1.00 r p2
658.70 144.15 (8) .5 0 t
659.64 144.15 (8) .5 0 t
660.08 146.39 1.00 1.00 r p2
661.02 146.39 1.00 1.00 r p2
661.96 146.39 1.00 1.00 r p2
662.89 146.39 1.00 1.00 r p2
663.83 146.39 1.00 1.00 r p2
664.77 146.39 1.00 1.00 r p2
665.71 146.39 1.00 1.00 r p2
666.65 146.39 1.00 1.00 r p2
667.59 146.39 1.00 1.00 r p2
668.53 146.39 1.00 1.00 r p2
669.47 146.39 1.00 1.00 r p2
670.41 146.39 1.00 1.00 r p2
1 0 0 srgb
0.75 setlinewidth
[] 0 setdash
1 setlinecap
1 setlinejoin
10.00 setmiterlimit
np
50.03 140.57 m
2.55 -4.41 l
-5.10 0 l
2.55 4.41 l
o
np
122.36 140.57 m
2.54 -4.41 l
-5.09 0 l
2.55 4.41 l
o
np
127.05 140.57 m
2.55 -4.41 l
-5.09 0 l
2.54 4.41 l
o
np
122.36 140.57 m
2.54 -4.41 l
-5.09 0 l
2.55 4.41 l
o
np
122.36 140.57 m
2.54 -4.41 l
-5.09 0 l
2.55 4.41 l
o
np
127.05 140.57 m
2.55 -4.41 l
-5.09 0 l
2.54 4.41 l
o
np
242.59 140.57 m
2.54 -4.41 l
-5.09 0 l
2.55 4.41 l
o
np
242.59 140.57 m
2.54 -4.41 l
-5.09 0 l
2.55 4.41 l
o
np
287.67 140.57 m
2.55 -4.41 l
-5.09 0 l
2.54 4.41 l
o
np
344.97 140.57 m
2.55 -4.41 l
-5.09 0 l
2.54 4.41 l
o
np
359.06 140.57 m
2.55 -4.41 l
-5.09 0 l
2.54 4.41 l
o
np
344.97 140.57 m
2.55 -4.41 l
-5.09 0 l
2.54 4.41 l
o
np
359.06 140.57 m
2.55 -4.41 l
-5.09 0 l
2.54 4.41 l
o
np
359.06 140.57 m
2.55 -4.41 l
-5.09 0 l
2.54 4.41 l
o
np
421.99 140.57 m
2.55 -4.41 l
-5.09 0 l
2.54 4.41 l
o
np
421.99 140.57 m
2.55 -4.41 l
-5.09 0 l
2.54 4.41 l
o
np
476.47 140.57 m
2.55 -4.41 l
-5.09 0 l
2.54 4.41 l
o
np
421.99 140.57 m
2.55 -4.41 l
-5.09 0 l
2.54 4.41 l
o
np
476.47 140.57 m
2.55 -4.41 l
-5.09 0 l
2.54 4.41 l
o
np
491.50 140.57 m
2.55 -4.41 l
-5.09 0 l
2.54 4.41 l
o
np
499.02 140.57 m
2.54 -4.41 l
-5.09 0 l
2.55 4.41 l
o
np
84.78 140.57 m
2.55 -4.41 l
-5.09 0 l
2.54 4.41 l
o
np
166.50 140.57 m
2.55 -4.41 l
-5.09 0 l
2.54 4.41 l
o
np
299.88 140.57 m
2.55 -4.41 l
-5.09 0 l
2.54 4.41 l
o
np
364.70 140.57 m
2.54 -4.41 l
-5.09 0 l
2.55 4.41 l
o
np
421.05 140.57 m
2.55 -4.41 l
-5.09 0 l
2.54 4.41 l
o
np
421.05 140.57 m
2.55 -4.41 l
-5.09 0 l
2.54 4.41 l
o
np
416.36 140.57 m
2.54 -4.41 l
-5.09 0 l
2.55 4.41 l
o
np
429.51 140.57 m
2.54 -4.41 l
-5.09 0 l
2.55 4.41 l
o
np
416.36 140.57 m
2.54 -4.41 l
-5.09 0 l
2.55 4.41 l
o
np
429.51 140.57 m
2.54 -4.41 l
-5.09 0 l
2.55 4.41 l
o
np
421.05 140.57 m
2.55 -4.41 l
-5.09 0 l
2.54 4.41 l
o
np
496.20 140.57 m
2.54 -4.41 l
-5.09 0 l
2.55 4.41 l
o
np
496.20 140.57 m
2.54 -4.41 l
-5.09 0 l
2.55 4.41 l
o
np
507.47 140.57 m
2.55 -4.41 l
-5.09 0 l
2.54 4.41 l
o
np
496.20 140.57 m
2.54 -4.41 l
-5.09 0 l
2.55 4.41 l
o
np
507.47 140.57 m
2.55 -4.41 l
-5.09 0 l
2.54 4.41 l
o
np
496.20 140.57 m
2.54 -4.41 l
-5.09 0 l
2.55 4.41 l
o
np
659.64 140.57 m
2.54 -4.41 l
-5.09 0 l
2.55 4.41 l
o
np
659.64 140.57 m
2.54 -4.41 l
-5.09 0 l
2.55 4.41 l
o
np
659.64 140.57 m
2.54 -4.41 l
-5.09 0 l
2.55 4.41 l
o
np
670.91 140.57 m
2.54 -4.41 l
-5.09 0 l
2.55 4.41 l
o
0 0 0.8000 srgb
np
50.03 119.11 m
34.75 0 l
o
/Font1 findfont 7 s
67.41 121.99 (left-P1) .5 0 t
0 0.2000 1 srgb
np
122.36 115.41 m
44.14 0 l
o
144.43 108.34 (L3-L4) .5 0 t
0 0.7490 1 srgb
np
127.05 111.70 m
172.83 0 l
o
213.47 114.58 (P4-L5) .5 0 t
0 1 1 srgb
np
122.36 108.00 m
242.34 0 l
o
243.53 100.93 (L3-L6) .5 0 t
0.1294 1 0.8706 srgb
np
122.36 104.30 m
298.69 0 l
o
271.71 107.18 (P3-L4) .5 0 t
np
127.05 100.59 m
294.00 0 l
o
274.05 93.52 (R3-P4) .5 0 t
0.3608 1 0.6392 srgb
np
242.59 96.89 m
173.77 0 l
o
329.47 99.77 (R4-P5) .5 0 t
0.3843 1 0.6157 srgb
np
242.59 93.19 m
186.92 0 l
o
336.05 86.12 (R4-L7) .5 0 t
0.4627 1 0.5373 srgb
np
287.67 89.48 m
128.69 0 l
o
352.02 92.36 (P5-L6) .5 0 t
0.5882 1 0.4118 srgb
np
344.97 85.78 m
84.54 0 l
o
387.24 78.71 (R5-L7) .5 0 t
0.6157 1 0.3843 srgb
np
359.06 82.07 m
61.99 0 l
o
390.06 84.95 (L6-R3) .5 0 t
0.7451 1 0.2549 srgb
np
344.97 78.37 m
151.23 0 l
o
420.59 71.30 (R5-P6) .5 0 t
0.7686 1 0.2314 srgb
np
359.06 74.67 m
137.14 0 l
o
427.63 77.55 (P6-L7) .5 0 t
0.7961 1 0.2039 srgb
np
359.06 70.96 m
148.41 0 l
o
433.27 63.89 (L6-L8) .5 0 t
0.8980 1 0.1020 srgb
np
421.99 67.26 m
74.21 0 l
o
459.10 70.14 (R6-P7) .5 0 t
0.9216 1 0.0784 srgb
np
421.99 63.56 m
85.48 0 l
o
464.73 56.49 (P7-L8) .5 0 t
1 1 0 srgb
np
476.47 59.85 m
19.73 0 l
o
486.34 62.73 (R7-R6) .5 0 t
1 0.5490 0 srgb
np
421.99 56.15 m
237.65 0 l
o
540.82 49.08 (P7-P8) .5 0 t
1 0.3490 0 srgb
np
476.47 52.44 m
183.17 0 l
o
568.06 55.32 (R7-P8) .5 0 t
1 0.2510 0 srgb
np
491.50 48.74 m
168.14 0 l
o
575.57 41.67 (R6-P8) .5 0 t
1 0.2000 0 srgb
np
499.02 45.04 m
171.89 0 l
o
571.83 47.92 (P8-r) 0 ta
0.105 (ight) tb gr
ep
%%Trailer
%%Pages: 1
%%EOF
