%!PS-Adobe-3.0
%%Creator: graphviz version 2.28.0 (20120127.1553)
%%Title: _anonymous_0
%%Pages: (atend)
%%BoundingBox: (atend)
%%EndComments
save
%%BeginProlog
/DotDict 200 dict def
DotDict begin

/setupLatin1 {
mark
/EncodingVector 256 array def
 EncodingVector 0

ISOLatin1Encoding 0 255 getinterval putinterval
EncodingVector 45 /hyphen put

% Set up ISO Latin 1 character encoding
/starnetISO {
        dup dup findfont dup length dict begin
        { 1 index /FID ne { def }{ pop pop } ifelse
        } forall
        /Encoding EncodingVector def
        currentdict end definefont
} def
/Times-Roman starnetISO def
/Times-Italic starnetISO def
/Times-Bold starnetISO def
/Times-BoldItalic starnetISO def
/Helvetica starnetISO def
/Helvetica-Oblique starnetISO def
/Helvetica-Bold starnetISO def
/Helvetica-BoldOblique starnetISO def
/Courier starnetISO def
/Courier-Oblique starnetISO def
/Courier-Bold starnetISO def
/Courier-BoldOblique starnetISO def
cleartomark
} bind def

%%BeginResource: procset graphviz 0 0
/coord-font-family /Times-Roman def
/default-font-family /Times-Roman def
/coordfont coord-font-family findfont 8 scalefont def

/InvScaleFactor 1.0 def
/set_scale {
       dup 1 exch div /InvScaleFactor exch def
       scale
} bind def

% styles
/solid { [] 0 setdash } bind def
/dashed { [9 InvScaleFactor mul dup ] 0 setdash } bind def
/dotted { [1 InvScaleFactor mul 6 InvScaleFactor mul] 0 setdash } bind def
/invis {/fill {newpath} def /stroke {newpath} def /show {pop newpath} def} bind def
/bold { 2 setlinewidth } bind def
/filled { } bind def
/unfilled { } bind def
/rounded { } bind def
/diagonals { } bind def

% hooks for setting color 
/nodecolor { sethsbcolor } bind def
/edgecolor { sethsbcolor } bind def
/graphcolor { sethsbcolor } bind def
/nopcolor {pop pop pop} bind def

/beginpage {	% i j npages
	/npages exch def
	/j exch def
	/i exch def
	/str 10 string def
	npages 1 gt {
		gsave
			coordfont setfont
			0 0 moveto
			(\() show i str cvs show (,) show j str cvs show (\)) show
		grestore
	} if
} bind def

/set_font {
	findfont exch
	scalefont setfont
} def

% draw text fitted to its expected width
/alignedtext {			% width text
	/text exch def
	/width exch def
	gsave
		width 0 gt {
			[] 0 setdash
			text stringwidth pop width exch sub text length div 0 text ashow
		} if
	grestore
} def

/boxprim {				% xcorner ycorner xsize ysize
		4 2 roll
		moveto
		2 copy
		exch 0 rlineto
		0 exch rlineto
		pop neg 0 rlineto
		closepath
} bind def

/ellipse_path {
	/ry exch def
	/rx exch def
	/y exch def
	/x exch def
	matrix currentmatrix
	newpath
	x y translate
	rx ry scale
	0 0 1 0 360 arc
	setmatrix
} bind def

/endpage { showpage } bind def
/showpage { } def

/layercolorseq
	[	% layer color sequence - darkest to lightest
		[0 0 0]
		[.2 .8 .8]
		[.4 .8 .8]
		[.6 .8 .8]
		[.8 .8 .8]
	]
def

/layerlen layercolorseq length def

/setlayer {/maxlayer exch def /curlayer exch def
	layercolorseq curlayer 1 sub layerlen mod get
	aload pop sethsbcolor
	/nodecolor {nopcolor} def
	/edgecolor {nopcolor} def
	/graphcolor {nopcolor} def
} bind def

/onlayer { curlayer ne {invis} if } def

/onlayers {
	/myupper exch def
	/mylower exch def
	curlayer mylower lt
	curlayer myupper gt
	or
	{invis} if
} def

/curlayer 0 def

%%EndResource
%%EndProlog
%%BeginSetup
14 default-font-family set_font
1 setmiterlimit
% /arrowlength 10 def
% /arrowwidth 5 def

% make sure pdfmark is harmless for PS-interpreters other than Distiller
/pdfmark where {pop} {userdict /pdfmark /cleartomark load put} ifelse
% make '<<' and '>>' safe on PS Level 1 devices
/languagelevel where {pop languagelevel}{1} ifelse
2 lt {
    userdict (<<) cvn ([) cvn load put
    userdict (>>) cvn ([) cvn load put
} if

%%EndSetup
setupLatin1
%%Page: 1 1
%%PageBoundingBox: 36 36 1184 1304
%%PageOrientation: Portrait
0 0 1 beginpage
gsave
36 36 1148 1268 boxprim clip newpath
1 1 set_scale 0 rotate 40 41 translate
% P3_L4
gsave
1 setlinewidth
0 0 0 nodecolor
539 1242 34.17 18 ellipse_path stroke
0 0 0 nodecolor
14 /Times-Roman set_font
520.5 1238.3 moveto 37 (P3_L4) alignedtext
grestore
% L3_L4
gsave
1 setlinewidth
0 0 0 nodecolor
508 1170 34.17 18 ellipse_path stroke
0 0 0 nodecolor
14 /Times-Roman set_font
489.5 1166.3 moveto 37 (L3_L4) alignedtext
grestore
% P3_L4->L3_L4
gsave
1 setlinewidth
0 0 0 edgecolor
newpath 531.65 1224.41 moveto
528.08 1216.34 523.69 1206.43 519.67 1197.35 curveto
stroke
0 0 0 edgecolor
newpath 522.76 1195.68 moveto
515.51 1187.96 lineto
516.36 1198.52 lineto
closepath fill
1 setlinewidth
solid
0 0 0 edgecolor
newpath 522.76 1195.68 moveto
515.51 1187.96 lineto
516.36 1198.52 lineto
closepath stroke
grestore
% L3_L6
gsave
1 setlinewidth
0 0 0 nodecolor
570 1098 34.17 18 ellipse_path stroke
0 0 0 nodecolor
14 /Times-Roman set_font
551.5 1094.3 moveto 37 (L3_L6) alignedtext
grestore
% P3_L4->L3_L6
gsave
1 setlinewidth
0 0 0 edgecolor
newpath 542.94 1223.83 moveto
545.31 1213.46 548.37 1199.98 551 1188 curveto
555.55 1167.3 560.55 1143.85 564.28 1126.22 curveto
stroke
0 0 0 edgecolor
newpath 567.78 1126.58 moveto
566.42 1116.08 lineto
560.93 1125.14 lineto
closepath fill
1 setlinewidth
solid
0 0 0 edgecolor
newpath 567.78 1126.58 moveto
566.42 1116.08 lineto
560.93 1125.14 lineto
closepath stroke
grestore
% R3_P4
gsave
1 setlinewidth
0 0 0 nodecolor
632 1026 34.17 18 ellipse_path stroke
0 0 0 nodecolor
14 /Times-Roman set_font
613.5 1022.3 moveto 37 (R3_P4) alignedtext
grestore
% P3_L4->R3_P4
gsave
1 setlinewidth
0 0 0 edgecolor
newpath 550.87 1224.9 moveto
567.27 1201.91 596.67 1157.81 613 1116 curveto
620.8 1096.04 625.67 1072.25 628.52 1054.29 curveto
stroke
0 0 0 edgecolor
newpath 632.01 1054.61 moveto
630.01 1044.21 lineto
625.09 1053.59 lineto
closepath fill
1 setlinewidth
solid
0 0 0 edgecolor
newpath 632.01 1054.61 moveto
630.01 1044.21 lineto
625.09 1053.59 lineto
closepath stroke
grestore
% P4_L5
gsave
1 setlinewidth
0 0 0 nodecolor
432 954 34.17 18 ellipse_path stroke
0 0 0 nodecolor
14 /Times-Roman set_font
413.5 950.3 moveto 37 (P4_L5) alignedtext
grestore
% P3_L4->P4_L5
gsave
1 setlinewidth
0 0 0 edgecolor
newpath 513.89 1229.68 moveto
497.22 1220.79 476.39 1206.78 465 1188 curveto
425.29 1122.5 426.05 1027.98 429.29 982.07 curveto
stroke
0 0 0 edgecolor
newpath 432.79 982.25 moveto
430.1 972.01 lineto
425.81 981.69 lineto
closepath fill
1 setlinewidth
solid
0 0 0 edgecolor
newpath 432.79 982.25 moveto
430.1 972.01 lineto
425.81 981.69 lineto
closepath stroke
grestore
% R4_P5
gsave
1 setlinewidth
0 0 0 nodecolor
508 882 34.17 18 ellipse_path stroke
0 0 0 nodecolor
14 /Times-Roman set_font
489.5 878.3 moveto 37 (R4_P5) alignedtext
grestore
% P3_L4->R4_P5
gsave
1 setlinewidth
0 0 0 edgecolor
newpath 510.65 1231.89 moveto
489.52 1223.68 461.56 1209.53 445 1188 curveto
384.55 1109.38 401.55 1070.38 389 972 curveto
386.98 956.13 380.29 949.42 389 936 curveto
405.82 910.1 438.55 896.75 465.44 889.93 curveto
stroke
0 0 0 edgecolor
newpath 466.46 893.29 moveto
475.41 887.62 lineto
464.88 886.47 lineto
closepath fill
1 setlinewidth
solid
0 0 0 edgecolor
newpath 466.46 893.29 moveto
475.41 887.62 lineto
464.88 886.47 lineto
closepath stroke
grestore
% R4_L7
gsave
1 setlinewidth
0 0 0 nodecolor
279 810 35.15 18 ellipse_path stroke
0 0 0 nodecolor
14 /Times-Roman set_font
260 806.3 moveto 38 (R4_L7) alignedtext
grestore
% P3_L4->R4_L7
gsave
1 setlinewidth
0 0 0 edgecolor
newpath 504.65 1241.19 moveto
421.84 1239.67 218 1223.31 218 1099 curveto
218 1099 218 1099 218 953 curveto
218 908.89 243.16 862.86 261.16 835.58 curveto
stroke
0 0 0 edgecolor
newpath 264.22 837.31 moveto
266.95 827.08 lineto
258.43 833.38 lineto
closepath fill
1 setlinewidth
solid
0 0 0 edgecolor
newpath 264.22 837.31 moveto
266.95 827.08 lineto
258.43 833.38 lineto
closepath stroke
grestore
% P5_L6
gsave
1 setlinewidth
0 0 0 nodecolor
632 738 34.17 18 ellipse_path stroke
0 0 0 nodecolor
14 /Times-Roman set_font
613.5 734.3 moveto 37 (P5_L6) alignedtext
grestore
% P3_L4->P5_L6
gsave
1 setlinewidth
0 0 0 edgecolor
newpath 573.28 1241.76 moveto
658.66 1241.69 874 1228.65 874 1099 curveto
874 1099 874 1099 874 881 curveto
874 789.95 745 756.16 675.37 744.55 curveto
stroke
0 0 0 edgecolor
newpath 675.57 741.04 moveto
665.14 742.93 lineto
674.47 747.95 lineto
closepath fill
1 setlinewidth
solid
0 0 0 edgecolor
newpath 675.57 741.04 moveto
665.14 742.93 lineto
674.47 747.95 lineto
closepath stroke
grestore
% R5_P6
gsave
1 setlinewidth
0 0 0 nodecolor
380 666 34.17 18 ellipse_path stroke
0 0 0 nodecolor
14 /Times-Roman set_font
361.5 662.3 moveto 37 (R5_P6) alignedtext
grestore
% P3_L4->R5_P6
gsave
1 setlinewidth
0 0 0 edgecolor
newpath 505.11 1238.73 moveto
434.78 1233.46 275.89 1218.44 232 1188 curveto
194.36 1161.89 180 1144.81 180 1099 curveto
180 1099 180 1099 180 953 curveto
180 836.11 213.28 796.11 302 720 curveto
316.71 707.38 334.51 695.09 349.38 685.53 curveto
stroke
0 0 0 edgecolor
newpath 351.63 688.25 moveto
358.21 679.95 lineto
347.89 682.33 lineto
closepath fill
1 setlinewidth
solid
0 0 0 edgecolor
newpath 351.63 688.25 moveto
358.21 679.95 lineto
347.89 682.33 lineto
closepath stroke
grestore
% R5_L7
gsave
1 setlinewidth
0 0 0 nodecolor
671 594 35.15 18 ellipse_path stroke
0 0 0 nodecolor
14 /Times-Roman set_font
652 590.3 moveto 38 (R5_L7) alignedtext
grestore
% P3_L4->R5_L7
gsave
1 setlinewidth
0 0 0 edgecolor
newpath 573.24 1241.59 moveto
633.44 1241.29 760.77 1234.63 855 1188 curveto
906.86 1162.34 950 1156.86 950 1099 curveto
950 1099 950 1099 950 809 curveto
950 690.4 789.32 628.56 711.84 605.64 curveto
stroke
0 0 0 edgecolor
newpath 712.5 602.19 moveto
701.92 602.78 lineto
710.56 608.92 lineto
closepath fill
1 setlinewidth
solid
0 0 0 edgecolor
newpath 712.5 602.19 moveto
701.92 602.78 lineto
710.56 608.92 lineto
closepath stroke
grestore
% P6_L7
gsave
1 setlinewidth
0 0 0 nodecolor
304 522 34.17 18 ellipse_path stroke
0 0 0 nodecolor
14 /Times-Roman set_font
285.5 518.3 moveto 37 (P6_L7) alignedtext
grestore
% P3_L4->P6_L7
gsave
1 setlinewidth
0 0 0 edgecolor
newpath 504.96 1238.75 moveto
392.2 1230.37 38 1196.3 38 1099 curveto
38 1099 38 1099 38 665 curveto
38 565.51 184.62 535.48 260.15 526.61 curveto
stroke
0 0 0 edgecolor
newpath 260.75 530.06 moveto
270.31 525.49 lineto
259.99 523.1 lineto
closepath fill
1 setlinewidth
solid
0 0 0 edgecolor
newpath 260.75 530.06 moveto
270.31 525.49 lineto
259.99 523.1 lineto
closepath stroke
grestore
% L6_L8
gsave
1 setlinewidth
0 0 0 nodecolor
594 450 34.17 18 ellipse_path stroke
0 0 0 nodecolor
14 /Times-Roman set_font
575.5 446.3 moveto 37 (L6_L8) alignedtext
grestore
% P3_L4->L6_L8
gsave
1 setlinewidth
0 0 0 edgecolor
newpath 573.37 1239.77 moveto
695.61 1234.47 1102 1208.62 1102 1099 curveto
1102 1099 1102 1099 1102 881 curveto
1102 664.92 991.85 593.11 795 504 curveto
742.87 480.4 678.21 465.7 636.53 457.93 curveto
stroke
0 0 0 edgecolor
newpath 636.92 454.45 moveto
626.46 456.11 lineto
635.67 461.33 lineto
closepath fill
1 setlinewidth
solid
0 0 0 edgecolor
newpath 636.92 454.45 moveto
626.46 456.11 lineto
635.67 461.33 lineto
closepath stroke
grestore
% L6_R3
gsave
1 setlinewidth
0 0 0 nodecolor
969 378 35.15 18 ellipse_path stroke
0 0 0 nodecolor
14 /Times-Roman set_font
950 374.3 moveto 38 (L6_R3) alignedtext
grestore
% P3_L4->L6_R3
gsave
1 setlinewidth
0 0 0 edgecolor
newpath 573.27 1239.98 moveto
671.49 1236.63 952.33 1224.07 1036 1188 curveto
1091.87 1163.92 1140 1159.84 1140 1099 curveto
1140 1099 1140 1099 1140 521 curveto
1140 452.81 1058.51 411.1 1008.04 391.8 curveto
stroke
0 0 0 edgecolor
newpath 1008.99 388.42 moveto
998.4 388.24 lineto
1006.57 394.99 lineto
closepath fill
1 setlinewidth
solid
0 0 0 edgecolor
newpath 1008.99 388.42 moveto
998.4 388.24 lineto
1006.57 394.99 lineto
closepath stroke
grestore
% L3_L4->L3_L6
gsave
1 setlinewidth
0 0 0 edgecolor
newpath 521.76 1153.46 moveto
529.95 1144.22 540.49 1132.32 549.63 1122 curveto
stroke
0 0 0 edgecolor
newpath 552.27 1124.3 moveto
556.28 1114.49 lineto
547.03 1119.66 lineto
closepath fill
1 setlinewidth
solid
0 0 0 edgecolor
newpath 552.27 1124.3 moveto
556.28 1114.49 lineto
547.03 1119.66 lineto
closepath stroke
grestore
% L3_L4->R3_P4
gsave
1 setlinewidth
0 0 0 edgecolor
newpath 507.45 1151.79 moveto
507.71 1132.4 510.89 1100.9 527 1080 curveto
543.07 1059.15 569.59 1045.86 591.95 1037.8 curveto
stroke
0 0 0 edgecolor
newpath 593.2 1041.07 moveto
601.56 1034.56 lineto
590.96 1034.44 lineto
closepath fill
1 setlinewidth
solid
0 0 0 edgecolor
newpath 593.2 1041.07 moveto
601.56 1034.56 lineto
590.96 1034.44 lineto
closepath stroke
grestore
% L3_L4->P4_L5
gsave
1 setlinewidth
0 0 0 edgecolor
newpath 502.04 1152.21 moveto
488.89 1115.19 457.32 1026.3 441.45 981.6 curveto
stroke
0 0 0 edgecolor
newpath 444.69 980.26 moveto
438.04 972.01 lineto
438.09 982.61 lineto
closepath fill
1 setlinewidth
solid
0 0 0 edgecolor
newpath 444.69 980.26 moveto
438.04 972.01 lineto
438.09 982.61 lineto
closepath stroke
grestore
% L3_L6->R3_P4
gsave
1 setlinewidth
0 0 0 edgecolor
newpath 583.76 1081.46 moveto
591.95 1072.22 602.49 1060.32 611.63 1050 curveto
stroke
0 0 0 edgecolor
newpath 614.27 1052.3 moveto
618.28 1042.49 lineto
609.03 1047.66 lineto
closepath fill
1 setlinewidth
solid
0 0 0 edgecolor
newpath 614.27 1052.3 moveto
618.28 1042.49 lineto
609.03 1047.66 lineto
closepath stroke
grestore
% L3_L6->P4_L5
gsave
1 setlinewidth
0 0 0 edgecolor
newpath 554.97 1081.53 moveto
530.6 1056.46 482.36 1006.82 454.08 977.72 curveto
stroke
0 0 0 edgecolor
newpath 456.49 975.18 moveto
447.01 970.45 lineto
451.47 980.06 lineto
closepath fill
1 setlinewidth
solid
0 0 0 edgecolor
newpath 456.49 975.18 moveto
447.01 970.45 lineto
451.47 980.06 lineto
closepath stroke
grestore
% L3_L6->R4_P5
gsave
1 setlinewidth
0 0 0 edgecolor
newpath 565.03 1079.85 moveto
554.26 1042.66 528.68 954.37 515.76 909.77 curveto
stroke
0 0 0 edgecolor
newpath 519.05 908.57 moveto
512.91 899.94 lineto
512.33 910.51 lineto
closepath fill
1 setlinewidth
solid
0 0 0 edgecolor
newpath 519.05 908.57 moveto
512.91 899.94 lineto
512.33 910.51 lineto
closepath stroke
grestore
% L3_L6->R4_L7
gsave
1 setlinewidth
0 0 0 edgecolor
newpath 537.69 1091.93 moveto
500.95 1085.14 440.1 1070.73 394 1044 curveto
353.75 1020.66 341.32 1012.26 318 972 curveto
293.28 929.33 284.18 871.61 280.86 838.13 curveto
stroke
0 0 0 edgecolor
newpath 284.35 837.81 moveto
279.98 828.16 lineto
277.38 838.43 lineto
closepath fill
1 setlinewidth
solid
0 0 0 edgecolor
newpath 284.35 837.81 moveto
279.98 828.16 lineto
277.38 838.43 lineto
closepath stroke
grestore
% L3_L6->P5_L6
gsave
1 setlinewidth
0 0 0 edgecolor
newpath 600.53 1089.4 moveto
654.24 1073.99 760 1033.65 760 955 curveto
760 955 760 955 760 881 curveto
760 823.85 702.09 779.33 664.17 756.32 curveto
stroke
0 0 0 edgecolor
newpath 665.87 753.25 moveto
655.48 751.2 lineto
662.32 759.29 lineto
closepath fill
1 setlinewidth
solid
0 0 0 edgecolor
newpath 665.87 753.25 moveto
655.48 751.2 lineto
662.32 759.29 lineto
closepath stroke
grestore
% L3_L6->R5_P6
gsave
1 setlinewidth
0 0 0 edgecolor
newpath 541.93 1087.52 moveto
499.48 1071.44 420.53 1034.37 389 972 curveto
342.07 879.18 361.83 749.32 373.59 693.85 curveto
stroke
0 0 0 edgecolor
newpath 377.01 694.59 moveto
375.75 684.08 lineto
370.18 693.09 lineto
closepath fill
1 setlinewidth
solid
0 0 0 edgecolor
newpath 377.01 694.59 moveto
375.75 684.08 lineto
370.18 693.09 lineto
closepath stroke
grestore
% L3_L6->R5_L7
gsave
1 setlinewidth
0 0 0 edgecolor
newpath 603.44 1094 moveto
640.02 1089.13 698.55 1076.5 737 1044 curveto
764.48 1020.78 765.54 1006.97 774 972 curveto
806.26 838.66 723.31 680.79 687.02 620.3 curveto
stroke
0 0 0 edgecolor
newpath 689.81 618.16 moveto
681.62 611.45 lineto
683.84 621.81 lineto
closepath fill
1 setlinewidth
solid
0 0 0 edgecolor
newpath 689.81 618.16 moveto
681.62 611.45 lineto
683.84 621.81 lineto
closepath stroke
grestore
% L3_L6->P6_L7
gsave
1 setlinewidth
0 0 0 edgecolor
newpath 535.86 1096.5 moveto
488.19 1094.26 400.71 1084.42 340 1044 curveto
241.65 978.51 241.3 931.88 185 828 curveto
146.6 757.14 139.15 724.99 163 648 curveto
173.9 612.82 177.57 601.64 204 576 curveto
221.9 558.64 246.62 545.46 267.01 536.59 curveto
stroke
0 0 0 edgecolor
newpath 268.45 539.79 moveto
276.33 532.7 lineto
265.75 533.33 lineto
closepath fill
1 setlinewidth
solid
0 0 0 edgecolor
newpath 268.45 539.79 moveto
276.33 532.7 lineto
265.75 533.33 lineto
closepath stroke
grestore
% L3_L6->L6_L8
gsave
1 setlinewidth
0 0 0 edgecolor
newpath 603.15 1093.01 moveto
702.02 1080.2 988 1036.15 988 955 curveto
988 955 988 955 988 809 curveto
988 637.6 897.29 594.93 752 504 curveto
715.77 481.33 668.74 467.17 635.44 459.26 curveto
stroke
0 0 0 edgecolor
newpath 636.11 455.82 moveto
625.58 457 lineto
634.54 462.64 lineto
closepath fill
1 setlinewidth
solid
0 0 0 edgecolor
newpath 636.11 455.82 moveto
625.58 457 lineto
634.54 462.64 lineto
closepath stroke
grestore
% L3_L6->L6_R3
gsave
1 setlinewidth
0 0 0 edgecolor
newpath 603.95 1094.62 moveto
715.56 1085.89 1064 1050.93 1064 955 curveto
1064 955 1064 955 1064 881 curveto
1064 784.4 1102 763.6 1102 667 curveto
1102 667 1102 667 1102 521 curveto
1102 462.84 1041.83 418.67 1002.43 395.99 curveto
stroke
0 0 0 edgecolor
newpath 1003.83 392.77 moveto
993.39 390.95 lineto
1000.42 398.88 lineto
closepath fill
1 setlinewidth
solid
0 0 0 edgecolor
newpath 1003.83 392.77 moveto
993.39 390.95 lineto
1000.42 398.88 lineto
closepath stroke
grestore
% R3_P4->P4_L5
gsave
1 setlinewidth
0 0 0 edgecolor
newpath 604.25 1015.37 moveto
573.77 1004.78 523.37 987.24 480 972 curveto
476.5 970.77 472.86 969.49 469.21 968.2 curveto
stroke
0 0 0 edgecolor
newpath 470.25 964.86 moveto
459.66 964.82 lineto
467.92 971.45 lineto
closepath fill
1 setlinewidth
solid
0 0 0 edgecolor
newpath 470.25 964.86 moveto
459.66 964.82 lineto
467.92 971.45 lineto
closepath stroke
grestore
% R3_P4->R4_P5
gsave
1 setlinewidth
0 0 0 edgecolor
newpath 625.7 1008.14 moveto
617.99 989.09 603.51 957.88 584 936 curveto
571.59 922.08 554.83 909.9 540.21 900.74 curveto
stroke
0 0 0 edgecolor
newpath 541.81 897.61 moveto
531.44 895.43 lineto
538.18 903.6 lineto
closepath fill
1 setlinewidth
solid
0 0 0 edgecolor
newpath 541.81 897.61 moveto
531.44 895.43 lineto
538.18 903.6 lineto
closepath stroke
grestore
% R3_P4->R4_L7
gsave
1 setlinewidth
0 0 0 edgecolor
newpath 612.71 1011.09 moveto
581.35 988.35 517.52 941.59 465 900 curveto
445.46 884.53 443.56 876.51 422 864 curveto
412.55 858.52 355.87 838.08 316.77 824.25 curveto
stroke
0 0 0 edgecolor
newpath 317.84 820.91 moveto
307.25 820.89 lineto
315.51 827.52 lineto
closepath fill
1 setlinewidth
solid
0 0 0 edgecolor
newpath 317.84 820.91 moveto
307.25 820.89 lineto
315.51 827.52 lineto
closepath stroke
grestore
% R3_P4->P5_L6
gsave
1 setlinewidth
0 0 0 edgecolor
newpath 643.31 1008.66 moveto
649.58 998.59 656.74 985.13 660 972 curveto
678.2 898.6 655.29 809.14 641.31 765.51 curveto
stroke
0 0 0 edgecolor
newpath 644.61 764.32 moveto
638.15 755.93 lineto
637.96 766.52 lineto
closepath fill
1 setlinewidth
solid
0 0 0 edgecolor
newpath 644.61 764.32 moveto
638.15 755.93 lineto
637.96 766.52 lineto
closepath stroke
grestore
% R3_P4->R5_P6
gsave
1 setlinewidth
0 0 0 edgecolor
newpath 630 1007.85 moveto
627.34 989.35 621.56 959.4 610 936 curveto
557.39 829.5 453.08 730.45 405.15 688.33 curveto
stroke
0 0 0 edgecolor
newpath 407.26 685.53 moveto
397.42 681.6 lineto
402.67 690.81 lineto
closepath fill
1 setlinewidth
solid
0 0 0 edgecolor
newpath 407.26 685.53 moveto
397.42 681.6 lineto
402.67 690.81 lineto
closepath stroke
grestore
% R3_P4->R5_L7
gsave
1 setlinewidth
0 0 0 edgecolor
newpath 649.36 1010.19 moveto
659.41 1000.47 671.2 986.84 677 972 curveto
725.12 848.96 693.64 685.6 678.16 621.97 curveto
stroke
0 0 0 edgecolor
newpath 681.47 620.81 moveto
675.65 611.96 lineto
674.68 622.51 lineto
closepath fill
1 setlinewidth
solid
0 0 0 edgecolor
newpath 681.47 620.81 moveto
675.65 611.96 lineto
674.68 622.51 lineto
closepath stroke
grestore
% R3_P4->P6_L7
gsave
1 setlinewidth
0 0 0 edgecolor
newpath 603.26 1016.09 moveto
577.46 1007.29 539.26 992.22 510 972 curveto
491.64 959.31 493.28 948.81 475 936 curveto
379.2 868.88 330.31 895.81 235 828 curveto
199.14 802.48 183.26 796.9 167 756 curveto
133.65 672.12 227.78 582.73 276.64 543.48 curveto
stroke
0 0 0 edgecolor
newpath 278.94 546.12 moveto
284.63 537.18 lineto
274.61 540.62 lineto
closepath fill
1 setlinewidth
solid
0 0 0 edgecolor
newpath 278.94 546.12 moveto
284.63 537.18 lineto
274.61 540.62 lineto
closepath stroke
grestore
% R3_P4->L6_L8
gsave
1 setlinewidth
0 0 0 edgecolor
newpath 652.35 1011.31 moveto
666.04 1001.45 683.9 987.24 697 972 curveto
754.67 904.91 788.9 880.2 782 792 curveto
771.81 661.74 812.78 598.92 723 504 curveto
699.96 479.64 664.09 466.12 636.02 458.85 curveto
stroke
0 0 0 edgecolor
newpath 636.61 455.39 moveto
626.07 456.44 lineto
634.97 462.2 lineto
closepath fill
1 setlinewidth
solid
0 0 0 edgecolor
newpath 636.61 455.39 moveto
626.07 456.44 lineto
634.97 462.2 lineto
closepath stroke
grestore
% R3_P4->L6_R3
gsave
1 setlinewidth
0 0 0 edgecolor
newpath 661.35 1016.61 moveto
758.59 986.85 1064 876.67 1064 667 curveto
1064 667 1064 667 1064 521 curveto
1064 471.11 1023 425.49 994.87 400.05 curveto
stroke
0 0 0 edgecolor
newpath 997.14 397.39 moveto
987.32 393.43 lineto
992.52 402.65 lineto
closepath fill
1 setlinewidth
solid
0 0 0 edgecolor
newpath 997.14 397.39 moveto
987.32 393.43 lineto
992.52 402.65 lineto
closepath stroke
grestore
% P4_L5->R4_P5
gsave
1 setlinewidth
0 0 0 edgecolor
newpath 448.49 937.81 moveto
458.92 928.21 472.57 915.63 484.17 904.95 curveto
stroke
0 0 0 edgecolor
newpath 486.82 907.27 moveto
491.8 897.92 lineto
482.08 902.12 lineto
closepath fill
1 setlinewidth
solid
0 0 0 edgecolor
newpath 486.82 907.27 moveto
491.8 897.92 lineto
482.08 902.12 lineto
closepath stroke
grestore
% P4_L5->R4_L7
gsave
1 setlinewidth
0 0 0 edgecolor
newpath 415.92 938.07 moveto
388.9 913 334.27 862.3 302.8 833.09 curveto
stroke
0 0 0 edgecolor
newpath 305.04 830.39 moveto
295.33 826.16 lineto
300.28 835.52 lineto
closepath fill
1 setlinewidth
solid
0 0 0 edgecolor
newpath 305.04 830.39 moveto
295.33 826.16 lineto
300.28 835.52 lineto
closepath stroke
grestore
% P4_L5->P5_L6
gsave
1 setlinewidth
0 0 0 edgecolor
newpath 462.39 945.69 moveto
488.59 938.06 526.04 923.81 551 900 curveto
590.6 862.22 613.9 800.91 624.69 765.86 curveto
stroke
0 0 0 edgecolor
newpath 628.16 766.46 moveto
627.64 755.88 lineto
621.45 764.48 lineto
closepath fill
1 setlinewidth
solid
0 0 0 edgecolor
newpath 628.16 766.46 moveto
627.64 755.88 lineto
621.45 764.48 lineto
closepath stroke
grestore
% R4_P5->R4_L7
gsave
1 setlinewidth
0 0 0 edgecolor
newpath 480.7 870.94 moveto
473.97 868.56 466.75 866.11 460 864 curveto
401.97 845.84 386.09 845.98 328 828 curveto
324.24 826.84 320.33 825.57 316.43 824.28 curveto
stroke
0 0 0 edgecolor
newpath 317.47 820.93 moveto
306.88 821.04 lineto
315.22 827.56 lineto
closepath fill
1 setlinewidth
solid
0 0 0 edgecolor
newpath 317.47 820.93 moveto
306.88 821.04 lineto
315.22 827.56 lineto
closepath stroke
grestore
% R4_P5->P5_L6
gsave
1 setlinewidth
0 0 0 edgecolor
newpath 514.3 864.14 moveto
522.01 845.09 536.49 813.88 556 792 curveto
568.41 778.08 585.17 765.9 599.79 756.74 curveto
stroke
0 0 0 edgecolor
newpath 601.82 759.6 moveto
608.56 751.43 lineto
598.19 753.61 lineto
closepath fill
1 setlinewidth
solid
0 0 0 edgecolor
newpath 601.82 759.6 moveto
608.56 751.43 lineto
598.19 753.61 lineto
closepath stroke
grestore
% R4_P5->R5_P6
gsave
1 setlinewidth
0 0 0 edgecolor
newpath 498.17 864.56 moveto
475.92 827.37 421.61 736.57 395.08 692.22 curveto
stroke
0 0 0 edgecolor
newpath 398 690.28 moveto
389.86 683.49 lineto
391.99 693.87 lineto
closepath fill
1 setlinewidth
solid
0 0 0 edgecolor
newpath 398 690.28 moveto
389.86 683.49 lineto
391.99 693.87 lineto
closepath stroke
grestore
% R4_P5->R5_L7
gsave
1 setlinewidth
0 0 0 edgecolor
newpath 510 863.96 moveto
512.61 845.55 518.19 815.69 529 792 curveto
560.6 722.76 618.25 653.21 649.49 618.22 curveto
stroke
0 0 0 edgecolor
newpath 652.37 620.25 moveto
656.47 610.49 lineto
647.17 615.56 lineto
closepath fill
1 setlinewidth
solid
0 0 0 edgecolor
newpath 652.37 620.25 moveto
656.47 610.49 lineto
647.17 615.56 lineto
closepath stroke
grestore
% R4_P5->P6_L7
gsave
1 setlinewidth
0 0 0 edgecolor
newpath 490.13 866.64 moveto
454.4 836.82 374.38 764.26 337 684 curveto
316.54 640.08 308.71 583.59 305.75 550.53 curveto
stroke
0 0 0 edgecolor
newpath 309.21 549.95 moveto
304.92 540.27 lineto
302.23 550.52 lineto
closepath fill
1 setlinewidth
solid
0 0 0 edgecolor
newpath 309.21 549.95 moveto
304.92 540.27 lineto
302.23 550.52 lineto
closepath stroke
grestore
% R4_P5->L6_L8
gsave
1 setlinewidth
0 0 0 edgecolor
newpath 530.85 868.49 moveto
565.64 848.52 632.35 806.49 675 756 curveto
719.42 703.42 722.7 680.2 732 612 curveto
738.87 561.58 729.95 540.01 694 504 curveto
676.38 486.35 651.66 473.18 631.2 464.38 curveto
stroke
0 0 0 edgecolor
newpath 632.43 461.1 moveto
621.85 460.53 lineto
629.76 467.57 lineto
closepath fill
1 setlinewidth
solid
0 0 0 edgecolor
newpath 632.43 461.1 moveto
621.85 460.53 lineto
629.76 467.57 lineto
closepath stroke
grestore
% R4_P5->L6_R3
gsave
1 setlinewidth
0 0 0 edgecolor
newpath 536.48 871.79 moveto
614.96 844.97 836.22 759.33 953 612 curveto
1003.73 548 1005.31 512.22 990 432 curveto
988.27 422.92 985 413.4 981.55 404.98 curveto
stroke
0 0 0 edgecolor
newpath 984.71 403.46 moveto
977.5 395.69 lineto
978.29 406.26 lineto
closepath fill
1 setlinewidth
solid
0 0 0 edgecolor
newpath 984.71 403.46 moveto
977.5 395.69 lineto
978.29 406.26 lineto
closepath stroke
grestore
% R4_L7->P5_L6
gsave
1 setlinewidth
0 0 0 edgecolor
newpath 311.26 802.6 moveto
375.5 789.86 519.33 761.34 590.49 747.23 curveto
stroke
0 0 0 edgecolor
newpath 591.32 750.64 moveto
600.45 745.26 lineto
589.96 743.77 lineto
closepath fill
1 setlinewidth
solid
0 0 0 edgecolor
newpath 591.32 750.64 moveto
600.45 745.26 lineto
589.96 743.77 lineto
closepath stroke
grestore
% R4_L7->R5_P6
gsave
1 setlinewidth
0 0 0 edgecolor
newpath 286.59 792.11 moveto
295.3 773.57 310.63 743.35 328 720 curveto
336.17 709.01 346.52 698.01 355.83 688.91 curveto
stroke
0 0 0 edgecolor
newpath 358.51 691.18 moveto
363.33 681.75 lineto
353.68 686.12 lineto
closepath fill
1 setlinewidth
solid
0 0 0 edgecolor
newpath 358.51 691.18 moveto
363.33 681.75 lineto
353.68 686.12 lineto
closepath stroke
grestore
% R4_L7->R5_L7
gsave
1 setlinewidth
0 0 0 edgecolor
newpath 299.43 795.03 moveto
355.13 756.96 506.33 653.83 518 648 curveto
554.65 629.7 599.15 615.06 630.69 605.84 curveto
stroke
0 0 0 edgecolor
newpath 631.8 609.16 moveto
640.45 603.04 lineto
629.87 602.44 lineto
closepath fill
1 setlinewidth
solid
0 0 0 edgecolor
newpath 631.8 609.16 moveto
640.45 603.04 lineto
629.87 602.44 lineto
closepath stroke
grestore
% R4_L7->P6_L7
gsave
1 setlinewidth
0 0 0 edgecolor
newpath 255.14 796.77 moveto
240.31 787.73 222.49 773.89 214 756 curveto
207.14 741.55 210.6 735.63 214 720 curveto
228.28 654.4 266.42 584.48 288.19 548.17 curveto
stroke
0 0 0 edgecolor
newpath 291.4 549.63 moveto
293.61 539.27 lineto
285.42 546 lineto
closepath fill
1 setlinewidth
solid
0 0 0 edgecolor
newpath 291.4 549.63 moveto
293.61 539.27 lineto
285.42 546 lineto
closepath stroke
grestore
% R4_L7->L6_L8
gsave
1 setlinewidth
0 0 0 edgecolor
newpath 293.94 793.55 moveto
303.83 783.14 316.97 769 328 756 curveto
341.11 740.54 340.52 733.08 356 720 curveto
381.82 698.19 395.87 704.17 423 684 curveto
432.08 677.25 487.99 620.88 495 612 curveto
530.16 567.47 563 509.63 580.6 476.79 curveto
stroke
0 0 0 edgecolor
newpath 583.76 478.3 moveto
585.36 467.83 lineto
577.58 475.02 lineto
closepath fill
1 setlinewidth
solid
0 0 0 edgecolor
newpath 583.76 478.3 moveto
585.36 467.83 lineto
577.58 475.02 lineto
closepath stroke
grestore
% R4_L7->L6_R3
gsave
1 setlinewidth
0 0 0 edgecolor
newpath 304.56 797.68 moveto
328.67 786.99 365.82 770.47 398 756 curveto
539.12 692.52 584.39 694.99 715 612 curveto
798.29 559.08 812.27 535.77 884 468 curveto
906.63 446.62 931.03 420.75 947.86 402.43 curveto
stroke
0 0 0 edgecolor
newpath 950.86 404.32 moveto
955.02 394.58 lineto
945.69 399.6 lineto
closepath fill
1 setlinewidth
solid
0 0 0 edgecolor
newpath 950.86 404.32 moveto
955.02 394.58 lineto
945.69 399.6 lineto
closepath stroke
grestore
% R6_P7
gsave
1 setlinewidth
0 0 0 nodecolor
328 378 34.17 18 ellipse_path stroke
0 0 0 nodecolor
14 /Times-Roman set_font
309.5 374.3 moveto 37 (R6_P7) alignedtext
grestore
% R4_L7->R6_P7
gsave
1 setlinewidth
0 0 0 edgecolor
newpath 255.41 796.58 moveto
218.68 775.35 152 728.35 152 667 curveto
152 667 152 667 152 521 curveto
152 450.92 237.56 409.53 289.37 390.9 curveto
stroke
0 0 0 edgecolor
newpath 290.64 394.16 moveto
298.94 387.57 lineto
288.34 387.55 lineto
closepath fill
1 setlinewidth
solid
0 0 0 edgecolor
newpath 290.64 394.16 moveto
298.94 387.57 lineto
288.34 387.55 lineto
closepath stroke
grestore
% P7_L8
gsave
1 setlinewidth
0 0 0 nodecolor
194 306 34.17 18 ellipse_path stroke
0 0 0 nodecolor
14 /Times-Roman set_font
175.5 302.3 moveto 37 (P7_L8) alignedtext
grestore
% R4_L7->P7_L8
gsave
1 setlinewidth
0 0 0 edgecolor
newpath 244.23 807.15 moveto
169.44 801.1 0 775.43 0 667 curveto
0 667 0 667 0 521 curveto
0 426.43 105.28 355.06 160.73 324.03 curveto
stroke
0 0 0 edgecolor
newpath 162.73 326.92 moveto
169.82 319.05 lineto
159.37 320.78 lineto
closepath fill
1 setlinewidth
solid
0 0 0 edgecolor
newpath 162.73 326.92 moveto
169.82 319.05 lineto
159.37 320.78 lineto
closepath stroke
grestore
% P5_L6->R5_P6
gsave
1 setlinewidth
0 0 0 edgecolor
newpath 604.72 726.88 moveto
597.99 724.51 590.76 722.07 584 720 curveto
527.88 702.81 461.99 686.35 420.62 676.46 curveto
stroke
0 0 0 edgecolor
newpath 421.18 673 moveto
410.64 674.09 lineto
419.56 679.81 lineto
closepath fill
1 setlinewidth
solid
0 0 0 edgecolor
newpath 421.18 673 moveto
410.64 674.09 lineto
419.56 679.81 lineto
closepath stroke
grestore
% P5_L6->R5_L7
gsave
1 setlinewidth
0 0 0 edgecolor
newpath 636.63 720.15 moveto
643.28 695.94 655.6 651.05 663.55 622.13 curveto
stroke
0 0 0 edgecolor
newpath 666.98 622.84 moveto
666.26 612.27 lineto
660.23 620.98 lineto
closepath fill
1 setlinewidth
solid
0 0 0 edgecolor
newpath 666.98 622.84 moveto
666.26 612.27 lineto
660.23 620.98 lineto
closepath stroke
grestore
% P5_L6->P6_L7
gsave
1 setlinewidth
0 0 0 edgecolor
newpath 610.98 723.29 moveto
554.4 686.37 398.73 584.81 333.44 542.21 curveto
stroke
0 0 0 edgecolor
newpath 335.13 539.13 moveto
324.84 536.6 lineto
331.3 544.99 lineto
closepath fill
1 setlinewidth
solid
0 0 0 edgecolor
newpath 335.13 539.13 moveto
324.84 536.6 lineto
331.3 544.99 lineto
closepath stroke
grestore
% P5_L6->L6_L8
gsave
1 setlinewidth
0 0 0 edgecolor
newpath 649.15 722.36 moveto
679.47 694.62 737.31 632.11 715 576 curveto
696.82 530.27 652.77 492.12 623.15 470.42 curveto
stroke
0 0 0 edgecolor
newpath 625.01 467.45 moveto
614.83 464.49 lineto
620.94 473.15 lineto
closepath fill
1 setlinewidth
solid
0 0 0 edgecolor
newpath 625.01 467.45 moveto
614.83 464.49 lineto
620.94 473.15 lineto
closepath stroke
grestore
% P5_L6->L6_R3
gsave
1 setlinewidth
0 0 0 edgecolor
newpath 663.52 730.78 moveto
721.59 717.88 846.71 683.32 925 612 curveto
983.14 559.04 979.01 455.36 973.17 406.16 curveto
stroke
0 0 0 edgecolor
newpath 976.6 405.44 moveto
971.84 395.97 lineto
969.66 406.34 lineto
closepath fill
1 setlinewidth
solid
0 0 0 edgecolor
newpath 976.6 405.44 moveto
971.84 395.97 lineto
969.66 406.34 lineto
closepath stroke
grestore
% R5_P6->R5_L7
gsave
1 setlinewidth
0 0 0 edgecolor
newpath 410.59 657.64 moveto
463.29 644.97 571.19 619.01 630.21 604.81 curveto
stroke
0 0 0 edgecolor
newpath 631.04 608.21 moveto
639.94 602.47 lineto
629.4 601.41 lineto
closepath fill
1 setlinewidth
solid
0 0 0 edgecolor
newpath 631.04 608.21 moveto
639.94 602.47 lineto
629.4 601.41 lineto
closepath stroke
grestore
% R5_P6->P6_L7
gsave
1 setlinewidth
0 0 0 edgecolor
newpath 371.13 648.43 moveto
357.98 623.85 333.17 577.51 317.68 548.56 curveto
stroke
0 0 0 edgecolor
newpath 320.62 546.63 moveto
312.81 539.46 lineto
314.44 549.93 lineto
closepath fill
1 setlinewidth
solid
0 0 0 edgecolor
newpath 320.62 546.63 moveto
312.81 539.46 lineto
314.44 549.93 lineto
closepath stroke
grestore
% R5_P6->L6_L8
gsave
1 setlinewidth
0 0 0 edgecolor
newpath 406.63 654.63 moveto
426.31 645.82 452.62 631.49 470 612 curveto
504.97 572.8 484.56 544.51 518 504 curveto
529.87 489.62 546.58 477.39 561.31 468.32 curveto
stroke
0 0 0 edgecolor
newpath 563.33 471.19 moveto
570.16 463.09 lineto
559.77 465.16 lineto
closepath fill
1 setlinewidth
solid
0 0 0 edgecolor
newpath 563.33 471.19 moveto
570.16 463.09 lineto
559.77 465.16 lineto
closepath stroke
grestore
% R5_P6->L6_R3
gsave
1 setlinewidth
0 0 0 edgecolor
newpath 405.29 653.76 moveto
428.69 643.25 464.39 626.98 495 612 curveto
651.05 535.62 684.59 505.52 842 432 curveto
872.14 417.93 907.05 403.48 932.64 393.24 curveto
stroke
0 0 0 edgecolor
newpath 933.96 396.48 moveto
941.96 389.53 lineto
931.37 389.98 lineto
closepath fill
1 setlinewidth
solid
0 0 0 edgecolor
newpath 933.96 396.48 moveto
941.96 389.53 lineto
931.37 389.98 lineto
closepath stroke
grestore
% R5_P6->R6_P7
gsave
1 setlinewidth
0 0 0 edgecolor
newpath 376.9 647.97 moveto
368.2 600.08 343.45 463.98 332.88 405.85 curveto
stroke
0 0 0 edgecolor
newpath 336.31 405.16 moveto
331.08 395.94 lineto
329.43 406.41 lineto
closepath fill
1 setlinewidth
solid
0 0 0 edgecolor
newpath 336.31 405.16 moveto
331.08 395.94 lineto
329.43 406.41 lineto
closepath stroke
grestore
% R5_P6->P7_L8
gsave
1 setlinewidth
0 0 0 edgecolor
newpath 360.34 651.14 moveto
321.09 622.24 233.5 551.25 195 468 curveto
174.89 424.5 181.26 367.06 187.67 333.85 curveto
stroke
0 0 0 edgecolor
newpath 191.12 334.48 moveto
189.72 323.97 lineto
184.26 333.06 lineto
closepath fill
1 setlinewidth
solid
0 0 0 edgecolor
newpath 191.12 334.48 moveto
189.72 323.97 lineto
184.26 333.06 lineto
closepath stroke
grestore
% R7_P8
gsave
1 setlinewidth
0 0 0 nodecolor
366 234 34.17 18 ellipse_path stroke
0 0 0 nodecolor
14 /Times-Roman set_font
347.5 230.3 moveto 37 (R7_P8) alignedtext
grestore
% R5_P6->R7_P8
gsave
1 setlinewidth
0 0 0 edgecolor
newpath 380.75 647.97 moveto
382.9 598.16 389.06 448.37 391 324 curveto
391.25 308 394.5 303.61 391 288 curveto
388.9 278.62 384.95 268.95 380.79 260.48 curveto
stroke
0 0 0 edgecolor
newpath 383.84 258.74 moveto
376.11 251.5 lineto
377.63 261.98 lineto
closepath fill
1 setlinewidth
solid
0 0 0 edgecolor
newpath 383.84 258.74 moveto
376.11 251.5 lineto
377.63 261.98 lineto
closepath stroke
grestore
% R7_R6
gsave
1 setlinewidth
0 0 0 nodecolor
304 162 35.62 18 ellipse_path stroke
0 0 0 nodecolor
14 /Times-Roman set_font
284.5 158.3 moveto 39 (R7_R6) alignedtext
grestore
% R5_P6->R7_R6
gsave
1 setlinewidth
0 0 0 edgecolor
newpath 350.82 656.05 moveto
288.55 635.13 144.09 576.38 92 468 curveto
37.32 354.23 125.04 295.61 223 216 curveto
238.59 203.33 257.28 190.94 272.78 181.32 curveto
stroke
0 0 0 edgecolor
newpath 274.78 184.2 moveto
281.49 176 lineto
271.13 178.23 lineto
closepath fill
1 setlinewidth
solid
0 0 0 edgecolor
newpath 274.78 184.2 moveto
281.49 176 lineto
271.13 178.23 lineto
closepath stroke
grestore
% R6_P8
gsave
1 setlinewidth
0 0 0 nodecolor
420 90 34.17 18 ellipse_path stroke
0 0 0 nodecolor
14 /Times-Roman set_font
401.5 86.3 moveto 37 (R6_P8) alignedtext
grestore
% R5_P6->R6_P8
gsave
1 setlinewidth
0 0 0 edgecolor
newpath 386.47 648.07 moveto
390.14 637.78 394.49 624.31 397 612 curveto
435.56 423.07 428.1 372.62 437 180 curveto
437.74 164.02 439.47 159.81 437 144 curveto
435.62 135.18 433.02 125.82 430.26 117.46 curveto
stroke
0 0 0 edgecolor
newpath 433.51 116.13 moveto
426.89 107.86 lineto
426.9 118.45 lineto
closepath fill
1 setlinewidth
solid
0 0 0 edgecolor
newpath 433.51 116.13 moveto
426.89 107.86 lineto
426.9 118.45 lineto
closepath stroke
grestore
% R5_L7->P6_L7
gsave
1 setlinewidth
0 0 0 edgecolor
newpath 643.78 582.64 moveto
636.75 580.22 629.15 577.82 622 576 curveto
525.36 551.37 409.18 535.35 347.49 527.89 curveto
stroke
0 0 0 edgecolor
newpath 347.69 524.38 moveto
337.34 526.68 lineto
346.86 531.34 lineto
closepath fill
1 setlinewidth
solid
0 0 0 edgecolor
newpath 347.69 524.38 moveto
337.34 526.68 lineto
346.86 531.34 lineto
closepath stroke
grestore
% R5_L7->L6_L8
gsave
1 setlinewidth
0 0 0 edgecolor
newpath 662.02 576.43 moveto
648.69 551.85 623.56 505.51 607.86 476.56 curveto
stroke
0 0 0 edgecolor
newpath 610.77 474.58 moveto
602.93 467.46 lineto
604.62 477.92 lineto
closepath fill
1 setlinewidth
solid
0 0 0 edgecolor
newpath 610.77 474.58 moveto
602.93 467.46 lineto
604.62 477.92 lineto
closepath stroke
grestore
% R5_L7->L6_R3
gsave
1 setlinewidth
0 0 0 edgecolor
newpath 690.55 578.96 moveto
742.02 542 881.37 441.93 941.15 399 curveto
stroke
0 0 0 edgecolor
newpath 943.29 401.77 moveto
949.38 393.09 lineto
939.21 396.08 lineto
closepath fill
1 setlinewidth
solid
0 0 0 edgecolor
newpath 943.29 401.77 moveto
949.38 393.09 lineto
939.21 396.08 lineto
closepath stroke
grestore
% R5_L7->R6_P7
gsave
1 setlinewidth
0 0 0 edgecolor
newpath 656.51 577.61 moveto
633.93 553.72 592.1 509.85 584 504 curveto
545.94 476.51 423.55 421.05 362.83 394.22 curveto
stroke
0 0 0 edgecolor
newpath 364.2 391 moveto
353.63 390.17 lineto
361.37 397.41 lineto
closepath fill
1 setlinewidth
solid
0 0 0 edgecolor
newpath 364.2 391 moveto
353.63 390.17 lineto
361.37 397.41 lineto
closepath stroke
grestore
% R5_L7->P7_L8
gsave
1 setlinewidth
0 0 0 edgecolor
newpath 643.68 582.43 moveto
578.24 556.42 408.72 484.91 285 396 curveto
258.15 376.7 231.6 349.56 214.17 330.34 curveto
stroke
0 0 0 edgecolor
newpath 216.56 327.75 moveto
207.29 322.63 lineto
211.34 332.42 lineto
closepath fill
1 setlinewidth
solid
0 0 0 edgecolor
newpath 216.56 327.75 moveto
207.29 322.63 lineto
211.34 332.42 lineto
closepath stroke
grestore
% P6_L7->L6_L8
gsave
1 setlinewidth
0 0 0 edgecolor
newpath 334.49 513.64 moveto
387.03 500.96 494.65 474.98 553.45 460.79 curveto
stroke
0 0 0 edgecolor
newpath 554.59 464.11 moveto
563.49 458.37 lineto
552.94 457.31 lineto
closepath fill
1 setlinewidth
solid
0 0 0 edgecolor
newpath 554.59 464.11 moveto
563.49 458.37 lineto
552.94 457.31 lineto
closepath stroke
grestore
% P6_L7->L6_R3
gsave
1 setlinewidth
0 0 0 edgecolor
newpath 329.39 509.74 moveto
373.53 490.64 467.68 452.03 551 432 curveto
684.31 399.94 846.48 386.42 923.79 381.47 curveto
stroke
0 0 0 edgecolor
newpath 924.36 384.94 moveto
934.13 380.83 lineto
923.93 377.96 lineto
closepath fill
1 setlinewidth
solid
0 0 0 edgecolor
newpath 924.36 384.94 moveto
934.13 380.83 lineto
923.93 377.96 lineto
closepath stroke
grestore
% P6_L7->R6_P7
gsave
1 setlinewidth
0 0 0 edgecolor
newpath 306.89 503.87 moveto
310.99 479.67 318.5 435.21 323.37 406.39 curveto
stroke
0 0 0 edgecolor
newpath 326.88 406.63 moveto
325.09 396.19 lineto
319.98 405.47 lineto
closepath fill
1 setlinewidth
solid
0 0 0 edgecolor
newpath 326.88 406.63 moveto
325.09 396.19 lineto
319.98 405.47 lineto
closepath stroke
grestore
% P6_L7->P7_L8
gsave
1 setlinewidth
0 0 0 edgecolor
newpath 275.19 511.81 moveto
254.65 503.67 228.23 489.67 214 468 curveto
187.35 427.42 187.52 368.51 190.48 334.34 curveto
stroke
0 0 0 edgecolor
newpath 193.98 334.47 moveto
191.5 324.17 lineto
187.01 333.77 lineto
closepath fill
1 setlinewidth
solid
0 0 0 edgecolor
newpath 193.98 334.47 moveto
191.5 324.17 lineto
187.01 333.77 lineto
closepath stroke
grestore
% P6_L7->R7_P8
gsave
1 setlinewidth
0 0 0 edgecolor
newpath 315.9 505.1 moveto
332.1 482.34 360.33 438.51 371 396 curveto
382.5 350.19 376.65 294.74 371.34 262.32 curveto
stroke
0 0 0 edgecolor
newpath 374.75 261.5 moveto
369.58 252.25 lineto
367.85 262.7 lineto
closepath fill
1 setlinewidth
solid
0 0 0 edgecolor
newpath 374.75 261.5 moveto
369.58 252.25 lineto
367.85 262.7 lineto
closepath stroke
grestore
% P6_L7->R7_R6
gsave
1 setlinewidth
0 0 0 edgecolor
newpath 300.52 503.7 moveto
295.89 479.67 287.93 434.74 285 396 curveto
279.36 321.38 291.7 233.39 299.05 189.99 curveto
stroke
0 0 0 edgecolor
newpath 302.53 190.4 moveto
300.79 179.95 lineto
295.63 189.2 lineto
closepath fill
1 setlinewidth
solid
0 0 0 edgecolor
newpath 302.53 190.4 moveto
300.79 179.95 lineto
295.63 189.2 lineto
closepath stroke
grestore
% P6_L7->R6_P8
gsave
1 setlinewidth
0 0 0 edgecolor
newpath 271.33 516.14 moveto
208.29 504.73 76 469.93 76 379 curveto
76 379 76 379 76 305 curveto
76 164.64 285.04 113.07 377.21 97.15 curveto
stroke
0 0 0 edgecolor
newpath 378.04 100.56 moveto
387.33 95.47 lineto
376.89 93.66 lineto
closepath fill
1 setlinewidth
solid
0 0 0 edgecolor
newpath 378.04 100.56 moveto
387.33 95.47 lineto
376.89 93.66 lineto
closepath stroke
grestore
% L6_L8->L6_R3
gsave
1 setlinewidth
0 0 0 edgecolor
newpath 620.65 438.61 moveto
627.53 436.19 634.98 433.8 642 432 curveto
741.49 406.54 861.28 390.81 924.65 383.63 curveto
stroke
0 0 0 edgecolor
newpath 925.14 387.09 moveto
934.69 382.51 lineto
924.37 380.14 lineto
closepath fill
1 setlinewidth
solid
0 0 0 edgecolor
newpath 925.14 387.09 moveto
934.69 382.51 lineto
924.37 380.14 lineto
closepath stroke
grestore
% L6_L8->R6_P7
gsave
1 setlinewidth
0 0 0 edgecolor
newpath 562.69 442.44 moveto
520.1 433.28 441.7 415.57 376 396 curveto
372.25 394.88 368.36 393.64 364.49 392.36 curveto
stroke
0 0 0 edgecolor
newpath 365.6 389.04 moveto
355 389.11 lineto
363.33 395.66 lineto
closepath fill
1 setlinewidth
solid
0 0 0 edgecolor
newpath 365.6 389.04 moveto
355 389.11 lineto
363.33 395.66 lineto
closepath stroke
grestore
% L6_L8->P7_L8
gsave
1 setlinewidth
0 0 0 edgecolor
newpath 568.53 437.97 moveto
527.4 420.37 443.62 385.31 371 360 curveto
324.21 343.69 269.44 327.77 233.36 317.7 curveto
stroke
0 0 0 edgecolor
newpath 234.27 314.32 moveto
223.7 315.02 lineto
232.4 321.07 lineto
closepath fill
1 setlinewidth
solid
0 0 0 edgecolor
newpath 234.27 314.32 moveto
223.7 315.02 lineto
232.4 321.07 lineto
closepath stroke
grestore
% L6_L8->R7_P8
gsave
1 setlinewidth
0 0 0 edgecolor
newpath 583.97 432.68 moveto
561.36 396.29 506.37 309.99 480 288 curveto
467.42 277.52 430.43 261.12 401.96 249.33 curveto
stroke
0 0 0 edgecolor
newpath 403.26 246.09 moveto
392.68 245.53 lineto
400.61 252.56 lineto
closepath fill
1 setlinewidth
solid
0 0 0 edgecolor
newpath 403.26 246.09 moveto
392.68 245.53 lineto
400.61 252.56 lineto
closepath stroke
grestore
% L6_L8->R7_R6
gsave
1 setlinewidth
0 0 0 edgecolor
newpath 589.99 431.95 moveto
585.26 413.54 576.45 383.67 564 360 curveto
545.38 324.6 538.62 315.94 510 288 curveto
458.54 237.77 383.32 198.64 339.44 178.35 curveto
stroke
0 0 0 edgecolor
newpath 340.86 175.15 moveto
330.31 174.19 lineto
337.96 181.52 lineto
closepath fill
1 setlinewidth
solid
0 0 0 edgecolor
newpath 340.86 175.15 moveto
330.31 174.19 lineto
337.96 181.52 lineto
closepath stroke
grestore
% L6_L8->R6_P8
gsave
1 setlinewidth
0 0 0 edgecolor
newpath 598.74 432.11 moveto
605.74 405.66 618 352.75 618 307 curveto
618 307 618 307 618 233 curveto
618 192.03 622.5 173.43 594 144 curveto
560.02 108.91 503.58 96.87 464.23 92.84 curveto
stroke
0 0 0 edgecolor
newpath 464.39 89.34 moveto
454.11 91.94 lineto
463.77 96.32 lineto
closepath fill
1 setlinewidth
solid
0 0 0 edgecolor
newpath 464.39 89.34 moveto
454.11 91.94 lineto
463.77 96.32 lineto
closepath stroke
grestore
% P8_right
gsave
1 setlinewidth
0 0 0 nodecolor
462 18 40.42 18 ellipse_path stroke
0 0 0 nodecolor
14 /Times-Roman set_font
438.5 14.3 moveto 47 (P8_right) alignedtext
grestore
% L6_L8->P8_right
gsave
1 setlinewidth
0 0 0 edgecolor
newpath 606.25 432.95 moveto
624.32 407.64 656 356.23 656 307 curveto
656 307 656 307 656 161 curveto
656 87.37 563.88 47.79 506.6 30.29 curveto
stroke
0 0 0 edgecolor
newpath 507.26 26.84 moveto
496.68 27.38 lineto
505.29 33.56 lineto
closepath fill
1 setlinewidth
solid
0 0 0 edgecolor
newpath 507.26 26.84 moveto
496.68 27.38 lineto
505.29 33.56 lineto
closepath stroke
grestore
% R6_P7->P7_L8
gsave
1 setlinewidth
0 0 0 edgecolor
newpath 304.66 364.81 moveto
283.08 353.53 250.8 336.67 226.66 324.06 curveto
stroke
0 0 0 edgecolor
newpath 228.01 320.82 moveto
217.52 319.29 lineto
224.77 327.02 lineto
closepath fill
1 setlinewidth
solid
0 0 0 edgecolor
newpath 228.01 320.82 moveto
217.52 319.29 lineto
224.77 327.02 lineto
closepath stroke
grestore
% R6_P7->R7_P8
gsave
1 setlinewidth
0 0 0 edgecolor
newpath 332.51 360.15 moveto
338.99 335.94 351 291.05 358.74 262.13 curveto
stroke
0 0 0 edgecolor
newpath 362.17 262.83 moveto
361.38 252.27 lineto
355.41 261.02 lineto
closepath fill
1 setlinewidth
solid
0 0 0 edgecolor
newpath 362.17 262.83 moveto
361.38 252.27 lineto
355.41 261.02 lineto
closepath stroke
grestore
% R6_P7->R7_R6
gsave
1 setlinewidth
0 0 0 edgecolor
newpath 326.08 359.85 moveto
321.93 322.83 312.1 235.18 307.07 190.39 curveto
stroke
0 0 0 edgecolor
newpath 310.53 189.78 moveto
305.93 180.23 lineto
303.57 190.56 lineto
closepath fill
1 setlinewidth
solid
0 0 0 edgecolor
newpath 310.53 189.78 moveto
305.93 180.23 lineto
303.57 190.56 lineto
closepath stroke
grestore
% R6_P7->R6_P8
gsave
1 setlinewidth
0 0 0 edgecolor
newpath 341.92 361.42 moveto
360.97 339.04 394.45 295.67 409 252 curveto
424.04 206.87 423.97 150.77 422.21 118.12 curveto
stroke
0 0 0 edgecolor
newpath 425.7 117.75 moveto
421.57 107.99 lineto
418.71 118.19 lineto
closepath fill
1 setlinewidth
solid
0 0 0 edgecolor
newpath 425.7 117.75 moveto
421.57 107.99 lineto
418.71 118.19 lineto
closepath stroke
grestore
% P7_L8->R7_P8
gsave
1 setlinewidth
0 0 0 edgecolor
newpath 220.12 294.37 moveto
249.42 282.45 297.12 263.03 329.96 249.67 curveto
stroke
0 0 0 edgecolor
newpath 331.69 252.74 moveto
339.63 245.73 lineto
329.05 246.26 lineto
closepath fill
1 setlinewidth
solid
0 0 0 edgecolor
newpath 331.69 252.74 moveto
339.63 245.73 lineto
329.05 246.26 lineto
closepath stroke
grestore
% P7_L8->R7_R6
gsave
1 setlinewidth
0 0 0 edgecolor
newpath 203.36 288.58 moveto
214.13 270.2 232.83 239.87 252 216 curveto
260.58 205.32 270.99 194.38 280.24 185.23 curveto
stroke
0 0 0 edgecolor
newpath 282.94 187.49 moveto
287.67 178.01 lineto
278.06 182.47 lineto
closepath fill
1 setlinewidth
solid
0 0 0 edgecolor
newpath 282.94 187.49 moveto
287.67 178.01 lineto
278.06 182.47 lineto
closepath stroke
grestore
% P7_L8->R6_P8
gsave
1 setlinewidth
0 0 0 edgecolor
newpath 195.8 287.97 moveto
200.24 254.98 214.75 182.23 259 144 curveto
292.24 115.28 341.45 102.04 376.71 95.98 curveto
stroke
0 0 0 edgecolor
newpath 377.39 99.42 moveto
386.71 94.39 lineto
376.29 92.5 lineto
closepath fill
1 setlinewidth
solid
0 0 0 edgecolor
newpath 377.39 99.42 moveto
386.71 94.39 lineto
376.29 92.5 lineto
closepath stroke
grestore
% P7_L8->P8_right
gsave
1 setlinewidth
0 0 0 edgecolor
newpath 192.47 288 moveto
190.55 255.7 191.17 185.03 228 144 curveto
280.75 85.24 367.8 49.12 419.55 31.67 curveto
stroke
0 0 0 edgecolor
newpath 420.69 34.98 moveto
429.09 28.53 lineto
418.5 28.33 lineto
closepath fill
1 setlinewidth
solid
0 0 0 edgecolor
newpath 420.69 34.98 moveto
429.09 28.53 lineto
418.5 28.33 lineto
closepath stroke
grestore
% R7_P8->R7_R6
gsave
1 setlinewidth
0 0 0 edgecolor
newpath 352.24 217.46 moveto
344.25 208.44 334.01 196.88 325.02 186.73 curveto
stroke
0 0 0 edgecolor
newpath 327.4 184.14 moveto
318.15 178.98 lineto
322.16 188.78 lineto
closepath fill
1 setlinewidth
solid
0 0 0 edgecolor
newpath 327.4 184.14 moveto
318.15 178.98 lineto
322.16 188.78 lineto
closepath stroke
grestore
% R7_P8->R6_P8
gsave
1 setlinewidth
0 0 0 edgecolor
newpath 372.41 216.15 moveto
381.7 191.71 399.02 146.17 410 117.29 curveto
stroke
0 0 0 edgecolor
newpath 413.32 118.42 moveto
413.6 107.82 lineto
406.78 115.93 lineto
closepath fill
1 setlinewidth
solid
0 0 0 edgecolor
newpath 413.32 118.42 moveto
413.6 107.82 lineto
406.78 115.93 lineto
closepath stroke
grestore
% R7_P8->P8_right
gsave
1 setlinewidth
0 0 0 edgecolor
newpath 383.12 218.14 moveto
406.45 196.62 447.16 154.26 463 108 curveto
469.79 88.17 469.11 64.38 466.96 46.38 curveto
stroke
0 0 0 edgecolor
newpath 470.4 45.68 moveto
465.53 36.27 lineto
463.46 46.66 lineto
closepath fill
1 setlinewidth
solid
0 0 0 edgecolor
newpath 470.4 45.68 moveto
465.53 36.27 lineto
463.46 46.66 lineto
closepath stroke
grestore
% R7_R6->R6_P8
gsave
1 setlinewidth
0 0 0 edgecolor
newpath 326.09 147.67 moveto
344.11 136.8 369.74 121.33 389.67 109.3 curveto
stroke
0 0 0 edgecolor
newpath 391.63 112.21 moveto
398.38 104.04 lineto
388.01 106.21 lineto
closepath fill
1 setlinewidth
solid
0 0 0 edgecolor
newpath 391.63 112.21 moveto
398.38 104.04 lineto
388.01 106.21 lineto
closepath stroke
grestore
% R6_P8->P8_right
gsave
1 setlinewidth
0 0 0 edgecolor
newpath 429.95 72.41 moveto
435.03 63.95 441.3 53.49 446.95 44.08 curveto
stroke
0 0 0 edgecolor
newpath 449.97 45.85 moveto
452.12 35.47 lineto
443.97 42.24 lineto
closepath fill
1 setlinewidth
solid
0 0 0 edgecolor
newpath 449.97 45.85 moveto
452.12 35.47 lineto
443.97 42.24 lineto
closepath stroke
grestore
endpage
showpage
grestore
%%PageTrailer
%%EndPage: 1
%%Trailer
%%Pages: 1
%%BoundingBox: 36 36 1184 1304
end
restore
%%EOF
