%!PS-Adobe-3.0
%%DocumentNeededResources: font Helvetica
%%+ font Helvetica-Bold
%%+ font Helvetica-Oblique
%%+ font Helvetica-BoldOblique
%%+ font Symbol
%%DocumentMedia: special 180 720 0 () ()
%%Title: R Graphics Output
%%Creator: R Software
%%Pages: (atend)
%%BoundingBox: 0 0 180 720
%%EndComments
%%BeginProlog
/bp  { gs sRGB 180.00 0 translate 90 rotate gs } def
% begin .ps.prolog
/gs  { gsave } bind def
/gr  { grestore } bind def
/ep  { showpage gr gr } bind def
/m   { moveto } bind def
/l  { rlineto } bind def
/np  { newpath } bind def
/cp  { closepath } bind def
/f   { fill } bind def
/o   { stroke } bind def
/c   { newpath 0 360 arc } bind def
/r   { 4 2 roll moveto 1 copy 3 -1 roll exch 0 exch rlineto 0 rlineto -1 mul 0 exch rlineto closepath } bind def
/p1  { stroke } bind def
/p2  { gsave bg fill grestore newpath } bind def
/p3  { gsave bg fill grestore stroke } bind def
/p6  { gsave bg eofill grestore newpath } bind def
/p7  { gsave bg eofill grestore stroke } bind def
/t   { 5 -2 roll moveto gsave rotate
       1 index stringwidth pop
       mul neg 0 rmoveto show grestore } bind def
/ta  { 4 -2 roll moveto gsave rotate show } bind def
/tb  { 2 -1 roll 0 rmoveto show } bind def
/cl  { grestore gsave newpath 3 index 3 index moveto 1 index
       4 -1 roll lineto  exch 1 index lineto lineto
       closepath clip newpath } bind def
/rgb { setrgbcolor } bind def
/s   { scalefont setfont } bind def
% end   .ps.prolog
/sRGB { [ /CIEBasedABC
          << /DecodeLMN
               [ { dup 0.03928 le
                        {12.92321 div}
                        {0.055 add 1.055 div 2.4 exp }
                     ifelse
                 } bind dup dup
               ]
             /MatrixLMN [0.412457 0.212673 0.019334
                         0.357576 0.715152 0.119192
                         0.180437 0.072175 0.950301]
             /WhitePoint [0.9505 1.0 1.0890]
           >>
         ] setcolorspace } bind def
/srgb { setcolor } bind def
%%IncludeResource: font Helvetica
/Helvetica findfont
dup length dict begin
  {1 index /FID ne {def} {pop pop} ifelse} forall
  /Encoding ISOLatin1Encoding def
  currentdict
  end
/Font1 exch definefont pop
%%IncludeResource: font Helvetica-Bold
/Helvetica-Bold findfont
dup length dict begin
  {1 index /FID ne {def} {pop pop} ifelse} forall
  /Encoding ISOLatin1Encoding def
  currentdict
  end
/Font2 exch definefont pop
%%IncludeResource: font Helvetica-Oblique
/Helvetica-Oblique findfont
dup length dict begin
  {1 index /FID ne {def} {pop pop} ifelse} forall
  /Encoding ISOLatin1Encoding def
  currentdict
  end
/Font3 exch definefont pop
%%IncludeResource: font Helvetica-BoldOblique
/Helvetica-BoldOblique findfont
dup length dict begin
  {1 index /FID ne {def} {pop pop} ifelse} forall
  /Encoding ISOLatin1Encoding def
  currentdict
  end
/Font4 exch definefont pop
%%IncludeResource: font Symbol
/Symbol findfont
dup length dict begin
  {1 index /FID ne {def} {pop pop} ifelse} forall
  currentdict
  end
/Font5 exch definefont pop
%%EndProlog
%%Page: 1 1
bp
18.00 36.00 702.00 180.00 cl
/bg { 0 0 0 srgb } def
49.97 164.91 1.00 1.00 r p2
51.34 164.91 1.00 1.00 r p2
52.72 164.91 1.00 1.00 r p2
54.09 164.91 1.00 1.00 r p2
55.47 164.91 1.00 1.00 r p2
56.85 164.91 1.00 1.00 r p2
/Font1 findfont 8 s
0 0 0 srgb
58.72 163.38 (<) .5 0 t
60.10 163.38 (<) .5 0 t
61.47 163.38 (<) .5 0 t
62.85 163.38 (<) .5 0 t
63.72 164.91 1.00 1.00 r p2
65.10 164.91 1.00 1.00 r p2
66.98 163.38 (<) .5 0 t
68.35 163.38 (<) .5 0 t
69.23 164.91 1.00 1.00 r p2
70.60 164.91 1.00 1.00 r p2
71.98 164.91 1.00 1.00 r p2
73.35 164.91 1.00 1.00 r p2
74.73 164.91 1.00 1.00 r p2
76.10 164.91 1.00 1.00 r p2
77.48 164.91 1.00 1.00 r p2
78.86 164.91 1.00 1.00 r p2
80.23 164.91 1.00 1.00 r p2
81.61 164.91 1.00 1.00 r p2
82.98 164.91 1.00 1.00 r p2
84.36 164.91 1.00 1.00 r p2
85.73 164.91 1.00 1.00 r p2
87.11 164.91 1.00 1.00 r p2
88.49 164.91 1.00 1.00 r p2
89.86 164.91 1.00 1.00 r p2
91.24 164.91 1.00 1.00 r p2
92.61 164.91 1.00 1.00 r p2
93.99 164.91 1.00 1.00 r p2
95.36 164.91 1.00 1.00 r p2
96.74 164.91 1.00 1.00 r p2
98.12 164.91 1.00 1.00 r p2
99.49 164.91 1.00 1.00 r p2
100.87 164.91 1.00 1.00 r p2
102.24 164.91 1.00 1.00 r p2
103.62 164.91 1.00 1.00 r p2
104.99 164.91 1.00 1.00 r p2
106.87 163.38 (>) .5 0 t
108.25 163.38 (>) .5 0 t
109.62 163.38 (>) .5 0 t
111.00 163.38 (>) .5 0 t
112.37 163.38 (>) .5 0 t
113.75 163.38 (>) .5 0 t
114.62 164.91 1.00 1.00 r p2
116.00 164.91 1.00 1.00 r p2
117.38 164.91 1.00 1.00 r p2
118.75 164.91 1.00 1.00 r p2
120.13 164.91 1.00 1.00 r p2
121.50 164.91 1.00 1.00 r p2
122.88 164.91 1.00 1.00 r p2
124.25 164.91 1.00 1.00 r p2
125.63 164.91 1.00 1.00 r p2
127.01 164.91 1.00 1.00 r p2
128.38 164.91 1.00 1.00 r p2
129.76 164.91 1.00 1.00 r p2
131.13 164.91 1.00 1.00 r p2
132.51 164.91 1.00 1.00 r p2
133.88 164.91 1.00 1.00 r p2
135.26 164.91 1.00 1.00 r p2
136.64 164.91 1.00 1.00 r p2
138.01 164.91 1.00 1.00 r p2
139.39 164.91 1.00 1.00 r p2
140.76 164.91 1.00 1.00 r p2
142.14 164.91 1.00 1.00 r p2
143.51 164.91 1.00 1.00 r p2
144.89 164.91 1.00 1.00 r p2
146.27 164.91 1.00 1.00 r p2
147.64 164.91 1.00 1.00 r p2
149.02 164.91 1.00 1.00 r p2
150.39 164.91 1.00 1.00 r p2
151.77 164.91 1.00 1.00 r p2
153.14 164.91 1.00 1.00 r p2
154.52 164.91 1.00 1.00 r p2
155.90 164.91 1.00 1.00 r p2
157.27 164.91 1.00 1.00 r p2
158.65 164.91 1.00 1.00 r p2
160.02 164.91 1.00 1.00 r p2
161.40 164.91 1.00 1.00 r p2
163.27 163.38 (<) .5 0 t
164.65 163.38 (<) .5 0 t
166.03 163.38 (<) .5 0 t
167.40 163.38 (<) .5 0 t
168.78 163.38 (<) .5 0 t
170.15 163.38 (<) .5 0 t
171.53 163.38 (<) .5 0 t
172.40 164.91 1.00 1.00 r p2
173.78 164.91 1.00 1.00 r p2
175.16 164.91 1.00 1.00 r p2
176.53 164.91 1.00 1.00 r p2
178.41 163.38 (<) .5 0 t
179.78 163.38 (<) .5 0 t
181.16 163.38 (<) .5 0 t
182.53 163.38 (<) .5 0 t
183.91 163.38 (<) .5 0 t
185.29 163.38 (<) .5 0 t
186.16 164.91 1.00 1.00 r p2
187.54 164.91 1.00 1.00 r p2
188.91 164.91 1.00 1.00 r p2
190.79 163.38 (<) .5 0 t
192.16 163.38 (<) .5 0 t
193.54 163.38 (<) .5 0 t
194.92 163.38 (<) .5 0 t
195.79 164.91 1.00 1.00 r p2
197.17 164.91 1.00 1.00 r p2
198.54 164.91 1.00 1.00 r p2
199.92 164.91 1.00 1.00 r p2
201.29 164.91 1.00 1.00 r p2
203.17 163.38 (<) .5 0 t
204.55 163.38 (<) .5 0 t
205.92 163.38 (<) .5 0 t
207.30 163.38 (<) .5 0 t
208.67 163.38 (<) .5 0 t
210.05 163.38 (<) .5 0 t
211.42 163.38 (<) .5 0 t
212.80 163.38 (<) .5 0 t
214.18 163.38 (<) .5 0 t
215.55 163.38 (<) .5 0 t
216.93 163.38 (<) .5 0 t
218.30 163.38 (<) .5 0 t
219.18 164.91 1.00 1.00 r p2
220.55 164.91 1.00 1.00 r p2
221.93 164.91 1.00 1.00 r p2
223.81 163.38 (<) .5 0 t
225.18 163.38 (<) .5 0 t
226.56 163.38 (<) .5 0 t
227.93 163.38 (<) .5 0 t
229.31 163.38 (<) .5 0 t
230.68 163.38 (<) .5 0 t
232.06 163.38 (<) .5 0 t
232.94 164.91 1.00 1.00 r p2
234.31 164.91 1.00 1.00 r p2
235.69 164.91 1.00 1.00 r p2
237.06 164.91 1.00 1.00 r p2
238.44 164.91 1.00 1.00 r p2
240.31 163.38 (>) .5 0 t
241.69 163.38 (>) .5 0 t
243.07 163.38 (>) .5 0 t
244.44 163.38 (>) .5 0 t
245.82 163.38 (>) .5 0 t
247.19 163.38 (>) .5 0 t
248.57 163.38 (>) .5 0 t
249.44 164.91 1.00 1.00 r p2
250.82 164.91 1.00 1.00 r p2
252.20 164.91 1.00 1.00 r p2
253.57 164.91 1.00 1.00 r p2
254.95 164.91 1.00 1.00 r p2
256.82 163.38 (<) .5 0 t
258.20 163.38 (<) .5 0 t
259.57 163.38 (<) .5 0 t
260.95 163.38 (<) .5 0 t
261.83 164.91 1.00 1.00 r p2
263.20 164.91 1.00 1.00 r p2
264.58 164.91 1.00 1.00 r p2
265.95 164.91 1.00 1.00 r p2
267.33 164.91 1.00 1.00 r p2
268.70 164.91 1.00 1.00 r p2
270.08 164.91 1.00 1.00 r p2
271.45 164.91 1.00 1.00 r p2
272.83 164.91 1.00 1.00 r p2
274.71 163.38 (>) .5 0 t
276.08 163.38 (>) .5 0 t
277.46 163.38 (>) .5 0 t
278.83 163.38 (>) .5 0 t
279.71 164.91 1.00 1.00 r p2
281.08 164.91 1.00 1.00 r p2
282.46 164.91 1.00 1.00 r p2
283.84 164.91 1.00 1.00 r p2
285.71 163.38 (>) .5 0 t
287.09 163.38 (>) .5 0 t
288.46 163.38 (>) .5 0 t
289.84 163.38 (>) .5 0 t
290.71 164.91 1.00 1.00 r p2
292.09 164.91 1.00 1.00 r p2
293.47 164.91 1.00 1.00 r p2
294.84 164.91 1.00 1.00 r p2
296.72 163.38 (>) .5 0 t
297.59 164.91 1.00 1.00 r p2
299.47 163.38 (>) .5 0 t
300.84 163.38 (>) .5 0 t
302.22 163.38 (>) .5 0 t
303.60 163.38 (>) .5 0 t
304.97 163.38 (>) .5 0 t
306.35 163.38 (>) .5 0 t
307.72 163.38 (>) .5 0 t
308.60 164.91 1.00 1.00 r p2
309.97 164.91 1.00 1.00 r p2
311.35 164.91 1.00 1.00 r p2
312.73 164.91 1.00 1.00 r p2
314.60 163.38 (<) .5 0 t
315.98 163.38 (<) .5 0 t
316.85 164.91 1.00 1.00 r p2
318.23 164.91 1.00 1.00 r p2
319.60 164.91 1.00 1.00 r p2
320.98 164.91 1.00 1.00 r p2
322.36 164.91 1.00 1.00 r p2
323.73 164.91 1.00 1.00 r p2
325.11 164.91 1.00 1.00 r p2
326.48 164.91 1.00 1.00 r p2
327.86 164.91 1.00 1.00 r p2
329.23 164.91 1.00 1.00 r p2
330.61 164.91 1.00 1.00 r p2
331.99 164.91 1.00 1.00 r p2
333.36 164.91 1.00 1.00 r p2
334.74 164.91 1.00 1.00 r p2
336.11 164.91 1.00 1.00 r p2
337.49 164.91 1.00 1.00 r p2
338.86 164.91 1.00 1.00 r p2
340.24 164.91 1.00 1.00 r p2
341.62 164.91 1.00 1.00 r p2
342.99 164.91 1.00 1.00 r p2
344.37 164.91 1.00 1.00 r p2
345.74 164.91 1.00 1.00 r p2
347.12 164.91 1.00 1.00 r p2
348.99 163.38 (>) .5 0 t
350.37 163.38 (>) .5 0 t
351.25 164.91 1.00 1.00 r p2
352.62 164.91 1.00 1.00 r p2
354.00 164.91 1.00 1.00 r p2
355.37 164.91 1.00 1.00 r p2
356.75 164.91 1.00 1.00 r p2
358.62 163.38 (>) .5 0 t
360.00 163.38 (>) .5 0 t
361.38 163.38 (>) .5 0 t
362.75 163.38 (>) .5 0 t
363.63 164.91 1.00 1.00 r p2
365.00 164.91 1.00 1.00 r p2
366.88 163.38 (>) .5 0 t
368.25 163.38 (>) .5 0 t
369.13 164.91 1.00 1.00 r p2
371.01 163.38 (>) .5 0 t
372.38 163.38 (>) .5 0 t
373.76 163.38 (>) .5 0 t
375.13 163.38 (>) .5 0 t
376.51 163.38 (<) .5 0 t
377.88 163.38 (<) .5 0 t
379.26 163.38 (<) .5 0 t
380.14 164.91 1.00 1.00 r p2
381.51 164.91 1.00 1.00 r p2
382.89 164.91 1.00 1.00 r p2
384.26 164.91 1.00 1.00 r p2
386.14 163.38 (<) .5 0 t
387.51 163.38 (<) .5 0 t
388.89 163.38 (<) .5 0 t
390.27 163.38 (<) .5 0 t
391.64 163.38 (<) .5 0 t
393.02 163.38 (<) .5 0 t
394.39 163.38 (<) .5 0 t
395.77 163.38 (<) .5 0 t
396.64 164.91 1.00 1.00 r p2
398.02 164.91 1.00 1.00 r p2
399.40 164.91 1.00 1.00 r p2
400.77 164.91 1.00 1.00 r p2
402.15 164.91 1.00 1.00 r p2
403.52 164.91 1.00 1.00 r p2
404.90 164.91 1.00 1.00 r p2
406.27 164.91 1.00 1.00 r p2
407.65 164.91 1.00 1.00 r p2
409.03 164.91 1.00 1.00 r p2
410.40 164.91 1.00 1.00 r p2
411.78 164.91 1.00 1.00 r p2
413.15 164.91 1.00 1.00 r p2
414.53 164.91 1.00 1.00 r p2
415.90 164.91 1.00 1.00 r p2
417.28 164.91 1.00 1.00 r p2
418.66 164.91 1.00 1.00 r p2
420.03 164.91 1.00 1.00 r p2
421.41 164.91 1.00 1.00 r p2
422.78 164.91 1.00 1.00 r p2
424.16 164.91 1.00 1.00 r p2
425.53 164.91 1.00 1.00 r p2
426.91 164.91 1.00 1.00 r p2
428.29 164.91 1.00 1.00 r p2
429.66 164.91 1.00 1.00 r p2
431.04 164.91 1.00 1.00 r p2
432.91 163.38 (>) .5 0 t
434.29 163.38 (>) .5 0 t
435.66 163.38 (>) .5 0 t
437.04 163.38 (>) .5 0 t
438.42 163.38 (>) .5 0 t
439.79 163.38 (>) .5 0 t
441.17 163.38 (>) .5 0 t
442.54 163.38 (>) .5 0 t
443.42 164.91 1.00 1.00 r p2
444.79 164.91 1.00 1.00 r p2
446.17 164.91 1.00 1.00 r p2
447.55 164.91 1.00 1.00 r p2
449.42 163.38 (>) .5 0 t
450.80 163.38 (>) .5 0 t
452.17 163.38 (>) .5 0 t
453.05 164.91 1.00 1.00 r p2
454.42 164.91 1.00 1.00 r p2
455.80 164.91 1.00 1.00 r p2
457.67 162.54 (A) .5 0 t
458.55 164.91 1.00 1.00 r p2
460.43 162.54 (A) .5 0 t
461.80 162.54 (A) .5 0 t
463.18 162.54 (A) .5 0 t
464.55 162.54 (A) .5 0 t
465.93 162.54 (A) .5 0 t
466.80 164.91 1.00 1.00 r p2
468.18 164.91 1.00 1.00 r p2
469.56 164.91 1.00 1.00 r p2
471.43 163.38 (>) .5 0 t
472.81 163.38 (>) .5 0 t
474.18 163.38 (>) .5 0 t
475.56 163.38 (>) .5 0 t
476.93 163.38 (>) .5 0 t
478.31 163.38 (>) .5 0 t
479.69 163.38 (>) .5 0 t
481.06 163.38 (<) .5 0 t
482.44 163.38 (<) .5 0 t
483.81 163.38 (<) .5 0 t
485.19 163.38 (<) .5 0 t
486.56 163.38 (<) .5 0 t
487.94 163.38 (<) .5 0 t
489.32 163.38 (<) .5 0 t
490.19 164.91 1.00 1.00 r p2
491.57 164.91 1.00 1.00 r p2
492.94 164.91 1.00 1.00 r p2
494.32 164.91 1.00 1.00 r p2
495.69 164.91 1.00 1.00 r p2
497.07 164.91 1.00 1.00 r p2
498.45 164.91 1.00 1.00 r p2
499.82 164.91 1.00 1.00 r p2
501.20 164.91 1.00 1.00 r p2
502.57 164.91 1.00 1.00 r p2
503.95 164.91 1.00 1.00 r p2
505.32 164.91 1.00 1.00 r p2
506.70 164.91 1.00 1.00 r p2
508.08 164.91 1.00 1.00 r p2
509.45 164.91 1.00 1.00 r p2
510.83 164.91 1.00 1.00 r p2
512.20 164.91 1.00 1.00 r p2
513.58 164.91 1.00 1.00 r p2
514.95 164.91 1.00 1.00 r p2
516.33 164.91 1.00 1.00 r p2
517.71 164.91 1.00 1.00 r p2
519.08 164.91 1.00 1.00 r p2
520.46 164.91 1.00 1.00 r p2
521.83 164.91 1.00 1.00 r p2
523.21 164.91 1.00 1.00 r p2
524.58 164.91 1.00 1.00 r p2
525.96 164.91 1.00 1.00 r p2
527.34 164.91 1.00 1.00 r p2
528.71 164.91 1.00 1.00 r p2
530.09 164.91 1.00 1.00 r p2
531.46 164.91 1.00 1.00 r p2
532.84 164.91 1.00 1.00 r p2
534.21 164.91 1.00 1.00 r p2
535.59 164.91 1.00 1.00 r p2
537.47 163.38 (>) .5 0 t
538.84 163.38 (>) .5 0 t
540.22 163.38 (>) .5 0 t
541.59 163.38 (>) .5 0 t
542.97 163.38 (>) .5 0 t
544.34 163.38 (>) .5 0 t
545.72 163.38 (>) .5 0 t
546.60 164.91 1.00 1.00 r p2
547.97 164.91 1.00 1.00 r p2
549.35 164.91 1.00 1.00 r p2
550.72 164.91 1.00 1.00 r p2
552.10 164.91 1.00 1.00 r p2
553.47 164.91 1.00 1.00 r p2
554.85 164.91 1.00 1.00 r p2
556.73 163.32 (a) .5 0 t
558.10 163.32 (a) .5 0 t
559.48 163.32 (a) .5 0 t
560.35 164.91 1.00 1.00 r p2
562.23 163.32 (a) .5 0 t
563.60 163.32 (a) .5 0 t
564.98 163.32 (a) .5 0 t
565.86 164.91 1.00 1.00 r p2
567.73 163.38 (<) .5 0 t
569.11 163.38 (<) .5 0 t
569.98 164.91 1.00 1.00 r p2
571.86 163.38 (<) .5 0 t
573.23 163.38 (<) .5 0 t
574.61 163.38 (<) .5 0 t
575.99 163.38 (<) .5 0 t
577.36 163.38 (<) .5 0 t
578.74 163.38 (<) .5 0 t
579.61 164.91 1.00 1.00 r p2
580.99 164.91 1.00 1.00 r p2
582.36 164.91 1.00 1.00 r p2
583.74 164.91 1.00 1.00 r p2
585.62 163.38 (>) .5 0 t
586.99 163.38 (>) .5 0 t
588.37 163.38 (>) .5 0 t
589.74 163.38 (>) .5 0 t
591.12 163.38 (>) .5 0 t
592.49 163.38 (>) .5 0 t
593.37 164.91 1.00 1.00 r p2
594.75 164.91 1.00 1.00 r p2
596.12 164.91 1.00 1.00 r p2
597.50 164.91 1.00 1.00 r p2
598.87 164.91 1.00 1.00 r p2
600.75 163.38 (<) .5 0 t
602.12 163.38 (<) .5 0 t
603.50 163.38 (<) .5 0 t
604.88 163.38 (<) .5 0 t
606.25 163.38 (<) .5 0 t
607.63 163.38 (<) .5 0 t
608.50 164.91 1.00 1.00 r p2
609.88 164.91 1.00 1.00 r p2
611.25 164.91 1.00 1.00 r p2
612.63 164.91 1.00 1.00 r p2
614.01 164.91 1.00 1.00 r p2
615.38 164.91 1.00 1.00 r p2
616.76 164.91 1.00 1.00 r p2
618.13 164.91 1.00 1.00 r p2
620.01 163.38 (>) .5 0 t
621.38 163.38 (>) .5 0 t
622.76 163.38 (>) .5 0 t
624.14 163.38 (>) .5 0 t
625.51 163.38 (>) .5 0 t
626.89 163.38 (>) .5 0 t
627.76 164.91 1.00 1.00 r p2
629.14 164.91 1.00 1.00 r p2
630.51 164.91 1.00 1.00 r p2
631.89 164.91 1.00 1.00 r p2
633.27 164.91 1.00 1.00 r p2
634.64 164.91 1.00 1.00 r p2
636.02 164.91 1.00 1.00 r p2
637.39 164.91 1.00 1.00 r p2
638.77 164.91 1.00 1.00 r p2
640.14 164.91 1.00 1.00 r p2
641.52 164.91 1.00 1.00 r p2
642.90 164.91 1.00 1.00 r p2
644.27 164.91 1.00 1.00 r p2
645.65 164.91 1.00 1.00 r p2
647.02 164.91 1.00 1.00 r p2
648.40 164.91 1.00 1.00 r p2
649.77 164.91 1.00 1.00 r p2
651.65 163.38 (>) .5 0 t
653.02 163.38 (>) .5 0 t
653.90 164.91 1.00 1.00 r p2
655.28 164.91 1.00 1.00 r p2
656.65 164.91 1.00 1.00 r p2
658.03 164.91 1.00 1.00 r p2
659.40 164.91 1.00 1.00 r p2
660.78 164.91 1.00 1.00 r p2
662.15 164.91 1.00 1.00 r p2
663.53 164.91 1.00 1.00 r p2
664.91 164.91 1.00 1.00 r p2
666.28 164.91 1.00 1.00 r p2
667.66 164.91 1.00 1.00 r p2
669.03 164.91 1.00 1.00 r p2
670.41 164.91 1.00 1.00 r p2
0.00 0.00 720.00 180.00 cl
0.00 0.00 720.00 180.00 cl
0 0 0 srgb
0.75 setlinewidth
[] 0 setdash
1 setlinecap
1 setlinejoin
10.00 setmiterlimit
np
49.09 36.00 m
619.07 0 l
o
np
49.09 36.00 m
0 -7.20 l
o
np
62.85 36.00 m
0 -7.20 l
o
np
76.60 36.00 m
0 -7.20 l
o
np
90.36 36.00 m
0 -7.20 l
o
np
104.12 36.00 m
0 -7.20 l
o
np
117.88 36.00 m
0 -7.20 l
o
np
131.63 36.00 m
0 -7.20 l
o
np
145.39 36.00 m
0 -7.20 l
o
np
159.15 36.00 m
0 -7.20 l
o
np
172.90 36.00 m
0 -7.20 l
o
np
186.66 36.00 m
0 -7.20 l
o
np
200.42 36.00 m
0 -7.20 l
o
np
214.18 36.00 m
0 -7.20 l
o
np
227.93 36.00 m
0 -7.20 l
o
np
241.69 36.00 m
0 -7.20 l
o
np
255.45 36.00 m
0 -7.20 l
o
np
269.20 36.00 m
0 -7.20 l
o
np
282.96 36.00 m
0 -7.20 l
o
np
296.72 36.00 m
0 -7.20 l
o
np
310.47 36.00 m
0 -7.20 l
o
np
324.23 36.00 m
0 -7.20 l
o
np
337.99 36.00 m
0 -7.20 l
o
np
351.75 36.00 m
0 -7.20 l
o
np
365.50 36.00 m
0 -7.20 l
o
np
379.26 36.00 m
0 -7.20 l
o
np
393.02 36.00 m
0 -7.20 l
o
np
406.77 36.00 m
0 -7.20 l
o
np
420.53 36.00 m
0 -7.20 l
o
np
434.29 36.00 m
0 -7.20 l
o
np
448.05 36.00 m
0 -7.20 l
o
np
461.80 36.00 m
0 -7.20 l
o
np
475.56 36.00 m
0 -7.20 l
o
np
489.32 36.00 m
0 -7.20 l
o
np
503.07 36.00 m
0 -7.20 l
o
np
516.83 36.00 m
0 -7.20 l
o
np
530.59 36.00 m
0 -7.20 l
o
np
544.34 36.00 m
0 -7.20 l
o
np
558.10 36.00 m
0 -7.20 l
o
np
571.86 36.00 m
0 -7.20 l
o
np
585.62 36.00 m
0 -7.20 l
o
np
599.37 36.00 m
0 -7.20 l
o
np
613.13 36.00 m
0 -7.20 l
o
np
626.89 36.00 m
0 -7.20 l
o
np
640.64 36.00 m
0 -7.20 l
o
np
654.40 36.00 m
0 -7.20 l
o
np
668.16 36.00 m
0 -7.20 l
o
/Font1 findfont 12 s
49.09 10.08 (0) .5 0 t
76.60 10.08 (20) .5 0 t
104.12 10.08 (40) .5 0 t
131.63 10.08 (60) .5 0 t
159.15 10.08 (80) .5 0 t
186.66 10.08 (100) .5 0 t
227.93 10.08 (130) .5 0 t
269.20 10.08 (160) .5 0 t
310.47 10.08 (190) .5 0 t
351.75 10.08 (220) .5 0 t
393.02 10.08 (250) .5 0 t
434.29 10.08 (280) .5 0 t
475.56 10.08 (310) .5 0 t
516.83 10.08 (340) .5 0 t
558.10 10.08 (370) .5 0 t
599.37 10.08 (400) .5 0 t
640.64 10.08 (430) .5 0 t
18.00 36.00 702.00 180.00 cl
/bg { 0 0 0 srgb } def
49.97 155.65 1.00 1.00 r p2
51.34 155.65 1.00 1.00 r p2
52.72 155.65 1.00 1.00 r p2
54.09 155.65 1.00 1.00 r p2
55.47 155.65 1.00 1.00 r p2
56.85 155.65 1.00 1.00 r p2
/Font1 findfont 8 s
0 0 0 srgb
58.72 154.12 (<) .5 0 t
60.10 154.12 (<) .5 0 t
61.47 154.12 (<) .5 0 t
62.85 154.12 (<) .5 0 t
63.72 155.65 1.00 1.00 r p2
65.10 155.65 1.00 1.00 r p2
66.98 154.12 (<) .5 0 t
68.35 154.12 (<) .5 0 t
69.23 155.65 1.00 1.00 r p2
70.60 155.65 1.00 1.00 r p2
71.98 155.65 1.00 1.00 r p2
73.35 155.65 1.00 1.00 r p2
74.73 155.65 1.00 1.00 r p2
76.10 155.65 1.00 1.00 r p2
77.48 155.65 1.00 1.00 r p2
78.86 155.65 1.00 1.00 r p2
80.23 155.65 1.00 1.00 r p2
81.61 155.65 1.00 1.00 r p2
82.98 155.65 1.00 1.00 r p2
84.36 155.65 1.00 1.00 r p2
85.73 155.65 1.00 1.00 r p2
87.11 155.65 1.00 1.00 r p2
88.49 155.65 1.00 1.00 r p2
89.86 155.65 1.00 1.00 r p2
91.24 155.65 1.00 1.00 r p2
92.61 155.65 1.00 1.00 r p2
93.99 155.65 1.00 1.00 r p2
95.36 155.65 1.00 1.00 r p2
96.74 155.65 1.00 1.00 r p2
98.12 155.65 1.00 1.00 r p2
99.49 155.65 1.00 1.00 r p2
100.87 155.65 1.00 1.00 r p2
102.24 155.65 1.00 1.00 r p2
103.62 155.65 1.00 1.00 r p2
104.99 155.65 1.00 1.00 r p2
106.87 154.12 (>) .5 0 t
108.25 154.12 (>) .5 0 t
109.62 154.12 (>) .5 0 t
111.00 154.12 (>) .5 0 t
112.37 154.12 (>) .5 0 t
113.75 154.12 (>) .5 0 t
114.62 155.65 1.00 1.00 r p2
116.00 155.65 1.00 1.00 r p2
117.38 155.65 1.00 1.00 r p2
118.75 155.65 1.00 1.00 r p2
120.13 155.65 1.00 1.00 r p2
121.50 155.65 1.00 1.00 r p2
122.88 155.65 1.00 1.00 r p2
124.25 155.65 1.00 1.00 r p2
125.63 155.65 1.00 1.00 r p2
127.01 155.65 1.00 1.00 r p2
128.38 155.65 1.00 1.00 r p2
129.76 155.65 1.00 1.00 r p2
131.13 155.65 1.00 1.00 r p2
132.51 155.65 1.00 1.00 r p2
133.88 155.65 1.00 1.00 r p2
135.26 155.65 1.00 1.00 r p2
136.64 155.65 1.00 1.00 r p2
138.01 155.65 1.00 1.00 r p2
139.39 155.65 1.00 1.00 r p2
140.76 155.65 1.00 1.00 r p2
142.14 155.65 1.00 1.00 r p2
143.51 155.65 1.00 1.00 r p2
144.89 155.65 1.00 1.00 r p2
146.27 155.65 1.00 1.00 r p2
147.64 155.65 1.00 1.00 r p2
149.02 155.65 1.00 1.00 r p2
150.39 155.65 1.00 1.00 r p2
151.77 155.65 1.00 1.00 r p2
153.14 155.65 1.00 1.00 r p2
154.52 155.65 1.00 1.00 r p2
155.90 155.65 1.00 1.00 r p2
157.27 155.65 1.00 1.00 r p2
158.65 155.65 1.00 1.00 r p2
160.02 155.65 1.00 1.00 r p2
161.40 155.65 1.00 1.00 r p2
163.27 153.28 (A) .5 0 t
164.65 153.28 (A) .5 0 t
166.03 153.28 (A) .5 0 t
167.40 153.28 (A) .5 0 t
168.78 153.28 (A) .5 0 t
170.15 153.28 (A) .5 0 t
171.53 153.28 (A) .5 0 t
172.40 155.65 1.00 1.00 r p2
173.78 155.65 1.00 1.00 r p2
175.16 155.65 1.00 1.00 r p2
176.53 155.65 1.00 1.00 r p2
178.41 154.12 (<) .5 0 t
179.78 154.12 (<) .5 0 t
181.16 154.12 (<) .5 0 t
182.53 154.12 (<) .5 0 t
183.91 154.12 (<) .5 0 t
185.29 154.12 (<) .5 0 t
186.16 155.65 1.00 1.00 r p2
187.54 155.65 1.00 1.00 r p2
188.91 155.65 1.00 1.00 r p2
190.79 154.12 (<) .5 0 t
192.16 154.12 (<) .5 0 t
193.54 154.12 (<) .5 0 t
194.92 154.12 (<) .5 0 t
195.79 155.65 1.00 1.00 r p2
197.17 155.65 1.00 1.00 r p2
198.54 155.65 1.00 1.00 r p2
199.92 155.65 1.00 1.00 r p2
201.29 155.65 1.00 1.00 r p2
203.17 154.12 (<) .5 0 t
204.55 154.12 (<) .5 0 t
205.92 154.12 (<) .5 0 t
207.30 154.12 (<) .5 0 t
208.67 154.12 (<) .5 0 t
210.05 154.12 (<) .5 0 t
211.42 154.12 (<) .5 0 t
212.80 154.12 (<) .5 0 t
214.18 154.12 (<) .5 0 t
215.55 154.12 (<) .5 0 t
216.93 154.12 (<) .5 0 t
218.30 154.12 (<) .5 0 t
219.18 155.65 1.00 1.00 r p2
220.55 155.65 1.00 1.00 r p2
221.93 155.65 1.00 1.00 r p2
223.81 154.12 (<) .5 0 t
225.18 154.12 (<) .5 0 t
226.56 154.12 (<) .5 0 t
227.93 154.12 (<) .5 0 t
229.31 154.12 (<) .5 0 t
230.68 154.12 (<) .5 0 t
232.06 154.12 (<) .5 0 t
232.94 155.65 1.00 1.00 r p2
234.31 155.65 1.00 1.00 r p2
235.69 155.65 1.00 1.00 r p2
237.06 155.65 1.00 1.00 r p2
238.44 155.65 1.00 1.00 r p2
240.31 154.12 (>) .5 0 t
241.69 154.12 (>) .5 0 t
243.07 154.12 (>) .5 0 t
244.44 154.12 (>) .5 0 t
245.82 154.12 (>) .5 0 t
247.19 154.12 (>) .5 0 t
248.57 154.12 (>) .5 0 t
249.44 155.65 1.00 1.00 r p2
250.82 155.65 1.00 1.00 r p2
252.20 155.65 1.00 1.00 r p2
253.57 155.65 1.00 1.00 r p2
254.95 155.65 1.00 1.00 r p2
256.82 154.12 (<) .5 0 t
258.20 154.12 (<) .5 0 t
259.57 154.12 (<) .5 0 t
260.95 154.12 (<) .5 0 t
261.83 155.65 1.00 1.00 r p2
263.20 155.65 1.00 1.00 r p2
264.58 155.65 1.00 1.00 r p2
265.95 155.65 1.00 1.00 r p2
267.33 155.65 1.00 1.00 r p2
268.70 155.65 1.00 1.00 r p2
270.08 155.65 1.00 1.00 r p2
271.45 155.65 1.00 1.00 r p2
272.83 155.65 1.00 1.00 r p2
274.71 154.12 (>) .5 0 t
276.08 154.12 (>) .5 0 t
277.46 154.12 (>) .5 0 t
278.83 154.12 (>) .5 0 t
279.71 155.65 1.00 1.00 r p2
281.08 155.65 1.00 1.00 r p2
282.46 155.65 1.00 1.00 r p2
283.84 155.65 1.00 1.00 r p2
285.71 154.12 (>) .5 0 t
287.09 154.12 (>) .5 0 t
288.46 154.12 (>) .5 0 t
289.84 154.12 (>) .5 0 t
290.71 155.65 1.00 1.00 r p2
292.09 155.65 1.00 1.00 r p2
293.47 155.65 1.00 1.00 r p2
294.84 155.65 1.00 1.00 r p2
296.72 154.12 (>) .5 0 t
297.59 155.65 1.00 1.00 r p2
299.47 154.12 (>) .5 0 t
300.84 154.12 (>) .5 0 t
302.22 154.12 (>) .5 0 t
303.60 154.12 (>) .5 0 t
304.97 154.12 (>) .5 0 t
306.35 154.12 (>) .5 0 t
307.72 154.12 (>) .5 0 t
308.60 155.65 1.00 1.00 r p2
309.97 155.65 1.00 1.00 r p2
311.35 155.65 1.00 1.00 r p2
312.73 155.65 1.00 1.00 r p2
314.60 154.12 (<) .5 0 t
315.98 154.12 (<) .5 0 t
316.85 155.65 1.00 1.00 r p2
318.23 155.65 1.00 1.00 r p2
319.60 155.65 1.00 1.00 r p2
320.98 155.65 1.00 1.00 r p2
322.36 155.65 1.00 1.00 r p2
323.73 155.65 1.00 1.00 r p2
325.11 155.65 1.00 1.00 r p2
326.48 155.65 1.00 1.00 r p2
327.86 155.65 1.00 1.00 r p2
329.23 155.65 1.00 1.00 r p2
330.61 155.65 1.00 1.00 r p2
331.99 155.65 1.00 1.00 r p2
333.36 155.65 1.00 1.00 r p2
334.74 155.65 1.00 1.00 r p2
336.11 155.65 1.00 1.00 r p2
337.49 155.65 1.00 1.00 r p2
338.86 155.65 1.00 1.00 r p2
340.24 155.65 1.00 1.00 r p2
341.62 155.65 1.00 1.00 r p2
342.99 155.65 1.00 1.00 r p2
344.37 155.65 1.00 1.00 r p2
345.74 155.65 1.00 1.00 r p2
347.12 155.65 1.00 1.00 r p2
348.99 154.12 (>) .5 0 t
350.37 154.12 (>) .5 0 t
351.25 155.65 1.00 1.00 r p2
352.62 155.65 1.00 1.00 r p2
354.00 155.65 1.00 1.00 r p2
355.37 155.65 1.00 1.00 r p2
356.75 155.65 1.00 1.00 r p2
358.62 154.12 (>) .5 0 t
360.00 154.12 (>) .5 0 t
361.38 154.12 (>) .5 0 t
362.75 154.12 (>) .5 0 t
363.63 155.65 1.00 1.00 r p2
365.00 155.65 1.00 1.00 r p2
366.88 154.12 (>) .5 0 t
368.25 154.12 (>) .5 0 t
369.13 155.65 1.00 1.00 r p2
371.01 154.12 (>) .5 0 t
372.38 154.12 (>) .5 0 t
373.76 154.12 (>) .5 0 t
375.13 154.12 (>) .5 0 t
376.51 154.12 (<) .5 0 t
377.88 154.12 (<) .5 0 t
379.26 154.12 (<) .5 0 t
380.14 155.65 1.00 1.00 r p2
381.51 155.65 1.00 1.00 r p2
382.89 155.65 1.00 1.00 r p2
384.26 155.65 1.00 1.00 r p2
386.14 154.12 (<) .5 0 t
387.51 154.12 (<) .5 0 t
388.89 154.12 (<) .5 0 t
390.27 154.12 (<) .5 0 t
391.64 154.12 (<) .5 0 t
393.02 154.12 (<) .5 0 t
394.39 154.12 (<) .5 0 t
395.77 154.12 (<) .5 0 t
396.64 155.65 1.00 1.00 r p2
398.02 155.65 1.00 1.00 r p2
399.40 155.65 1.00 1.00 r p2
400.77 155.65 1.00 1.00 r p2
402.15 155.65 1.00 1.00 r p2
403.52 155.65 1.00 1.00 r p2
404.90 155.65 1.00 1.00 r p2
406.27 155.65 1.00 1.00 r p2
407.65 155.65 1.00 1.00 r p2
409.03 155.65 1.00 1.00 r p2
410.40 155.65 1.00 1.00 r p2
411.78 155.65 1.00 1.00 r p2
413.15 155.65 1.00 1.00 r p2
414.53 155.65 1.00 1.00 r p2
415.90 155.65 1.00 1.00 r p2
417.28 155.65 1.00 1.00 r p2
418.66 155.65 1.00 1.00 r p2
420.03 155.65 1.00 1.00 r p2
421.41 155.65 1.00 1.00 r p2
422.78 155.65 1.00 1.00 r p2
424.16 155.65 1.00 1.00 r p2
425.53 155.65 1.00 1.00 r p2
426.91 155.65 1.00 1.00 r p2
428.29 155.65 1.00 1.00 r p2
429.66 155.65 1.00 1.00 r p2
431.04 155.65 1.00 1.00 r p2
432.91 154.12 (>) .5 0 t
434.29 154.12 (>) .5 0 t
435.66 154.12 (>) .5 0 t
437.04 154.12 (>) .5 0 t
438.42 154.12 (>) .5 0 t
439.79 154.12 (>) .5 0 t
441.17 154.12 (>) .5 0 t
442.54 154.12 (>) .5 0 t
443.42 155.65 1.00 1.00 r p2
444.79 155.65 1.00 1.00 r p2
446.17 155.65 1.00 1.00 r p2
447.55 155.65 1.00 1.00 r p2
449.42 154.12 (>) .5 0 t
450.80 154.12 (>) .5 0 t
452.17 154.12 (>) .5 0 t
453.05 155.65 1.00 1.00 r p2
454.42 155.65 1.00 1.00 r p2
455.80 155.65 1.00 1.00 r p2
457.67 154.04 (\() .5 0 t
458.55 155.65 1.00 1.00 r p2
460.43 154.04 (\() .5 0 t
461.80 154.04 (\() .5 0 t
463.18 154.04 (\() .5 0 t
464.55 154.04 (\() .5 0 t
465.93 154.04 (\() .5 0 t
466.80 155.65 1.00 1.00 r p2
468.18 155.65 1.00 1.00 r p2
469.56 155.65 1.00 1.00 r p2
471.43 154.06 (a) .5 0 t
472.81 154.06 (a) .5 0 t
474.18 154.06 (a) .5 0 t
475.56 154.06 (a) .5 0 t
476.93 154.06 (a) .5 0 t
478.31 154.06 (a) .5 0 t
479.69 154.06 (a) .5 0 t
481.06 154.12 (<) .5 0 t
482.44 154.12 (<) .5 0 t
483.81 154.12 (<) .5 0 t
485.19 154.12 (<) .5 0 t
486.56 154.12 (<) .5 0 t
487.94 154.12 (<) .5 0 t
489.32 154.12 (<) .5 0 t
490.19 155.65 1.00 1.00 r p2
491.57 155.65 1.00 1.00 r p2
492.94 155.65 1.00 1.00 r p2
494.32 155.65 1.00 1.00 r p2
495.69 155.65 1.00 1.00 r p2
497.07 155.65 1.00 1.00 r p2
498.45 155.65 1.00 1.00 r p2
499.82 155.65 1.00 1.00 r p2
501.20 155.65 1.00 1.00 r p2
502.57 155.65 1.00 1.00 r p2
503.95 155.65 1.00 1.00 r p2
505.32 155.65 1.00 1.00 r p2
506.70 155.65 1.00 1.00 r p2
508.08 155.65 1.00 1.00 r p2
509.45 155.65 1.00 1.00 r p2
510.83 155.65 1.00 1.00 r p2
512.20 155.65 1.00 1.00 r p2
513.58 155.65 1.00 1.00 r p2
514.95 155.65 1.00 1.00 r p2
516.33 155.65 1.00 1.00 r p2
517.71 155.65 1.00 1.00 r p2
519.08 155.65 1.00 1.00 r p2
520.46 155.65 1.00 1.00 r p2
521.83 155.65 1.00 1.00 r p2
523.21 155.65 1.00 1.00 r p2
524.58 155.65 1.00 1.00 r p2
525.96 155.65 1.00 1.00 r p2
527.34 155.65 1.00 1.00 r p2
528.71 155.65 1.00 1.00 r p2
530.09 155.65 1.00 1.00 r p2
531.46 155.65 1.00 1.00 r p2
532.84 155.65 1.00 1.00 r p2
534.21 155.65 1.00 1.00 r p2
535.59 155.65 1.00 1.00 r p2
537.47 154.12 (>) .5 0 t
538.84 154.12 (>) .5 0 t
540.22 154.12 (>) .5 0 t
541.59 154.12 (>) .5 0 t
542.97 154.12 (>) .5 0 t
544.34 154.12 (>) .5 0 t
545.72 154.12 (>) .5 0 t
546.60 155.65 1.00 1.00 r p2
547.97 155.65 1.00 1.00 r p2
549.35 155.65 1.00 1.00 r p2
550.72 155.65 1.00 1.00 r p2
552.10 155.65 1.00 1.00 r p2
553.47 155.65 1.00 1.00 r p2
554.85 155.65 1.00 1.00 r p2
556.73 154.04 (\)) .5 0 t
558.10 154.04 (\)) .5 0 t
559.48 154.04 (\)) .5 0 t
560.35 155.65 1.00 1.00 r p2
562.23 154.04 (\)) .5 0 t
563.60 154.04 (\)) .5 0 t
564.98 154.04 (\)) .5 0 t
565.86 155.65 1.00 1.00 r p2
567.73 154.12 (<) .5 0 t
569.11 154.12 (<) .5 0 t
569.98 155.65 1.00 1.00 r p2
571.86 154.12 (<) .5 0 t
573.23 154.12 (<) .5 0 t
574.61 154.12 (<) .5 0 t
575.99 154.12 (<) .5 0 t
577.36 154.12 (<) .5 0 t
578.74 154.12 (<) .5 0 t
579.61 155.65 1.00 1.00 r p2
580.99 155.65 1.00 1.00 r p2
582.36 155.65 1.00 1.00 r p2
583.74 155.65 1.00 1.00 r p2
585.62 154.12 (>) .5 0 t
586.99 154.12 (>) .5 0 t
588.37 154.12 (>) .5 0 t
589.74 154.12 (>) .5 0 t
591.12 154.12 (>) .5 0 t
592.49 154.12 (>) .5 0 t
593.37 155.65 1.00 1.00 r p2
594.75 155.65 1.00 1.00 r p2
596.12 155.65 1.00 1.00 r p2
597.50 155.65 1.00 1.00 r p2
598.87 155.65 1.00 1.00 r p2
600.75 154.12 (<) .5 0 t
602.12 154.12 (<) .5 0 t
603.50 154.12 (<) .5 0 t
604.88 154.12 (<) .5 0 t
606.25 154.12 (<) .5 0 t
607.63 154.12 (<) .5 0 t
608.50 155.65 1.00 1.00 r p2
609.88 155.65 1.00 1.00 r p2
611.25 155.65 1.00 1.00 r p2
612.63 155.65 1.00 1.00 r p2
614.01 155.65 1.00 1.00 r p2
615.38 155.65 1.00 1.00 r p2
616.76 155.65 1.00 1.00 r p2
618.13 155.65 1.00 1.00 r p2
620.01 154.12 (>) .5 0 t
621.38 154.12 (>) .5 0 t
622.76 154.12 (>) .5 0 t
624.14 154.12 (>) .5 0 t
625.51 154.12 (>) .5 0 t
626.89 154.12 (>) .5 0 t
627.76 155.65 1.00 1.00 r p2
629.14 155.65 1.00 1.00 r p2
630.51 155.65 1.00 1.00 r p2
631.89 155.65 1.00 1.00 r p2
633.27 155.65 1.00 1.00 r p2
634.64 155.65 1.00 1.00 r p2
636.02 155.65 1.00 1.00 r p2
637.39 155.65 1.00 1.00 r p2
638.77 155.65 1.00 1.00 r p2
640.14 155.65 1.00 1.00 r p2
641.52 155.65 1.00 1.00 r p2
642.90 155.65 1.00 1.00 r p2
644.27 155.65 1.00 1.00 r p2
645.65 155.65 1.00 1.00 r p2
647.02 155.65 1.00 1.00 r p2
648.40 155.65 1.00 1.00 r p2
649.77 155.65 1.00 1.00 r p2
651.65 154.12 (>) .5 0 t
653.02 154.12 (>) .5 0 t
653.90 155.65 1.00 1.00 r p2
655.28 155.65 1.00 1.00 r p2
656.65 155.65 1.00 1.00 r p2
658.03 155.65 1.00 1.00 r p2
659.40 155.65 1.00 1.00 r p2
660.78 155.65 1.00 1.00 r p2
662.15 155.65 1.00 1.00 r p2
663.53 155.65 1.00 1.00 r p2
664.91 155.65 1.00 1.00 r p2
666.28 155.65 1.00 1.00 r p2
667.66 155.65 1.00 1.00 r p2
669.03 155.65 1.00 1.00 r p2
670.41 155.65 1.00 1.00 r p2
49.97 146.39 1.00 1.00 r p2
51.34 146.39 1.00 1.00 r p2
52.72 146.39 1.00 1.00 r p2
54.09 146.39 1.00 1.00 r p2
55.47 146.39 1.00 1.00 r p2
56.85 146.39 1.00 1.00 r p2
58.72 144.08 (1) .5 0 t
60.10 144.08 (1) .5 0 t
61.47 144.08 (1) .5 0 t
62.85 144.08 (1) .5 0 t
63.72 146.39 1.00 1.00 r p2
65.10 146.39 1.00 1.00 r p2
66.98 144.08 (1) .5 0 t
68.35 144.08 (1) .5 0 t
69.23 146.39 1.00 1.00 r p2
70.60 146.39 1.00 1.00 r p2
71.98 146.39 1.00 1.00 r p2
73.35 146.39 1.00 1.00 r p2
74.73 146.39 1.00 1.00 r p2
76.10 146.39 1.00 1.00 r p2
77.48 146.39 1.00 1.00 r p2
78.86 146.39 1.00 1.00 r p2
80.23 146.39 1.00 1.00 r p2
81.61 146.39 1.00 1.00 r p2
82.98 146.39 1.00 1.00 r p2
84.36 146.39 1.00 1.00 r p2
85.73 146.39 1.00 1.00 r p2
87.11 146.39 1.00 1.00 r p2
88.49 146.39 1.00 1.00 r p2
89.86 146.39 1.00 1.00 r p2
91.24 146.39 1.00 1.00 r p2
92.61 146.39 1.00 1.00 r p2
93.99 146.39 1.00 1.00 r p2
95.36 146.39 1.00 1.00 r p2
96.74 146.39 1.00 1.00 r p2
98.12 146.39 1.00 1.00 r p2
99.49 146.39 1.00 1.00 r p2
100.87 146.39 1.00 1.00 r p2
102.24 146.39 1.00 1.00 r p2
103.62 146.39 1.00 1.00 r p2
104.99 146.39 1.00 1.00 r p2
106.87 144.08 (1) .5 0 t
108.25 144.08 (1) .5 0 t
109.62 144.08 (1) .5 0 t
111.00 144.08 (1) .5 0 t
112.37 144.08 (1) .5 0 t
113.75 144.08 (1) .5 0 t
114.62 146.39 1.00 1.00 r p2
116.00 146.39 1.00 1.00 r p2
117.38 146.39 1.00 1.00 r p2
118.75 146.39 1.00 1.00 r p2
120.13 146.39 1.00 1.00 r p2
121.50 146.39 1.00 1.00 r p2
122.88 146.39 1.00 1.00 r p2
124.25 146.39 1.00 1.00 r p2
125.63 146.39 1.00 1.00 r p2
127.01 146.39 1.00 1.00 r p2
128.38 146.39 1.00 1.00 r p2
129.76 146.39 1.00 1.00 r p2
131.13 146.39 1.00 1.00 r p2
132.51 146.39 1.00 1.00 r p2
133.88 146.39 1.00 1.00 r p2
135.26 146.39 1.00 1.00 r p2
136.64 146.39 1.00 1.00 r p2
138.01 146.39 1.00 1.00 r p2
139.39 146.39 1.00 1.00 r p2
140.76 146.39 1.00 1.00 r p2
142.14 146.39 1.00 1.00 r p2
143.51 146.39 1.00 1.00 r p2
144.89 146.39 1.00 1.00 r p2
146.27 146.39 1.00 1.00 r p2
147.64 146.39 1.00 1.00 r p2
149.02 146.39 1.00 1.00 r p2
150.39 146.39 1.00 1.00 r p2
151.77 146.39 1.00 1.00 r p2
153.14 146.39 1.00 1.00 r p2
154.52 146.39 1.00 1.00 r p2
155.90 146.39 1.00 1.00 r p2
157.27 146.39 1.00 1.00 r p2
158.65 146.39 1.00 1.00 r p2
160.02 146.39 1.00 1.00 r p2
161.40 146.39 1.00 1.00 r p2
163.27 144.15 (3) .5 0 t
164.65 144.15 (3) .5 0 t
166.03 144.15 (3) .5 0 t
167.40 144.15 (3) .5 0 t
168.78 144.15 (3) .5 0 t
170.15 144.15 (3) .5 0 t
171.53 144.15 (3) .5 0 t
172.40 146.39 1.00 1.00 r p2
173.78 146.39 1.00 1.00 r p2
175.16 146.39 1.00 1.00 r p2
176.53 146.39 1.00 1.00 r p2
178.41 144.08 (4) .5 0 t
179.78 144.08 (4) .5 0 t
181.16 144.08 (4) .5 0 t
182.53 144.08 (4) .5 0 t
183.91 144.08 (4) .5 0 t
185.29 144.08 (4) .5 0 t
186.16 146.39 1.00 1.00 r p2
187.54 146.39 1.00 1.00 r p2
188.91 146.39 1.00 1.00 r p2
190.79 144.08 (4) .5 0 t
192.16 144.08 (4) .5 0 t
193.54 144.08 (4) .5 0 t
194.92 144.08 (4) .5 0 t
195.79 146.39 1.00 1.00 r p2
197.17 146.39 1.00 1.00 r p2
198.54 146.39 1.00 1.00 r p2
199.92 146.39 1.00 1.00 r p2
201.29 146.39 1.00 1.00 r p2
203.17 144.08 (4) .5 0 t
204.55 144.08 (4) .5 0 t
205.92 144.08 (4) .5 0 t
207.30 144.08 (4) .5 0 t
208.67 144.08 (4) .5 0 t
210.05 144.08 (4) .5 0 t
211.42 144.08 (4) .5 0 t
212.80 144.08 (4) .5 0 t
214.18 144.08 (4) .5 0 t
215.55 144.08 (4) .5 0 t
216.93 144.08 (4) .5 0 t
218.30 144.08 (4) .5 0 t
219.18 146.39 1.00 1.00 r p2
220.55 146.39 1.00 1.00 r p2
221.93 146.39 1.00 1.00 r p2
223.81 144.08 (4) .5 0 t
225.18 144.08 (4) .5 0 t
226.56 144.08 (4) .5 0 t
227.93 144.08 (4) .5 0 t
229.31 144.08 (4) .5 0 t
230.68 144.08 (4) .5 0 t
232.06 144.08 (4) .5 0 t
232.94 146.39 1.00 1.00 r p2
234.31 146.39 1.00 1.00 r p2
235.69 146.39 1.00 1.00 r p2
237.06 146.39 1.00 1.00 r p2
238.44 146.39 1.00 1.00 r p2
240.31 144.08 (4) .5 0 t
241.69 144.08 (4) .5 0 t
243.07 144.08 (4) .5 0 t
244.44 144.08 (4) .5 0 t
245.82 144.08 (4) .5 0 t
247.19 144.08 (4) .5 0 t
248.57 144.08 (4) .5 0 t
249.44 146.39 1.00 1.00 r p2
250.82 146.39 1.00 1.00 r p2
252.20 146.39 1.00 1.00 r p2
253.57 146.39 1.00 1.00 r p2
254.95 146.39 1.00 1.00 r p2
256.82 144.86 (<) .5 0 t
258.20 144.86 (<) .5 0 t
259.57 144.86 (<) .5 0 t
260.95 144.86 (<) .5 0 t
261.83 146.39 1.00 1.00 r p2
263.20 146.39 1.00 1.00 r p2
264.58 146.39 1.00 1.00 r p2
265.95 146.39 1.00 1.00 r p2
267.33 146.39 1.00 1.00 r p2
268.70 146.39 1.00 1.00 r p2
270.08 146.39 1.00 1.00 r p2
271.45 146.39 1.00 1.00 r p2
272.83 146.39 1.00 1.00 r p2
274.71 144.86 (>) .5 0 t
276.08 144.86 (>) .5 0 t
277.46 144.86 (>) .5 0 t
278.83 144.86 (>) .5 0 t
279.71 146.39 1.00 1.00 r p2
281.08 146.39 1.00 1.00 r p2
282.46 146.39 1.00 1.00 r p2
283.84 146.39 1.00 1.00 r p2
285.71 144.08 (4) .5 0 t
287.09 144.08 (4) .5 0 t
288.46 144.08 (4) .5 0 t
289.84 144.08 (4) .5 0 t
290.71 146.39 1.00 1.00 r p2
292.09 146.39 1.00 1.00 r p2
293.47 146.39 1.00 1.00 r p2
294.84 146.39 1.00 1.00 r p2
296.72 144.08 (4) .5 0 t
297.59 146.39 1.00 1.00 r p2
299.47 144.08 (4) .5 0 t
300.84 144.08 (4) .5 0 t
302.22 144.08 (4) .5 0 t
303.60 144.08 (4) .5 0 t
304.97 144.08 (4) .5 0 t
306.35 144.08 (4) .5 0 t
307.72 144.08 (4) .5 0 t
308.60 146.39 1.00 1.00 r p2
309.97 146.39 1.00 1.00 r p2
311.35 146.39 1.00 1.00 r p2
312.73 146.39 1.00 1.00 r p2
314.60 144.86 (<) .5 0 t
315.98 144.86 (<) .5 0 t
316.85 146.39 1.00 1.00 r p2
318.23 146.39 1.00 1.00 r p2
319.60 146.39 1.00 1.00 r p2
320.98 146.39 1.00 1.00 r p2
322.36 146.39 1.00 1.00 r p2
323.73 146.39 1.00 1.00 r p2
325.11 146.39 1.00 1.00 r p2
326.48 146.39 1.00 1.00 r p2
327.86 146.39 1.00 1.00 r p2
329.23 146.39 1.00 1.00 r p2
330.61 146.39 1.00 1.00 r p2
331.99 146.39 1.00 1.00 r p2
333.36 146.39 1.00 1.00 r p2
334.74 146.39 1.00 1.00 r p2
336.11 146.39 1.00 1.00 r p2
337.49 146.39 1.00 1.00 r p2
338.86 146.39 1.00 1.00 r p2
340.24 146.39 1.00 1.00 r p2
341.62 146.39 1.00 1.00 r p2
342.99 146.39 1.00 1.00 r p2
344.37 146.39 1.00 1.00 r p2
345.74 146.39 1.00 1.00 r p2
347.12 146.39 1.00 1.00 r p2
348.99 144.86 (>) .5 0 t
350.37 144.86 (>) .5 0 t
351.25 146.39 1.00 1.00 r p2
352.62 146.39 1.00 1.00 r p2
354.00 146.39 1.00 1.00 r p2
355.37 146.39 1.00 1.00 r p2
356.75 146.39 1.00 1.00 r p2
358.62 144.08 (4) .5 0 t
360.00 144.08 (4) .5 0 t
361.38 144.08 (4) .5 0 t
362.75 144.08 (4) .5 0 t
363.63 146.39 1.00 1.00 r p2
365.00 146.39 1.00 1.00 r p2
366.88 144.08 (4) .5 0 t
368.25 144.08 (4) .5 0 t
369.13 146.39 1.00 1.00 r p2
371.01 144.08 (4) .5 0 t
372.38 144.08 (4) .5 0 t
373.76 144.08 (4) .5 0 t
375.13 144.08 (4) .5 0 t
376.51 144.21 (5) .5 0 t
377.88 144.21 (5) .5 0 t
379.26 144.21 (5) .5 0 t
380.14 146.39 1.00 1.00 r p2
381.51 146.39 1.00 1.00 r p2
382.89 146.39 1.00 1.00 r p2
384.26 146.39 1.00 1.00 r p2
386.14 144.21 (5) .5 0 t
387.51 144.21 (5) .5 0 t
388.89 144.21 (5) .5 0 t
390.27 144.21 (5) .5 0 t
391.64 144.21 (5) .5 0 t
393.02 144.21 (5) .5 0 t
394.39 144.21 (5) .5 0 t
395.77 144.21 (5) .5 0 t
396.64 146.39 1.00 1.00 r p2
398.02 146.39 1.00 1.00 r p2
399.40 146.39 1.00 1.00 r p2
400.77 146.39 1.00 1.00 r p2
402.15 146.39 1.00 1.00 r p2
403.52 146.39 1.00 1.00 r p2
404.90 146.39 1.00 1.00 r p2
406.27 146.39 1.00 1.00 r p2
407.65 146.39 1.00 1.00 r p2
409.03 146.39 1.00 1.00 r p2
410.40 146.39 1.00 1.00 r p2
411.78 146.39 1.00 1.00 r p2
413.15 146.39 1.00 1.00 r p2
414.53 146.39 1.00 1.00 r p2
415.90 146.39 1.00 1.00 r p2
417.28 146.39 1.00 1.00 r p2
418.66 146.39 1.00 1.00 r p2
420.03 146.39 1.00 1.00 r p2
421.41 146.39 1.00 1.00 r p2
422.78 146.39 1.00 1.00 r p2
424.16 146.39 1.00 1.00 r p2
425.53 146.39 1.00 1.00 r p2
426.91 146.39 1.00 1.00 r p2
428.29 146.39 1.00 1.00 r p2
429.66 146.39 1.00 1.00 r p2
431.04 146.39 1.00 1.00 r p2
432.91 144.21 (5) .5 0 t
434.29 144.21 (5) .5 0 t
435.66 144.21 (5) .5 0 t
437.04 144.21 (5) .5 0 t
438.42 144.21 (5) .5 0 t
439.79 144.21 (5) .5 0 t
441.17 144.21 (5) .5 0 t
442.54 144.21 (5) .5 0 t
443.42 146.39 1.00 1.00 r p2
444.79 146.39 1.00 1.00 r p2
446.17 146.39 1.00 1.00 r p2
447.55 146.39 1.00 1.00 r p2
449.42 144.21 (5) .5 0 t
450.80 144.21 (5) .5 0 t
452.17 144.21 (5) .5 0 t
453.05 146.39 1.00 1.00 r p2
454.42 146.39 1.00 1.00 r p2
455.80 146.39 1.00 1.00 r p2
457.67 144.15 (6) .5 0 t
458.55 146.39 1.00 1.00 r p2
460.43 144.15 (6) .5 0 t
461.80 144.15 (6) .5 0 t
463.18 144.15 (6) .5 0 t
464.55 144.15 (6) .5 0 t
465.93 144.15 (6) .5 0 t
466.80 146.39 1.00 1.00 r p2
468.18 146.39 1.00 1.00 r p2
469.56 146.39 1.00 1.00 r p2
471.43 144.15 (3) .5 0 t
472.81 144.15 (3) .5 0 t
474.18 144.15 (3) .5 0 t
475.56 144.15 (3) .5 0 t
476.93 144.15 (3) .5 0 t
478.31 144.15 (3) .5 0 t
479.69 144.15 (3) .5 0 t
481.06 144.14 (7) .5 0 t
482.44 144.14 (7) .5 0 t
483.81 144.14 (7) .5 0 t
485.19 144.14 (7) .5 0 t
486.56 144.14 (7) .5 0 t
487.94 144.14 (7) .5 0 t
489.32 144.14 (7) .5 0 t
490.19 146.39 1.00 1.00 r p2
491.57 146.39 1.00 1.00 r p2
492.94 146.39 1.00 1.00 r p2
494.32 146.39 1.00 1.00 r p2
495.69 146.39 1.00 1.00 r p2
497.07 146.39 1.00 1.00 r p2
498.45 146.39 1.00 1.00 r p2
499.82 146.39 1.00 1.00 r p2
501.20 146.39 1.00 1.00 r p2
502.57 146.39 1.00 1.00 r p2
503.95 146.39 1.00 1.00 r p2
505.32 146.39 1.00 1.00 r p2
506.70 146.39 1.00 1.00 r p2
508.08 146.39 1.00 1.00 r p2
509.45 146.39 1.00 1.00 r p2
510.83 146.39 1.00 1.00 r p2
512.20 146.39 1.00 1.00 r p2
513.58 146.39 1.00 1.00 r p2
514.95 146.39 1.00 1.00 r p2
516.33 146.39 1.00 1.00 r p2
517.71 146.39 1.00 1.00 r p2
519.08 146.39 1.00 1.00 r p2
520.46 146.39 1.00 1.00 r p2
521.83 146.39 1.00 1.00 r p2
523.21 146.39 1.00 1.00 r p2
524.58 146.39 1.00 1.00 r p2
525.96 146.39 1.00 1.00 r p2
527.34 146.39 1.00 1.00 r p2
528.71 146.39 1.00 1.00 r p2
530.09 146.39 1.00 1.00 r p2
531.46 146.39 1.00 1.00 r p2
532.84 146.39 1.00 1.00 r p2
534.21 146.39 1.00 1.00 r p2
535.59 146.39 1.00 1.00 r p2
537.47 144.14 (7) .5 0 t
538.84 144.14 (7) .5 0 t
540.22 144.14 (7) .5 0 t
541.59 144.14 (7) .5 0 t
542.97 144.14 (7) .5 0 t
544.34 144.14 (7) .5 0 t
545.72 144.14 (7) .5 0 t
546.60 146.39 1.00 1.00 r p2
547.97 146.39 1.00 1.00 r p2
549.35 146.39 1.00 1.00 r p2
550.72 146.39 1.00 1.00 r p2
552.10 146.39 1.00 1.00 r p2
553.47 146.39 1.00 1.00 r p2
554.85 146.39 1.00 1.00 r p2
556.73 144.15 (6) .5 0 t
558.10 144.15 (6) .5 0 t
559.48 144.15 (6) .5 0 t
560.35 146.39 1.00 1.00 r p2
562.23 144.15 (6) .5 0 t
563.60 144.15 (6) .5 0 t
564.98 144.15 (6) .5 0 t
565.86 146.39 1.00 1.00 r p2
567.73 144.15 (8) .5 0 t
569.11 144.15 (8) .5 0 t
569.98 146.39 1.00 1.00 r p2
571.86 144.15 (8) .5 0 t
573.23 144.15 (8) .5 0 t
574.61 144.15 (8) .5 0 t
575.99 144.15 (8) .5 0 t
577.36 144.15 (8) .5 0 t
578.74 144.15 (8) .5 0 t
579.61 146.39 1.00 1.00 r p2
580.99 146.39 1.00 1.00 r p2
582.36 146.39 1.00 1.00 r p2
583.74 146.39 1.00 1.00 r p2
585.62 144.15 (8) .5 0 t
586.99 144.15 (8) .5 0 t
588.37 144.15 (8) .5 0 t
589.74 144.15 (8) .5 0 t
591.12 144.15 (8) .5 0 t
592.49 144.15 (8) .5 0 t
593.37 146.39 1.00 1.00 r p2
594.75 146.39 1.00 1.00 r p2
596.12 146.39 1.00 1.00 r p2
597.50 146.39 1.00 1.00 r p2
598.87 146.39 1.00 1.00 r p2
600.75 144.86 (<) .5 0 t
602.12 144.86 (<) .5 0 t
603.50 144.86 (<) .5 0 t
604.88 144.86 (<) .5 0 t
606.25 144.86 (<) .5 0 t
607.63 144.86 (<) .5 0 t
608.50 146.39 1.00 1.00 r p2
609.88 146.39 1.00 1.00 r p2
611.25 146.39 1.00 1.00 r p2
612.63 146.39 1.00 1.00 r p2
614.01 146.39 1.00 1.00 r p2
615.38 146.39 1.00 1.00 r p2
616.76 146.39 1.00 1.00 r p2
618.13 146.39 1.00 1.00 r p2
620.01 144.86 (>) .5 0 t
621.38 144.86 (>) .5 0 t
622.76 144.86 (>) .5 0 t
624.14 144.86 (>) .5 0 t
625.51 144.86 (>) .5 0 t
626.89 144.86 (>) .5 0 t
627.76 146.39 1.00 1.00 r p2
629.14 146.39 1.00 1.00 r p2
630.51 146.39 1.00 1.00 r p2
631.89 146.39 1.00 1.00 r p2
633.27 146.39 1.00 1.00 r p2
634.64 146.39 1.00 1.00 r p2
636.02 146.39 1.00 1.00 r p2
637.39 146.39 1.00 1.00 r p2
638.77 146.39 1.00 1.00 r p2
640.14 146.39 1.00 1.00 r p2
641.52 146.39 1.00 1.00 r p2
642.90 146.39 1.00 1.00 r p2
644.27 146.39 1.00 1.00 r p2
645.65 146.39 1.00 1.00 r p2
647.02 146.39 1.00 1.00 r p2
648.40 146.39 1.00 1.00 r p2
649.77 146.39 1.00 1.00 r p2
651.65 144.15 (8) .5 0 t
653.02 144.15 (8) .5 0 t
653.90 146.39 1.00 1.00 r p2
655.28 146.39 1.00 1.00 r p2
656.65 146.39 1.00 1.00 r p2
658.03 146.39 1.00 1.00 r p2
659.40 146.39 1.00 1.00 r p2
660.78 146.39 1.00 1.00 r p2
662.15 146.39 1.00 1.00 r p2
663.53 146.39 1.00 1.00 r p2
664.91 146.39 1.00 1.00 r p2
666.28 146.39 1.00 1.00 r p2
667.66 146.39 1.00 1.00 r p2
669.03 146.39 1.00 1.00 r p2
670.41 146.39 1.00 1.00 r p2
1 0 0 srgb
0.75 setlinewidth
[] 0 setdash
1 setlinecap
1 setlinejoin
10.00 setmiterlimit
np
50.47 140.57 m
2.54 -4.41 l
-5.09 0 l
2.55 4.41 l
o
np
163.27 140.57 m
2.55 -4.41 l
-5.09 0 l
2.54 4.41 l
o
np
178.41 140.57 m
2.54 -4.41 l
-5.09 0 l
2.55 4.41 l
o
np
163.27 140.57 m
2.55 -4.41 l
-5.09 0 l
2.54 4.41 l
o
np
163.27 140.57 m
2.55 -4.41 l
-5.09 0 l
2.54 4.41 l
o
np
178.41 140.57 m
2.54 -4.41 l
-5.09 0 l
2.55 4.41 l
o
np
240.31 140.57 m
2.55 -4.41 l
-5.09 0 l
2.54 4.41 l
o
np
240.31 140.57 m
2.55 -4.41 l
-5.09 0 l
2.54 4.41 l
o
np
376.51 140.57 m
2.54 -4.41 l
-5.09 0 l
2.55 4.41 l
o
np
432.91 140.57 m
2.55 -4.41 l
-5.09 0 l
2.54 4.41 l
o
np
457.67 140.57 m
2.55 -4.41 l
-5.09 0 l
2.54 4.41 l
o
np
432.91 140.57 m
2.55 -4.41 l
-5.09 0 l
2.54 4.41 l
o
np
457.67 140.57 m
2.55 -4.41 l
-5.09 0 l
2.54 4.41 l
o
np
457.67 140.57 m
2.55 -4.41 l
-5.09 0 l
2.54 4.41 l
o
np
481.06 140.57 m
2.55 -4.41 l
-5.09 0 l
2.54 4.41 l
o
np
481.06 140.57 m
2.55 -4.41 l
-5.09 0 l
2.54 4.41 l
o
np
537.47 140.57 m
2.54 -4.41 l
-5.09 0 l
2.55 4.41 l
o
np
481.06 140.57 m
2.55 -4.41 l
-5.09 0 l
2.54 4.41 l
o
np
537.47 140.57 m
2.54 -4.41 l
-5.09 0 l
2.55 4.41 l
o
np
556.73 140.57 m
2.54 -4.41 l
-5.09 0 l
2.55 4.41 l
o
np
567.73 140.57 m
2.55 -4.41 l
-5.09 0 l
2.54 4.41 l
o
np
113.75 140.57 m
2.54 -4.41 l
-5.09 0 l
2.55 4.41 l
o
np
232.06 140.57 m
2.54 -4.41 l
-5.09 0 l
2.55 4.41 l
o
np
395.77 140.57 m
2.54 -4.41 l
-5.09 0 l
2.55 4.41 l
o
np
465.93 140.57 m
2.54 -4.41 l
-5.09 0 l
2.55 4.41 l
o
np
479.69 140.57 m
2.54 -4.41 l
-5.09 0 l
2.55 4.41 l
o
np
479.69 140.57 m
2.54 -4.41 l
-5.09 0 l
2.55 4.41 l
o
np
452.17 140.57 m
2.55 -4.41 l
-5.09 0 l
2.54 4.41 l
o
np
489.32 140.57 m
2.54 -4.41 l
-5.09 0 l
2.55 4.41 l
o
np
465.93 140.57 m
2.54 -4.41 l
-5.09 0 l
2.55 4.41 l
o
np
489.32 140.57 m
2.54 -4.41 l
-5.09 0 l
2.55 4.41 l
o
np
479.69 140.57 m
2.54 -4.41 l
-5.09 0 l
2.55 4.41 l
o
np
564.98 140.57 m
2.55 -4.41 l
-5.10 0 l
2.55 4.41 l
o
np
564.98 140.57 m
2.55 -4.41 l
-5.10 0 l
2.55 4.41 l
o
np
578.74 140.57 m
2.54 -4.41 l
-5.09 0 l
2.55 4.41 l
o
np
564.98 140.57 m
2.55 -4.41 l
-5.10 0 l
2.55 4.41 l
o
np
578.74 140.57 m
2.54 -4.41 l
-5.09 0 l
2.55 4.41 l
o
np
564.98 140.57 m
2.55 -4.41 l
-5.10 0 l
2.55 4.41 l
o
np
653.02 140.57 m
2.55 -4.41 l
-5.09 0 l
2.54 4.41 l
o
np
653.02 140.57 m
2.55 -4.41 l
-5.09 0 l
2.54 4.41 l
o
np
653.02 140.57 m
2.55 -4.41 l
-5.09 0 l
2.54 4.41 l
o
np
670.91 140.57 m
2.54 -4.41 l
-5.09 0 l
2.55 4.41 l
o
0 0 0.8510 srgb
np
50.47 119.11 m
63.28 0 l
o
/Font1 findfont 7 s
82.11 121.99 (left-P1) .5 0 t
0 0.6510 1 srgb
np
163.27 115.41 m
68.79 0 l
o
197.67 108.34 (L3-L4) .5 0 t
0.1804 1 0.8196 srgb
np
178.41 111.70 m
217.36 0 l
o
287.09 114.58 (P4-L5) .5 0 t
0.3059 1 0.6941 srgb
np
163.27 108.00 m
302.66 0 l
o
314.60 100.93 (L3-L6) .5 0 t
0.3333 1 0.6667 srgb
np
163.27 104.30 m
316.42 0 l
o
321.48 107.18 (P3-L4) .5 0 t
0.3608 1 0.6392 srgb
np
178.41 100.59 m
301.28 0 l
o
329.05 93.52 (R3-P4) .5 0 t
0.4353 1 0.5647 srgb
np
240.31 96.89 m
211.86 0 l
o
346.24 99.77 (R4-P5) .5 0 t
0.5137 1 0.4863 srgb
np
240.31 93.19 m
249.01 0 l
o
364.81 86.12 (R4-L7) .5 0 t
0.7451 1 0.2549 srgb
np
376.51 89.48 m
89.42 0 l
o
421.22 92.36 (P5-L6) .5 0 t
0.8980 1 0.1020 srgb
np
432.91 85.78 m
56.41 0 l
o
461.11 78.71 (R5-L7) .5 0 t
0.9216 1 0.0784 srgb
np
457.67 82.07 m
22.02 0 l
o
468.68 84.95 (L6-R3) .5 0 t
1 0.9020 0 srgb
np
432.91 78.37 m
132.07 0 l
o
498.95 71.30 (R5-P6) .5 0 t
1 0.8000 0 srgb
np
457.67 74.67 m
107.31 0 l
o
511.33 77.55 (P6-L7) .5 0 t
1 0.7490 0 srgb
np
457.67 70.96 m
121.07 0 l
o
518.21 63.89 (L6-L8) .5 0 t
1 0.6980 0 srgb
np
481.06 67.26 m
83.92 0 l
o
523.02 70.14 (R6-P7) .5 0 t
1 0.6510 0 srgb
np
481.06 63.56 m
97.68 0 l
o
529.90 56.49 (P7-L8) .5 0 t
1 0.4510 0 srgb
np
537.47 59.85 m
27.51 0 l
o
551.22 62.73 (R7-R6) .5 0 t
1 0.3490 0 srgb
np
481.06 56.15 m
171.96 0 l
o
567.04 49.08 (P7-P8) .5 0 t
1 0.0980 0 srgb
np
537.47 52.44 m
115.55 0 l
o
595.25 55.32 (R7-P8) .5 0 t
1 0.0510 0 srgb
np
556.73 48.74 m
96.29 0 l
o
604.88 41.67 (R6-P8) .5 0 t
0.9490 0 0 srgb
np
567.73 45.04 m
103.18 0 l
o
606.19 47.92 (P8-r) 0 ta
0.105 (ight) tb gr
ep
%%Trailer
%%Pages: 1
%%EOF
