%!PS-Adobe-3.0
%%DocumentNeededResources: font Helvetica
%%+ font Helvetica-Bold
%%+ font Helvetica-Oblique
%%+ font Helvetica-BoldOblique
%%+ font Symbol
%%DocumentMedia: special 180 720 0 () ()
%%Title: R Graphics Output
%%Creator: R Software
%%Pages: (atend)
%%BoundingBox: 0 0 180 720
%%EndComments
%%BeginProlog
/bp  { gs sRGB 180.00 0 translate 90 rotate gs } def
% begin .ps.prolog
/gs  { gsave } bind def
/gr  { grestore } bind def
/ep  { showpage gr gr } bind def
/m   { moveto } bind def
/l  { rlineto } bind def
/np  { newpath } bind def
/cp  { closepath } bind def
/f   { fill } bind def
/o   { stroke } bind def
/c   { newpath 0 360 arc } bind def
/r   { 4 2 roll moveto 1 copy 3 -1 roll exch 0 exch rlineto 0 rlineto -1 mul 0 exch rlineto closepath } bind def
/p1  { stroke } bind def
/p2  { gsave bg fill grestore newpath } bind def
/p3  { gsave bg fill grestore stroke } bind def
/p6  { gsave bg eofill grestore newpath } bind def
/p7  { gsave bg eofill grestore stroke } bind def
/t   { 5 -2 roll moveto gsave rotate
       1 index stringwidth pop
       mul neg 0 rmoveto show grestore } bind def
/ta  { 4 -2 roll moveto gsave rotate show } bind def
/tb  { 2 -1 roll 0 rmoveto show } bind def
/cl  { grestore gsave newpath 3 index 3 index moveto 1 index
       4 -1 roll lineto  exch 1 index lineto lineto
       closepath clip newpath } bind def
/rgb { setrgbcolor } bind def
/s   { scalefont setfont } bind def
% end   .ps.prolog
/sRGB { [ /CIEBasedABC
          << /DecodeLMN
               [ { dup 0.03928 le
                        {12.92321 div}
                        {0.055 add 1.055 div 2.4 exp }
                     ifelse
                 } bind dup dup
               ]
             /MatrixLMN [0.412457 0.212673 0.019334
                         0.357576 0.715152 0.119192
                         0.180437 0.072175 0.950301]
             /WhitePoint [0.9505 1.0 1.0890]
           >>
         ] setcolorspace } bind def
/srgb { setcolor } bind def
%%IncludeResource: font Helvetica
/Helvetica findfont
dup length dict begin
  {1 index /FID ne {def} {pop pop} ifelse} forall
  /Encoding ISOLatin1Encoding def
  currentdict
  end
/Font1 exch definefont pop
%%IncludeResource: font Helvetica-Bold
/Helvetica-Bold findfont
dup length dict begin
  {1 index /FID ne {def} {pop pop} ifelse} forall
  /Encoding ISOLatin1Encoding def
  currentdict
  end
/Font2 exch definefont pop
%%IncludeResource: font Helvetica-Oblique
/Helvetica-Oblique findfont
dup length dict begin
  {1 index /FID ne {def} {pop pop} ifelse} forall
  /Encoding ISOLatin1Encoding def
  currentdict
  end
/Font3 exch definefont pop
%%IncludeResource: font Helvetica-BoldOblique
/Helvetica-BoldOblique findfont
dup length dict begin
  {1 index /FID ne {def} {pop pop} ifelse} forall
  /Encoding ISOLatin1Encoding def
  currentdict
  end
/Font4 exch definefont pop
%%IncludeResource: font Symbol
/Symbol findfont
dup length dict begin
  {1 index /FID ne {def} {pop pop} ifelse} forall
  currentdict
  end
/Font5 exch definefont pop
%%EndProlog
%%Page: 1 1
bp
18.00 36.00 702.00 180.00 cl
/bg { 0 0 0 srgb } def
50.20 166.23 1.00 1.00 r p2
51.81 166.23 1.00 1.00 r p2
53.42 166.23 1.00 1.00 r p2
55.03 166.23 1.00 1.00 r p2
/Font1 findfont 8 s
0 0 0 srgb
57.15 164.71 (<) .5 0 t
58.76 164.71 (<) .5 0 t
60.37 164.71 (<) .5 0 t
61.98 164.71 (<) .5 0 t
63.59 164.71 (<) .5 0 t
65.20 164.71 (<) .5 0 t
66.31 166.23 1.00 1.00 r p2
67.92 166.23 1.00 1.00 r p2
70.03 164.71 (<) .5 0 t
71.64 164.71 (<) .5 0 t
72.75 166.23 1.00 1.00 r p2
74.37 166.23 1.00 1.00 r p2
75.98 166.23 1.00 1.00 r p2
77.59 166.23 1.00 1.00 r p2
79.20 166.23 1.00 1.00 r p2
80.81 166.23 1.00 1.00 r p2
82.42 166.23 1.00 1.00 r p2
84.03 166.23 1.00 1.00 r p2
85.64 166.23 1.00 1.00 r p2
87.25 166.23 1.00 1.00 r p2
88.86 166.23 1.00 1.00 r p2
90.48 166.23 1.00 1.00 r p2
92.09 166.23 1.00 1.00 r p2
93.70 166.23 1.00 1.00 r p2
95.31 166.23 1.00 1.00 r p2
96.92 166.23 1.00 1.00 r p2
98.53 166.23 1.00 1.00 r p2
100.64 164.71 (>) .5 0 t
102.25 164.71 (>) .5 0 t
103.86 164.71 (>) .5 0 t
105.47 164.71 (>) .5 0 t
107.08 164.71 (>) .5 0 t
108.70 164.71 (>) .5 0 t
110.31 164.71 (>) .5 0 t
111.92 164.71 (>) .5 0 t
113.03 166.23 1.00 1.00 r p2
114.64 166.23 1.00 1.00 r p2
116.25 166.23 1.00 1.00 r p2
117.86 166.23 1.00 1.00 r p2
119.47 166.23 1.00 1.00 r p2
121.08 166.23 1.00 1.00 r p2
122.69 166.23 1.00 1.00 r p2
124.30 166.23 1.00 1.00 r p2
125.92 166.23 1.00 1.00 r p2
127.53 166.23 1.00 1.00 r p2
129.14 166.23 1.00 1.00 r p2
130.75 166.23 1.00 1.00 r p2
132.36 166.23 1.00 1.00 r p2
133.97 166.23 1.00 1.00 r p2
135.58 166.23 1.00 1.00 r p2
137.19 166.23 1.00 1.00 r p2
138.80 166.23 1.00 1.00 r p2
140.41 166.23 1.00 1.00 r p2
142.02 166.23 1.00 1.00 r p2
143.64 166.23 1.00 1.00 r p2
145.25 166.23 1.00 1.00 r p2
146.86 166.23 1.00 1.00 r p2
148.47 166.23 1.00 1.00 r p2
150.08 166.23 1.00 1.00 r p2
151.69 166.23 1.00 1.00 r p2
153.30 166.23 1.00 1.00 r p2
154.91 166.23 1.00 1.00 r p2
156.52 166.23 1.00 1.00 r p2
158.13 166.23 1.00 1.00 r p2
159.74 166.23 1.00 1.00 r p2
161.36 166.23 1.00 1.00 r p2
162.97 166.23 1.00 1.00 r p2
165.08 164.71 (<) .5 0 t
166.69 164.71 (<) .5 0 t
168.30 164.71 (<) .5 0 t
169.91 164.71 (<) .5 0 t
171.02 166.23 1.00 1.00 r p2
172.63 166.23 1.00 1.00 r p2
174.24 166.23 1.00 1.00 r p2
175.85 166.23 1.00 1.00 r p2
177.47 166.23 1.00 1.00 r p2
179.08 166.23 1.00 1.00 r p2
180.69 166.23 1.00 1.00 r p2
182.30 166.23 1.00 1.00 r p2
183.91 166.23 1.00 1.00 r p2
185.52 166.23 1.00 1.00 r p2
187.13 166.23 1.00 1.00 r p2
188.74 166.23 1.00 1.00 r p2
190.35 166.23 1.00 1.00 r p2
192.46 164.71 (<) .5 0 t
194.07 164.71 (<) .5 0 t
195.69 164.71 (<) .5 0 t
197.30 164.71 (<) .5 0 t
198.91 164.71 (<) .5 0 t
200.52 164.71 (<) .5 0 t
202.13 164.71 (<) .5 0 t
203.24 166.23 1.00 1.00 r p2
204.85 166.23 1.00 1.00 r p2
206.46 166.23 1.00 1.00 r p2
208.07 166.23 1.00 1.00 r p2
209.68 166.23 1.00 1.00 r p2
211.79 164.71 (<) .5 0 t
213.41 164.71 (<) .5 0 t
214.52 166.23 1.00 1.00 r p2
216.13 166.23 1.00 1.00 r p2
217.74 166.23 1.00 1.00 r p2
219.35 166.23 1.00 1.00 r p2
220.96 166.23 1.00 1.00 r p2
222.57 166.23 1.00 1.00 r p2
224.68 164.71 (>) .5 0 t
226.29 164.71 (>) .5 0 t
227.40 166.23 1.00 1.00 r p2
229.01 166.23 1.00 1.00 r p2
230.63 166.23 1.00 1.00 r p2
232.74 164.71 (>) .5 0 t
234.35 164.71 (>) .5 0 t
235.96 164.71 (>) .5 0 t
237.57 164.71 (>) .5 0 t
239.18 164.71 (>) .5 0 t
240.79 164.71 (>) .5 0 t
242.40 164.71 (>) .5 0 t
243.51 166.23 1.00 1.00 r p2
245.12 166.23 1.00 1.00 r p2
246.74 166.23 1.00 1.00 r p2
248.35 166.23 1.00 1.00 r p2
249.96 166.23 1.00 1.00 r p2
251.57 166.23 1.00 1.00 r p2
253.18 166.23 1.00 1.00 r p2
254.79 166.23 1.00 1.00 r p2
256.40 166.23 1.00 1.00 r p2
258.01 166.23 1.00 1.00 r p2
259.62 166.23 1.00 1.00 r p2
261.23 166.23 1.00 1.00 r p2
262.84 166.23 1.00 1.00 r p2
264.46 166.23 1.00 1.00 r p2
266.07 166.23 1.00 1.00 r p2
267.68 166.23 1.00 1.00 r p2
269.29 166.23 1.00 1.00 r p2
270.90 166.23 1.00 1.00 r p2
272.51 166.23 1.00 1.00 r p2
274.12 166.23 1.00 1.00 r p2
276.23 164.71 (>) .5 0 t
277.84 164.71 (>) .5 0 t
279.45 164.71 (>) .5 0 t
281.06 164.71 (>) .5 0 t
282.18 166.23 1.00 1.00 r p2
283.79 166.23 1.00 1.00 r p2
285.40 166.23 1.00 1.00 r p2
287.51 164.71 (<) .5 0 t
289.12 164.71 (<) .5 0 t
290.73 164.71 (<) .5 0 t
292.34 164.71 (<) .5 0 t
293.95 164.71 (<) .5 0 t
295.56 164.71 (<) .5 0 t
297.17 164.71 (<) .5 0 t
298.78 164.71 (<) .5 0 t
299.90 166.23 1.00 1.00 r p2
301.51 166.23 1.00 1.00 r p2
303.62 164.71 (<) .5 0 t
305.23 164.71 (<) .5 0 t
306.84 164.71 (<) .5 0 t
308.45 164.71 (<) .5 0 t
310.06 164.71 (<) .5 0 t
311.67 164.71 (<) .5 0 t
312.78 166.23 1.00 1.00 r p2
314.39 166.23 1.00 1.00 r p2
316.00 166.23 1.00 1.00 r p2
318.12 164.71 (<) .5 0 t
319.73 164.71 (<) .5 0 t
321.34 164.71 (<) .5 0 t
322.95 164.71 (<) .5 0 t
324.06 166.23 1.00 1.00 r p2
325.67 166.23 1.00 1.00 r p2
327.28 166.23 1.00 1.00 r p2
328.89 166.23 1.00 1.00 r p2
330.50 166.23 1.00 1.00 r p2
332.11 166.23 1.00 1.00 r p2
333.73 166.23 1.00 1.00 r p2
335.34 166.23 1.00 1.00 r p2
336.95 166.23 1.00 1.00 r p2
338.56 166.23 1.00 1.00 r p2
340.17 166.23 1.00 1.00 r p2
341.78 166.23 1.00 1.00 r p2
343.39 166.23 1.00 1.00 r p2
345.50 164.71 (>) .5 0 t
347.11 164.71 (>) .5 0 t
348.72 164.71 (>) .5 0 t
350.33 164.71 (>) .5 0 t
351.45 166.23 1.00 1.00 r p2
353.06 166.23 1.00 1.00 r p2
354.67 166.23 1.00 1.00 r p2
356.78 164.71 (>) .5 0 t
358.39 164.71 (>) .5 0 t
360.00 164.71 (>) .5 0 t
361.61 164.71 (>) .5 0 t
363.22 164.71 (>) .5 0 t
364.83 164.71 (>) .5 0 t
366.44 164.71 (<) .5 0 t
368.05 164.71 (<) .5 0 t
369.67 164.71 (<) .5 0 t
371.28 164.71 (<) .5 0 t
372.89 164.71 (<) .5 0 t
374.50 164.71 (<) .5 0 t
376.11 164.71 (<) .5 0 t
377.22 166.23 1.00 1.00 r p2
378.83 166.23 1.00 1.00 r p2
380.44 166.23 1.00 1.00 r p2
382.05 166.23 1.00 1.00 r p2
383.66 166.23 1.00 1.00 r p2
385.27 166.23 1.00 1.00 r p2
386.89 166.23 1.00 1.00 r p2
388.50 166.23 1.00 1.00 r p2
390.11 166.23 1.00 1.00 r p2
392.22 164.71 (>) .5 0 t
393.83 164.71 (>) .5 0 t
395.44 164.71 (>) .5 0 t
397.05 164.71 (>) .5 0 t
398.66 164.71 (>) .5 0 t
400.27 164.71 (>) .5 0 t
401.88 164.71 (>) .5 0 t
403.00 166.23 1.00 1.00 r p2
404.61 166.23 1.00 1.00 r p2
406.22 166.23 1.00 1.00 r p2
408.33 163.86 (A) .5 0 t
409.44 166.23 1.00 1.00 r p2
411.55 163.86 (A) .5 0 t
413.16 163.86 (A) .5 0 t
414.77 163.86 (A) .5 0 t
416.38 163.86 (A) .5 0 t
417.99 163.86 (A) .5 0 t
419.10 166.23 1.00 1.00 r p2
420.72 166.23 1.00 1.00 r p2
422.83 164.71 (>) .5 0 t
424.44 164.71 (>) .5 0 t
426.05 164.71 (>) .5 0 t
427.66 164.71 (>) .5 0 t
429.27 164.71 (>) .5 0 t
430.88 164.71 (>) .5 0 t
432.49 164.71 (>) .5 0 t
434.10 164.71 (>) .5 0 t
435.71 164.71 (<) .5 0 t
437.32 164.71 (<) .5 0 t
438.94 164.71 (<) .5 0 t
440.55 164.71 (<) .5 0 t
442.16 164.71 (<) .5 0 t
443.77 164.71 (<) .5 0 t
445.38 164.71 (<) .5 0 t
446.49 166.23 1.00 1.00 r p2
448.10 166.23 1.00 1.00 r p2
449.71 166.23 1.00 1.00 r p2
451.32 166.23 1.00 1.00 r p2
452.93 166.23 1.00 1.00 r p2
454.54 166.23 1.00 1.00 r p2
456.16 166.23 1.00 1.00 r p2
457.77 166.23 1.00 1.00 r p2
459.38 166.23 1.00 1.00 r p2
460.99 166.23 1.00 1.00 r p2
462.60 166.23 1.00 1.00 r p2
464.21 166.23 1.00 1.00 r p2
465.82 166.23 1.00 1.00 r p2
467.43 166.23 1.00 1.00 r p2
469.04 166.23 1.00 1.00 r p2
470.65 166.23 1.00 1.00 r p2
472.26 166.23 1.00 1.00 r p2
473.88 166.23 1.00 1.00 r p2
475.49 166.23 1.00 1.00 r p2
477.10 166.23 1.00 1.00 r p2
478.71 166.23 1.00 1.00 r p2
480.32 166.23 1.00 1.00 r p2
482.43 164.71 (>) .5 0 t
484.04 164.71 (>) .5 0 t
485.65 164.71 (>) .5 0 t
487.26 164.71 (>) .5 0 t
488.87 164.71 (>) .5 0 t
490.49 164.71 (>) .5 0 t
492.10 164.71 (>) .5 0 t
493.21 166.23 1.00 1.00 r p2
494.82 166.23 1.00 1.00 r p2
496.43 166.23 1.00 1.00 r p2
498.04 166.23 1.00 1.00 r p2
499.65 166.23 1.00 1.00 r p2
501.26 166.23 1.00 1.00 r p2
502.87 166.23 1.00 1.00 r p2
504.48 166.23 1.00 1.00 r p2
506.59 164.64 (a) .5 0 t
508.21 164.64 (a) .5 0 t
509.82 164.64 (a) .5 0 t
511.43 164.64 (a) .5 0 t
513.04 164.64 (a) .5 0 t
514.65 164.64 (a) .5 0 t
516.26 164.71 (<) .5 0 t
517.87 164.71 (<) .5 0 t
519.48 164.71 (<) .5 0 t
521.09 164.71 (<) .5 0 t
522.70 164.71 (<) .5 0 t
524.31 164.71 (<) .5 0 t
525.93 164.71 (<) .5 0 t
527.04 166.23 1.00 1.00 r p2
528.65 166.23 1.00 1.00 r p2
530.26 166.23 1.00 1.00 r p2
531.87 166.23 1.00 1.00 r p2
533.48 166.23 1.00 1.00 r p2
535.09 166.23 1.00 1.00 r p2
536.70 166.23 1.00 1.00 r p2
538.31 166.23 1.00 1.00 r p2
539.92 166.23 1.00 1.00 r p2
541.53 166.23 1.00 1.00 r p2
543.15 166.23 1.00 1.00 r p2
544.76 166.23 1.00 1.00 r p2
546.37 166.23 1.00 1.00 r p2
547.98 166.23 1.00 1.00 r p2
549.59 166.23 1.00 1.00 r p2
551.20 166.23 1.00 1.00 r p2
552.81 166.23 1.00 1.00 r p2
554.42 166.23 1.00 1.00 r p2
556.03 166.23 1.00 1.00 r p2
557.64 166.23 1.00 1.00 r p2
559.26 166.23 1.00 1.00 r p2
560.87 166.23 1.00 1.00 r p2
562.48 166.23 1.00 1.00 r p2
564.09 166.23 1.00 1.00 r p2
565.70 166.23 1.00 1.00 r p2
567.31 166.23 1.00 1.00 r p2
568.92 166.23 1.00 1.00 r p2
570.53 166.23 1.00 1.00 r p2
572.14 166.23 1.00 1.00 r p2
573.75 166.23 1.00 1.00 r p2
575.36 166.23 1.00 1.00 r p2
576.98 166.23 1.00 1.00 r p2
578.59 166.23 1.00 1.00 r p2
580.20 166.23 1.00 1.00 r p2
581.81 166.23 1.00 1.00 r p2
583.42 166.23 1.00 1.00 r p2
585.03 166.23 1.00 1.00 r p2
586.64 166.23 1.00 1.00 r p2
588.25 166.23 1.00 1.00 r p2
589.86 166.23 1.00 1.00 r p2
591.47 166.23 1.00 1.00 r p2
593.08 166.23 1.00 1.00 r p2
594.70 166.23 1.00 1.00 r p2
596.31 166.23 1.00 1.00 r p2
597.92 166.23 1.00 1.00 r p2
599.53 166.23 1.00 1.00 r p2
601.14 166.23 1.00 1.00 r p2
602.75 166.23 1.00 1.00 r p2
604.36 166.23 1.00 1.00 r p2
605.97 166.23 1.00 1.00 r p2
607.58 166.23 1.00 1.00 r p2
609.19 166.23 1.00 1.00 r p2
610.80 166.23 1.00 1.00 r p2
612.42 166.23 1.00 1.00 r p2
614.03 166.23 1.00 1.00 r p2
615.64 166.23 1.00 1.00 r p2
617.25 166.23 1.00 1.00 r p2
618.86 166.23 1.00 1.00 r p2
620.47 166.23 1.00 1.00 r p2
622.08 166.23 1.00 1.00 r p2
623.69 166.23 1.00 1.00 r p2
625.30 166.23 1.00 1.00 r p2
626.91 166.23 1.00 1.00 r p2
628.52 166.23 1.00 1.00 r p2
630.14 166.23 1.00 1.00 r p2
631.75 166.23 1.00 1.00 r p2
633.36 166.23 1.00 1.00 r p2
634.97 166.23 1.00 1.00 r p2
636.58 166.23 1.00 1.00 r p2
638.19 166.23 1.00 1.00 r p2
640.30 164.71 (>) .5 0 t
641.91 164.71 (>) .5 0 t
643.52 164.71 (>) .5 0 t
645.13 164.71 (>) .5 0 t
646.75 164.71 (>) .5 0 t
648.36 164.71 (>) .5 0 t
649.97 164.71 (>) .5 0 t
651.08 166.23 1.00 1.00 r p2
652.69 166.23 1.00 1.00 r p2
654.30 166.23 1.00 1.00 r p2
655.91 166.23 1.00 1.00 r p2
657.52 166.23 1.00 1.00 r p2
659.13 166.23 1.00 1.00 r p2
660.74 166.23 1.00 1.00 r p2
662.35 166.23 1.00 1.00 r p2
663.97 166.23 1.00 1.00 r p2
665.58 166.23 1.00 1.00 r p2
667.19 166.23 1.00 1.00 r p2
668.80 166.23 1.00 1.00 r p2
670.41 166.23 1.00 1.00 r p2
0.00 0.00 720.00 180.00 cl
0.00 0.00 720.00 180.00 cl
0 0 0 srgb
0.75 setlinewidth
[] 0 setdash
1 setlinecap
1 setlinejoin
10.00 setmiterlimit
np
49.09 36.00 m
612.15 0 l
o
np
49.09 36.00 m
0 -7.20 l
o
np
65.20 36.00 m
0 -7.20 l
o
np
81.31 36.00 m
0 -7.20 l
o
np
97.42 36.00 m
0 -7.20 l
o
np
113.53 36.00 m
0 -7.20 l
o
np
129.64 36.00 m
0 -7.20 l
o
np
145.75 36.00 m
0 -7.20 l
o
np
161.86 36.00 m
0 -7.20 l
o
np
177.97 36.00 m
0 -7.20 l
o
np
194.07 36.00 m
0 -7.20 l
o
np
210.18 36.00 m
0 -7.20 l
o
np
226.29 36.00 m
0 -7.20 l
o
np
242.40 36.00 m
0 -7.20 l
o
np
258.51 36.00 m
0 -7.20 l
o
np
274.62 36.00 m
0 -7.20 l
o
np
290.73 36.00 m
0 -7.20 l
o
np
306.84 36.00 m
0 -7.20 l
o
np
322.95 36.00 m
0 -7.20 l
o
np
339.06 36.00 m
0 -7.20 l
o
np
355.17 36.00 m
0 -7.20 l
o
np
371.28 36.00 m
0 -7.20 l
o
np
387.39 36.00 m
0 -7.20 l
o
np
403.50 36.00 m
0 -7.20 l
o
np
419.60 36.00 m
0 -7.20 l
o
np
435.71 36.00 m
0 -7.20 l
o
np
451.82 36.00 m
0 -7.20 l
o
np
467.93 36.00 m
0 -7.20 l
o
np
484.04 36.00 m
0 -7.20 l
o
np
500.15 36.00 m
0 -7.20 l
o
np
516.26 36.00 m
0 -7.20 l
o
np
532.37 36.00 m
0 -7.20 l
o
np
548.48 36.00 m
0 -7.20 l
o
np
564.59 36.00 m
0 -7.20 l
o
np
580.70 36.00 m
0 -7.20 l
o
np
596.81 36.00 m
0 -7.20 l
o
np
612.92 36.00 m
0 -7.20 l
o
np
629.02 36.00 m
0 -7.20 l
o
np
645.13 36.00 m
0 -7.20 l
o
np
661.24 36.00 m
0 -7.20 l
o
/Font1 findfont 12 s
49.09 10.08 (0) .5 0 t
81.31 10.08 (20) .5 0 t
113.53 10.08 (40) .5 0 t
145.75 10.08 (60) .5 0 t
177.97 10.08 (80) .5 0 t
210.18 10.08 (100) .5 0 t
242.40 10.08 (120) .5 0 t
274.62 10.08 (140) .5 0 t
306.84 10.08 (160) .5 0 t
339.06 10.08 (180) .5 0 t
371.28 10.08 (200) .5 0 t
403.50 10.08 (220) .5 0 t
435.71 10.08 (240) .5 0 t
467.93 10.08 (260) .5 0 t
500.15 10.08 (280) .5 0 t
532.37 10.08 (300) .5 0 t
564.59 10.08 (320) .5 0 t
596.81 10.08 (340) .5 0 t
629.02 10.08 (360) .5 0 t
661.24 10.08 (380) .5 0 t
18.00 36.00 702.00 180.00 cl
/bg { 0 0 0 srgb } def
50.20 158.29 1.00 1.00 r p2
51.81 158.29 1.00 1.00 r p2
53.42 158.29 1.00 1.00 r p2
55.03 158.29 1.00 1.00 r p2
/Font1 findfont 8 s
0 0 0 srgb
57.15 156.77 (<) .5 0 t
58.76 156.77 (<) .5 0 t
60.37 156.77 (<) .5 0 t
61.98 156.77 (<) .5 0 t
63.59 156.77 (<) .5 0 t
65.20 156.77 (<) .5 0 t
66.31 158.29 1.00 1.00 r p2
67.92 158.29 1.00 1.00 r p2
70.03 156.77 (<) .5 0 t
71.64 156.77 (<) .5 0 t
72.75 158.29 1.00 1.00 r p2
74.37 158.29 1.00 1.00 r p2
75.98 158.29 1.00 1.00 r p2
77.59 158.29 1.00 1.00 r p2
79.20 158.29 1.00 1.00 r p2
80.81 158.29 1.00 1.00 r p2
82.42 158.29 1.00 1.00 r p2
84.03 158.29 1.00 1.00 r p2
85.64 158.29 1.00 1.00 r p2
87.25 158.29 1.00 1.00 r p2
88.86 158.29 1.00 1.00 r p2
90.48 158.29 1.00 1.00 r p2
92.09 158.29 1.00 1.00 r p2
93.70 158.29 1.00 1.00 r p2
95.31 158.29 1.00 1.00 r p2
96.92 158.29 1.00 1.00 r p2
98.53 158.29 1.00 1.00 r p2
100.64 156.77 (>) .5 0 t
102.25 156.77 (>) .5 0 t
103.86 156.77 (>) .5 0 t
105.47 156.77 (>) .5 0 t
107.08 156.77 (>) .5 0 t
108.70 156.77 (>) .5 0 t
110.31 156.77 (>) .5 0 t
111.92 156.77 (>) .5 0 t
113.03 158.29 1.00 1.00 r p2
114.64 158.29 1.00 1.00 r p2
116.25 158.29 1.00 1.00 r p2
117.86 158.29 1.00 1.00 r p2
119.47 158.29 1.00 1.00 r p2
121.08 158.29 1.00 1.00 r p2
122.69 158.29 1.00 1.00 r p2
124.30 158.29 1.00 1.00 r p2
125.92 158.29 1.00 1.00 r p2
127.53 158.29 1.00 1.00 r p2
129.14 158.29 1.00 1.00 r p2
130.75 158.29 1.00 1.00 r p2
132.36 158.29 1.00 1.00 r p2
133.97 158.29 1.00 1.00 r p2
135.58 158.29 1.00 1.00 r p2
137.19 158.29 1.00 1.00 r p2
138.80 158.29 1.00 1.00 r p2
140.41 158.29 1.00 1.00 r p2
142.02 158.29 1.00 1.00 r p2
143.64 158.29 1.00 1.00 r p2
145.25 158.29 1.00 1.00 r p2
146.86 158.29 1.00 1.00 r p2
148.47 158.29 1.00 1.00 r p2
150.08 158.29 1.00 1.00 r p2
151.69 158.29 1.00 1.00 r p2
153.30 158.29 1.00 1.00 r p2
154.91 158.29 1.00 1.00 r p2
156.52 158.29 1.00 1.00 r p2
158.13 158.29 1.00 1.00 r p2
159.74 158.29 1.00 1.00 r p2
161.36 158.29 1.00 1.00 r p2
162.97 158.29 1.00 1.00 r p2
165.08 156.77 (<) .5 0 t
166.69 156.77 (<) .5 0 t
168.30 156.77 (<) .5 0 t
169.91 156.77 (<) .5 0 t
171.02 158.29 1.00 1.00 r p2
172.63 158.29 1.00 1.00 r p2
174.24 158.29 1.00 1.00 r p2
175.85 158.29 1.00 1.00 r p2
177.47 158.29 1.00 1.00 r p2
179.08 158.29 1.00 1.00 r p2
180.69 158.29 1.00 1.00 r p2
182.30 158.29 1.00 1.00 r p2
183.91 158.29 1.00 1.00 r p2
185.52 158.29 1.00 1.00 r p2
187.13 158.29 1.00 1.00 r p2
188.74 158.29 1.00 1.00 r p2
190.35 158.29 1.00 1.00 r p2
192.46 156.77 (<) .5 0 t
194.07 156.77 (<) .5 0 t
195.69 156.77 (<) .5 0 t
197.30 156.77 (<) .5 0 t
198.91 156.77 (<) .5 0 t
200.52 156.77 (<) .5 0 t
202.13 156.77 (<) .5 0 t
203.24 158.29 1.00 1.00 r p2
204.85 158.29 1.00 1.00 r p2
206.46 158.29 1.00 1.00 r p2
208.07 158.29 1.00 1.00 r p2
209.68 158.29 1.00 1.00 r p2
211.79 156.77 (<) .5 0 t
213.41 156.77 (<) .5 0 t
214.52 158.29 1.00 1.00 r p2
216.13 158.29 1.00 1.00 r p2
217.74 158.29 1.00 1.00 r p2
219.35 158.29 1.00 1.00 r p2
220.96 158.29 1.00 1.00 r p2
222.57 158.29 1.00 1.00 r p2
224.68 156.77 (>) .5 0 t
226.29 156.77 (>) .5 0 t
227.40 158.29 1.00 1.00 r p2
229.01 158.29 1.00 1.00 r p2
230.63 158.29 1.00 1.00 r p2
232.74 156.77 (>) .5 0 t
234.35 156.77 (>) .5 0 t
235.96 156.77 (>) .5 0 t
237.57 156.77 (>) .5 0 t
239.18 156.77 (>) .5 0 t
240.79 156.77 (>) .5 0 t
242.40 156.77 (>) .5 0 t
243.51 158.29 1.00 1.00 r p2
245.12 158.29 1.00 1.00 r p2
246.74 158.29 1.00 1.00 r p2
248.35 158.29 1.00 1.00 r p2
249.96 158.29 1.00 1.00 r p2
251.57 158.29 1.00 1.00 r p2
253.18 158.29 1.00 1.00 r p2
254.79 158.29 1.00 1.00 r p2
256.40 158.29 1.00 1.00 r p2
258.01 158.29 1.00 1.00 r p2
259.62 158.29 1.00 1.00 r p2
261.23 158.29 1.00 1.00 r p2
262.84 158.29 1.00 1.00 r p2
264.46 158.29 1.00 1.00 r p2
266.07 158.29 1.00 1.00 r p2
267.68 158.29 1.00 1.00 r p2
269.29 158.29 1.00 1.00 r p2
270.90 158.29 1.00 1.00 r p2
272.51 158.29 1.00 1.00 r p2
274.12 158.29 1.00 1.00 r p2
276.23 156.77 (>) .5 0 t
277.84 156.77 (>) .5 0 t
279.45 156.77 (>) .5 0 t
281.06 156.77 (>) .5 0 t
282.18 158.29 1.00 1.00 r p2
283.79 158.29 1.00 1.00 r p2
285.40 158.29 1.00 1.00 r p2
287.51 155.92 (A) .5 0 t
289.12 155.92 (A) .5 0 t
290.73 155.92 (A) .5 0 t
292.34 155.92 (A) .5 0 t
293.95 155.92 (A) .5 0 t
295.56 155.92 (A) .5 0 t
297.17 155.92 (A) .5 0 t
298.78 155.92 (A) .5 0 t
299.90 158.29 1.00 1.00 r p2
301.51 158.29 1.00 1.00 r p2
303.62 156.77 (<) .5 0 t
305.23 156.77 (<) .5 0 t
306.84 156.77 (<) .5 0 t
308.45 156.77 (<) .5 0 t
310.06 156.77 (<) .5 0 t
311.67 156.77 (<) .5 0 t
312.78 158.29 1.00 1.00 r p2
314.39 158.29 1.00 1.00 r p2
316.00 158.29 1.00 1.00 r p2
318.12 156.77 (<) .5 0 t
319.73 156.77 (<) .5 0 t
321.34 156.77 (<) .5 0 t
322.95 156.77 (<) .5 0 t
324.06 158.29 1.00 1.00 r p2
325.67 158.29 1.00 1.00 r p2
327.28 158.29 1.00 1.00 r p2
328.89 158.29 1.00 1.00 r p2
330.50 158.29 1.00 1.00 r p2
332.11 158.29 1.00 1.00 r p2
333.73 158.29 1.00 1.00 r p2
335.34 158.29 1.00 1.00 r p2
336.95 158.29 1.00 1.00 r p2
338.56 158.29 1.00 1.00 r p2
340.17 158.29 1.00 1.00 r p2
341.78 158.29 1.00 1.00 r p2
343.39 158.29 1.00 1.00 r p2
345.50 156.77 (>) .5 0 t
347.11 156.77 (>) .5 0 t
348.72 156.77 (>) .5 0 t
350.33 156.77 (>) .5 0 t
351.45 158.29 1.00 1.00 r p2
353.06 158.29 1.00 1.00 r p2
354.67 158.29 1.00 1.00 r p2
356.78 156.77 (>) .5 0 t
358.39 156.77 (>) .5 0 t
360.00 156.77 (>) .5 0 t
361.61 156.77 (>) .5 0 t
363.22 156.77 (>) .5 0 t
364.83 156.77 (>) .5 0 t
366.44 156.77 (<) .5 0 t
368.05 156.77 (<) .5 0 t
369.67 156.77 (<) .5 0 t
371.28 156.77 (<) .5 0 t
372.89 156.77 (<) .5 0 t
374.50 156.77 (<) .5 0 t
376.11 156.77 (<) .5 0 t
377.22 158.29 1.00 1.00 r p2
378.83 158.29 1.00 1.00 r p2
380.44 158.29 1.00 1.00 r p2
382.05 158.29 1.00 1.00 r p2
383.66 158.29 1.00 1.00 r p2
385.27 158.29 1.00 1.00 r p2
386.89 158.29 1.00 1.00 r p2
388.50 158.29 1.00 1.00 r p2
390.11 158.29 1.00 1.00 r p2
392.22 156.77 (>) .5 0 t
393.83 156.77 (>) .5 0 t
395.44 156.77 (>) .5 0 t
397.05 156.77 (>) .5 0 t
398.66 156.77 (>) .5 0 t
400.27 156.77 (>) .5 0 t
401.88 156.77 (>) .5 0 t
403.00 158.29 1.00 1.00 r p2
404.61 158.29 1.00 1.00 r p2
406.22 158.29 1.00 1.00 r p2
408.33 156.69 (\() .5 0 t
409.44 158.29 1.00 1.00 r p2
411.55 156.69 (\() .5 0 t
413.16 156.69 (\() .5 0 t
414.77 156.69 (\() .5 0 t
416.38 156.69 (\() .5 0 t
417.99 156.69 (\() .5 0 t
419.10 158.29 1.00 1.00 r p2
420.72 158.29 1.00 1.00 r p2
422.83 156.70 (a) .5 0 t
424.44 156.70 (a) .5 0 t
426.05 156.70 (a) .5 0 t
427.66 156.70 (a) .5 0 t
429.27 156.70 (a) .5 0 t
430.88 156.70 (a) .5 0 t
432.49 156.70 (a) .5 0 t
434.10 156.70 (a) .5 0 t
435.71 156.77 (<) .5 0 t
437.32 156.77 (<) .5 0 t
438.94 156.77 (<) .5 0 t
440.55 156.77 (<) .5 0 t
442.16 156.77 (<) .5 0 t
443.77 156.77 (<) .5 0 t
445.38 156.77 (<) .5 0 t
446.49 158.29 1.00 1.00 r p2
448.10 158.29 1.00 1.00 r p2
449.71 158.29 1.00 1.00 r p2
451.32 158.29 1.00 1.00 r p2
452.93 158.29 1.00 1.00 r p2
454.54 158.29 1.00 1.00 r p2
456.16 158.29 1.00 1.00 r p2
457.77 158.29 1.00 1.00 r p2
459.38 158.29 1.00 1.00 r p2
460.99 158.29 1.00 1.00 r p2
462.60 158.29 1.00 1.00 r p2
464.21 158.29 1.00 1.00 r p2
465.82 158.29 1.00 1.00 r p2
467.43 158.29 1.00 1.00 r p2
469.04 158.29 1.00 1.00 r p2
470.65 158.29 1.00 1.00 r p2
472.26 158.29 1.00 1.00 r p2
473.88 158.29 1.00 1.00 r p2
475.49 158.29 1.00 1.00 r p2
477.10 158.29 1.00 1.00 r p2
478.71 158.29 1.00 1.00 r p2
480.32 158.29 1.00 1.00 r p2
482.43 156.77 (>) .5 0 t
484.04 156.77 (>) .5 0 t
485.65 156.77 (>) .5 0 t
487.26 156.77 (>) .5 0 t
488.87 156.77 (>) .5 0 t
490.49 156.77 (>) .5 0 t
492.10 156.77 (>) .5 0 t
493.21 158.29 1.00 1.00 r p2
494.82 158.29 1.00 1.00 r p2
496.43 158.29 1.00 1.00 r p2
498.04 158.29 1.00 1.00 r p2
499.65 158.29 1.00 1.00 r p2
501.26 158.29 1.00 1.00 r p2
502.87 158.29 1.00 1.00 r p2
504.48 158.29 1.00 1.00 r p2
506.59 156.69 (\)) .5 0 t
508.21 156.69 (\)) .5 0 t
509.82 156.69 (\)) .5 0 t
511.43 156.69 (\)) .5 0 t
513.04 156.69 (\)) .5 0 t
514.65 156.69 (\)) .5 0 t
516.26 156.77 (<) .5 0 t
517.87 156.77 (<) .5 0 t
519.48 156.77 (<) .5 0 t
521.09 156.77 (<) .5 0 t
522.70 156.77 (<) .5 0 t
524.31 156.77 (<) .5 0 t
525.93 156.77 (<) .5 0 t
527.04 158.29 1.00 1.00 r p2
528.65 158.29 1.00 1.00 r p2
530.26 158.29 1.00 1.00 r p2
531.87 158.29 1.00 1.00 r p2
533.48 158.29 1.00 1.00 r p2
535.09 158.29 1.00 1.00 r p2
536.70 158.29 1.00 1.00 r p2
538.31 158.29 1.00 1.00 r p2
539.92 158.29 1.00 1.00 r p2
541.53 158.29 1.00 1.00 r p2
543.15 158.29 1.00 1.00 r p2
544.76 158.29 1.00 1.00 r p2
546.37 158.29 1.00 1.00 r p2
547.98 158.29 1.00 1.00 r p2
549.59 158.29 1.00 1.00 r p2
551.20 158.29 1.00 1.00 r p2
552.81 158.29 1.00 1.00 r p2
554.42 158.29 1.00 1.00 r p2
556.03 158.29 1.00 1.00 r p2
557.64 158.29 1.00 1.00 r p2
559.26 158.29 1.00 1.00 r p2
560.87 158.29 1.00 1.00 r p2
562.48 158.29 1.00 1.00 r p2
564.09 158.29 1.00 1.00 r p2
565.70 158.29 1.00 1.00 r p2
567.31 158.29 1.00 1.00 r p2
568.92 158.29 1.00 1.00 r p2
570.53 158.29 1.00 1.00 r p2
572.14 158.29 1.00 1.00 r p2
573.75 158.29 1.00 1.00 r p2
575.36 158.29 1.00 1.00 r p2
576.98 158.29 1.00 1.00 r p2
578.59 158.29 1.00 1.00 r p2
580.20 158.29 1.00 1.00 r p2
581.81 158.29 1.00 1.00 r p2
583.42 158.29 1.00 1.00 r p2
585.03 158.29 1.00 1.00 r p2
586.64 158.29 1.00 1.00 r p2
588.25 158.29 1.00 1.00 r p2
589.86 158.29 1.00 1.00 r p2
591.47 158.29 1.00 1.00 r p2
593.08 158.29 1.00 1.00 r p2
594.70 158.29 1.00 1.00 r p2
596.31 158.29 1.00 1.00 r p2
597.92 158.29 1.00 1.00 r p2
599.53 158.29 1.00 1.00 r p2
601.14 158.29 1.00 1.00 r p2
602.75 158.29 1.00 1.00 r p2
604.36 158.29 1.00 1.00 r p2
605.97 158.29 1.00 1.00 r p2
607.58 158.29 1.00 1.00 r p2
609.19 158.29 1.00 1.00 r p2
610.80 158.29 1.00 1.00 r p2
612.42 158.29 1.00 1.00 r p2
614.03 158.29 1.00 1.00 r p2
615.64 158.29 1.00 1.00 r p2
617.25 158.29 1.00 1.00 r p2
618.86 158.29 1.00 1.00 r p2
620.47 158.29 1.00 1.00 r p2
622.08 158.29 1.00 1.00 r p2
623.69 158.29 1.00 1.00 r p2
625.30 158.29 1.00 1.00 r p2
626.91 158.29 1.00 1.00 r p2
628.52 158.29 1.00 1.00 r p2
630.14 158.29 1.00 1.00 r p2
631.75 158.29 1.00 1.00 r p2
633.36 158.29 1.00 1.00 r p2
634.97 158.29 1.00 1.00 r p2
636.58 158.29 1.00 1.00 r p2
638.19 158.29 1.00 1.00 r p2
640.30 156.77 (>) .5 0 t
641.91 156.77 (>) .5 0 t
643.52 156.77 (>) .5 0 t
645.13 156.77 (>) .5 0 t
646.75 156.77 (>) .5 0 t
648.36 156.77 (>) .5 0 t
649.97 156.77 (>) .5 0 t
651.08 158.29 1.00 1.00 r p2
652.69 158.29 1.00 1.00 r p2
654.30 158.29 1.00 1.00 r p2
655.91 158.29 1.00 1.00 r p2
657.52 158.29 1.00 1.00 r p2
659.13 158.29 1.00 1.00 r p2
660.74 158.29 1.00 1.00 r p2
662.35 158.29 1.00 1.00 r p2
663.97 158.29 1.00 1.00 r p2
665.58 158.29 1.00 1.00 r p2
667.19 158.29 1.00 1.00 r p2
668.80 158.29 1.00 1.00 r p2
670.41 158.29 1.00 1.00 r p2
50.20 150.36 1.00 1.00 r p2
51.81 150.36 1.00 1.00 r p2
53.42 150.36 1.00 1.00 r p2
55.03 150.36 1.00 1.00 r p2
57.15 148.05 (1) .5 0 t
58.76 148.05 (1) .5 0 t
60.37 148.05 (1) .5 0 t
61.98 148.05 (1) .5 0 t
63.59 148.05 (1) .5 0 t
65.20 148.05 (1) .5 0 t
66.31 150.36 1.00 1.00 r p2
67.92 150.36 1.00 1.00 r p2
70.03 148.05 (1) .5 0 t
71.64 148.05 (1) .5 0 t
72.75 150.36 1.00 1.00 r p2
74.37 150.36 1.00 1.00 r p2
75.98 150.36 1.00 1.00 r p2
77.59 150.36 1.00 1.00 r p2
79.20 150.36 1.00 1.00 r p2
80.81 150.36 1.00 1.00 r p2
82.42 150.36 1.00 1.00 r p2
84.03 150.36 1.00 1.00 r p2
85.64 150.36 1.00 1.00 r p2
87.25 150.36 1.00 1.00 r p2
88.86 150.36 1.00 1.00 r p2
90.48 150.36 1.00 1.00 r p2
92.09 150.36 1.00 1.00 r p2
93.70 150.36 1.00 1.00 r p2
95.31 150.36 1.00 1.00 r p2
96.92 150.36 1.00 1.00 r p2
98.53 150.36 1.00 1.00 r p2
100.64 148.05 (1) .5 0 t
102.25 148.05 (1) .5 0 t
103.86 148.05 (1) .5 0 t
105.47 148.05 (1) .5 0 t
107.08 148.05 (1) .5 0 t
108.70 148.05 (1) .5 0 t
110.31 148.05 (1) .5 0 t
111.92 148.05 (1) .5 0 t
113.03 150.36 1.00 1.00 r p2
114.64 150.36 1.00 1.00 r p2
116.25 150.36 1.00 1.00 r p2
117.86 150.36 1.00 1.00 r p2
119.47 150.36 1.00 1.00 r p2
121.08 150.36 1.00 1.00 r p2
122.69 150.36 1.00 1.00 r p2
124.30 150.36 1.00 1.00 r p2
125.92 150.36 1.00 1.00 r p2
127.53 150.36 1.00 1.00 r p2
129.14 150.36 1.00 1.00 r p2
130.75 150.36 1.00 1.00 r p2
132.36 150.36 1.00 1.00 r p2
133.97 150.36 1.00 1.00 r p2
135.58 150.36 1.00 1.00 r p2
137.19 150.36 1.00 1.00 r p2
138.80 150.36 1.00 1.00 r p2
140.41 150.36 1.00 1.00 r p2
142.02 150.36 1.00 1.00 r p2
143.64 150.36 1.00 1.00 r p2
145.25 150.36 1.00 1.00 r p2
146.86 150.36 1.00 1.00 r p2
148.47 150.36 1.00 1.00 r p2
150.08 150.36 1.00 1.00 r p2
151.69 150.36 1.00 1.00 r p2
153.30 150.36 1.00 1.00 r p2
154.91 150.36 1.00 1.00 r p2
156.52 150.36 1.00 1.00 r p2
158.13 150.36 1.00 1.00 r p2
159.74 150.36 1.00 1.00 r p2
161.36 150.36 1.00 1.00 r p2
162.97 150.36 1.00 1.00 r p2
165.08 148.05 (2) .5 0 t
166.69 148.05 (2) .5 0 t
168.30 148.05 (2) .5 0 t
169.91 148.05 (2) .5 0 t
171.02 150.36 1.00 1.00 r p2
172.63 150.36 1.00 1.00 r p2
174.24 150.36 1.00 1.00 r p2
175.85 150.36 1.00 1.00 r p2
177.47 150.36 1.00 1.00 r p2
179.08 150.36 1.00 1.00 r p2
180.69 150.36 1.00 1.00 r p2
182.30 150.36 1.00 1.00 r p2
183.91 150.36 1.00 1.00 r p2
185.52 150.36 1.00 1.00 r p2
187.13 150.36 1.00 1.00 r p2
188.74 150.36 1.00 1.00 r p2
190.35 150.36 1.00 1.00 r p2
192.46 148.05 (2) .5 0 t
194.07 148.05 (2) .5 0 t
195.69 148.05 (2) .5 0 t
197.30 148.05 (2) .5 0 t
198.91 148.05 (2) .5 0 t
200.52 148.05 (2) .5 0 t
202.13 148.05 (2) .5 0 t
203.24 150.36 1.00 1.00 r p2
204.85 150.36 1.00 1.00 r p2
206.46 150.36 1.00 1.00 r p2
208.07 150.36 1.00 1.00 r p2
209.68 150.36 1.00 1.00 r p2
211.79 148.05 (2) .5 0 t
213.41 148.05 (2) .5 0 t
214.52 150.36 1.00 1.00 r p2
216.13 150.36 1.00 1.00 r p2
217.74 150.36 1.00 1.00 r p2
219.35 150.36 1.00 1.00 r p2
220.96 150.36 1.00 1.00 r p2
222.57 150.36 1.00 1.00 r p2
224.68 148.05 (2) .5 0 t
226.29 148.05 (2) .5 0 t
227.40 150.36 1.00 1.00 r p2
229.01 150.36 1.00 1.00 r p2
230.63 150.36 1.00 1.00 r p2
232.74 148.05 (2) .5 0 t
234.35 148.05 (2) .5 0 t
235.96 148.05 (2) .5 0 t
237.57 148.05 (2) .5 0 t
239.18 148.05 (2) .5 0 t
240.79 148.05 (2) .5 0 t
242.40 148.05 (2) .5 0 t
243.51 150.36 1.00 1.00 r p2
245.12 150.36 1.00 1.00 r p2
246.74 150.36 1.00 1.00 r p2
248.35 150.36 1.00 1.00 r p2
249.96 150.36 1.00 1.00 r p2
251.57 150.36 1.00 1.00 r p2
253.18 150.36 1.00 1.00 r p2
254.79 150.36 1.00 1.00 r p2
256.40 150.36 1.00 1.00 r p2
258.01 150.36 1.00 1.00 r p2
259.62 150.36 1.00 1.00 r p2
261.23 150.36 1.00 1.00 r p2
262.84 150.36 1.00 1.00 r p2
264.46 150.36 1.00 1.00 r p2
266.07 150.36 1.00 1.00 r p2
267.68 150.36 1.00 1.00 r p2
269.29 150.36 1.00 1.00 r p2
270.90 150.36 1.00 1.00 r p2
272.51 150.36 1.00 1.00 r p2
274.12 150.36 1.00 1.00 r p2
276.23 148.05 (2) .5 0 t
277.84 148.05 (2) .5 0 t
279.45 148.05 (2) .5 0 t
281.06 148.05 (2) .5 0 t
282.18 150.36 1.00 1.00 r p2
283.79 150.36 1.00 1.00 r p2
285.40 150.36 1.00 1.00 r p2
287.51 148.12 (3) .5 0 t
289.12 148.12 (3) .5 0 t
290.73 148.12 (3) .5 0 t
292.34 148.12 (3) .5 0 t
293.95 148.12 (3) .5 0 t
295.56 148.12 (3) .5 0 t
297.17 148.12 (3) .5 0 t
298.78 148.12 (3) .5 0 t
299.90 150.36 1.00 1.00 r p2
301.51 150.36 1.00 1.00 r p2
303.62 148.05 (4) .5 0 t
305.23 148.05 (4) .5 0 t
306.84 148.05 (4) .5 0 t
308.45 148.05 (4) .5 0 t
310.06 148.05 (4) .5 0 t
311.67 148.05 (4) .5 0 t
312.78 150.36 1.00 1.00 r p2
314.39 150.36 1.00 1.00 r p2
316.00 150.36 1.00 1.00 r p2
318.12 148.05 (4) .5 0 t
319.73 148.05 (4) .5 0 t
321.34 148.05 (4) .5 0 t
322.95 148.05 (4) .5 0 t
324.06 150.36 1.00 1.00 r p2
325.67 150.36 1.00 1.00 r p2
327.28 150.36 1.00 1.00 r p2
328.89 150.36 1.00 1.00 r p2
330.50 150.36 1.00 1.00 r p2
332.11 150.36 1.00 1.00 r p2
333.73 150.36 1.00 1.00 r p2
335.34 150.36 1.00 1.00 r p2
336.95 150.36 1.00 1.00 r p2
338.56 150.36 1.00 1.00 r p2
340.17 150.36 1.00 1.00 r p2
341.78 150.36 1.00 1.00 r p2
343.39 150.36 1.00 1.00 r p2
345.50 148.05 (4) .5 0 t
347.11 148.05 (4) .5 0 t
348.72 148.05 (4) .5 0 t
350.33 148.05 (4) .5 0 t
351.45 150.36 1.00 1.00 r p2
353.06 150.36 1.00 1.00 r p2
354.67 150.36 1.00 1.00 r p2
356.78 148.05 (4) .5 0 t
358.39 148.05 (4) .5 0 t
360.00 148.05 (4) .5 0 t
361.61 148.05 (4) .5 0 t
363.22 148.05 (4) .5 0 t
364.83 148.05 (4) .5 0 t
366.44 148.18 (5) .5 0 t
368.05 148.18 (5) .5 0 t
369.67 148.18 (5) .5 0 t
371.28 148.18 (5) .5 0 t
372.89 148.18 (5) .5 0 t
374.50 148.18 (5) .5 0 t
376.11 148.18 (5) .5 0 t
377.22 150.36 1.00 1.00 r p2
378.83 150.36 1.00 1.00 r p2
380.44 150.36 1.00 1.00 r p2
382.05 150.36 1.00 1.00 r p2
383.66 150.36 1.00 1.00 r p2
385.27 150.36 1.00 1.00 r p2
386.89 150.36 1.00 1.00 r p2
388.50 150.36 1.00 1.00 r p2
390.11 150.36 1.00 1.00 r p2
392.22 148.18 (5) .5 0 t
393.83 148.18 (5) .5 0 t
395.44 148.18 (5) .5 0 t
397.05 148.18 (5) .5 0 t
398.66 148.18 (5) .5 0 t
400.27 148.18 (5) .5 0 t
401.88 148.18 (5) .5 0 t
403.00 150.36 1.00 1.00 r p2
404.61 150.36 1.00 1.00 r p2
406.22 150.36 1.00 1.00 r p2
408.33 148.12 (6) .5 0 t
409.44 150.36 1.00 1.00 r p2
411.55 148.12 (6) .5 0 t
413.16 148.12 (6) .5 0 t
414.77 148.12 (6) .5 0 t
416.38 148.12 (6) .5 0 t
417.99 148.12 (6) .5 0 t
419.10 150.36 1.00 1.00 r p2
420.72 150.36 1.00 1.00 r p2
422.83 148.12 (3) .5 0 t
424.44 148.12 (3) .5 0 t
426.05 148.12 (3) .5 0 t
427.66 148.12 (3) .5 0 t
429.27 148.12 (3) .5 0 t
430.88 148.12 (3) .5 0 t
432.49 148.12 (3) .5 0 t
434.10 148.12 (3) .5 0 t
435.71 148.11 (7) .5 0 t
437.32 148.11 (7) .5 0 t
438.94 148.11 (7) .5 0 t
440.55 148.11 (7) .5 0 t
442.16 148.11 (7) .5 0 t
443.77 148.11 (7) .5 0 t
445.38 148.11 (7) .5 0 t
446.49 150.36 1.00 1.00 r p2
448.10 150.36 1.00 1.00 r p2
449.71 150.36 1.00 1.00 r p2
451.32 150.36 1.00 1.00 r p2
452.93 150.36 1.00 1.00 r p2
454.54 150.36 1.00 1.00 r p2
456.16 150.36 1.00 1.00 r p2
457.77 150.36 1.00 1.00 r p2
459.38 150.36 1.00 1.00 r p2
460.99 150.36 1.00 1.00 r p2
462.60 150.36 1.00 1.00 r p2
464.21 150.36 1.00 1.00 r p2
465.82 150.36 1.00 1.00 r p2
467.43 150.36 1.00 1.00 r p2
469.04 150.36 1.00 1.00 r p2
470.65 150.36 1.00 1.00 r p2
472.26 150.36 1.00 1.00 r p2
473.88 150.36 1.00 1.00 r p2
475.49 150.36 1.00 1.00 r p2
477.10 150.36 1.00 1.00 r p2
478.71 150.36 1.00 1.00 r p2
480.32 150.36 1.00 1.00 r p2
482.43 148.11 (7) .5 0 t
484.04 148.11 (7) .5 0 t
485.65 148.11 (7) .5 0 t
487.26 148.11 (7) .5 0 t
488.87 148.11 (7) .5 0 t
490.49 148.11 (7) .5 0 t
492.10 148.11 (7) .5 0 t
493.21 150.36 1.00 1.00 r p2
494.82 150.36 1.00 1.00 r p2
496.43 150.36 1.00 1.00 r p2
498.04 150.36 1.00 1.00 r p2
499.65 150.36 1.00 1.00 r p2
501.26 150.36 1.00 1.00 r p2
502.87 150.36 1.00 1.00 r p2
504.48 150.36 1.00 1.00 r p2
506.59 148.12 (6) .5 0 t
508.21 148.12 (6) .5 0 t
509.82 148.12 (6) .5 0 t
511.43 148.12 (6) .5 0 t
513.04 148.12 (6) .5 0 t
514.65 148.12 (6) .5 0 t
516.26 148.12 (8) .5 0 t
517.87 148.12 (8) .5 0 t
519.48 148.12 (8) .5 0 t
521.09 148.12 (8) .5 0 t
522.70 148.12 (8) .5 0 t
524.31 148.12 (8) .5 0 t
525.93 148.12 (8) .5 0 t
527.04 150.36 1.00 1.00 r p2
528.65 150.36 1.00 1.00 r p2
530.26 150.36 1.00 1.00 r p2
531.87 150.36 1.00 1.00 r p2
533.48 150.36 1.00 1.00 r p2
535.09 150.36 1.00 1.00 r p2
536.70 150.36 1.00 1.00 r p2
538.31 150.36 1.00 1.00 r p2
539.92 150.36 1.00 1.00 r p2
541.53 150.36 1.00 1.00 r p2
543.15 150.36 1.00 1.00 r p2
544.76 150.36 1.00 1.00 r p2
546.37 150.36 1.00 1.00 r p2
547.98 150.36 1.00 1.00 r p2
549.59 150.36 1.00 1.00 r p2
551.20 150.36 1.00 1.00 r p2
552.81 150.36 1.00 1.00 r p2
554.42 150.36 1.00 1.00 r p2
556.03 150.36 1.00 1.00 r p2
557.64 150.36 1.00 1.00 r p2
559.26 150.36 1.00 1.00 r p2
560.87 150.36 1.00 1.00 r p2
562.48 150.36 1.00 1.00 r p2
564.09 150.36 1.00 1.00 r p2
565.70 150.36 1.00 1.00 r p2
567.31 150.36 1.00 1.00 r p2
568.92 150.36 1.00 1.00 r p2
570.53 150.36 1.00 1.00 r p2
572.14 150.36 1.00 1.00 r p2
573.75 150.36 1.00 1.00 r p2
575.36 150.36 1.00 1.00 r p2
576.98 150.36 1.00 1.00 r p2
578.59 150.36 1.00 1.00 r p2
580.20 150.36 1.00 1.00 r p2
581.81 150.36 1.00 1.00 r p2
583.42 150.36 1.00 1.00 r p2
585.03 150.36 1.00 1.00 r p2
586.64 150.36 1.00 1.00 r p2
588.25 150.36 1.00 1.00 r p2
589.86 150.36 1.00 1.00 r p2
591.47 150.36 1.00 1.00 r p2
593.08 150.36 1.00 1.00 r p2
594.70 150.36 1.00 1.00 r p2
596.31 150.36 1.00 1.00 r p2
597.92 150.36 1.00 1.00 r p2
599.53 150.36 1.00 1.00 r p2
601.14 150.36 1.00 1.00 r p2
602.75 150.36 1.00 1.00 r p2
604.36 150.36 1.00 1.00 r p2
605.97 150.36 1.00 1.00 r p2
607.58 150.36 1.00 1.00 r p2
609.19 150.36 1.00 1.00 r p2
610.80 150.36 1.00 1.00 r p2
612.42 150.36 1.00 1.00 r p2
614.03 150.36 1.00 1.00 r p2
615.64 150.36 1.00 1.00 r p2
617.25 150.36 1.00 1.00 r p2
618.86 150.36 1.00 1.00 r p2
620.47 150.36 1.00 1.00 r p2
622.08 150.36 1.00 1.00 r p2
623.69 150.36 1.00 1.00 r p2
625.30 150.36 1.00 1.00 r p2
626.91 150.36 1.00 1.00 r p2
628.52 150.36 1.00 1.00 r p2
630.14 150.36 1.00 1.00 r p2
631.75 150.36 1.00 1.00 r p2
633.36 150.36 1.00 1.00 r p2
634.97 150.36 1.00 1.00 r p2
636.58 150.36 1.00 1.00 r p2
638.19 150.36 1.00 1.00 r p2
640.30 148.12 (8) .5 0 t
641.91 148.12 (8) .5 0 t
643.52 148.12 (8) .5 0 t
645.13 148.12 (8) .5 0 t
646.75 148.12 (8) .5 0 t
648.36 148.12 (8) .5 0 t
649.97 148.12 (8) .5 0 t
651.08 150.36 1.00 1.00 r p2
652.69 150.36 1.00 1.00 r p2
654.30 150.36 1.00 1.00 r p2
655.91 150.36 1.00 1.00 r p2
657.52 150.36 1.00 1.00 r p2
659.13 150.36 1.00 1.00 r p2
660.74 150.36 1.00 1.00 r p2
662.35 150.36 1.00 1.00 r p2
663.97 150.36 1.00 1.00 r p2
665.58 150.36 1.00 1.00 r p2
667.19 150.36 1.00 1.00 r p2
668.80 150.36 1.00 1.00 r p2
670.41 150.36 1.00 1.00 r p2
1 0 0 srgb
0.75 setlinewidth
[] 0 setdash
1 setlinecap
1 setlinejoin
10.00 setmiterlimit
np
50.70 145.86 m
2.55 -4.41 l
-5.09 0 l
2.54 4.41 l
o
np
57.15 145.86 m
2.54 -4.41 l
-5.09 0 l
2.55 4.41 l
o
np
57.15 145.86 m
2.54 -4.41 l
-5.09 0 l
2.55 4.41 l
o
np
100.64 145.86 m
2.55 -4.41 l
-5.09 0 l
2.54 4.41 l
o
np
165.08 145.86 m
2.54 -4.41 l
-5.09 0 l
2.55 4.41 l
o
np
224.68 145.86 m
2.55 -4.41 l
-5.09 0 l
2.54 4.41 l
o
np
287.51 145.86 m
2.54 -4.41 l
-5.09 0 l
2.55 4.41 l
o
np
224.68 145.86 m
2.55 -4.41 l
-5.09 0 l
2.54 4.41 l
o
np
303.62 145.86 m
2.54 -4.41 l
-5.09 0 l
2.55 4.41 l
o
np
287.51 145.86 m
2.54 -4.41 l
-5.09 0 l
2.55 4.41 l
o
np
287.51 145.86 m
2.54 -4.41 l
-5.09 0 l
2.55 4.41 l
o
np
303.62 145.86 m
2.54 -4.41 l
-5.09 0 l
2.55 4.41 l
o
np
345.50 145.86 m
2.55 -4.41 l
-5.09 0 l
2.54 4.41 l
o
np
366.44 145.86 m
2.55 -4.41 l
-5.09 0 l
2.54 4.41 l
o
np
345.50 145.86 m
2.55 -4.41 l
-5.09 0 l
2.54 4.41 l
o
np
392.22 145.86 m
2.54 -4.41 l
-5.09 0 l
2.55 4.41 l
o
np
408.33 145.86 m
2.54 -4.41 l
-5.09 0 l
2.55 4.41 l
o
np
392.22 145.86 m
2.54 -4.41 l
-5.09 0 l
2.55 4.41 l
o
np
408.33 145.86 m
2.54 -4.41 l
-5.09 0 l
2.55 4.41 l
o
np
408.33 145.86 m
2.54 -4.41 l
-5.09 0 l
2.55 4.41 l
o
np
435.71 145.86 m
2.55 -4.41 l
-5.09 0 l
2.54 4.41 l
o
np
435.71 145.86 m
2.55 -4.41 l
-5.09 0 l
2.54 4.41 l
o
np
482.43 145.86 m
2.55 -4.41 l
-5.09 0 l
2.54 4.41 l
o
np
435.71 145.86 m
2.55 -4.41 l
-5.09 0 l
2.54 4.41 l
o
np
482.43 145.86 m
2.55 -4.41 l
-5.09 0 l
2.54 4.41 l
o
np
506.59 145.86 m
2.55 -4.41 l
-5.09 0 l
2.54 4.41 l
o
np
516.26 145.86 m
2.55 -4.41 l
-5.10 0 l
2.55 4.41 l
o
np
111.92 145.86 m
2.54 -4.41 l
-5.09 0 l
2.55 4.41 l
o
np
213.41 145.86 m
2.54 -4.41 l
-5.09 0 l
2.55 4.41 l
o
np
281.06 145.86 m
2.55 -4.41 l
-5.09 0 l
2.54 4.41 l
o
np
281.06 145.86 m
2.55 -4.41 l
-5.09 0 l
2.54 4.41 l
o
np
298.78 145.86 m
2.55 -4.41 l
-5.09 0 l
2.54 4.41 l
o
np
322.95 145.86 m
2.54 -4.41 l
-5.09 0 l
2.55 4.41 l
o
np
322.95 145.86 m
2.54 -4.41 l
-5.09 0 l
2.55 4.41 l
o
np
434.10 145.86 m
2.55 -4.41 l
-5.09 0 l
2.54 4.41 l
o
np
376.11 145.86 m
2.54 -4.41 l
-5.09 0 l
2.55 4.41 l
o
np
417.99 145.86 m
2.55 -4.41 l
-5.09 0 l
2.54 4.41 l
o
np
434.10 145.86 m
2.55 -4.41 l
-5.09 0 l
2.54 4.41 l
o
np
434.10 145.86 m
2.55 -4.41 l
-5.09 0 l
2.54 4.41 l
o
np
401.88 145.86 m
2.55 -4.41 l
-5.09 0 l
2.54 4.41 l
o
np
417.99 145.86 m
2.55 -4.41 l
-5.09 0 l
2.54 4.41 l
o
np
445.38 145.86 m
2.54 -4.41 l
-5.09 0 l
2.55 4.41 l
o
np
445.38 145.86 m
2.54 -4.41 l
-5.09 0 l
2.55 4.41 l
o
np
434.10 145.86 m
2.55 -4.41 l
-5.09 0 l
2.54 4.41 l
o
np
514.65 145.86 m
2.54 -4.41 l
-5.09 0 l
2.55 4.41 l
o
np
514.65 145.86 m
2.54 -4.41 l
-5.09 0 l
2.55 4.41 l
o
np
525.93 145.86 m
2.54 -4.41 l
-5.09 0 l
2.55 4.41 l
o
np
514.65 145.86 m
2.54 -4.41 l
-5.09 0 l
2.55 4.41 l
o
np
525.93 145.86 m
2.54 -4.41 l
-5.09 0 l
2.55 4.41 l
o
np
514.65 145.86 m
2.54 -4.41 l
-5.09 0 l
2.55 4.41 l
o
np
649.97 145.86 m
2.54 -4.41 l
-5.09 0 l
2.55 4.41 l
o
np
649.97 145.86 m
2.54 -4.41 l
-5.09 0 l
2.55 4.41 l
o
np
649.97 145.86 m
2.54 -4.41 l
-5.09 0 l
2.55 4.41 l
o
np
670.91 145.86 m
2.54 -4.41 l
-5.09 0 l
2.55 4.41 l
o
0 0 0.8510 srgb
np
50.70 127.05 m
61.22 0 l
o
/Font1 findfont 7 s
81.31 129.93 (left-P1) .5 0 t
0 0.1490 1 srgb
np
57.15 123.87 m
156.26 0 l
o
135.28 116.80 (P1-L2) .5 0 t
0 0.4000 1 srgb
np
57.15 120.70 m
223.91 0 l
o
169.11 123.58 (P1-P2) .5 0 t
0 0.6000 1 srgb
np
100.64 117.52 m
180.42 0 l
o
190.85 110.46 (R1-P2) .5 0 t
0 0.9020 1 srgb
np
165.08 114.35 m
133.70 0 l
o
231.93 117.23 (P2-L3) .5 0 t
0.1294 1 0.8706 srgb
np
224.68 111.17 m
98.27 0 l
o
273.82 104.11 (R2-L4) .5 0 t
0.2549 1 0.7451 srgb
np
287.51 108.00 m
35.44 0 l
o
305.23 110.88 (L3-L4) .5 0 t
0.3608 1 0.6392 srgb
np
224.68 104.83 m
209.42 0 l
o
329.39 97.76 (R2-P3) .5 0 t
0.4118 1 0.5882 srgb
np
303.62 101.65 m
72.49 0 l
o
339.86 104.53 (P4-L5) .5 0 t
0.4627 1 0.5373 srgb
np
287.51 98.48 m
130.48 0 l
o
352.75 91.41 (L3-L6) .5 0 t
0.4863 1 0.5137 srgb
np
287.51 95.30 m
146.59 0 l
o
360.81 98.18 (P3-L4) .5 0 t
0.5137 1 0.4863 srgb
np
303.62 92.13 m
130.48 0 l
o
368.86 85.06 (R3-P4) .5 0 t
0.5373 1 0.4627 srgb
np
345.50 88.95 m
56.38 0 l
o
373.69 91.83 (R4-P5) .5 0 t
0.6157 1 0.3843 srgb
np
366.44 85.78 m
51.55 0 l
o
392.22 78.71 (P5-L6) .5 0 t
0.6392 1 0.3608 srgb
np
345.50 82.60 m
99.88 0 l
o
395.44 85.48 (R4-L7) .5 0 t
0.7176 1 0.2824 srgb
np
392.22 79.43 m
53.16 0 l
o
418.80 72.36 (R5-L7) .5 0 t
0.7451 1 0.2549 srgb
np
408.33 76.25 m
25.77 0 l
o
421.22 79.13 (L6-R3) .5 0 t
0.8706 1 0.1294 srgb
np
392.22 73.08 m
122.43 0 l
o
453.43 66.01 (R5-P6) .5 0 t
0.8980 1 0.1020 srgb
np
408.33 69.90 m
106.32 0 l
o
461.49 72.78 (P6-L7) .5 0 t
0.9216 1 0.0784 srgb
np
408.33 66.73 m
117.60 0 l
o
467.13 59.66 (L6-L8) .5 0 t
0.9725 1 0.0275 srgb
np
435.71 63.56 m
78.94 0 l
o
475.18 66.44 (R6-P7) .5 0 t
np
435.71 60.38 m
90.22 0 l
o
480.82 53.31 (P7-L8) .5 0 t
1 0.9020 0 srgb
np
482.43 57.21 m
32.22 0 l
o
498.54 60.09 (R7-R6) .5 0 t
1 0.5490 0 srgb
np
435.71 54.03 m
214.26 0 l
o
542.84 46.96 (P7-P8) .5 0 t
1 0.3490 0 srgb
np
482.43 50.86 m
167.54 0 l
o
566.20 53.74 (R7-P8) .5 0 t
1 0.2510 0 srgb
np
506.59 47.68 m
143.38 0 l
o
578.28 40.61 (R6-P8) .5 0 t
1 0.0980 0 srgb
np
516.26 44.51 m
154.65 0 l
o
580.45 47.39 (P8-r) 0 ta
0.105 (ight) tb gr
ep
%%Trailer
%%Pages: 1
%%EOF
