%!PS-Adobe-3.0
%%DocumentNeededResources: font Helvetica
%%+ font Helvetica-Bold
%%+ font Helvetica-Oblique
%%+ font Helvetica-BoldOblique
%%+ font Symbol
%%DocumentMedia: special 180 720 0 () ()
%%Title: R Graphics Output
%%Creator: R Software
%%Pages: (atend)
%%BoundingBox: 0 0 180 720
%%EndComments
%%BeginProlog
/bp  { gs sRGB 180.00 0 translate 90 rotate gs } def
% begin .ps.prolog
/gs  { gsave } bind def
/gr  { grestore } bind def
/ep  { showpage gr gr } bind def
/m   { moveto } bind def
/l  { rlineto } bind def
/np  { newpath } bind def
/cp  { closepath } bind def
/f   { fill } bind def
/o   { stroke } bind def
/c   { newpath 0 360 arc } bind def
/r   { 4 2 roll moveto 1 copy 3 -1 roll exch 0 exch rlineto 0 rlineto -1 mul 0 exch rlineto closepath } bind def
/p1  { stroke } bind def
/p2  { gsave bg fill grestore newpath } bind def
/p3  { gsave bg fill grestore stroke } bind def
/p6  { gsave bg eofill grestore newpath } bind def
/p7  { gsave bg eofill grestore stroke } bind def
/t   { 5 -2 roll moveto gsave rotate
       1 index stringwidth pop
       mul neg 0 rmoveto show grestore } bind def
/ta  { 4 -2 roll moveto gsave rotate show } bind def
/tb  { 2 -1 roll 0 rmoveto show } bind def
/cl  { grestore gsave newpath 3 index 3 index moveto 1 index
       4 -1 roll lineto  exch 1 index lineto lineto
       closepath clip newpath } bind def
/rgb { setrgbcolor } bind def
/s   { scalefont setfont } bind def
% end   .ps.prolog
/sRGB { [ /CIEBasedABC
          << /DecodeLMN
               [ { dup 0.03928 le
                        {12.92321 div}
                        {0.055 add 1.055 div 2.4 exp }
                     ifelse
                 } bind dup dup
               ]
             /MatrixLMN [0.412457 0.212673 0.019334
                         0.357576 0.715152 0.119192
                         0.180437 0.072175 0.950301]
             /WhitePoint [0.9505 1.0 1.0890]
           >>
         ] setcolorspace } bind def
/srgb { setcolor } bind def
%%IncludeResource: font Helvetica
/Helvetica findfont
dup length dict begin
  {1 index /FID ne {def} {pop pop} ifelse} forall
  /Encoding ISOLatin1Encoding def
  currentdict
  end
/Font1 exch definefont pop
%%IncludeResource: font Helvetica-Bold
/Helvetica-Bold findfont
dup length dict begin
  {1 index /FID ne {def} {pop pop} ifelse} forall
  /Encoding ISOLatin1Encoding def
  currentdict
  end
/Font2 exch definefont pop
%%IncludeResource: font Helvetica-Oblique
/Helvetica-Oblique findfont
dup length dict begin
  {1 index /FID ne {def} {pop pop} ifelse} forall
  /Encoding ISOLatin1Encoding def
  currentdict
  end
/Font3 exch definefont pop
%%IncludeResource: font Helvetica-BoldOblique
/Helvetica-BoldOblique findfont
dup length dict begin
  {1 index /FID ne {def} {pop pop} ifelse} forall
  /Encoding ISOLatin1Encoding def
  currentdict
  end
/Font4 exch definefont pop
%%IncludeResource: font Symbol
/Symbol findfont
dup length dict begin
  {1 index /FID ne {def} {pop pop} ifelse} forall
  currentdict
  end
/Font5 exch definefont pop
%%EndProlog
%%Page: 1 1
bp
18.00 36.00 702.00 180.00 cl
/bg { 0 0 0 srgb } def
49.46 166.23 1.00 1.00 r p2
50.33 166.23 1.00 1.00 r p2
51.20 166.23 1.00 1.00 r p2
/Font1 findfont 8 s
0 0 0 srgb
52.57 164.71 (<) .5 0 t
53.45 164.71 (<) .5 0 t
54.32 164.71 (<) .5 0 t
55.19 164.71 (<) .5 0 t
56.06 164.71 (<) .5 0 t
56.93 164.71 (<) .5 0 t
57.30 166.23 1.00 1.00 r p2
58.17 166.23 1.00 1.00 r p2
59.54 164.71 (<) .5 0 t
59.91 166.23 1.00 1.00 r p2
60.78 166.23 1.00 1.00 r p2
61.65 166.23 1.00 1.00 r p2
62.53 166.23 1.00 1.00 r p2
63.40 166.23 1.00 1.00 r p2
64.27 166.23 1.00 1.00 r p2
65.14 166.23 1.00 1.00 r p2
66.01 166.23 1.00 1.00 r p2
66.88 166.23 1.00 1.00 r p2
67.75 166.23 1.00 1.00 r p2
68.62 166.23 1.00 1.00 r p2
69.49 166.23 1.00 1.00 r p2
70.36 166.23 1.00 1.00 r p2
71.23 166.23 1.00 1.00 r p2
72.11 166.23 1.00 1.00 r p2
72.98 166.23 1.00 1.00 r p2
73.85 166.23 1.00 1.00 r p2
74.72 166.23 1.00 1.00 r p2
75.59 166.23 1.00 1.00 r p2
76.46 166.23 1.00 1.00 r p2
77.33 166.23 1.00 1.00 r p2
78.20 166.23 1.00 1.00 r p2
79.07 166.23 1.00 1.00 r p2
79.94 166.23 1.00 1.00 r p2
80.81 166.23 1.00 1.00 r p2
81.68 166.23 1.00 1.00 r p2
82.56 166.23 1.00 1.00 r p2
83.43 166.23 1.00 1.00 r p2
84.30 166.23 1.00 1.00 r p2
85.17 166.23 1.00 1.00 r p2
86.04 166.23 1.00 1.00 r p2
86.91 166.23 1.00 1.00 r p2
87.78 166.23 1.00 1.00 r p2
88.65 166.23 1.00 1.00 r p2
89.52 166.23 1.00 1.00 r p2
90.39 166.23 1.00 1.00 r p2
91.26 166.23 1.00 1.00 r p2
92.14 166.23 1.00 1.00 r p2
93.01 166.23 1.00 1.00 r p2
93.88 166.23 1.00 1.00 r p2
94.75 166.23 1.00 1.00 r p2
95.62 166.23 1.00 1.00 r p2
96.49 166.23 1.00 1.00 r p2
97.36 166.23 1.00 1.00 r p2
98.23 166.23 1.00 1.00 r p2
99.10 166.23 1.00 1.00 r p2
99.97 166.23 1.00 1.00 r p2
100.84 166.23 1.00 1.00 r p2
102.22 164.71 (>) .5 0 t
103.09 164.71 (>) .5 0 t
103.96 164.71 (>) .5 0 t
104.83 164.71 (>) .5 0 t
105.70 164.71 (>) .5 0 t
106.57 164.71 (>) .5 0 t
107.44 164.71 (>) .5 0 t
107.81 166.23 1.00 1.00 r p2
108.68 166.23 1.00 1.00 r p2
109.55 166.23 1.00 1.00 r p2
110.92 164.71 (<) .5 0 t
111.80 164.71 (<) .5 0 t
112.67 164.71 (<) .5 0 t
113.54 164.71 (<) .5 0 t
114.41 164.71 (<) .5 0 t
115.28 164.71 (<) .5 0 t
115.65 166.23 1.00 1.00 r p2
116.52 166.23 1.00 1.00 r p2
117.39 166.23 1.00 1.00 r p2
118.26 166.23 1.00 1.00 r p2
119.13 166.23 1.00 1.00 r p2
120.00 166.23 1.00 1.00 r p2
120.88 166.23 1.00 1.00 r p2
121.75 166.23 1.00 1.00 r p2
122.62 166.23 1.00 1.00 r p2
123.49 166.23 1.00 1.00 r p2
124.36 166.23 1.00 1.00 r p2
125.23 166.23 1.00 1.00 r p2
126.10 166.23 1.00 1.00 r p2
126.97 166.23 1.00 1.00 r p2
127.84 166.23 1.00 1.00 r p2
128.71 166.23 1.00 1.00 r p2
129.58 166.23 1.00 1.00 r p2
130.45 166.23 1.00 1.00 r p2
131.33 166.23 1.00 1.00 r p2
132.20 166.23 1.00 1.00 r p2
133.07 166.23 1.00 1.00 r p2
133.94 166.23 1.00 1.00 r p2
134.81 166.23 1.00 1.00 r p2
135.68 166.23 1.00 1.00 r p2
136.55 166.23 1.00 1.00 r p2
137.42 166.23 1.00 1.00 r p2
138.29 166.23 1.00 1.00 r p2
139.16 166.23 1.00 1.00 r p2
140.03 166.23 1.00 1.00 r p2
140.91 166.23 1.00 1.00 r p2
141.78 166.23 1.00 1.00 r p2
142.65 166.23 1.00 1.00 r p2
143.52 166.23 1.00 1.00 r p2
144.39 166.23 1.00 1.00 r p2
145.26 166.23 1.00 1.00 r p2
146.13 166.23 1.00 1.00 r p2
147.00 166.23 1.00 1.00 r p2
147.87 166.23 1.00 1.00 r p2
148.74 166.23 1.00 1.00 r p2
149.61 166.23 1.00 1.00 r p2
150.49 166.23 1.00 1.00 r p2
151.36 166.23 1.00 1.00 r p2
152.23 166.23 1.00 1.00 r p2
153.10 166.23 1.00 1.00 r p2
153.97 166.23 1.00 1.00 r p2
154.84 166.23 1.00 1.00 r p2
155.71 166.23 1.00 1.00 r p2
156.58 166.23 1.00 1.00 r p2
157.45 166.23 1.00 1.00 r p2
158.32 166.23 1.00 1.00 r p2
159.19 166.23 1.00 1.00 r p2
160.57 164.71 (>) .5 0 t
161.44 164.71 (>) .5 0 t
162.31 164.71 (>) .5 0 t
163.18 164.71 (>) .5 0 t
164.05 164.71 (>) .5 0 t
164.92 164.71 (>) .5 0 t
165.29 166.23 1.00 1.00 r p2
166.16 166.23 1.00 1.00 r p2
167.53 164.71 (<) .5 0 t
168.40 164.71 (<) .5 0 t
169.27 164.71 (<) .5 0 t
170.15 164.71 (<) .5 0 t
170.52 166.23 1.00 1.00 r p2
171.89 164.71 (<) .5 0 t
172.76 164.71 (<) .5 0 t
173.63 164.71 (<) .5 0 t
174.50 164.71 (<) .5 0 t
175.37 164.71 (<) .5 0 t
176.24 164.71 (<) .5 0 t
176.61 166.23 1.00 1.00 r p2
177.48 166.23 1.00 1.00 r p2
178.35 166.23 1.00 1.00 r p2
179.22 166.23 1.00 1.00 r p2
180.10 166.23 1.00 1.00 r p2
180.97 166.23 1.00 1.00 r p2
181.84 166.23 1.00 1.00 r p2
182.71 166.23 1.00 1.00 r p2
183.58 166.23 1.00 1.00 r p2
184.45 166.23 1.00 1.00 r p2
185.32 166.23 1.00 1.00 r p2
186.19 166.23 1.00 1.00 r p2
187.06 166.23 1.00 1.00 r p2
187.93 166.23 1.00 1.00 r p2
188.80 166.23 1.00 1.00 r p2
189.68 166.23 1.00 1.00 r p2
190.55 166.23 1.00 1.00 r p2
191.42 166.23 1.00 1.00 r p2
192.29 166.23 1.00 1.00 r p2
193.16 166.23 1.00 1.00 r p2
194.03 166.23 1.00 1.00 r p2
194.90 166.23 1.00 1.00 r p2
195.77 166.23 1.00 1.00 r p2
196.64 166.23 1.00 1.00 r p2
197.51 166.23 1.00 1.00 r p2
198.38 166.23 1.00 1.00 r p2
199.26 166.23 1.00 1.00 r p2
200.13 166.23 1.00 1.00 r p2
201.00 166.23 1.00 1.00 r p2
201.87 166.23 1.00 1.00 r p2
202.74 166.23 1.00 1.00 r p2
203.61 166.23 1.00 1.00 r p2
204.48 166.23 1.00 1.00 r p2
205.35 166.23 1.00 1.00 r p2
206.22 166.23 1.00 1.00 r p2
207.09 166.23 1.00 1.00 r p2
207.96 166.23 1.00 1.00 r p2
208.84 166.23 1.00 1.00 r p2
209.71 166.23 1.00 1.00 r p2
210.58 166.23 1.00 1.00 r p2
211.45 166.23 1.00 1.00 r p2
212.32 166.23 1.00 1.00 r p2
213.19 166.23 1.00 1.00 r p2
214.06 166.23 1.00 1.00 r p2
214.93 166.23 1.00 1.00 r p2
215.80 166.23 1.00 1.00 r p2
216.67 166.23 1.00 1.00 r p2
217.54 166.23 1.00 1.00 r p2
218.42 166.23 1.00 1.00 r p2
219.79 164.71 (>) .5 0 t
220.66 164.71 (>) .5 0 t
221.53 164.71 (>) .5 0 t
222.40 164.71 (>) .5 0 t
223.27 164.71 (>) .5 0 t
224.14 164.71 (>) .5 0 t
225.01 164.71 (>) .5 0 t
225.38 166.23 1.00 1.00 r p2
226.75 164.71 (>) .5 0 t
227.62 164.71 (>) .5 0 t
228.50 164.71 (>) .5 0 t
228.87 166.23 1.00 1.00 r p2
229.74 166.23 1.00 1.00 r p2
230.61 166.23 1.00 1.00 r p2
231.98 164.71 (<) .5 0 t
232.85 164.71 (<) .5 0 t
233.72 164.71 (<) .5 0 t
234.59 164.71 (<) .5 0 t
234.96 166.23 1.00 1.00 r p2
236.33 164.71 (<) .5 0 t
237.20 164.71 (<) .5 0 t
238.07 164.71 (<) .5 0 t
238.45 166.23 1.00 1.00 r p2
239.32 166.23 1.00 1.00 r p2
240.19 166.23 1.00 1.00 r p2
241.06 166.23 1.00 1.00 r p2
241.93 166.23 1.00 1.00 r p2
243.30 164.71 (<) .5 0 t
244.17 164.71 (<) .5 0 t
245.04 164.71 (<) .5 0 t
245.91 164.71 (<) .5 0 t
246.78 164.71 (<) .5 0 t
247.65 164.71 (<) .5 0 t
248.03 166.23 1.00 1.00 r p2
248.90 166.23 1.00 1.00 r p2
250.27 164.71 (<) .5 0 t
251.14 164.71 (<) .5 0 t
252.01 164.71 (<) .5 0 t
252.38 166.23 1.00 1.00 r p2
253.25 166.23 1.00 1.00 r p2
254.12 166.23 1.00 1.00 r p2
255.49 164.71 (<) .5 0 t
256.36 164.71 (<) .5 0 t
257.23 164.71 (<) .5 0 t
258.11 164.71 (<) .5 0 t
258.98 164.71 (<) .5 0 t
259.35 166.23 1.00 1.00 r p2
260.22 166.23 1.00 1.00 r p2
261.09 166.23 1.00 1.00 r p2
261.96 166.23 1.00 1.00 r p2
262.83 166.23 1.00 1.00 r p2
263.70 166.23 1.00 1.00 r p2
264.57 166.23 1.00 1.00 r p2
265.44 166.23 1.00 1.00 r p2
266.31 166.23 1.00 1.00 r p2
267.19 166.23 1.00 1.00 r p2
268.06 166.23 1.00 1.00 r p2
268.93 166.23 1.00 1.00 r p2
269.80 166.23 1.00 1.00 r p2
270.67 166.23 1.00 1.00 r p2
271.54 166.23 1.00 1.00 r p2
272.41 166.23 1.00 1.00 r p2
273.28 166.23 1.00 1.00 r p2
274.15 166.23 1.00 1.00 r p2
275.02 166.23 1.00 1.00 r p2
275.89 166.23 1.00 1.00 r p2
276.77 166.23 1.00 1.00 r p2
277.64 166.23 1.00 1.00 r p2
278.51 166.23 1.00 1.00 r p2
279.38 166.23 1.00 1.00 r p2
280.25 166.23 1.00 1.00 r p2
281.12 166.23 1.00 1.00 r p2
281.99 166.23 1.00 1.00 r p2
282.86 166.23 1.00 1.00 r p2
283.73 166.23 1.00 1.00 r p2
284.60 166.23 1.00 1.00 r p2
285.47 166.23 1.00 1.00 r p2
286.34 166.23 1.00 1.00 r p2
287.22 166.23 1.00 1.00 r p2
288.09 166.23 1.00 1.00 r p2
288.96 166.23 1.00 1.00 r p2
289.83 166.23 1.00 1.00 r p2
290.70 166.23 1.00 1.00 r p2
291.57 166.23 1.00 1.00 r p2
292.44 166.23 1.00 1.00 r p2
293.31 166.23 1.00 1.00 r p2
294.18 166.23 1.00 1.00 r p2
295.05 166.23 1.00 1.00 r p2
296.42 164.71 (>) .5 0 t
297.30 164.71 (>) .5 0 t
298.17 164.71 (>) .5 0 t
299.04 164.71 (>) .5 0 t
299.91 164.71 (>) .5 0 t
300.28 166.23 1.00 1.00 r p2
301.15 166.23 1.00 1.00 r p2
302.02 166.23 1.00 1.00 r p2
303.39 164.71 (>) .5 0 t
304.26 164.71 (>) .5 0 t
305.13 164.71 (>) .5 0 t
305.50 166.23 1.00 1.00 r p2
306.38 166.23 1.00 1.00 r p2
307.75 164.71 (>) .5 0 t
308.62 164.71 (>) .5 0 t
309.49 164.71 (>) .5 0 t
310.36 164.71 (>) .5 0 t
311.23 164.71 (>) .5 0 t
312.10 164.71 (>) .5 0 t
312.47 166.23 1.00 1.00 r p2
313.34 166.23 1.00 1.00 r p2
314.71 164.71 (<) .5 0 t
315.58 164.71 (<) .5 0 t
316.46 164.71 (<) .5 0 t
317.33 164.71 (<) .5 0 t
317.70 166.23 1.00 1.00 r p2
319.07 164.71 (<) .5 0 t
319.94 164.71 (<) .5 0 t
320.81 164.71 (<) .5 0 t
321.68 164.71 (<) .5 0 t
322.55 164.71 (<) .5 0 t
322.92 166.23 1.00 1.00 r p2
323.79 166.23 1.00 1.00 r p2
324.66 166.23 1.00 1.00 r p2
325.54 166.23 1.00 1.00 r p2
326.41 166.23 1.00 1.00 r p2
327.28 166.23 1.00 1.00 r p2
328.15 166.23 1.00 1.00 r p2
329.02 166.23 1.00 1.00 r p2
329.89 166.23 1.00 1.00 r p2
330.76 166.23 1.00 1.00 r p2
331.63 166.23 1.00 1.00 r p2
332.50 166.23 1.00 1.00 r p2
333.37 166.23 1.00 1.00 r p2
334.24 166.23 1.00 1.00 r p2
335.11 166.23 1.00 1.00 r p2
335.99 166.23 1.00 1.00 r p2
336.86 166.23 1.00 1.00 r p2
337.73 166.23 1.00 1.00 r p2
338.60 166.23 1.00 1.00 r p2
339.47 166.23 1.00 1.00 r p2
340.34 166.23 1.00 1.00 r p2
341.21 166.23 1.00 1.00 r p2
342.08 166.23 1.00 1.00 r p2
342.95 166.23 1.00 1.00 r p2
343.82 166.23 1.00 1.00 r p2
344.69 166.23 1.00 1.00 r p2
345.57 166.23 1.00 1.00 r p2
346.44 166.23 1.00 1.00 r p2
347.31 166.23 1.00 1.00 r p2
348.18 166.23 1.00 1.00 r p2
349.05 166.23 1.00 1.00 r p2
350.42 164.71 (>) .5 0 t
351.29 164.71 (>) .5 0 t
352.16 164.71 (>) .5 0 t
353.03 164.71 (>) .5 0 t
353.90 164.71 (>) .5 0 t
354.77 164.71 (>) .5 0 t
355.65 164.71 (>) .5 0 t
356.52 164.71 (>) .5 0 t
357.39 164.71 (>) .5 0 t
357.76 166.23 1.00 1.00 r p2
358.63 166.23 1.00 1.00 r p2
359.50 166.23 1.00 1.00 r p2
360.37 166.23 1.00 1.00 r p2
361.24 166.23 1.00 1.00 r p2
362.61 163.86 (A) .5 0 t
362.98 166.23 1.00 1.00 r p2
364.35 163.86 (A) .5 0 t
365.23 163.86 (A) .5 0 t
366.10 163.86 (A) .5 0 t
366.97 163.86 (A) .5 0 t
367.84 163.86 (A) .5 0 t
368.21 166.23 1.00 1.00 r p2
369.08 166.23 1.00 1.00 r p2
369.95 166.23 1.00 1.00 r p2
370.82 166.23 1.00 1.00 r p2
372.19 164.71 (>) .5 0 t
373.06 164.71 (>) .5 0 t
373.93 164.71 (>) .5 0 t
374.81 164.71 (>) .5 0 t
375.68 164.71 (>) .5 0 t
376.55 164.71 (>) .5 0 t
377.42 164.71 (>) .5 0 t
377.79 166.23 1.00 1.00 r p2
379.16 164.71 (<) .5 0 t
380.03 164.71 (<) .5 0 t
380.90 164.71 (<) .5 0 t
381.77 164.71 (<) .5 0 t
382.64 164.71 (<) .5 0 t
383.51 164.71 (<) .5 0 t
384.39 164.71 (<) .5 0 t
385.26 164.71 (<) .5 0 t
386.13 164.71 (<) .5 0 t
387.00 164.71 (<) .5 0 t
387.37 166.23 1.00 1.00 r p2
388.24 166.23 1.00 1.00 r p2
389.11 166.23 1.00 1.00 r p2
389.98 166.23 1.00 1.00 r p2
390.85 166.23 1.00 1.00 r p2
391.72 166.23 1.00 1.00 r p2
392.59 166.23 1.00 1.00 r p2
393.46 166.23 1.00 1.00 r p2
394.34 166.23 1.00 1.00 r p2
395.21 166.23 1.00 1.00 r p2
396.08 166.23 1.00 1.00 r p2
396.95 166.23 1.00 1.00 r p2
397.82 166.23 1.00 1.00 r p2
398.69 166.23 1.00 1.00 r p2
399.56 166.23 1.00 1.00 r p2
400.43 166.23 1.00 1.00 r p2
401.30 166.23 1.00 1.00 r p2
402.17 166.23 1.00 1.00 r p2
403.04 166.23 1.00 1.00 r p2
403.92 166.23 1.00 1.00 r p2
404.79 166.23 1.00 1.00 r p2
405.66 166.23 1.00 1.00 r p2
406.53 166.23 1.00 1.00 r p2
407.40 166.23 1.00 1.00 r p2
408.27 166.23 1.00 1.00 r p2
409.14 166.23 1.00 1.00 r p2
410.01 166.23 1.00 1.00 r p2
410.88 166.23 1.00 1.00 r p2
411.75 166.23 1.00 1.00 r p2
412.62 166.23 1.00 1.00 r p2
413.50 166.23 1.00 1.00 r p2
414.37 166.23 1.00 1.00 r p2
415.24 166.23 1.00 1.00 r p2
416.11 166.23 1.00 1.00 r p2
416.98 166.23 1.00 1.00 r p2
418.35 164.71 (>) .5 0 t
419.22 164.71 (>) .5 0 t
420.09 164.71 (>) .5 0 t
420.96 164.71 (>) .5 0 t
421.83 164.71 (>) .5 0 t
422.70 164.71 (>) .5 0 t
423.58 164.71 (>) .5 0 t
424.45 164.71 (>) .5 0 t
425.32 164.71 (>) .5 0 t
426.19 164.71 (>) .5 0 t
426.56 166.23 1.00 1.00 r p2
427.43 166.23 1.00 1.00 r p2
428.30 166.23 1.00 1.00 r p2
429.17 166.23 1.00 1.00 r p2
430.04 166.23 1.00 1.00 r p2
430.91 166.23 1.00 1.00 r p2
431.78 166.23 1.00 1.00 r p2
433.16 164.64 (a) .5 0 t
434.03 164.64 (a) .5 0 t
434.90 164.64 (a) .5 0 t
435.77 164.64 (a) .5 0 t
436.64 164.64 (a) .5 0 t
437.51 164.64 (a) .5 0 t
437.88 166.23 1.00 1.00 r p2
439.25 164.71 (<) .5 0 t
440.12 164.71 (<) .5 0 t
440.49 166.23 1.00 1.00 r p2
441.36 166.23 1.00 1.00 r p2
442.23 166.23 1.00 1.00 r p2
443.61 164.71 (<) .5 0 t
444.48 164.71 (<) .5 0 t
445.35 164.71 (<) .5 0 t
446.22 164.71 (<) .5 0 t
447.09 164.71 (<) .5 0 t
447.46 166.23 1.00 1.00 r p2
448.33 166.23 1.00 1.00 r p2
449.20 166.23 1.00 1.00 r p2
450.07 166.23 1.00 1.00 r p2
451.44 164.71 (>) .5 0 t
452.31 164.71 (>) .5 0 t
453.19 164.71 (>) .5 0 t
454.06 164.71 (>) .5 0 t
454.93 164.71 (>) .5 0 t
455.30 166.23 1.00 1.00 r p2
456.67 164.71 (<) .5 0 t
457.54 164.71 (<) .5 0 t
458.41 164.71 (<) .5 0 t
459.28 164.71 (<) .5 0 t
460.15 164.71 (<) .5 0 t
461.02 164.71 (<) .5 0 t
461.89 164.71 (<) .5 0 t
462.77 164.71 (<) .5 0 t
463.64 164.71 (<) .5 0 t
464.01 166.23 1.00 1.00 r p2
464.88 166.23 1.00 1.00 r p2
465.75 166.23 1.00 1.00 r p2
466.62 166.23 1.00 1.00 r p2
467.99 164.71 (<) .5 0 t
468.86 164.71 (<) .5 0 t
469.73 164.71 (<) .5 0 t
470.60 164.71 (<) .5 0 t
470.97 166.23 1.00 1.00 r p2
471.85 166.23 1.00 1.00 r p2
472.72 166.23 1.00 1.00 r p2
473.59 166.23 1.00 1.00 r p2
474.46 166.23 1.00 1.00 r p2
475.33 166.23 1.00 1.00 r p2
476.70 164.71 (>) .5 0 t
477.57 164.71 (>) .5 0 t
478.44 164.71 (>) .5 0 t
479.31 164.71 (>) .5 0 t
479.68 166.23 1.00 1.00 r p2
480.55 166.23 1.00 1.00 r p2
481.43 166.23 1.00 1.00 r p2
482.80 164.71 (>) .5 0 t
483.67 164.71 (>) .5 0 t
484.54 164.71 (>) .5 0 t
485.41 164.71 (>) .5 0 t
486.28 164.71 (>) .5 0 t
487.15 164.71 (>) .5 0 t
488.02 164.71 (>) .5 0 t
488.89 164.71 (>) .5 0 t
489.76 164.71 (>) .5 0 t
490.13 166.23 1.00 1.00 r p2
491.00 166.23 1.00 1.00 r p2
491.88 166.23 1.00 1.00 r p2
492.75 166.23 1.00 1.00 r p2
493.62 166.23 1.00 1.00 r p2
494.49 166.23 1.00 1.00 r p2
495.86 164.71 (<) .5 0 t
496.73 164.71 (<) .5 0 t
497.60 164.71 (<) .5 0 t
498.47 164.71 (<) .5 0 t
499.34 164.71 (<) .5 0 t
500.21 164.71 (<) .5 0 t
500.58 166.23 1.00 1.00 r p2
501.46 166.23 1.00 1.00 r p2
502.33 166.23 1.00 1.00 r p2
503.20 166.23 1.00 1.00 r p2
504.07 166.23 1.00 1.00 r p2
504.94 166.23 1.00 1.00 r p2
505.81 166.23 1.00 1.00 r p2
506.68 166.23 1.00 1.00 r p2
507.55 166.23 1.00 1.00 r p2
508.42 166.23 1.00 1.00 r p2
509.29 166.23 1.00 1.00 r p2
510.16 166.23 1.00 1.00 r p2
511.04 166.23 1.00 1.00 r p2
511.91 166.23 1.00 1.00 r p2
512.78 166.23 1.00 1.00 r p2
513.65 166.23 1.00 1.00 r p2
514.52 166.23 1.00 1.00 r p2
515.39 166.23 1.00 1.00 r p2
516.26 166.23 1.00 1.00 r p2
517.13 166.23 1.00 1.00 r p2
518.00 166.23 1.00 1.00 r p2
518.87 166.23 1.00 1.00 r p2
519.74 166.23 1.00 1.00 r p2
520.62 166.23 1.00 1.00 r p2
521.49 166.23 1.00 1.00 r p2
522.36 166.23 1.00 1.00 r p2
523.23 166.23 1.00 1.00 r p2
524.10 166.23 1.00 1.00 r p2
524.97 166.23 1.00 1.00 r p2
525.84 166.23 1.00 1.00 r p2
526.71 166.23 1.00 1.00 r p2
527.58 166.23 1.00 1.00 r p2
528.45 166.23 1.00 1.00 r p2
529.32 166.23 1.00 1.00 r p2
530.20 166.23 1.00 1.00 r p2
531.07 166.23 1.00 1.00 r p2
531.94 166.23 1.00 1.00 r p2
532.81 166.23 1.00 1.00 r p2
533.68 166.23 1.00 1.00 r p2
534.55 166.23 1.00 1.00 r p2
535.42 166.23 1.00 1.00 r p2
536.29 166.23 1.00 1.00 r p2
537.16 166.23 1.00 1.00 r p2
538.03 166.23 1.00 1.00 r p2
538.90 166.23 1.00 1.00 r p2
539.78 166.23 1.00 1.00 r p2
540.65 166.23 1.00 1.00 r p2
541.52 166.23 1.00 1.00 r p2
542.39 166.23 1.00 1.00 r p2
543.26 166.23 1.00 1.00 r p2
544.13 166.23 1.00 1.00 r p2
545.00 166.23 1.00 1.00 r p2
545.87 166.23 1.00 1.00 r p2
546.74 166.23 1.00 1.00 r p2
547.61 166.23 1.00 1.00 r p2
548.48 166.23 1.00 1.00 r p2
549.35 166.23 1.00 1.00 r p2
550.23 166.23 1.00 1.00 r p2
551.10 166.23 1.00 1.00 r p2
551.97 166.23 1.00 1.00 r p2
553.34 164.71 (>) .5 0 t
554.21 164.71 (>) .5 0 t
555.08 164.71 (>) .5 0 t
555.95 164.71 (>) .5 0 t
556.82 164.71 (>) .5 0 t
557.69 164.71 (>) .5 0 t
558.06 166.23 1.00 1.00 r p2
558.93 166.23 1.00 1.00 r p2
559.81 166.23 1.00 1.00 r p2
560.68 166.23 1.00 1.00 r p2
561.55 166.23 1.00 1.00 r p2
562.42 166.23 1.00 1.00 r p2
563.29 166.23 1.00 1.00 r p2
564.16 166.23 1.00 1.00 r p2
565.03 166.23 1.00 1.00 r p2
565.90 166.23 1.00 1.00 r p2
566.77 166.23 1.00 1.00 r p2
567.64 166.23 1.00 1.00 r p2
568.51 166.23 1.00 1.00 r p2
569.39 166.23 1.00 1.00 r p2
570.26 166.23 1.00 1.00 r p2
571.13 166.23 1.00 1.00 r p2
572.00 166.23 1.00 1.00 r p2
572.87 166.23 1.00 1.00 r p2
573.74 166.23 1.00 1.00 r p2
574.61 166.23 1.00 1.00 r p2
575.48 166.23 1.00 1.00 r p2
576.35 166.23 1.00 1.00 r p2
577.22 166.23 1.00 1.00 r p2
578.09 166.23 1.00 1.00 r p2
578.97 166.23 1.00 1.00 r p2
579.84 166.23 1.00 1.00 r p2
580.71 166.23 1.00 1.00 r p2
581.58 166.23 1.00 1.00 r p2
582.45 166.23 1.00 1.00 r p2
583.32 166.23 1.00 1.00 r p2
584.19 166.23 1.00 1.00 r p2
585.06 166.23 1.00 1.00 r p2
585.93 166.23 1.00 1.00 r p2
586.80 166.23 1.00 1.00 r p2
587.67 166.23 1.00 1.00 r p2
588.55 166.23 1.00 1.00 r p2
589.42 166.23 1.00 1.00 r p2
590.29 166.23 1.00 1.00 r p2
591.16 166.23 1.00 1.00 r p2
592.03 166.23 1.00 1.00 r p2
592.90 166.23 1.00 1.00 r p2
593.77 166.23 1.00 1.00 r p2
594.64 166.23 1.00 1.00 r p2
595.51 166.23 1.00 1.00 r p2
596.38 166.23 1.00 1.00 r p2
597.25 166.23 1.00 1.00 r p2
598.12 166.23 1.00 1.00 r p2
599.00 166.23 1.00 1.00 r p2
599.87 166.23 1.00 1.00 r p2
600.74 166.23 1.00 1.00 r p2
601.61 166.23 1.00 1.00 r p2
602.48 166.23 1.00 1.00 r p2
603.35 166.23 1.00 1.00 r p2
604.22 166.23 1.00 1.00 r p2
605.09 166.23 1.00 1.00 r p2
605.96 166.23 1.00 1.00 r p2
606.83 166.23 1.00 1.00 r p2
607.70 166.23 1.00 1.00 r p2
608.58 166.23 1.00 1.00 r p2
609.45 166.23 1.00 1.00 r p2
610.32 166.23 1.00 1.00 r p2
611.19 166.23 1.00 1.00 r p2
612.06 166.23 1.00 1.00 r p2
612.93 166.23 1.00 1.00 r p2
613.80 166.23 1.00 1.00 r p2
614.67 166.23 1.00 1.00 r p2
615.54 166.23 1.00 1.00 r p2
616.41 166.23 1.00 1.00 r p2
617.28 166.23 1.00 1.00 r p2
618.16 166.23 1.00 1.00 r p2
619.03 166.23 1.00 1.00 r p2
619.90 166.23 1.00 1.00 r p2
620.77 166.23 1.00 1.00 r p2
621.64 166.23 1.00 1.00 r p2
622.51 166.23 1.00 1.00 r p2
623.38 166.23 1.00 1.00 r p2
624.25 166.23 1.00 1.00 r p2
625.12 166.23 1.00 1.00 r p2
625.99 166.23 1.00 1.00 r p2
626.86 166.23 1.00 1.00 r p2
627.74 166.23 1.00 1.00 r p2
628.61 166.23 1.00 1.00 r p2
629.48 166.23 1.00 1.00 r p2
630.35 166.23 1.00 1.00 r p2
631.22 166.23 1.00 1.00 r p2
632.09 166.23 1.00 1.00 r p2
632.96 166.23 1.00 1.00 r p2
633.83 166.23 1.00 1.00 r p2
634.70 166.23 1.00 1.00 r p2
635.57 166.23 1.00 1.00 r p2
636.44 166.23 1.00 1.00 r p2
637.32 166.23 1.00 1.00 r p2
638.19 166.23 1.00 1.00 r p2
639.06 166.23 1.00 1.00 r p2
639.93 166.23 1.00 1.00 r p2
640.80 166.23 1.00 1.00 r p2
641.67 166.23 1.00 1.00 r p2
642.54 166.23 1.00 1.00 r p2
643.41 166.23 1.00 1.00 r p2
644.28 166.23 1.00 1.00 r p2
645.15 166.23 1.00 1.00 r p2
646.02 166.23 1.00 1.00 r p2
646.89 166.23 1.00 1.00 r p2
647.77 166.23 1.00 1.00 r p2
648.64 166.23 1.00 1.00 r p2
649.51 166.23 1.00 1.00 r p2
650.38 166.23 1.00 1.00 r p2
651.25 166.23 1.00 1.00 r p2
652.12 166.23 1.00 1.00 r p2
652.99 166.23 1.00 1.00 r p2
653.86 166.23 1.00 1.00 r p2
654.73 166.23 1.00 1.00 r p2
655.60 166.23 1.00 1.00 r p2
656.47 166.23 1.00 1.00 r p2
657.35 166.23 1.00 1.00 r p2
658.72 164.71 (>) .5 0 t
659.59 164.71 (>) .5 0 t
659.96 166.23 1.00 1.00 r p2
660.83 166.23 1.00 1.00 r p2
661.70 166.23 1.00 1.00 r p2
662.57 166.23 1.00 1.00 r p2
663.44 166.23 1.00 1.00 r p2
664.31 166.23 1.00 1.00 r p2
665.18 166.23 1.00 1.00 r p2
666.05 166.23 1.00 1.00 r p2
666.93 166.23 1.00 1.00 r p2
667.80 166.23 1.00 1.00 r p2
668.67 166.23 1.00 1.00 r p2
669.54 166.23 1.00 1.00 r p2
670.41 166.23 1.00 1.00 r p2
0.00 0.00 720.00 180.00 cl
0.00 0.00 720.00 180.00 cl
0 0 0 srgb
0.75 setlinewidth
[] 0 setdash
1 setlinecap
1 setlinejoin
10.00 setmiterlimit
np
49.09 36.00 m
618.34 0 l
o
np
49.09 36.00 m
0 -7.20 l
o
np
57.80 36.00 m
0 -7.20 l
o
np
66.51 36.00 m
0 -7.20 l
o
np
75.22 36.00 m
0 -7.20 l
o
np
83.93 36.00 m
0 -7.20 l
o
np
92.64 36.00 m
0 -7.20 l
o
np
101.34 36.00 m
0 -7.20 l
o
np
110.05 36.00 m
0 -7.20 l
o
np
118.76 36.00 m
0 -7.20 l
o
np
127.47 36.00 m
0 -7.20 l
o
np
136.18 36.00 m
0 -7.20 l
o
np
144.89 36.00 m
0 -7.20 l
o
np
153.60 36.00 m
0 -7.20 l
o
np
162.31 36.00 m
0 -7.20 l
o
np
171.02 36.00 m
0 -7.20 l
o
np
179.72 36.00 m
0 -7.20 l
o
np
188.43 36.00 m
0 -7.20 l
o
np
197.14 36.00 m
0 -7.20 l
o
np
205.85 36.00 m
0 -7.20 l
o
np
214.56 36.00 m
0 -7.20 l
o
np
223.27 36.00 m
0 -7.20 l
o
np
231.98 36.00 m
0 -7.20 l
o
np
240.69 36.00 m
0 -7.20 l
o
np
249.40 36.00 m
0 -7.20 l
o
np
258.11 36.00 m
0 -7.20 l
o
np
266.81 36.00 m
0 -7.20 l
o
np
275.52 36.00 m
0 -7.20 l
o
np
284.23 36.00 m
0 -7.20 l
o
np
292.94 36.00 m
0 -7.20 l
o
np
301.65 36.00 m
0 -7.20 l
o
np
310.36 36.00 m
0 -7.20 l
o
np
319.07 36.00 m
0 -7.20 l
o
np
327.78 36.00 m
0 -7.20 l
o
np
336.49 36.00 m
0 -7.20 l
o
np
345.19 36.00 m
0 -7.20 l
o
np
353.90 36.00 m
0 -7.20 l
o
np
362.61 36.00 m
0 -7.20 l
o
np
371.32 36.00 m
0 -7.20 l
o
np
380.03 36.00 m
0 -7.20 l
o
np
388.74 36.00 m
0 -7.20 l
o
np
397.45 36.00 m
0 -7.20 l
o
np
406.16 36.00 m
0 -7.20 l
o
np
414.87 36.00 m
0 -7.20 l
o
np
423.58 36.00 m
0 -7.20 l
o
np
432.28 36.00 m
0 -7.20 l
o
np
440.99 36.00 m
0 -7.20 l
o
np
449.70 36.00 m
0 -7.20 l
o
np
458.41 36.00 m
0 -7.20 l
o
np
467.12 36.00 m
0 -7.20 l
o
np
475.83 36.00 m
0 -7.20 l
o
np
484.54 36.00 m
0 -7.20 l
o
np
493.25 36.00 m
0 -7.20 l
o
np
501.96 36.00 m
0 -7.20 l
o
np
510.66 36.00 m
0 -7.20 l
o
np
519.37 36.00 m
0 -7.20 l
o
np
528.08 36.00 m
0 -7.20 l
o
np
536.79 36.00 m
0 -7.20 l
o
np
545.50 36.00 m
0 -7.20 l
o
np
554.21 36.00 m
0 -7.20 l
o
np
562.92 36.00 m
0 -7.20 l
o
np
571.63 36.00 m
0 -7.20 l
o
np
580.34 36.00 m
0 -7.20 l
o
np
589.05 36.00 m
0 -7.20 l
o
np
597.75 36.00 m
0 -7.20 l
o
np
606.46 36.00 m
0 -7.20 l
o
np
615.17 36.00 m
0 -7.20 l
o
np
623.88 36.00 m
0 -7.20 l
o
np
632.59 36.00 m
0 -7.20 l
o
np
641.30 36.00 m
0 -7.20 l
o
np
650.01 36.00 m
0 -7.20 l
o
np
658.72 36.00 m
0 -7.20 l
o
np
667.43 36.00 m
0 -7.20 l
o
/Font1 findfont 12 s
49.09 10.08 (0) .5 0 t
75.22 10.08 (30) .5 0 t
101.34 10.08 (60) .5 0 t
127.47 10.08 (90) .5 0 t
162.31 10.08 (130) .5 0 t
197.14 10.08 (170) .5 0 t
231.98 10.08 (210) .5 0 t
266.81 10.08 (250) .5 0 t
301.65 10.08 (290) .5 0 t
336.49 10.08 (330) .5 0 t
371.32 10.08 (370) .5 0 t
406.16 10.08 (410) .5 0 t
440.99 10.08 (450) .5 0 t
475.83 10.08 (490) .5 0 t
510.66 10.08 (530) .5 0 t
545.50 10.08 (570) .5 0 t
580.34 10.08 (610) .5 0 t
615.17 10.08 (650) .5 0 t
650.01 10.08 (690) .5 0 t
18.00 36.00 702.00 180.00 cl
/bg { 0 0 0 srgb } def
49.46 158.29 1.00 1.00 r p2
50.33 158.29 1.00 1.00 r p2
51.20 158.29 1.00 1.00 r p2
/Font1 findfont 8 s
0 0 0 srgb
52.57 156.77 (<) .5 0 t
53.45 156.77 (<) .5 0 t
54.32 156.77 (<) .5 0 t
55.19 156.77 (<) .5 0 t
56.06 156.77 (<) .5 0 t
56.93 156.77 (<) .5 0 t
57.30 158.29 1.00 1.00 r p2
58.17 158.29 1.00 1.00 r p2
59.54 156.77 (<) .5 0 t
59.91 158.29 1.00 1.00 r p2
60.78 158.29 1.00 1.00 r p2
61.65 158.29 1.00 1.00 r p2
62.53 158.29 1.00 1.00 r p2
63.40 158.29 1.00 1.00 r p2
64.27 158.29 1.00 1.00 r p2
65.14 158.29 1.00 1.00 r p2
66.01 158.29 1.00 1.00 r p2
66.88 158.29 1.00 1.00 r p2
67.75 158.29 1.00 1.00 r p2
68.62 158.29 1.00 1.00 r p2
69.49 158.29 1.00 1.00 r p2
70.36 158.29 1.00 1.00 r p2
71.23 158.29 1.00 1.00 r p2
72.11 158.29 1.00 1.00 r p2
72.98 158.29 1.00 1.00 r p2
73.85 158.29 1.00 1.00 r p2
74.72 158.29 1.00 1.00 r p2
75.59 158.29 1.00 1.00 r p2
76.46 158.29 1.00 1.00 r p2
77.33 158.29 1.00 1.00 r p2
78.20 158.29 1.00 1.00 r p2
79.07 158.29 1.00 1.00 r p2
79.94 158.29 1.00 1.00 r p2
80.81 158.29 1.00 1.00 r p2
81.68 158.29 1.00 1.00 r p2
82.56 158.29 1.00 1.00 r p2
83.43 158.29 1.00 1.00 r p2
84.30 158.29 1.00 1.00 r p2
85.17 158.29 1.00 1.00 r p2
86.04 158.29 1.00 1.00 r p2
86.91 158.29 1.00 1.00 r p2
87.78 158.29 1.00 1.00 r p2
88.65 158.29 1.00 1.00 r p2
89.52 158.29 1.00 1.00 r p2
90.39 158.29 1.00 1.00 r p2
91.26 158.29 1.00 1.00 r p2
92.14 158.29 1.00 1.00 r p2
93.01 158.29 1.00 1.00 r p2
93.88 158.29 1.00 1.00 r p2
94.75 158.29 1.00 1.00 r p2
95.62 158.29 1.00 1.00 r p2
96.49 158.29 1.00 1.00 r p2
97.36 158.29 1.00 1.00 r p2
98.23 158.29 1.00 1.00 r p2
99.10 158.29 1.00 1.00 r p2
99.97 158.29 1.00 1.00 r p2
100.84 158.29 1.00 1.00 r p2
102.22 156.77 (>) .5 0 t
103.09 156.77 (>) .5 0 t
103.96 156.77 (>) .5 0 t
104.83 156.77 (>) .5 0 t
105.70 156.77 (>) .5 0 t
106.57 156.77 (>) .5 0 t
107.44 156.77 (>) .5 0 t
107.81 158.29 1.00 1.00 r p2
108.68 158.29 1.00 1.00 r p2
109.55 158.29 1.00 1.00 r p2
110.92 156.77 (<) .5 0 t
111.80 156.77 (<) .5 0 t
112.67 156.77 (<) .5 0 t
113.54 156.77 (<) .5 0 t
114.41 156.77 (<) .5 0 t
115.28 156.77 (<) .5 0 t
115.65 158.29 1.00 1.00 r p2
116.52 158.29 1.00 1.00 r p2
117.39 158.29 1.00 1.00 r p2
118.26 158.29 1.00 1.00 r p2
119.13 158.29 1.00 1.00 r p2
120.00 158.29 1.00 1.00 r p2
120.88 158.29 1.00 1.00 r p2
121.75 158.29 1.00 1.00 r p2
122.62 158.29 1.00 1.00 r p2
123.49 158.29 1.00 1.00 r p2
124.36 158.29 1.00 1.00 r p2
125.23 158.29 1.00 1.00 r p2
126.10 158.29 1.00 1.00 r p2
126.97 158.29 1.00 1.00 r p2
127.84 158.29 1.00 1.00 r p2
128.71 158.29 1.00 1.00 r p2
129.58 158.29 1.00 1.00 r p2
130.45 158.29 1.00 1.00 r p2
131.33 158.29 1.00 1.00 r p2
132.20 158.29 1.00 1.00 r p2
133.07 158.29 1.00 1.00 r p2
133.94 158.29 1.00 1.00 r p2
134.81 158.29 1.00 1.00 r p2
135.68 158.29 1.00 1.00 r p2
136.55 158.29 1.00 1.00 r p2
137.42 158.29 1.00 1.00 r p2
138.29 158.29 1.00 1.00 r p2
139.16 158.29 1.00 1.00 r p2
140.03 158.29 1.00 1.00 r p2
140.91 158.29 1.00 1.00 r p2
141.78 158.29 1.00 1.00 r p2
142.65 158.29 1.00 1.00 r p2
143.52 158.29 1.00 1.00 r p2
144.39 158.29 1.00 1.00 r p2
145.26 158.29 1.00 1.00 r p2
146.13 158.29 1.00 1.00 r p2
147.00 158.29 1.00 1.00 r p2
147.87 158.29 1.00 1.00 r p2
148.74 158.29 1.00 1.00 r p2
149.61 158.29 1.00 1.00 r p2
150.49 158.29 1.00 1.00 r p2
151.36 158.29 1.00 1.00 r p2
152.23 158.29 1.00 1.00 r p2
153.10 158.29 1.00 1.00 r p2
153.97 158.29 1.00 1.00 r p2
154.84 158.29 1.00 1.00 r p2
155.71 158.29 1.00 1.00 r p2
156.58 158.29 1.00 1.00 r p2
157.45 158.29 1.00 1.00 r p2
158.32 158.29 1.00 1.00 r p2
159.19 158.29 1.00 1.00 r p2
160.57 156.77 (>) .5 0 t
161.44 156.77 (>) .5 0 t
162.31 156.77 (>) .5 0 t
163.18 156.77 (>) .5 0 t
164.05 156.77 (>) .5 0 t
164.92 156.77 (>) .5 0 t
165.29 158.29 1.00 1.00 r p2
166.16 158.29 1.00 1.00 r p2
167.53 156.77 (<) .5 0 t
168.40 156.77 (<) .5 0 t
169.27 156.77 (<) .5 0 t
170.15 156.77 (<) .5 0 t
170.52 158.29 1.00 1.00 r p2
171.89 156.77 (<) .5 0 t
172.76 156.77 (<) .5 0 t
173.63 156.77 (<) .5 0 t
174.50 156.77 (<) .5 0 t
175.37 156.77 (<) .5 0 t
176.24 156.77 (<) .5 0 t
176.61 158.29 1.00 1.00 r p2
177.48 158.29 1.00 1.00 r p2
178.35 158.29 1.00 1.00 r p2
179.22 158.29 1.00 1.00 r p2
180.10 158.29 1.00 1.00 r p2
180.97 158.29 1.00 1.00 r p2
181.84 158.29 1.00 1.00 r p2
182.71 158.29 1.00 1.00 r p2
183.58 158.29 1.00 1.00 r p2
184.45 158.29 1.00 1.00 r p2
185.32 158.29 1.00 1.00 r p2
186.19 158.29 1.00 1.00 r p2
187.06 158.29 1.00 1.00 r p2
187.93 158.29 1.00 1.00 r p2
188.80 158.29 1.00 1.00 r p2
189.68 158.29 1.00 1.00 r p2
190.55 158.29 1.00 1.00 r p2
191.42 158.29 1.00 1.00 r p2
192.29 158.29 1.00 1.00 r p2
193.16 158.29 1.00 1.00 r p2
194.03 158.29 1.00 1.00 r p2
194.90 158.29 1.00 1.00 r p2
195.77 158.29 1.00 1.00 r p2
196.64 158.29 1.00 1.00 r p2
197.51 158.29 1.00 1.00 r p2
198.38 158.29 1.00 1.00 r p2
199.26 158.29 1.00 1.00 r p2
200.13 158.29 1.00 1.00 r p2
201.00 158.29 1.00 1.00 r p2
201.87 158.29 1.00 1.00 r p2
202.74 158.29 1.00 1.00 r p2
203.61 158.29 1.00 1.00 r p2
204.48 158.29 1.00 1.00 r p2
205.35 158.29 1.00 1.00 r p2
206.22 158.29 1.00 1.00 r p2
207.09 158.29 1.00 1.00 r p2
207.96 158.29 1.00 1.00 r p2
208.84 158.29 1.00 1.00 r p2
209.71 158.29 1.00 1.00 r p2
210.58 158.29 1.00 1.00 r p2
211.45 158.29 1.00 1.00 r p2
212.32 158.29 1.00 1.00 r p2
213.19 158.29 1.00 1.00 r p2
214.06 158.29 1.00 1.00 r p2
214.93 158.29 1.00 1.00 r p2
215.80 158.29 1.00 1.00 r p2
216.67 158.29 1.00 1.00 r p2
217.54 158.29 1.00 1.00 r p2
218.42 158.29 1.00 1.00 r p2
219.79 156.77 (>) .5 0 t
220.66 156.77 (>) .5 0 t
221.53 156.77 (>) .5 0 t
222.40 156.77 (>) .5 0 t
223.27 156.77 (>) .5 0 t
224.14 156.77 (>) .5 0 t
225.01 156.77 (>) .5 0 t
225.38 158.29 1.00 1.00 r p2
226.75 156.77 (>) .5 0 t
227.62 156.77 (>) .5 0 t
228.50 156.77 (>) .5 0 t
228.87 158.29 1.00 1.00 r p2
229.74 158.29 1.00 1.00 r p2
230.61 158.29 1.00 1.00 r p2
231.98 155.92 (A) .5 0 t
232.85 155.92 (A) .5 0 t
233.72 155.92 (A) .5 0 t
234.59 155.92 (A) .5 0 t
234.96 158.29 1.00 1.00 r p2
236.33 155.92 (A) .5 0 t
237.20 155.92 (A) .5 0 t
238.07 155.92 (A) .5 0 t
238.45 158.29 1.00 1.00 r p2
239.32 158.29 1.00 1.00 r p2
240.19 158.29 1.00 1.00 r p2
241.06 158.29 1.00 1.00 r p2
241.93 158.29 1.00 1.00 r p2
243.30 156.77 (<) .5 0 t
244.17 156.77 (<) .5 0 t
245.04 156.77 (<) .5 0 t
245.91 156.77 (<) .5 0 t
246.78 156.77 (<) .5 0 t
247.65 156.77 (<) .5 0 t
248.03 158.29 1.00 1.00 r p2
248.90 158.29 1.00 1.00 r p2
250.27 156.77 (<) .5 0 t
251.14 156.77 (<) .5 0 t
252.01 156.77 (<) .5 0 t
252.38 158.29 1.00 1.00 r p2
253.25 158.29 1.00 1.00 r p2
254.12 158.29 1.00 1.00 r p2
255.49 156.77 (<) .5 0 t
256.36 156.77 (<) .5 0 t
257.23 156.77 (<) .5 0 t
258.11 156.77 (<) .5 0 t
258.98 156.77 (<) .5 0 t
259.35 158.29 1.00 1.00 r p2
260.22 158.29 1.00 1.00 r p2
261.09 158.29 1.00 1.00 r p2
261.96 158.29 1.00 1.00 r p2
262.83 158.29 1.00 1.00 r p2
263.70 158.29 1.00 1.00 r p2
264.57 158.29 1.00 1.00 r p2
265.44 158.29 1.00 1.00 r p2
266.31 158.29 1.00 1.00 r p2
267.19 158.29 1.00 1.00 r p2
268.06 158.29 1.00 1.00 r p2
268.93 158.29 1.00 1.00 r p2
269.80 158.29 1.00 1.00 r p2
270.67 158.29 1.00 1.00 r p2
271.54 158.29 1.00 1.00 r p2
272.41 158.29 1.00 1.00 r p2
273.28 158.29 1.00 1.00 r p2
274.15 158.29 1.00 1.00 r p2
275.02 158.29 1.00 1.00 r p2
275.89 158.29 1.00 1.00 r p2
276.77 158.29 1.00 1.00 r p2
277.64 158.29 1.00 1.00 r p2
278.51 158.29 1.00 1.00 r p2
279.38 158.29 1.00 1.00 r p2
280.25 158.29 1.00 1.00 r p2
281.12 158.29 1.00 1.00 r p2
281.99 158.29 1.00 1.00 r p2
282.86 158.29 1.00 1.00 r p2
283.73 158.29 1.00 1.00 r p2
284.60 158.29 1.00 1.00 r p2
285.47 158.29 1.00 1.00 r p2
286.34 158.29 1.00 1.00 r p2
287.22 158.29 1.00 1.00 r p2
288.09 158.29 1.00 1.00 r p2
288.96 158.29 1.00 1.00 r p2
289.83 158.29 1.00 1.00 r p2
290.70 158.29 1.00 1.00 r p2
291.57 158.29 1.00 1.00 r p2
292.44 158.29 1.00 1.00 r p2
293.31 158.29 1.00 1.00 r p2
294.18 158.29 1.00 1.00 r p2
295.05 158.29 1.00 1.00 r p2
296.42 156.77 (>) .5 0 t
297.30 156.77 (>) .5 0 t
298.17 156.77 (>) .5 0 t
299.04 156.77 (>) .5 0 t
299.91 156.77 (>) .5 0 t
300.28 158.29 1.00 1.00 r p2
301.15 158.29 1.00 1.00 r p2
302.02 158.29 1.00 1.00 r p2
303.39 156.77 (>) .5 0 t
304.26 156.77 (>) .5 0 t
305.13 156.77 (>) .5 0 t
305.50 158.29 1.00 1.00 r p2
306.38 158.29 1.00 1.00 r p2
307.75 156.77 (>) .5 0 t
308.62 156.77 (>) .5 0 t
309.49 156.77 (>) .5 0 t
310.36 156.77 (>) .5 0 t
311.23 156.77 (>) .5 0 t
312.10 156.77 (>) .5 0 t
312.47 158.29 1.00 1.00 r p2
313.34 158.29 1.00 1.00 r p2
314.71 156.77 (<) .5 0 t
315.58 156.77 (<) .5 0 t
316.46 156.77 (<) .5 0 t
317.33 156.77 (<) .5 0 t
317.70 158.29 1.00 1.00 r p2
319.07 156.77 (<) .5 0 t
319.94 156.77 (<) .5 0 t
320.81 156.77 (<) .5 0 t
321.68 156.77 (<) .5 0 t
322.55 156.77 (<) .5 0 t
322.92 158.29 1.00 1.00 r p2
323.79 158.29 1.00 1.00 r p2
324.66 158.29 1.00 1.00 r p2
325.54 158.29 1.00 1.00 r p2
326.41 158.29 1.00 1.00 r p2
327.28 158.29 1.00 1.00 r p2
328.15 158.29 1.00 1.00 r p2
329.02 158.29 1.00 1.00 r p2
329.89 158.29 1.00 1.00 r p2
330.76 158.29 1.00 1.00 r p2
331.63 158.29 1.00 1.00 r p2
332.50 158.29 1.00 1.00 r p2
333.37 158.29 1.00 1.00 r p2
334.24 158.29 1.00 1.00 r p2
335.11 158.29 1.00 1.00 r p2
335.99 158.29 1.00 1.00 r p2
336.86 158.29 1.00 1.00 r p2
337.73 158.29 1.00 1.00 r p2
338.60 158.29 1.00 1.00 r p2
339.47 158.29 1.00 1.00 r p2
340.34 158.29 1.00 1.00 r p2
341.21 158.29 1.00 1.00 r p2
342.08 158.29 1.00 1.00 r p2
342.95 158.29 1.00 1.00 r p2
343.82 158.29 1.00 1.00 r p2
344.69 158.29 1.00 1.00 r p2
345.57 158.29 1.00 1.00 r p2
346.44 158.29 1.00 1.00 r p2
347.31 158.29 1.00 1.00 r p2
348.18 158.29 1.00 1.00 r p2
349.05 158.29 1.00 1.00 r p2
350.42 156.77 (>) .5 0 t
351.29 156.77 (>) .5 0 t
352.16 156.77 (>) .5 0 t
353.03 156.77 (>) .5 0 t
353.90 156.77 (>) .5 0 t
354.77 156.77 (>) .5 0 t
355.65 156.77 (>) .5 0 t
356.52 156.77 (>) .5 0 t
357.39 156.77 (>) .5 0 t
357.76 158.29 1.00 1.00 r p2
358.63 158.29 1.00 1.00 r p2
359.50 158.29 1.00 1.00 r p2
360.37 158.29 1.00 1.00 r p2
361.24 158.29 1.00 1.00 r p2
362.61 156.69 (\() .5 0 t
362.98 158.29 1.00 1.00 r p2
364.35 156.69 (\() .5 0 t
365.23 156.69 (\() .5 0 t
366.10 156.69 (\() .5 0 t
366.97 156.69 (\() .5 0 t
367.84 156.69 (\() .5 0 t
368.21 158.29 1.00 1.00 r p2
369.08 158.29 1.00 1.00 r p2
369.95 158.29 1.00 1.00 r p2
370.82 158.29 1.00 1.00 r p2
372.19 156.70 (a) .5 0 t
373.06 156.70 (a) .5 0 t
373.93 156.70 (a) .5 0 t
374.81 156.70 (a) .5 0 t
375.68 156.70 (a) .5 0 t
376.55 156.70 (a) .5 0 t
377.42 156.70 (a) .5 0 t
377.79 158.29 1.00 1.00 r p2
379.16 156.77 (<) .5 0 t
380.03 156.77 (<) .5 0 t
380.90 156.77 (<) .5 0 t
381.77 156.77 (<) .5 0 t
382.64 156.77 (<) .5 0 t
383.51 156.77 (<) .5 0 t
384.39 156.77 (<) .5 0 t
385.26 156.77 (<) .5 0 t
386.13 156.77 (<) .5 0 t
387.00 156.77 (<) .5 0 t
387.37 158.29 1.00 1.00 r p2
388.24 158.29 1.00 1.00 r p2
389.11 158.29 1.00 1.00 r p2
389.98 158.29 1.00 1.00 r p2
390.85 158.29 1.00 1.00 r p2
391.72 158.29 1.00 1.00 r p2
392.59 158.29 1.00 1.00 r p2
393.46 158.29 1.00 1.00 r p2
394.34 158.29 1.00 1.00 r p2
395.21 158.29 1.00 1.00 r p2
396.08 158.29 1.00 1.00 r p2
396.95 158.29 1.00 1.00 r p2
397.82 158.29 1.00 1.00 r p2
398.69 158.29 1.00 1.00 r p2
399.56 158.29 1.00 1.00 r p2
400.43 158.29 1.00 1.00 r p2
401.30 158.29 1.00 1.00 r p2
402.17 158.29 1.00 1.00 r p2
403.04 158.29 1.00 1.00 r p2
403.92 158.29 1.00 1.00 r p2
404.79 158.29 1.00 1.00 r p2
405.66 158.29 1.00 1.00 r p2
406.53 158.29 1.00 1.00 r p2
407.40 158.29 1.00 1.00 r p2
408.27 158.29 1.00 1.00 r p2
409.14 158.29 1.00 1.00 r p2
410.01 158.29 1.00 1.00 r p2
410.88 158.29 1.00 1.00 r p2
411.75 158.29 1.00 1.00 r p2
412.62 158.29 1.00 1.00 r p2
413.50 158.29 1.00 1.00 r p2
414.37 158.29 1.00 1.00 r p2
415.24 158.29 1.00 1.00 r p2
416.11 158.29 1.00 1.00 r p2
416.98 158.29 1.00 1.00 r p2
418.35 156.77 (>) .5 0 t
419.22 156.77 (>) .5 0 t
420.09 156.77 (>) .5 0 t
420.96 156.77 (>) .5 0 t
421.83 156.77 (>) .5 0 t
422.70 156.77 (>) .5 0 t
423.58 156.77 (>) .5 0 t
424.45 156.77 (>) .5 0 t
425.32 156.77 (>) .5 0 t
426.19 156.77 (>) .5 0 t
426.56 158.29 1.00 1.00 r p2
427.43 158.29 1.00 1.00 r p2
428.30 158.29 1.00 1.00 r p2
429.17 158.29 1.00 1.00 r p2
430.04 158.29 1.00 1.00 r p2
430.91 158.29 1.00 1.00 r p2
431.78 158.29 1.00 1.00 r p2
433.16 156.69 (\)) .5 0 t
434.03 156.69 (\)) .5 0 t
434.90 156.69 (\)) .5 0 t
435.77 156.69 (\)) .5 0 t
436.64 156.69 (\)) .5 0 t
437.51 156.69 (\)) .5 0 t
437.88 158.29 1.00 1.00 r p2
439.25 156.77 (<) .5 0 t
440.12 156.77 (<) .5 0 t
440.49 158.29 1.00 1.00 r p2
441.36 158.29 1.00 1.00 r p2
442.23 158.29 1.00 1.00 r p2
443.61 156.77 (<) .5 0 t
444.48 156.77 (<) .5 0 t
445.35 156.77 (<) .5 0 t
446.22 156.77 (<) .5 0 t
447.09 156.77 (<) .5 0 t
447.46 158.29 1.00 1.00 r p2
448.33 158.29 1.00 1.00 r p2
449.20 158.29 1.00 1.00 r p2
450.07 158.29 1.00 1.00 r p2
451.44 156.77 (>) .5 0 t
452.31 156.77 (>) .5 0 t
453.19 156.77 (>) .5 0 t
454.06 156.77 (>) .5 0 t
454.93 156.77 (>) .5 0 t
455.30 158.29 1.00 1.00 r p2
456.67 156.77 (<) .5 0 t
457.54 156.77 (<) .5 0 t
458.41 156.77 (<) .5 0 t
459.28 156.77 (<) .5 0 t
460.15 156.77 (<) .5 0 t
461.02 156.77 (<) .5 0 t
461.89 156.77 (<) .5 0 t
462.77 156.77 (<) .5 0 t
463.64 156.77 (<) .5 0 t
464.01 158.29 1.00 1.00 r p2
464.88 158.29 1.00 1.00 r p2
465.75 158.29 1.00 1.00 r p2
466.62 158.29 1.00 1.00 r p2
467.99 156.77 (<) .5 0 t
468.86 156.77 (<) .5 0 t
469.73 156.77 (<) .5 0 t
470.60 156.77 (<) .5 0 t
470.97 158.29 1.00 1.00 r p2
471.85 158.29 1.00 1.00 r p2
472.72 158.29 1.00 1.00 r p2
473.59 158.29 1.00 1.00 r p2
474.46 158.29 1.00 1.00 r p2
475.33 158.29 1.00 1.00 r p2
476.70 156.77 (>) .5 0 t
477.57 156.77 (>) .5 0 t
478.44 156.77 (>) .5 0 t
479.31 156.77 (>) .5 0 t
479.68 158.29 1.00 1.00 r p2
480.55 158.29 1.00 1.00 r p2
481.43 158.29 1.00 1.00 r p2
482.80 156.77 (>) .5 0 t
483.67 156.77 (>) .5 0 t
484.54 156.77 (>) .5 0 t
485.41 156.77 (>) .5 0 t
486.28 156.77 (>) .5 0 t
487.15 156.77 (>) .5 0 t
488.02 156.77 (>) .5 0 t
488.89 156.77 (>) .5 0 t
489.76 156.77 (>) .5 0 t
490.13 158.29 1.00 1.00 r p2
491.00 158.29 1.00 1.00 r p2
491.88 158.29 1.00 1.00 r p2
492.75 158.29 1.00 1.00 r p2
493.62 158.29 1.00 1.00 r p2
494.49 158.29 1.00 1.00 r p2
495.86 156.77 (<) .5 0 t
496.73 156.77 (<) .5 0 t
497.60 156.77 (<) .5 0 t
498.47 156.77 (<) .5 0 t
499.34 156.77 (<) .5 0 t
500.21 156.77 (<) .5 0 t
500.58 158.29 1.00 1.00 r p2
501.46 158.29 1.00 1.00 r p2
502.33 158.29 1.00 1.00 r p2
503.20 158.29 1.00 1.00 r p2
504.07 158.29 1.00 1.00 r p2
504.94 158.29 1.00 1.00 r p2
505.81 158.29 1.00 1.00 r p2
506.68 158.29 1.00 1.00 r p2
507.55 158.29 1.00 1.00 r p2
508.42 158.29 1.00 1.00 r p2
509.29 158.29 1.00 1.00 r p2
510.16 158.29 1.00 1.00 r p2
511.04 158.29 1.00 1.00 r p2
511.91 158.29 1.00 1.00 r p2
512.78 158.29 1.00 1.00 r p2
513.65 158.29 1.00 1.00 r p2
514.52 158.29 1.00 1.00 r p2
515.39 158.29 1.00 1.00 r p2
516.26 158.29 1.00 1.00 r p2
517.13 158.29 1.00 1.00 r p2
518.00 158.29 1.00 1.00 r p2
518.87 158.29 1.00 1.00 r p2
519.74 158.29 1.00 1.00 r p2
520.62 158.29 1.00 1.00 r p2
521.49 158.29 1.00 1.00 r p2
522.36 158.29 1.00 1.00 r p2
523.23 158.29 1.00 1.00 r p2
524.10 158.29 1.00 1.00 r p2
524.97 158.29 1.00 1.00 r p2
525.84 158.29 1.00 1.00 r p2
526.71 158.29 1.00 1.00 r p2
527.58 158.29 1.00 1.00 r p2
528.45 158.29 1.00 1.00 r p2
529.32 158.29 1.00 1.00 r p2
530.20 158.29 1.00 1.00 r p2
531.07 158.29 1.00 1.00 r p2
531.94 158.29 1.00 1.00 r p2
532.81 158.29 1.00 1.00 r p2
533.68 158.29 1.00 1.00 r p2
534.55 158.29 1.00 1.00 r p2
535.42 158.29 1.00 1.00 r p2
536.29 158.29 1.00 1.00 r p2
537.16 158.29 1.00 1.00 r p2
538.03 158.29 1.00 1.00 r p2
538.90 158.29 1.00 1.00 r p2
539.78 158.29 1.00 1.00 r p2
540.65 158.29 1.00 1.00 r p2
541.52 158.29 1.00 1.00 r p2
542.39 158.29 1.00 1.00 r p2
543.26 158.29 1.00 1.00 r p2
544.13 158.29 1.00 1.00 r p2
545.00 158.29 1.00 1.00 r p2
545.87 158.29 1.00 1.00 r p2
546.74 158.29 1.00 1.00 r p2
547.61 158.29 1.00 1.00 r p2
548.48 158.29 1.00 1.00 r p2
549.35 158.29 1.00 1.00 r p2
550.23 158.29 1.00 1.00 r p2
551.10 158.29 1.00 1.00 r p2
551.97 158.29 1.00 1.00 r p2
553.34 156.77 (>) .5 0 t
554.21 156.77 (>) .5 0 t
555.08 156.77 (>) .5 0 t
555.95 156.77 (>) .5 0 t
556.82 156.77 (>) .5 0 t
557.69 156.77 (>) .5 0 t
558.06 158.29 1.00 1.00 r p2
558.93 158.29 1.00 1.00 r p2
559.81 158.29 1.00 1.00 r p2
560.68 158.29 1.00 1.00 r p2
561.55 158.29 1.00 1.00 r p2
562.42 158.29 1.00 1.00 r p2
563.29 158.29 1.00 1.00 r p2
564.16 158.29 1.00 1.00 r p2
565.03 158.29 1.00 1.00 r p2
565.90 158.29 1.00 1.00 r p2
566.77 158.29 1.00 1.00 r p2
567.64 158.29 1.00 1.00 r p2
568.51 158.29 1.00 1.00 r p2
569.39 158.29 1.00 1.00 r p2
570.26 158.29 1.00 1.00 r p2
571.13 158.29 1.00 1.00 r p2
572.00 158.29 1.00 1.00 r p2
572.87 158.29 1.00 1.00 r p2
573.74 158.29 1.00 1.00 r p2
574.61 158.29 1.00 1.00 r p2
575.48 158.29 1.00 1.00 r p2
576.35 158.29 1.00 1.00 r p2
577.22 158.29 1.00 1.00 r p2
578.09 158.29 1.00 1.00 r p2
578.97 158.29 1.00 1.00 r p2
579.84 158.29 1.00 1.00 r p2
580.71 158.29 1.00 1.00 r p2
581.58 158.29 1.00 1.00 r p2
582.45 158.29 1.00 1.00 r p2
583.32 158.29 1.00 1.00 r p2
584.19 158.29 1.00 1.00 r p2
585.06 158.29 1.00 1.00 r p2
585.93 158.29 1.00 1.00 r p2
586.80 158.29 1.00 1.00 r p2
587.67 158.29 1.00 1.00 r p2
588.55 158.29 1.00 1.00 r p2
589.42 158.29 1.00 1.00 r p2
590.29 158.29 1.00 1.00 r p2
591.16 158.29 1.00 1.00 r p2
592.03 158.29 1.00 1.00 r p2
592.90 158.29 1.00 1.00 r p2
593.77 158.29 1.00 1.00 r p2
594.64 158.29 1.00 1.00 r p2
595.51 158.29 1.00 1.00 r p2
596.38 158.29 1.00 1.00 r p2
597.25 158.29 1.00 1.00 r p2
598.12 158.29 1.00 1.00 r p2
599.00 158.29 1.00 1.00 r p2
599.87 158.29 1.00 1.00 r p2
600.74 158.29 1.00 1.00 r p2
601.61 158.29 1.00 1.00 r p2
602.48 158.29 1.00 1.00 r p2
603.35 158.29 1.00 1.00 r p2
604.22 158.29 1.00 1.00 r p2
605.09 158.29 1.00 1.00 r p2
605.96 158.29 1.00 1.00 r p2
606.83 158.29 1.00 1.00 r p2
607.70 158.29 1.00 1.00 r p2
608.58 158.29 1.00 1.00 r p2
609.45 158.29 1.00 1.00 r p2
610.32 158.29 1.00 1.00 r p2
611.19 158.29 1.00 1.00 r p2
612.06 158.29 1.00 1.00 r p2
612.93 158.29 1.00 1.00 r p2
613.80 158.29 1.00 1.00 r p2
614.67 158.29 1.00 1.00 r p2
615.54 158.29 1.00 1.00 r p2
616.41 158.29 1.00 1.00 r p2
617.28 158.29 1.00 1.00 r p2
618.16 158.29 1.00 1.00 r p2
619.03 158.29 1.00 1.00 r p2
619.90 158.29 1.00 1.00 r p2
620.77 158.29 1.00 1.00 r p2
621.64 158.29 1.00 1.00 r p2
622.51 158.29 1.00 1.00 r p2
623.38 158.29 1.00 1.00 r p2
624.25 158.29 1.00 1.00 r p2
625.12 158.29 1.00 1.00 r p2
625.99 158.29 1.00 1.00 r p2
626.86 158.29 1.00 1.00 r p2
627.74 158.29 1.00 1.00 r p2
628.61 158.29 1.00 1.00 r p2
629.48 158.29 1.00 1.00 r p2
630.35 158.29 1.00 1.00 r p2
631.22 158.29 1.00 1.00 r p2
632.09 158.29 1.00 1.00 r p2
632.96 158.29 1.00 1.00 r p2
633.83 158.29 1.00 1.00 r p2
634.70 158.29 1.00 1.00 r p2
635.57 158.29 1.00 1.00 r p2
636.44 158.29 1.00 1.00 r p2
637.32 158.29 1.00 1.00 r p2
638.19 158.29 1.00 1.00 r p2
639.06 158.29 1.00 1.00 r p2
639.93 158.29 1.00 1.00 r p2
640.80 158.29 1.00 1.00 r p2
641.67 158.29 1.00 1.00 r p2
642.54 158.29 1.00 1.00 r p2
643.41 158.29 1.00 1.00 r p2
644.28 158.29 1.00 1.00 r p2
645.15 158.29 1.00 1.00 r p2
646.02 158.29 1.00 1.00 r p2
646.89 158.29 1.00 1.00 r p2
647.77 158.29 1.00 1.00 r p2
648.64 158.29 1.00 1.00 r p2
649.51 158.29 1.00 1.00 r p2
650.38 158.29 1.00 1.00 r p2
651.25 158.29 1.00 1.00 r p2
652.12 158.29 1.00 1.00 r p2
652.99 158.29 1.00 1.00 r p2
653.86 158.29 1.00 1.00 r p2
654.73 158.29 1.00 1.00 r p2
655.60 158.29 1.00 1.00 r p2
656.47 158.29 1.00 1.00 r p2
657.35 158.29 1.00 1.00 r p2
658.72 156.77 (>) .5 0 t
659.59 156.77 (>) .5 0 t
659.96 158.29 1.00 1.00 r p2
660.83 158.29 1.00 1.00 r p2
661.70 158.29 1.00 1.00 r p2
662.57 158.29 1.00 1.00 r p2
663.44 158.29 1.00 1.00 r p2
664.31 158.29 1.00 1.00 r p2
665.18 158.29 1.00 1.00 r p2
666.05 158.29 1.00 1.00 r p2
666.93 158.29 1.00 1.00 r p2
667.80 158.29 1.00 1.00 r p2
668.67 158.29 1.00 1.00 r p2
669.54 158.29 1.00 1.00 r p2
670.41 158.29 1.00 1.00 r p2
49.46 150.36 1.00 1.00 r p2
50.33 150.36 1.00 1.00 r p2
51.20 150.36 1.00 1.00 r p2
52.57 148.05 (1) .5 0 t
53.45 148.05 (1) .5 0 t
54.32 148.05 (1) .5 0 t
55.19 148.05 (1) .5 0 t
56.06 148.05 (1) .5 0 t
56.93 148.05 (1) .5 0 t
57.30 150.36 1.00 1.00 r p2
58.17 150.36 1.00 1.00 r p2
59.54 148.05 (1) .5 0 t
59.91 150.36 1.00 1.00 r p2
60.78 150.36 1.00 1.00 r p2
61.65 150.36 1.00 1.00 r p2
62.53 150.36 1.00 1.00 r p2
63.40 150.36 1.00 1.00 r p2
64.27 150.36 1.00 1.00 r p2
65.14 150.36 1.00 1.00 r p2
66.01 150.36 1.00 1.00 r p2
66.88 150.36 1.00 1.00 r p2
67.75 150.36 1.00 1.00 r p2
68.62 150.36 1.00 1.00 r p2
69.49 150.36 1.00 1.00 r p2
70.36 150.36 1.00 1.00 r p2
71.23 150.36 1.00 1.00 r p2
72.11 150.36 1.00 1.00 r p2
72.98 150.36 1.00 1.00 r p2
73.85 150.36 1.00 1.00 r p2
74.72 150.36 1.00 1.00 r p2
75.59 150.36 1.00 1.00 r p2
76.46 150.36 1.00 1.00 r p2
77.33 150.36 1.00 1.00 r p2
78.20 150.36 1.00 1.00 r p2
79.07 150.36 1.00 1.00 r p2
79.94 150.36 1.00 1.00 r p2
80.81 150.36 1.00 1.00 r p2
81.68 150.36 1.00 1.00 r p2
82.56 150.36 1.00 1.00 r p2
83.43 150.36 1.00 1.00 r p2
84.30 150.36 1.00 1.00 r p2
85.17 150.36 1.00 1.00 r p2
86.04 150.36 1.00 1.00 r p2
86.91 150.36 1.00 1.00 r p2
87.78 150.36 1.00 1.00 r p2
88.65 150.36 1.00 1.00 r p2
89.52 150.36 1.00 1.00 r p2
90.39 150.36 1.00 1.00 r p2
91.26 150.36 1.00 1.00 r p2
92.14 150.36 1.00 1.00 r p2
93.01 150.36 1.00 1.00 r p2
93.88 150.36 1.00 1.00 r p2
94.75 150.36 1.00 1.00 r p2
95.62 150.36 1.00 1.00 r p2
96.49 150.36 1.00 1.00 r p2
97.36 150.36 1.00 1.00 r p2
98.23 150.36 1.00 1.00 r p2
99.10 150.36 1.00 1.00 r p2
99.97 150.36 1.00 1.00 r p2
100.84 150.36 1.00 1.00 r p2
102.22 148.05 (1) .5 0 t
103.09 148.05 (1) .5 0 t
103.96 148.05 (1) .5 0 t
104.83 148.05 (1) .5 0 t
105.70 148.05 (1) .5 0 t
106.57 148.05 (1) .5 0 t
107.44 148.05 (1) .5 0 t
107.81 150.36 1.00 1.00 r p2
108.68 150.36 1.00 1.00 r p2
109.55 150.36 1.00 1.00 r p2
110.92 148.05 (2) .5 0 t
111.80 148.05 (2) .5 0 t
112.67 148.05 (2) .5 0 t
113.54 148.05 (2) .5 0 t
114.41 148.05 (2) .5 0 t
115.28 148.05 (2) .5 0 t
115.65 150.36 1.00 1.00 r p2
116.52 150.36 1.00 1.00 r p2
117.39 150.36 1.00 1.00 r p2
118.26 150.36 1.00 1.00 r p2
119.13 150.36 1.00 1.00 r p2
120.00 150.36 1.00 1.00 r p2
120.88 150.36 1.00 1.00 r p2
121.75 150.36 1.00 1.00 r p2
122.62 150.36 1.00 1.00 r p2
123.49 150.36 1.00 1.00 r p2
124.36 150.36 1.00 1.00 r p2
125.23 150.36 1.00 1.00 r p2
126.10 150.36 1.00 1.00 r p2
126.97 150.36 1.00 1.00 r p2
127.84 150.36 1.00 1.00 r p2
128.71 150.36 1.00 1.00 r p2
129.58 150.36 1.00 1.00 r p2
130.45 150.36 1.00 1.00 r p2
131.33 150.36 1.00 1.00 r p2
132.20 150.36 1.00 1.00 r p2
133.07 150.36 1.00 1.00 r p2
133.94 150.36 1.00 1.00 r p2
134.81 150.36 1.00 1.00 r p2
135.68 150.36 1.00 1.00 r p2
136.55 150.36 1.00 1.00 r p2
137.42 150.36 1.00 1.00 r p2
138.29 150.36 1.00 1.00 r p2
139.16 150.36 1.00 1.00 r p2
140.03 150.36 1.00 1.00 r p2
140.91 150.36 1.00 1.00 r p2
141.78 150.36 1.00 1.00 r p2
142.65 150.36 1.00 1.00 r p2
143.52 150.36 1.00 1.00 r p2
144.39 150.36 1.00 1.00 r p2
145.26 150.36 1.00 1.00 r p2
146.13 150.36 1.00 1.00 r p2
147.00 150.36 1.00 1.00 r p2
147.87 150.36 1.00 1.00 r p2
148.74 150.36 1.00 1.00 r p2
149.61 150.36 1.00 1.00 r p2
150.49 150.36 1.00 1.00 r p2
151.36 150.36 1.00 1.00 r p2
152.23 150.36 1.00 1.00 r p2
153.10 150.36 1.00 1.00 r p2
153.97 150.36 1.00 1.00 r p2
154.84 150.36 1.00 1.00 r p2
155.71 150.36 1.00 1.00 r p2
156.58 150.36 1.00 1.00 r p2
157.45 150.36 1.00 1.00 r p2
158.32 150.36 1.00 1.00 r p2
159.19 150.36 1.00 1.00 r p2
160.57 148.05 (2) .5 0 t
161.44 148.05 (2) .5 0 t
162.31 148.05 (2) .5 0 t
163.18 148.05 (2) .5 0 t
164.05 148.05 (2) .5 0 t
164.92 148.05 (2) .5 0 t
165.29 150.36 1.00 1.00 r p2
166.16 150.36 1.00 1.00 r p2
167.53 148.83 (<) .5 0 t
168.40 148.83 (<) .5 0 t
169.27 148.83 (<) .5 0 t
170.15 148.83 (<) .5 0 t
170.52 150.36 1.00 1.00 r p2
171.89 148.83 (<) .5 0 t
172.76 148.83 (<) .5 0 t
173.63 148.83 (<) .5 0 t
174.50 148.83 (<) .5 0 t
175.37 148.83 (<) .5 0 t
176.24 148.83 (<) .5 0 t
176.61 150.36 1.00 1.00 r p2
177.48 150.36 1.00 1.00 r p2
178.35 150.36 1.00 1.00 r p2
179.22 150.36 1.00 1.00 r p2
180.10 150.36 1.00 1.00 r p2
180.97 150.36 1.00 1.00 r p2
181.84 150.36 1.00 1.00 r p2
182.71 150.36 1.00 1.00 r p2
183.58 150.36 1.00 1.00 r p2
184.45 150.36 1.00 1.00 r p2
185.32 150.36 1.00 1.00 r p2
186.19 150.36 1.00 1.00 r p2
187.06 150.36 1.00 1.00 r p2
187.93 150.36 1.00 1.00 r p2
188.80 150.36 1.00 1.00 r p2
189.68 150.36 1.00 1.00 r p2
190.55 150.36 1.00 1.00 r p2
191.42 150.36 1.00 1.00 r p2
192.29 150.36 1.00 1.00 r p2
193.16 150.36 1.00 1.00 r p2
194.03 150.36 1.00 1.00 r p2
194.90 150.36 1.00 1.00 r p2
195.77 150.36 1.00 1.00 r p2
196.64 150.36 1.00 1.00 r p2
197.51 150.36 1.00 1.00 r p2
198.38 150.36 1.00 1.00 r p2
199.26 150.36 1.00 1.00 r p2
200.13 150.36 1.00 1.00 r p2
201.00 150.36 1.00 1.00 r p2
201.87 150.36 1.00 1.00 r p2
202.74 150.36 1.00 1.00 r p2
203.61 150.36 1.00 1.00 r p2
204.48 150.36 1.00 1.00 r p2
205.35 150.36 1.00 1.00 r p2
206.22 150.36 1.00 1.00 r p2
207.09 150.36 1.00 1.00 r p2
207.96 150.36 1.00 1.00 r p2
208.84 150.36 1.00 1.00 r p2
209.71 150.36 1.00 1.00 r p2
210.58 150.36 1.00 1.00 r p2
211.45 150.36 1.00 1.00 r p2
212.32 150.36 1.00 1.00 r p2
213.19 150.36 1.00 1.00 r p2
214.06 150.36 1.00 1.00 r p2
214.93 150.36 1.00 1.00 r p2
215.80 150.36 1.00 1.00 r p2
216.67 150.36 1.00 1.00 r p2
217.54 150.36 1.00 1.00 r p2
218.42 150.36 1.00 1.00 r p2
219.79 148.83 (>) .5 0 t
220.66 148.83 (>) .5 0 t
221.53 148.83 (>) .5 0 t
222.40 148.83 (>) .5 0 t
223.27 148.83 (>) .5 0 t
224.14 148.83 (>) .5 0 t
225.01 148.83 (>) .5 0 t
225.38 150.36 1.00 1.00 r p2
226.75 148.83 (>) .5 0 t
227.62 148.83 (>) .5 0 t
228.50 148.83 (>) .5 0 t
228.87 150.36 1.00 1.00 r p2
229.74 150.36 1.00 1.00 r p2
230.61 150.36 1.00 1.00 r p2
231.98 148.12 (3) .5 0 t
232.85 148.12 (3) .5 0 t
233.72 148.12 (3) .5 0 t
234.59 148.12 (3) .5 0 t
234.96 150.36 1.00 1.00 r p2
236.33 148.12 (3) .5 0 t
237.20 148.12 (3) .5 0 t
238.07 148.12 (3) .5 0 t
238.45 150.36 1.00 1.00 r p2
239.32 150.36 1.00 1.00 r p2
240.19 150.36 1.00 1.00 r p2
241.06 150.36 1.00 1.00 r p2
241.93 150.36 1.00 1.00 r p2
243.30 148.05 (4) .5 0 t
244.17 148.05 (4) .5 0 t
245.04 148.05 (4) .5 0 t
245.91 148.05 (4) .5 0 t
246.78 148.05 (4) .5 0 t
247.65 148.05 (4) .5 0 t
248.03 150.36 1.00 1.00 r p2
248.90 150.36 1.00 1.00 r p2
250.27 148.05 (4) .5 0 t
251.14 148.05 (4) .5 0 t
252.01 148.05 (4) .5 0 t
252.38 150.36 1.00 1.00 r p2
253.25 150.36 1.00 1.00 r p2
254.12 150.36 1.00 1.00 r p2
255.49 148.05 (4) .5 0 t
256.36 148.05 (4) .5 0 t
257.23 148.05 (4) .5 0 t
258.11 148.05 (4) .5 0 t
258.98 148.05 (4) .5 0 t
259.35 150.36 1.00 1.00 r p2
260.22 150.36 1.00 1.00 r p2
261.09 150.36 1.00 1.00 r p2
261.96 150.36 1.00 1.00 r p2
262.83 150.36 1.00 1.00 r p2
263.70 150.36 1.00 1.00 r p2
264.57 150.36 1.00 1.00 r p2
265.44 150.36 1.00 1.00 r p2
266.31 150.36 1.00 1.00 r p2
267.19 150.36 1.00 1.00 r p2
268.06 150.36 1.00 1.00 r p2
268.93 150.36 1.00 1.00 r p2
269.80 150.36 1.00 1.00 r p2
270.67 150.36 1.00 1.00 r p2
271.54 150.36 1.00 1.00 r p2
272.41 150.36 1.00 1.00 r p2
273.28 150.36 1.00 1.00 r p2
274.15 150.36 1.00 1.00 r p2
275.02 150.36 1.00 1.00 r p2
275.89 150.36 1.00 1.00 r p2
276.77 150.36 1.00 1.00 r p2
277.64 150.36 1.00 1.00 r p2
278.51 150.36 1.00 1.00 r p2
279.38 150.36 1.00 1.00 r p2
280.25 150.36 1.00 1.00 r p2
281.12 150.36 1.00 1.00 r p2
281.99 150.36 1.00 1.00 r p2
282.86 150.36 1.00 1.00 r p2
283.73 150.36 1.00 1.00 r p2
284.60 150.36 1.00 1.00 r p2
285.47 150.36 1.00 1.00 r p2
286.34 150.36 1.00 1.00 r p2
287.22 150.36 1.00 1.00 r p2
288.09 150.36 1.00 1.00 r p2
288.96 150.36 1.00 1.00 r p2
289.83 150.36 1.00 1.00 r p2
290.70 150.36 1.00 1.00 r p2
291.57 150.36 1.00 1.00 r p2
292.44 150.36 1.00 1.00 r p2
293.31 150.36 1.00 1.00 r p2
294.18 150.36 1.00 1.00 r p2
295.05 150.36 1.00 1.00 r p2
296.42 148.05 (4) .5 0 t
297.30 148.05 (4) .5 0 t
298.17 148.05 (4) .5 0 t
299.04 148.05 (4) .5 0 t
299.91 148.05 (4) .5 0 t
300.28 150.36 1.00 1.00 r p2
301.15 150.36 1.00 1.00 r p2
302.02 150.36 1.00 1.00 r p2
303.39 148.05 (4) .5 0 t
304.26 148.05 (4) .5 0 t
305.13 148.05 (4) .5 0 t
305.50 150.36 1.00 1.00 r p2
306.38 150.36 1.00 1.00 r p2
307.75 148.05 (4) .5 0 t
308.62 148.05 (4) .5 0 t
309.49 148.05 (4) .5 0 t
310.36 148.05 (4) .5 0 t
311.23 148.05 (4) .5 0 t
312.10 148.05 (4) .5 0 t
312.47 150.36 1.00 1.00 r p2
313.34 150.36 1.00 1.00 r p2
314.71 148.18 (5) .5 0 t
315.58 148.18 (5) .5 0 t
316.46 148.18 (5) .5 0 t
317.33 148.18 (5) .5 0 t
317.70 150.36 1.00 1.00 r p2
319.07 148.18 (5) .5 0 t
319.94 148.18 (5) .5 0 t
320.81 148.18 (5) .5 0 t
321.68 148.18 (5) .5 0 t
322.55 148.18 (5) .5 0 t
322.92 150.36 1.00 1.00 r p2
323.79 150.36 1.00 1.00 r p2
324.66 150.36 1.00 1.00 r p2
325.54 150.36 1.00 1.00 r p2
326.41 150.36 1.00 1.00 r p2
327.28 150.36 1.00 1.00 r p2
328.15 150.36 1.00 1.00 r p2
329.02 150.36 1.00 1.00 r p2
329.89 150.36 1.00 1.00 r p2
330.76 150.36 1.00 1.00 r p2
331.63 150.36 1.00 1.00 r p2
332.50 150.36 1.00 1.00 r p2
333.37 150.36 1.00 1.00 r p2
334.24 150.36 1.00 1.00 r p2
335.11 150.36 1.00 1.00 r p2
335.99 150.36 1.00 1.00 r p2
336.86 150.36 1.00 1.00 r p2
337.73 150.36 1.00 1.00 r p2
338.60 150.36 1.00 1.00 r p2
339.47 150.36 1.00 1.00 r p2
340.34 150.36 1.00 1.00 r p2
341.21 150.36 1.00 1.00 r p2
342.08 150.36 1.00 1.00 r p2
342.95 150.36 1.00 1.00 r p2
343.82 150.36 1.00 1.00 r p2
344.69 150.36 1.00 1.00 r p2
345.57 150.36 1.00 1.00 r p2
346.44 150.36 1.00 1.00 r p2
347.31 150.36 1.00 1.00 r p2
348.18 150.36 1.00 1.00 r p2
349.05 150.36 1.00 1.00 r p2
350.42 148.18 (5) .5 0 t
351.29 148.18 (5) .5 0 t
352.16 148.18 (5) .5 0 t
353.03 148.18 (5) .5 0 t
353.90 148.18 (5) .5 0 t
354.77 148.18 (5) .5 0 t
355.65 148.18 (5) .5 0 t
356.52 148.18 (5) .5 0 t
357.39 148.18 (5) .5 0 t
357.76 150.36 1.00 1.00 r p2
358.63 150.36 1.00 1.00 r p2
359.50 150.36 1.00 1.00 r p2
360.37 150.36 1.00 1.00 r p2
361.24 150.36 1.00 1.00 r p2
362.61 148.12 (6) .5 0 t
362.98 150.36 1.00 1.00 r p2
364.35 148.12 (6) .5 0 t
365.23 148.12 (6) .5 0 t
366.10 148.12 (6) .5 0 t
366.97 148.12 (6) .5 0 t
367.84 148.12 (6) .5 0 t
368.21 150.36 1.00 1.00 r p2
369.08 150.36 1.00 1.00 r p2
369.95 150.36 1.00 1.00 r p2
370.82 150.36 1.00 1.00 r p2
372.19 148.12 (3) .5 0 t
373.06 148.12 (3) .5 0 t
373.93 148.12 (3) .5 0 t
374.81 148.12 (3) .5 0 t
375.68 148.12 (3) .5 0 t
376.55 148.12 (3) .5 0 t
377.42 148.12 (3) .5 0 t
377.79 150.36 1.00 1.00 r p2
379.16 148.11 (7) .5 0 t
380.03 148.11 (7) .5 0 t
380.90 148.11 (7) .5 0 t
381.77 148.11 (7) .5 0 t
382.64 148.11 (7) .5 0 t
383.51 148.11 (7) .5 0 t
384.39 148.11 (7) .5 0 t
385.26 148.11 (7) .5 0 t
386.13 148.11 (7) .5 0 t
387.00 148.11 (7) .5 0 t
387.37 150.36 1.00 1.00 r p2
388.24 150.36 1.00 1.00 r p2
389.11 150.36 1.00 1.00 r p2
389.98 150.36 1.00 1.00 r p2
390.85 150.36 1.00 1.00 r p2
391.72 150.36 1.00 1.00 r p2
392.59 150.36 1.00 1.00 r p2
393.46 150.36 1.00 1.00 r p2
394.34 150.36 1.00 1.00 r p2
395.21 150.36 1.00 1.00 r p2
396.08 150.36 1.00 1.00 r p2
396.95 150.36 1.00 1.00 r p2
397.82 150.36 1.00 1.00 r p2
398.69 150.36 1.00 1.00 r p2
399.56 150.36 1.00 1.00 r p2
400.43 150.36 1.00 1.00 r p2
401.30 150.36 1.00 1.00 r p2
402.17 150.36 1.00 1.00 r p2
403.04 150.36 1.00 1.00 r p2
403.92 150.36 1.00 1.00 r p2
404.79 150.36 1.00 1.00 r p2
405.66 150.36 1.00 1.00 r p2
406.53 150.36 1.00 1.00 r p2
407.40 150.36 1.00 1.00 r p2
408.27 150.36 1.00 1.00 r p2
409.14 150.36 1.00 1.00 r p2
410.01 150.36 1.00 1.00 r p2
410.88 150.36 1.00 1.00 r p2
411.75 150.36 1.00 1.00 r p2
412.62 150.36 1.00 1.00 r p2
413.50 150.36 1.00 1.00 r p2
414.37 150.36 1.00 1.00 r p2
415.24 150.36 1.00 1.00 r p2
416.11 150.36 1.00 1.00 r p2
416.98 150.36 1.00 1.00 r p2
418.35 148.11 (7) .5 0 t
419.22 148.11 (7) .5 0 t
420.09 148.11 (7) .5 0 t
420.96 148.11 (7) .5 0 t
421.83 148.11 (7) .5 0 t
422.70 148.11 (7) .5 0 t
423.58 148.11 (7) .5 0 t
424.45 148.11 (7) .5 0 t
425.32 148.11 (7) .5 0 t
426.19 148.11 (7) .5 0 t
426.56 150.36 1.00 1.00 r p2
427.43 150.36 1.00 1.00 r p2
428.30 150.36 1.00 1.00 r p2
429.17 150.36 1.00 1.00 r p2
430.04 150.36 1.00 1.00 r p2
430.91 150.36 1.00 1.00 r p2
431.78 150.36 1.00 1.00 r p2
433.16 148.12 (6) .5 0 t
434.03 148.12 (6) .5 0 t
434.90 148.12 (6) .5 0 t
435.77 148.12 (6) .5 0 t
436.64 148.12 (6) .5 0 t
437.51 148.12 (6) .5 0 t
437.88 150.36 1.00 1.00 r p2
439.25 148.12 (8) .5 0 t
440.12 148.12 (8) .5 0 t
440.49 150.36 1.00 1.00 r p2
441.36 150.36 1.00 1.00 r p2
442.23 150.36 1.00 1.00 r p2
443.61 148.12 (8) .5 0 t
444.48 148.12 (8) .5 0 t
445.35 148.12 (8) .5 0 t
446.22 148.12 (8) .5 0 t
447.09 148.12 (8) .5 0 t
447.46 150.36 1.00 1.00 r p2
448.33 150.36 1.00 1.00 r p2
449.20 150.36 1.00 1.00 r p2
450.07 150.36 1.00 1.00 r p2
451.44 148.12 (8) .5 0 t
452.31 148.12 (8) .5 0 t
453.19 148.12 (8) .5 0 t
454.06 148.12 (8) .5 0 t
454.93 148.12 (8) .5 0 t
455.30 150.36 1.00 1.00 r p2
456.67 148.83 (<) .5 0 t
457.54 148.83 (<) .5 0 t
458.41 148.83 (<) .5 0 t
459.28 148.83 (<) .5 0 t
460.15 148.83 (<) .5 0 t
461.02 148.83 (<) .5 0 t
461.89 148.83 (<) .5 0 t
462.77 148.83 (<) .5 0 t
463.64 148.83 (<) .5 0 t
464.01 150.36 1.00 1.00 r p2
464.88 150.36 1.00 1.00 r p2
465.75 150.36 1.00 1.00 r p2
466.62 150.36 1.00 1.00 r p2
467.99 148.83 (<) .5 0 t
468.86 148.83 (<) .5 0 t
469.73 148.83 (<) .5 0 t
470.60 148.83 (<) .5 0 t
470.97 150.36 1.00 1.00 r p2
471.85 150.36 1.00 1.00 r p2
472.72 150.36 1.00 1.00 r p2
473.59 150.36 1.00 1.00 r p2
474.46 150.36 1.00 1.00 r p2
475.33 150.36 1.00 1.00 r p2
476.70 148.83 (>) .5 0 t
477.57 148.83 (>) .5 0 t
478.44 148.83 (>) .5 0 t
479.31 148.83 (>) .5 0 t
479.68 150.36 1.00 1.00 r p2
480.55 150.36 1.00 1.00 r p2
481.43 150.36 1.00 1.00 r p2
482.80 148.83 (>) .5 0 t
483.67 148.83 (>) .5 0 t
484.54 148.83 (>) .5 0 t
485.41 148.83 (>) .5 0 t
486.28 148.83 (>) .5 0 t
487.15 148.83 (>) .5 0 t
488.02 148.83 (>) .5 0 t
488.89 148.83 (>) .5 0 t
489.76 148.83 (>) .5 0 t
490.13 150.36 1.00 1.00 r p2
491.00 150.36 1.00 1.00 r p2
491.88 150.36 1.00 1.00 r p2
492.75 150.36 1.00 1.00 r p2
493.62 150.36 1.00 1.00 r p2
494.49 150.36 1.00 1.00 r p2
495.86 148.83 (<) .5 0 t
496.73 148.83 (<) .5 0 t
497.60 148.83 (<) .5 0 t
498.47 148.83 (<) .5 0 t
499.34 148.83 (<) .5 0 t
500.21 148.83 (<) .5 0 t
500.58 150.36 1.00 1.00 r p2
501.46 150.36 1.00 1.00 r p2
502.33 150.36 1.00 1.00 r p2
503.20 150.36 1.00 1.00 r p2
504.07 150.36 1.00 1.00 r p2
504.94 150.36 1.00 1.00 r p2
505.81 150.36 1.00 1.00 r p2
506.68 150.36 1.00 1.00 r p2
507.55 150.36 1.00 1.00 r p2
508.42 150.36 1.00 1.00 r p2
509.29 150.36 1.00 1.00 r p2
510.16 150.36 1.00 1.00 r p2
511.04 150.36 1.00 1.00 r p2
511.91 150.36 1.00 1.00 r p2
512.78 150.36 1.00 1.00 r p2
513.65 150.36 1.00 1.00 r p2
514.52 150.36 1.00 1.00 r p2
515.39 150.36 1.00 1.00 r p2
516.26 150.36 1.00 1.00 r p2
517.13 150.36 1.00 1.00 r p2
518.00 150.36 1.00 1.00 r p2
518.87 150.36 1.00 1.00 r p2
519.74 150.36 1.00 1.00 r p2
520.62 150.36 1.00 1.00 r p2
521.49 150.36 1.00 1.00 r p2
522.36 150.36 1.00 1.00 r p2
523.23 150.36 1.00 1.00 r p2
524.10 150.36 1.00 1.00 r p2
524.97 150.36 1.00 1.00 r p2
525.84 150.36 1.00 1.00 r p2
526.71 150.36 1.00 1.00 r p2
527.58 150.36 1.00 1.00 r p2
528.45 150.36 1.00 1.00 r p2
529.32 150.36 1.00 1.00 r p2
530.20 150.36 1.00 1.00 r p2
531.07 150.36 1.00 1.00 r p2
531.94 150.36 1.00 1.00 r p2
532.81 150.36 1.00 1.00 r p2
533.68 150.36 1.00 1.00 r p2
534.55 150.36 1.00 1.00 r p2
535.42 150.36 1.00 1.00 r p2
536.29 150.36 1.00 1.00 r p2
537.16 150.36 1.00 1.00 r p2
538.03 150.36 1.00 1.00 r p2
538.90 150.36 1.00 1.00 r p2
539.78 150.36 1.00 1.00 r p2
540.65 150.36 1.00 1.00 r p2
541.52 150.36 1.00 1.00 r p2
542.39 150.36 1.00 1.00 r p2
543.26 150.36 1.00 1.00 r p2
544.13 150.36 1.00 1.00 r p2
545.00 150.36 1.00 1.00 r p2
545.87 150.36 1.00 1.00 r p2
546.74 150.36 1.00 1.00 r p2
547.61 150.36 1.00 1.00 r p2
548.48 150.36 1.00 1.00 r p2
549.35 150.36 1.00 1.00 r p2
550.23 150.36 1.00 1.00 r p2
551.10 150.36 1.00 1.00 r p2
551.97 150.36 1.00 1.00 r p2
553.34 148.83 (>) .5 0 t
554.21 148.83 (>) .5 0 t
555.08 148.83 (>) .5 0 t
555.95 148.83 (>) .5 0 t
556.82 148.83 (>) .5 0 t
557.69 148.83 (>) .5 0 t
558.06 150.36 1.00 1.00 r p2
558.93 150.36 1.00 1.00 r p2
559.81 150.36 1.00 1.00 r p2
560.68 150.36 1.00 1.00 r p2
561.55 150.36 1.00 1.00 r p2
562.42 150.36 1.00 1.00 r p2
563.29 150.36 1.00 1.00 r p2
564.16 150.36 1.00 1.00 r p2
565.03 150.36 1.00 1.00 r p2
565.90 150.36 1.00 1.00 r p2
566.77 150.36 1.00 1.00 r p2
567.64 150.36 1.00 1.00 r p2
568.51 150.36 1.00 1.00 r p2
569.39 150.36 1.00 1.00 r p2
570.26 150.36 1.00 1.00 r p2
571.13 150.36 1.00 1.00 r p2
572.00 150.36 1.00 1.00 r p2
572.87 150.36 1.00 1.00 r p2
573.74 150.36 1.00 1.00 r p2
574.61 150.36 1.00 1.00 r p2
575.48 150.36 1.00 1.00 r p2
576.35 150.36 1.00 1.00 r p2
577.22 150.36 1.00 1.00 r p2
578.09 150.36 1.00 1.00 r p2
578.97 150.36 1.00 1.00 r p2
579.84 150.36 1.00 1.00 r p2
580.71 150.36 1.00 1.00 r p2
581.58 150.36 1.00 1.00 r p2
582.45 150.36 1.00 1.00 r p2
583.32 150.36 1.00 1.00 r p2
584.19 150.36 1.00 1.00 r p2
585.06 150.36 1.00 1.00 r p2
585.93 150.36 1.00 1.00 r p2
586.80 150.36 1.00 1.00 r p2
587.67 150.36 1.00 1.00 r p2
588.55 150.36 1.00 1.00 r p2
589.42 150.36 1.00 1.00 r p2
590.29 150.36 1.00 1.00 r p2
591.16 150.36 1.00 1.00 r p2
592.03 150.36 1.00 1.00 r p2
592.90 150.36 1.00 1.00 r p2
593.77 150.36 1.00 1.00 r p2
594.64 150.36 1.00 1.00 r p2
595.51 150.36 1.00 1.00 r p2
596.38 150.36 1.00 1.00 r p2
597.25 150.36 1.00 1.00 r p2
598.12 150.36 1.00 1.00 r p2
599.00 150.36 1.00 1.00 r p2
599.87 150.36 1.00 1.00 r p2
600.74 150.36 1.00 1.00 r p2
601.61 150.36 1.00 1.00 r p2
602.48 150.36 1.00 1.00 r p2
603.35 150.36 1.00 1.00 r p2
604.22 150.36 1.00 1.00 r p2
605.09 150.36 1.00 1.00 r p2
605.96 150.36 1.00 1.00 r p2
606.83 150.36 1.00 1.00 r p2
607.70 150.36 1.00 1.00 r p2
608.58 150.36 1.00 1.00 r p2
609.45 150.36 1.00 1.00 r p2
610.32 150.36 1.00 1.00 r p2
611.19 150.36 1.00 1.00 r p2
612.06 150.36 1.00 1.00 r p2
612.93 150.36 1.00 1.00 r p2
613.80 150.36 1.00 1.00 r p2
614.67 150.36 1.00 1.00 r p2
615.54 150.36 1.00 1.00 r p2
616.41 150.36 1.00 1.00 r p2
617.28 150.36 1.00 1.00 r p2
618.16 150.36 1.00 1.00 r p2
619.03 150.36 1.00 1.00 r p2
619.90 150.36 1.00 1.00 r p2
620.77 150.36 1.00 1.00 r p2
621.64 150.36 1.00 1.00 r p2
622.51 150.36 1.00 1.00 r p2
623.38 150.36 1.00 1.00 r p2
624.25 150.36 1.00 1.00 r p2
625.12 150.36 1.00 1.00 r p2
625.99 150.36 1.00 1.00 r p2
626.86 150.36 1.00 1.00 r p2
627.74 150.36 1.00 1.00 r p2
628.61 150.36 1.00 1.00 r p2
629.48 150.36 1.00 1.00 r p2
630.35 150.36 1.00 1.00 r p2
631.22 150.36 1.00 1.00 r p2
632.09 150.36 1.00 1.00 r p2
632.96 150.36 1.00 1.00 r p2
633.83 150.36 1.00 1.00 r p2
634.70 150.36 1.00 1.00 r p2
635.57 150.36 1.00 1.00 r p2
636.44 150.36 1.00 1.00 r p2
637.32 150.36 1.00 1.00 r p2
638.19 150.36 1.00 1.00 r p2
639.06 150.36 1.00 1.00 r p2
639.93 150.36 1.00 1.00 r p2
640.80 150.36 1.00 1.00 r p2
641.67 150.36 1.00 1.00 r p2
642.54 150.36 1.00 1.00 r p2
643.41 150.36 1.00 1.00 r p2
644.28 150.36 1.00 1.00 r p2
645.15 150.36 1.00 1.00 r p2
646.02 150.36 1.00 1.00 r p2
646.89 150.36 1.00 1.00 r p2
647.77 150.36 1.00 1.00 r p2
648.64 150.36 1.00 1.00 r p2
649.51 150.36 1.00 1.00 r p2
650.38 150.36 1.00 1.00 r p2
651.25 150.36 1.00 1.00 r p2
652.12 150.36 1.00 1.00 r p2
652.99 150.36 1.00 1.00 r p2
653.86 150.36 1.00 1.00 r p2
654.73 150.36 1.00 1.00 r p2
655.60 150.36 1.00 1.00 r p2
656.47 150.36 1.00 1.00 r p2
657.35 150.36 1.00 1.00 r p2
658.72 148.12 (8) .5 0 t
659.59 148.12 (8) .5 0 t
659.96 150.36 1.00 1.00 r p2
660.83 150.36 1.00 1.00 r p2
661.70 150.36 1.00 1.00 r p2
662.57 150.36 1.00 1.00 r p2
663.44 150.36 1.00 1.00 r p2
664.31 150.36 1.00 1.00 r p2
665.18 150.36 1.00 1.00 r p2
666.05 150.36 1.00 1.00 r p2
666.93 150.36 1.00 1.00 r p2
667.80 150.36 1.00 1.00 r p2
668.67 150.36 1.00 1.00 r p2
669.54 150.36 1.00 1.00 r p2
670.41 150.36 1.00 1.00 r p2
1 0 0 srgb
0.75 setlinewidth
[] 0 setdash
1 setlinecap
1 setlinejoin
10.00 setmiterlimit
np
49.96 145.86 m
2.55 -4.41 l
-5.09 0 l
2.54 4.41 l
o
np
52.57 145.86 m
2.55 -4.41 l
-5.09 0 l
2.54 4.41 l
o
np
52.57 145.86 m
2.55 -4.41 l
-5.09 0 l
2.54 4.41 l
o
np
102.22 145.86 m
2.54 -4.41 l
-5.09 0 l
2.55 4.41 l
o
np
110.92 145.86 m
2.55 -4.41 l
-5.09 0 l
2.54 4.41 l
o
np
160.57 145.86 m
2.54 -4.41 l
-5.09 0 l
2.55 4.41 l
o
np
231.98 145.86 m
2.54 -4.41 l
-5.09 0 l
2.55 4.41 l
o
np
160.57 145.86 m
2.54 -4.41 l
-5.09 0 l
2.55 4.41 l
o
np
243.30 145.86 m
2.55 -4.41 l
-5.10 0 l
2.55 4.41 l
o
np
231.98 145.86 m
2.54 -4.41 l
-5.09 0 l
2.55 4.41 l
o
np
231.98 145.86 m
2.54 -4.41 l
-5.09 0 l
2.55 4.41 l
o
np
243.30 145.86 m
2.55 -4.41 l
-5.10 0 l
2.55 4.41 l
o
np
296.42 145.86 m
2.55 -4.41 l
-5.09 0 l
2.54 4.41 l
o
np
314.71 145.86 m
2.55 -4.41 l
-5.09 0 l
2.54 4.41 l
o
np
296.42 145.86 m
2.55 -4.41 l
-5.09 0 l
2.54 4.41 l
o
np
350.42 145.86 m
2.55 -4.41 l
-5.10 0 l
2.55 4.41 l
o
np
362.61 145.86 m
2.55 -4.41 l
-5.09 0 l
2.54 4.41 l
o
np
350.42 145.86 m
2.55 -4.41 l
-5.10 0 l
2.55 4.41 l
o
np
362.61 145.86 m
2.55 -4.41 l
-5.09 0 l
2.54 4.41 l
o
np
362.61 145.86 m
2.55 -4.41 l
-5.09 0 l
2.54 4.41 l
o
np
379.16 145.86 m
2.55 -4.41 l
-5.10 0 l
2.55 4.41 l
o
np
379.16 145.86 m
2.55 -4.41 l
-5.10 0 l
2.55 4.41 l
o
np
418.35 145.86 m
2.55 -4.41 l
-5.10 0 l
2.55 4.41 l
o
np
379.16 145.86 m
2.55 -4.41 l
-5.10 0 l
2.55 4.41 l
o
np
418.35 145.86 m
2.55 -4.41 l
-5.10 0 l
2.55 4.41 l
o
np
433.16 145.86 m
2.54 -4.41 l
-5.09 0 l
2.55 4.41 l
o
np
439.25 145.86 m
2.55 -4.41 l
-5.09 0 l
2.54 4.41 l
o
np
107.44 145.86 m
2.55 -4.41 l
-5.09 0 l
2.54 4.41 l
o
np
115.28 145.86 m
2.54 -4.41 l
-5.09 0 l
2.55 4.41 l
o
np
164.92 145.86 m
2.55 -4.41 l
-5.10 0 l
2.55 4.41 l
o
np
164.92 145.86 m
2.55 -4.41 l
-5.10 0 l
2.55 4.41 l
o
np
238.07 145.86 m
2.55 -4.41 l
-5.09 0 l
2.54 4.41 l
o
np
258.98 145.86 m
2.54 -4.41 l
-5.09 0 l
2.55 4.41 l
o
np
258.98 145.86 m
2.54 -4.41 l
-5.09 0 l
2.55 4.41 l
o
np
377.42 145.86 m
2.54 -4.41 l
-5.09 0 l
2.55 4.41 l
o
np
322.55 145.86 m
2.55 -4.41 l
-5.09 0 l
2.54 4.41 l
o
np
367.84 145.86 m
2.54 -4.41 l
-5.09 0 l
2.55 4.41 l
o
np
377.42 145.86 m
2.54 -4.41 l
-5.09 0 l
2.55 4.41 l
o
np
377.42 145.86 m
2.54 -4.41 l
-5.09 0 l
2.55 4.41 l
o
np
357.39 145.86 m
2.54 -4.41 l
-5.09 0 l
2.55 4.41 l
o
np
367.84 145.86 m
2.54 -4.41 l
-5.09 0 l
2.55 4.41 l
o
np
387.00 145.86 m
2.54 -4.41 l
-5.09 0 l
2.55 4.41 l
o
np
387.00 145.86 m
2.54 -4.41 l
-5.09 0 l
2.55 4.41 l
o
np
377.42 145.86 m
2.54 -4.41 l
-5.09 0 l
2.55 4.41 l
o
np
437.51 145.86 m
2.54 -4.41 l
-5.09 0 l
2.55 4.41 l
o
np
437.51 145.86 m
2.54 -4.41 l
-5.09 0 l
2.55 4.41 l
o
np
447.09 145.86 m
2.54 -4.41 l
-5.09 0 l
2.55 4.41 l
o
np
437.51 145.86 m
2.54 -4.41 l
-5.09 0 l
2.55 4.41 l
o
np
447.09 145.86 m
2.54 -4.41 l
-5.09 0 l
2.55 4.41 l
o
np
437.51 145.86 m
2.54 -4.41 l
-5.09 0 l
2.55 4.41 l
o
np
659.59 145.86 m
2.54 -4.41 l
-5.09 0 l
2.55 4.41 l
o
np
659.59 145.86 m
2.54 -4.41 l
-5.09 0 l
2.55 4.41 l
o
np
659.59 145.86 m
2.54 -4.41 l
-5.09 0 l
2.55 4.41 l
o
np
670.91 145.86 m
2.54 -4.41 l
-5.09 0 l
2.55 4.41 l
o
0 0 0.8510 srgb
np
49.96 127.05 m
57.48 0 l
o
/Font1 findfont 7 s
78.70 129.93 (left-P1) .5 0 t
0 0 0.8745 srgb
np
52.57 123.87 m
62.71 0 l
o
83.93 116.80 (P1-L2) .5 0 t
0 0 0.9765 srgb
np
52.57 120.70 m
112.35 0 l
o
108.75 123.58 (P1-P2) .5 0 t
0 0.1490 1 srgb
np
102.22 117.52 m
62.70 0 l
o
133.57 110.46 (R1-P2) .5 0 t
0 0.4510 1 srgb
np
110.92 114.35 m
127.15 0 l
o
174.50 117.23 (P2-L3) .5 0 t
0 0.7490 1 srgb
np
160.57 111.17 m
98.41 0 l
o
209.77 104.11 (R2-L4) .5 0 t
0.0275 1 0.9725 srgb
np
231.98 108.00 m
27.00 0 l
o
245.48 110.88 (L3-L4) .5 0 t
0.1020 1 0.8980 srgb
np
160.57 104.83 m
216.85 0 l
o
268.99 97.76 (R2-P3) .5 0 t
0.1804 1 0.8196 srgb
np
243.30 101.65 m
79.25 0 l
o
282.93 104.53 (P4-L5) .5 0 t
0.2314 1 0.7686 srgb
np
231.98 98.48 m
135.86 0 l
o
299.91 91.41 (L3-L6) .5 0 t
0.2549 1 0.7451 srgb
np
231.98 95.30 m
145.44 0 l
o
304.70 98.18 (P3-L4) .5 0 t
0.2824 1 0.7176 srgb
np
243.30 92.13 m
134.12 0 l
o
310.36 85.06 (R3-P4) .5 0 t
0.3608 1 0.6392 srgb
np
296.42 88.95 m
60.97 0 l
o
326.91 91.83 (R4-P5) .5 0 t
0.4118 1 0.5882 srgb
np
314.71 85.78 m
53.13 0 l
o
341.28 78.71 (P5-L6) .5 0 t
np
296.42 82.60 m
90.58 0 l
o
341.71 85.48 (R4-L7) .5 0 t
0.5137 1 0.4863 srgb
np
350.42 79.43 m
36.58 0 l
o
368.71 72.36 (R5-L7) .5 0 t
0.5373 1 0.4627 srgb
np
362.61 76.25 m
14.81 0 l
o
370.02 79.13 (L6-R3) .5 0 t
0.6157 1 0.3843 srgb
np
350.42 73.08 m
87.09 0 l
o
393.96 66.01 (R5-P6) .5 0 t
0.6392 1 0.3608 srgb
np
362.61 69.90 m
74.90 0 l
o
400.06 72.78 (P6-L7) .5 0 t
0.6667 1 0.3333 srgb
np
362.61 66.73 m
84.48 0 l
o
404.85 59.66 (L6-L8) .5 0 t
0.6941 1 0.3059 srgb
np
379.16 63.56 m
58.35 0 l
o
408.33 66.44 (R6-P7) .5 0 t
0.7176 1 0.2824 srgb
np
379.16 60.38 m
67.93 0 l
o
413.12 53.31 (P7-L8) .5 0 t
0.7686 1 0.2314 srgb
np
418.35 57.21 m
19.16 0 l
o
427.93 60.09 (R7-R6) .5 0 t
1 0.6980 0 srgb
np
379.16 54.03 m
280.43 0 l
o
519.37 46.96 (P7-P8) .5 0 t
1 0.5490 0 srgb
np
418.35 50.86 m
241.24 0 l
o
538.97 53.74 (R7-P8) .5 0 t
1 0.5020 0 srgb
np
433.16 47.68 m
226.43 0 l
o
546.37 40.61 (R6-P8) .5 0 t
1 0.4510 0 srgb
np
439.25 44.51 m
231.66 0 l
o
541.95 47.39 (P8-r) 0 ta
0.105 (ight) tb gr
ep
%%Trailer
%%Pages: 1
%%EOF
