%!PS-Adobe-3.0
%%DocumentNeededResources: font Helvetica
%%+ font Helvetica-Bold
%%+ font Helvetica-Oblique
%%+ font Helvetica-BoldOblique
%%+ font Symbol
%%DocumentMedia: special 180 720 0 () ()
%%Title: R Graphics Output
%%Creator: R Software
%%Pages: (atend)
%%BoundingBox: 0 0 180 720
%%EndComments
%%BeginProlog
/bp  { gs sRGB 180.00 0 translate 90 rotate gs } def
% begin .ps.prolog
/gs  { gsave } bind def
/gr  { grestore } bind def
/ep  { showpage gr gr } bind def
/m   { moveto } bind def
/l  { rlineto } bind def
/np  { newpath } bind def
/cp  { closepath } bind def
/f   { fill } bind def
/o   { stroke } bind def
/c   { newpath 0 360 arc } bind def
/r   { 4 2 roll moveto 1 copy 3 -1 roll exch 0 exch rlineto 0 rlineto -1 mul 0 exch rlineto closepath } bind def
/p1  { stroke } bind def
/p2  { gsave bg fill grestore newpath } bind def
/p3  { gsave bg fill grestore stroke } bind def
/p6  { gsave bg eofill grestore newpath } bind def
/p7  { gsave bg eofill grestore stroke } bind def
/t   { 5 -2 roll moveto gsave rotate
       1 index stringwidth pop
       mul neg 0 rmoveto show grestore } bind def
/ta  { 4 -2 roll moveto gsave rotate show } bind def
/tb  { 2 -1 roll 0 rmoveto show } bind def
/cl  { grestore gsave newpath 3 index 3 index moveto 1 index
       4 -1 roll lineto  exch 1 index lineto lineto
       closepath clip newpath } bind def
/rgb { setrgbcolor } bind def
/s   { scalefont setfont } bind def
% end   .ps.prolog
/sRGB { [ /CIEBasedABC
          << /DecodeLMN
               [ { dup 0.03928 le
                        {12.92321 div}
                        {0.055 add 1.055 div 2.4 exp }
                     ifelse
                 } bind dup dup
               ]
             /MatrixLMN [0.412457 0.212673 0.019334
                         0.357576 0.715152 0.119192
                         0.180437 0.072175 0.950301]
             /WhitePoint [0.9505 1.0 1.0890]
           >>
         ] setcolorspace } bind def
/srgb { setcolor } bind def
%%IncludeResource: font Helvetica
/Helvetica findfont
dup length dict begin
  {1 index /FID ne {def} {pop pop} ifelse} forall
  /Encoding ISOLatin1Encoding def
  currentdict
  end
/Font1 exch definefont pop
%%IncludeResource: font Helvetica-Bold
/Helvetica-Bold findfont
dup length dict begin
  {1 index /FID ne {def} {pop pop} ifelse} forall
  /Encoding ISOLatin1Encoding def
  currentdict
  end
/Font2 exch definefont pop
%%IncludeResource: font Helvetica-Oblique
/Helvetica-Oblique findfont
dup length dict begin
  {1 index /FID ne {def} {pop pop} ifelse} forall
  /Encoding ISOLatin1Encoding def
  currentdict
  end
/Font3 exch definefont pop
%%IncludeResource: font Helvetica-BoldOblique
/Helvetica-BoldOblique findfont
dup length dict begin
  {1 index /FID ne {def} {pop pop} ifelse} forall
  /Encoding ISOLatin1Encoding def
  currentdict
  end
/Font4 exch definefont pop
%%IncludeResource: font Symbol
/Symbol findfont
dup length dict begin
  {1 index /FID ne {def} {pop pop} ifelse} forall
  currentdict
  end
/Font5 exch definefont pop
%%EndProlog
%%Page: 1 1
bp
18.00 36.00 702.00 180.00 cl
/bg { 0 0 0 srgb } def
49.47 166.23 1.00 1.00 r p2
50.34 166.23 1.00 1.00 r p2
51.22 166.23 1.00 1.00 r p2
/Font1 findfont 8 s
0 0 0 srgb
52.59 164.71 (<) .5 0 t
53.47 164.71 (<) .5 0 t
54.35 164.71 (<) .5 0 t
55.22 164.71 (<) .5 0 t
56.10 164.71 (<) .5 0 t
56.97 164.71 (<) .5 0 t
57.85 164.71 (<) .5 0 t
58.22 166.23 1.00 1.00 r p2
59.10 166.23 1.00 1.00 r p2
59.98 166.23 1.00 1.00 r p2
60.85 166.23 1.00 1.00 r p2
61.73 166.23 1.00 1.00 r p2
62.60 166.23 1.00 1.00 r p2
63.48 166.23 1.00 1.00 r p2
64.36 166.23 1.00 1.00 r p2
65.23 166.23 1.00 1.00 r p2
66.11 166.23 1.00 1.00 r p2
66.98 166.23 1.00 1.00 r p2
67.86 166.23 1.00 1.00 r p2
68.73 166.23 1.00 1.00 r p2
69.61 166.23 1.00 1.00 r p2
70.49 166.23 1.00 1.00 r p2
71.36 166.23 1.00 1.00 r p2
72.24 166.23 1.00 1.00 r p2
73.11 166.23 1.00 1.00 r p2
73.99 166.23 1.00 1.00 r p2
74.86 166.23 1.00 1.00 r p2
75.74 166.23 1.00 1.00 r p2
76.62 166.23 1.00 1.00 r p2
77.49 166.23 1.00 1.00 r p2
78.37 166.23 1.00 1.00 r p2
79.24 166.23 1.00 1.00 r p2
80.12 166.23 1.00 1.00 r p2
81.00 166.23 1.00 1.00 r p2
81.87 166.23 1.00 1.00 r p2
82.75 166.23 1.00 1.00 r p2
83.62 166.23 1.00 1.00 r p2
84.50 166.23 1.00 1.00 r p2
85.37 166.23 1.00 1.00 r p2
86.25 166.23 1.00 1.00 r p2
87.13 166.23 1.00 1.00 r p2
88.00 166.23 1.00 1.00 r p2
88.88 166.23 1.00 1.00 r p2
89.75 166.23 1.00 1.00 r p2
90.63 166.23 1.00 1.00 r p2
91.51 166.23 1.00 1.00 r p2
92.38 166.23 1.00 1.00 r p2
93.26 166.23 1.00 1.00 r p2
94.13 166.23 1.00 1.00 r p2
95.01 166.23 1.00 1.00 r p2
95.88 166.23 1.00 1.00 r p2
96.76 166.23 1.00 1.00 r p2
97.64 166.23 1.00 1.00 r p2
98.51 166.23 1.00 1.00 r p2
99.39 166.23 1.00 1.00 r p2
100.76 164.71 (>) .5 0 t
101.64 164.71 (>) .5 0 t
102.51 164.71 (>) .5 0 t
103.39 164.71 (>) .5 0 t
104.27 164.71 (>) .5 0 t
105.14 164.71 (>) .5 0 t
106.02 164.71 (>) .5 0 t
106.39 166.23 1.00 1.00 r p2
107.27 166.23 1.00 1.00 r p2
108.65 164.71 (<) .5 0 t
109.52 164.71 (<) .5 0 t
110.40 164.71 (<) .5 0 t
111.27 164.71 (<) .5 0 t
112.15 164.71 (<) .5 0 t
113.02 164.71 (<) .5 0 t
113.90 164.71 (<) .5 0 t
114.78 164.71 (<) .5 0 t
115.65 164.71 (<) .5 0 t
116.53 164.71 (<) .5 0 t
117.40 164.71 (<) .5 0 t
118.28 164.71 (<) .5 0 t
119.15 164.71 (<) .5 0 t
120.03 164.71 (<) .5 0 t
120.41 166.23 1.00 1.00 r p2
121.28 166.23 1.00 1.00 r p2
122.16 166.23 1.00 1.00 r p2
123.03 166.23 1.00 1.00 r p2
123.91 166.23 1.00 1.00 r p2
124.79 166.23 1.00 1.00 r p2
125.66 166.23 1.00 1.00 r p2
126.54 166.23 1.00 1.00 r p2
127.41 166.23 1.00 1.00 r p2
128.29 166.23 1.00 1.00 r p2
129.16 166.23 1.00 1.00 r p2
130.04 166.23 1.00 1.00 r p2
130.92 166.23 1.00 1.00 r p2
131.79 166.23 1.00 1.00 r p2
132.67 166.23 1.00 1.00 r p2
133.54 166.23 1.00 1.00 r p2
134.42 166.23 1.00 1.00 r p2
135.30 166.23 1.00 1.00 r p2
136.17 166.23 1.00 1.00 r p2
137.05 166.23 1.00 1.00 r p2
137.92 166.23 1.00 1.00 r p2
138.80 166.23 1.00 1.00 r p2
139.67 166.23 1.00 1.00 r p2
140.55 166.23 1.00 1.00 r p2
141.43 166.23 1.00 1.00 r p2
142.30 166.23 1.00 1.00 r p2
143.18 166.23 1.00 1.00 r p2
144.05 166.23 1.00 1.00 r p2
144.93 166.23 1.00 1.00 r p2
145.80 166.23 1.00 1.00 r p2
146.68 166.23 1.00 1.00 r p2
147.56 166.23 1.00 1.00 r p2
148.43 166.23 1.00 1.00 r p2
149.81 164.71 (>) .5 0 t
150.68 164.71 (>) .5 0 t
151.56 164.71 (>) .5 0 t
152.44 164.71 (>) .5 0 t
153.31 164.71 (>) .5 0 t
154.19 164.71 (>) .5 0 t
155.06 164.71 (>) .5 0 t
155.44 166.23 1.00 1.00 r p2
156.31 166.23 1.00 1.00 r p2
157.19 166.23 1.00 1.00 r p2
158.07 166.23 1.00 1.00 r p2
159.44 164.71 (>) .5 0 t
160.32 164.71 (>) .5 0 t
161.19 164.71 (>) .5 0 t
162.07 164.71 (>) .5 0 t
162.94 164.71 (>) .5 0 t
163.82 164.71 (>) .5 0 t
164.70 164.71 (>) .5 0 t
165.57 164.71 (<) .5 0 t
166.45 164.71 (<) .5 0 t
167.32 164.71 (<) .5 0 t
167.70 166.23 1.00 1.00 r p2
168.58 166.23 1.00 1.00 r p2
169.95 164.71 (<) .5 0 t
170.83 164.71 (<) .5 0 t
171.70 164.71 (<) .5 0 t
172.58 164.71 (<) .5 0 t
173.45 164.71 (<) .5 0 t
174.33 164.71 (<) .5 0 t
175.21 164.71 (<) .5 0 t
175.58 166.23 1.00 1.00 r p2
176.46 166.23 1.00 1.00 r p2
177.33 166.23 1.00 1.00 r p2
178.21 166.23 1.00 1.00 r p2
179.09 166.23 1.00 1.00 r p2
179.96 166.23 1.00 1.00 r p2
180.84 166.23 1.00 1.00 r p2
181.71 166.23 1.00 1.00 r p2
182.59 166.23 1.00 1.00 r p2
183.46 166.23 1.00 1.00 r p2
184.34 166.23 1.00 1.00 r p2
185.22 166.23 1.00 1.00 r p2
186.09 166.23 1.00 1.00 r p2
186.97 166.23 1.00 1.00 r p2
187.84 166.23 1.00 1.00 r p2
188.72 166.23 1.00 1.00 r p2
189.59 166.23 1.00 1.00 r p2
190.47 166.23 1.00 1.00 r p2
191.35 166.23 1.00 1.00 r p2
192.22 166.23 1.00 1.00 r p2
193.10 166.23 1.00 1.00 r p2
193.97 166.23 1.00 1.00 r p2
194.85 166.23 1.00 1.00 r p2
195.73 166.23 1.00 1.00 r p2
196.60 166.23 1.00 1.00 r p2
197.48 166.23 1.00 1.00 r p2
198.35 166.23 1.00 1.00 r p2
199.23 166.23 1.00 1.00 r p2
200.10 166.23 1.00 1.00 r p2
200.98 166.23 1.00 1.00 r p2
201.86 166.23 1.00 1.00 r p2
202.73 166.23 1.00 1.00 r p2
203.61 166.23 1.00 1.00 r p2
204.48 166.23 1.00 1.00 r p2
205.36 166.23 1.00 1.00 r p2
206.23 166.23 1.00 1.00 r p2
207.11 166.23 1.00 1.00 r p2
207.99 166.23 1.00 1.00 r p2
208.86 166.23 1.00 1.00 r p2
209.74 166.23 1.00 1.00 r p2
210.61 166.23 1.00 1.00 r p2
211.49 166.23 1.00 1.00 r p2
212.37 166.23 1.00 1.00 r p2
213.24 166.23 1.00 1.00 r p2
214.12 166.23 1.00 1.00 r p2
214.99 166.23 1.00 1.00 r p2
215.87 166.23 1.00 1.00 r p2
216.74 166.23 1.00 1.00 r p2
218.12 164.71 (>) .5 0 t
219.00 164.71 (>) .5 0 t
219.87 164.71 (>) .5 0 t
220.75 164.71 (>) .5 0 t
221.62 164.71 (>) .5 0 t
222.50 164.71 (>) .5 0 t
223.38 164.71 (>) .5 0 t
223.75 166.23 1.00 1.00 r p2
225.13 164.71 (>) .5 0 t
226.00 164.71 (>) .5 0 t
226.88 164.71 (>) .5 0 t
227.25 166.23 1.00 1.00 r p2
228.13 166.23 1.00 1.00 r p2
229.51 164.71 (<) .5 0 t
230.38 164.71 (<) .5 0 t
231.26 164.71 (<) .5 0 t
232.13 164.71 (<) .5 0 t
232.51 166.23 1.00 1.00 r p2
233.88 164.71 (<) .5 0 t
234.76 164.71 (<) .5 0 t
235.64 164.71 (<) .5 0 t
236.01 166.23 1.00 1.00 r p2
236.89 166.23 1.00 1.00 r p2
237.76 166.23 1.00 1.00 r p2
239.14 164.71 (<) .5 0 t
240.02 164.71 (<) .5 0 t
240.89 164.71 (<) .5 0 t
241.77 164.71 (<) .5 0 t
242.64 164.71 (<) .5 0 t
243.52 164.71 (<) .5 0 t
243.89 166.23 1.00 1.00 r p2
244.77 166.23 1.00 1.00 r p2
246.15 164.71 (<) .5 0 t
247.02 164.71 (<) .5 0 t
247.90 164.71 (<) .5 0 t
248.77 164.71 (<) .5 0 t
249.15 166.23 1.00 1.00 r p2
250.02 166.23 1.00 1.00 r p2
250.90 166.23 1.00 1.00 r p2
251.78 166.23 1.00 1.00 r p2
253.15 164.71 (<) .5 0 t
254.03 164.71 (<) .5 0 t
254.90 164.71 (<) .5 0 t
255.78 164.71 (<) .5 0 t
256.66 164.71 (<) .5 0 t
257.53 164.71 (<) .5 0 t
257.91 166.23 1.00 1.00 r p2
258.78 166.23 1.00 1.00 r p2
259.66 166.23 1.00 1.00 r p2
260.53 166.23 1.00 1.00 r p2
261.41 166.23 1.00 1.00 r p2
262.29 166.23 1.00 1.00 r p2
263.16 166.23 1.00 1.00 r p2
264.04 166.23 1.00 1.00 r p2
264.91 166.23 1.00 1.00 r p2
265.79 166.23 1.00 1.00 r p2
266.67 166.23 1.00 1.00 r p2
267.54 166.23 1.00 1.00 r p2
268.42 166.23 1.00 1.00 r p2
269.29 166.23 1.00 1.00 r p2
270.17 166.23 1.00 1.00 r p2
271.04 166.23 1.00 1.00 r p2
271.92 166.23 1.00 1.00 r p2
272.80 166.23 1.00 1.00 r p2
273.67 166.23 1.00 1.00 r p2
274.55 166.23 1.00 1.00 r p2
275.42 166.23 1.00 1.00 r p2
276.30 166.23 1.00 1.00 r p2
277.17 166.23 1.00 1.00 r p2
278.05 166.23 1.00 1.00 r p2
278.93 166.23 1.00 1.00 r p2
279.80 166.23 1.00 1.00 r p2
280.68 166.23 1.00 1.00 r p2
281.55 166.23 1.00 1.00 r p2
282.43 166.23 1.00 1.00 r p2
283.31 166.23 1.00 1.00 r p2
284.18 166.23 1.00 1.00 r p2
285.06 166.23 1.00 1.00 r p2
285.93 166.23 1.00 1.00 r p2
286.81 166.23 1.00 1.00 r p2
287.68 166.23 1.00 1.00 r p2
288.56 166.23 1.00 1.00 r p2
289.44 166.23 1.00 1.00 r p2
290.31 166.23 1.00 1.00 r p2
291.69 164.71 (>) .5 0 t
292.56 164.71 (>) .5 0 t
293.44 164.71 (>) .5 0 t
294.31 164.71 (>) .5 0 t
295.19 164.71 (>) .5 0 t
296.07 164.71 (>) .5 0 t
296.44 166.23 1.00 1.00 r p2
297.32 166.23 1.00 1.00 r p2
298.69 164.71 (>) .5 0 t
299.57 164.71 (>) .5 0 t
300.45 164.71 (>) .5 0 t
301.32 164.71 (>) .5 0 t
301.70 166.23 1.00 1.00 r p2
302.57 166.23 1.00 1.00 r p2
303.95 164.71 (>) .5 0 t
304.82 164.71 (>) .5 0 t
305.70 164.71 (>) .5 0 t
306.58 164.71 (>) .5 0 t
307.45 164.71 (>) .5 0 t
308.33 164.71 (>) .5 0 t
309.20 164.71 (<) .5 0 t
310.08 164.71 (<) .5 0 t
310.96 164.71 (<) .5 0 t
311.83 164.71 (<) .5 0 t
312.21 166.23 1.00 1.00 r p2
313.58 164.71 (<) .5 0 t
314.46 164.71 (<) .5 0 t
315.33 164.71 (<) .5 0 t
316.21 164.71 (<) .5 0 t
317.09 164.71 (<) .5 0 t
317.96 164.71 (<) .5 0 t
318.84 164.71 (<) .5 0 t
319.71 164.71 (<) .5 0 t
320.59 164.71 (<) .5 0 t
321.46 164.71 (<) .5 0 t
322.34 164.71 (<) .5 0 t
322.72 166.23 1.00 1.00 r p2
323.59 166.23 1.00 1.00 r p2
324.47 166.23 1.00 1.00 r p2
325.34 166.23 1.00 1.00 r p2
326.22 166.23 1.00 1.00 r p2
327.10 166.23 1.00 1.00 r p2
327.97 166.23 1.00 1.00 r p2
328.85 166.23 1.00 1.00 r p2
329.72 166.23 1.00 1.00 r p2
330.60 166.23 1.00 1.00 r p2
331.47 166.23 1.00 1.00 r p2
332.35 166.23 1.00 1.00 r p2
333.23 166.23 1.00 1.00 r p2
334.10 166.23 1.00 1.00 r p2
334.98 166.23 1.00 1.00 r p2
335.85 166.23 1.00 1.00 r p2
336.73 166.23 1.00 1.00 r p2
338.10 164.71 (>) .5 0 t
338.98 164.71 (>) .5 0 t
339.86 164.71 (>) .5 0 t
340.73 164.71 (>) .5 0 t
341.61 164.71 (>) .5 0 t
342.48 164.71 (>) .5 0 t
343.36 164.71 (>) .5 0 t
343.74 166.23 1.00 1.00 r p2
344.61 166.23 1.00 1.00 r p2
345.99 164.71 (>) .5 0 t
346.86 164.71 (>) .5 0 t
347.74 164.71 (>) .5 0 t
348.61 164.71 (>) .5 0 t
349.49 164.71 (>) .5 0 t
350.37 164.71 (>) .5 0 t
351.24 164.71 (>) .5 0 t
352.12 164.71 (>) .5 0 t
352.49 166.23 1.00 1.00 r p2
353.37 166.23 1.00 1.00 r p2
354.25 166.23 1.00 1.00 r p2
355.12 166.23 1.00 1.00 r p2
356.00 166.23 1.00 1.00 r p2
357.37 163.86 (A) .5 0 t
357.75 166.23 1.00 1.00 r p2
358.62 166.23 1.00 1.00 r p2
360.00 163.86 (A) .5 0 t
360.88 163.86 (A) .5 0 t
361.75 163.86 (A) .5 0 t
362.63 163.86 (A) .5 0 t
363.50 163.86 (A) .5 0 t
363.88 166.23 1.00 1.00 r p2
364.75 166.23 1.00 1.00 r p2
365.63 166.23 1.00 1.00 r p2
367.01 164.71 (>) .5 0 t
367.88 164.71 (>) .5 0 t
368.76 164.71 (>) .5 0 t
369.63 164.71 (>) .5 0 t
370.51 164.71 (>) .5 0 t
371.39 164.71 (>) .5 0 t
372.26 164.71 (>) .5 0 t
373.14 164.71 (<) .5 0 t
374.01 164.71 (<) .5 0 t
374.89 164.71 (<) .5 0 t
375.76 164.71 (<) .5 0 t
376.64 164.71 (<) .5 0 t
377.52 164.71 (<) .5 0 t
378.39 164.71 (<) .5 0 t
379.27 164.71 (<) .5 0 t
380.14 164.71 (<) .5 0 t
380.52 166.23 1.00 1.00 r p2
381.40 166.23 1.00 1.00 r p2
382.27 166.23 1.00 1.00 r p2
383.15 166.23 1.00 1.00 r p2
384.02 166.23 1.00 1.00 r p2
384.90 166.23 1.00 1.00 r p2
385.77 166.23 1.00 1.00 r p2
386.65 166.23 1.00 1.00 r p2
387.53 166.23 1.00 1.00 r p2
388.40 166.23 1.00 1.00 r p2
389.28 166.23 1.00 1.00 r p2
390.15 166.23 1.00 1.00 r p2
391.03 166.23 1.00 1.00 r p2
391.90 166.23 1.00 1.00 r p2
392.78 166.23 1.00 1.00 r p2
393.66 166.23 1.00 1.00 r p2
394.53 166.23 1.00 1.00 r p2
395.41 166.23 1.00 1.00 r p2
396.28 166.23 1.00 1.00 r p2
397.16 166.23 1.00 1.00 r p2
398.04 166.23 1.00 1.00 r p2
398.91 166.23 1.00 1.00 r p2
399.79 166.23 1.00 1.00 r p2
400.66 166.23 1.00 1.00 r p2
401.54 166.23 1.00 1.00 r p2
402.41 166.23 1.00 1.00 r p2
403.29 166.23 1.00 1.00 r p2
404.17 166.23 1.00 1.00 r p2
405.04 166.23 1.00 1.00 r p2
405.92 166.23 1.00 1.00 r p2
406.79 166.23 1.00 1.00 r p2
407.67 166.23 1.00 1.00 r p2
408.54 166.23 1.00 1.00 r p2
409.42 166.23 1.00 1.00 r p2
410.30 166.23 1.00 1.00 r p2
411.17 166.23 1.00 1.00 r p2
412.05 166.23 1.00 1.00 r p2
413.42 164.71 (>) .5 0 t
414.30 164.71 (>) .5 0 t
415.18 164.71 (>) .5 0 t
416.05 164.71 (>) .5 0 t
416.93 164.71 (>) .5 0 t
417.80 164.71 (>) .5 0 t
418.68 164.71 (>) .5 0 t
419.55 164.71 (>) .5 0 t
420.43 164.71 (>) .5 0 t
420.81 166.23 1.00 1.00 r p2
421.68 166.23 1.00 1.00 r p2
422.56 166.23 1.00 1.00 r p2
423.43 166.23 1.00 1.00 r p2
424.31 166.23 1.00 1.00 r p2
425.19 166.23 1.00 1.00 r p2
426.06 166.23 1.00 1.00 r p2
427.44 164.64 (a) .5 0 t
428.31 164.64 (a) .5 0 t
429.19 164.64 (a) .5 0 t
430.06 164.64 (a) .5 0 t
430.94 164.64 (a) .5 0 t
431.82 164.64 (a) .5 0 t
432.19 166.23 1.00 1.00 r p2
433.57 164.71 (<) .5 0 t
434.44 164.71 (<) .5 0 t
434.82 166.23 1.00 1.00 r p2
435.69 166.23 1.00 1.00 r p2
436.57 166.23 1.00 1.00 r p2
437.95 164.71 (<) .5 0 t
438.82 164.71 (<) .5 0 t
439.70 164.71 (<) .5 0 t
440.57 164.71 (<) .5 0 t
441.45 164.71 (<) .5 0 t
441.83 166.23 1.00 1.00 r p2
442.70 166.23 1.00 1.00 r p2
443.58 166.23 1.00 1.00 r p2
444.45 166.23 1.00 1.00 r p2
445.33 166.23 1.00 1.00 r p2
446.20 166.23 1.00 1.00 r p2
447.08 166.23 1.00 1.00 r p2
447.96 166.23 1.00 1.00 r p2
448.83 166.23 1.00 1.00 r p2
449.71 166.23 1.00 1.00 r p2
451.08 164.71 (>) .5 0 t
451.96 164.71 (>) .5 0 t
452.83 164.71 (>) .5 0 t
453.71 164.71 (>) .5 0 t
454.59 164.71 (>) .5 0 t
454.96 166.23 1.00 1.00 r p2
455.84 166.23 1.00 1.00 r p2
457.21 164.71 (<) .5 0 t
458.09 164.71 (<) .5 0 t
458.97 164.71 (<) .5 0 t
459.84 164.71 (<) .5 0 t
460.72 164.71 (<) .5 0 t
461.59 164.71 (<) .5 0 t
462.47 164.71 (<) .5 0 t
463.34 164.71 (<) .5 0 t
463.72 166.23 1.00 1.00 r p2
464.60 166.23 1.00 1.00 r p2
465.47 166.23 1.00 1.00 r p2
466.35 166.23 1.00 1.00 r p2
467.22 166.23 1.00 1.00 r p2
468.60 164.71 (<) .5 0 t
469.48 164.71 (<) .5 0 t
470.35 164.71 (<) .5 0 t
470.73 166.23 1.00 1.00 r p2
471.60 166.23 1.00 1.00 r p2
472.48 166.23 1.00 1.00 r p2
473.35 166.23 1.00 1.00 r p2
474.23 166.23 1.00 1.00 r p2
475.11 166.23 1.00 1.00 r p2
475.98 166.23 1.00 1.00 r p2
477.36 164.71 (>) .5 0 t
478.23 164.71 (>) .5 0 t
479.11 164.71 (>) .5 0 t
479.48 166.23 1.00 1.00 r p2
480.36 166.23 1.00 1.00 r p2
481.24 166.23 1.00 1.00 r p2
482.11 166.23 1.00 1.00 r p2
482.99 166.23 1.00 1.00 r p2
484.36 164.71 (>) .5 0 t
485.24 164.71 (>) .5 0 t
486.12 164.71 (>) .5 0 t
486.99 164.71 (>) .5 0 t
487.87 164.71 (>) .5 0 t
488.74 164.71 (>) .5 0 t
489.62 164.71 (>) .5 0 t
490.49 164.71 (>) .5 0 t
490.87 166.23 1.00 1.00 r p2
491.75 166.23 1.00 1.00 r p2
492.62 166.23 1.00 1.00 r p2
493.50 166.23 1.00 1.00 r p2
494.37 166.23 1.00 1.00 r p2
495.25 166.23 1.00 1.00 r p2
496.12 166.23 1.00 1.00 r p2
497.50 164.71 (<) .5 0 t
498.38 164.71 (<) .5 0 t
499.25 164.71 (<) .5 0 t
500.13 164.71 (<) .5 0 t
501.00 164.71 (<) .5 0 t
501.38 166.23 1.00 1.00 r p2
502.26 166.23 1.00 1.00 r p2
503.13 166.23 1.00 1.00 r p2
504.51 164.71 (<) .5 0 t
505.38 164.71 (<) .5 0 t
506.26 164.71 (<) .5 0 t
507.13 164.71 (<) .5 0 t
508.01 164.71 (<) .5 0 t
508.39 166.23 1.00 1.00 r p2
509.26 166.23 1.00 1.00 r p2
510.14 166.23 1.00 1.00 r p2
511.01 166.23 1.00 1.00 r p2
511.89 166.23 1.00 1.00 r p2
512.77 166.23 1.00 1.00 r p2
513.64 166.23 1.00 1.00 r p2
514.52 166.23 1.00 1.00 r p2
515.39 166.23 1.00 1.00 r p2
516.27 166.23 1.00 1.00 r p2
517.14 166.23 1.00 1.00 r p2
518.02 166.23 1.00 1.00 r p2
518.90 166.23 1.00 1.00 r p2
519.77 166.23 1.00 1.00 r p2
520.65 166.23 1.00 1.00 r p2
521.52 166.23 1.00 1.00 r p2
522.40 166.23 1.00 1.00 r p2
523.27 166.23 1.00 1.00 r p2
524.15 166.23 1.00 1.00 r p2
525.03 166.23 1.00 1.00 r p2
525.90 166.23 1.00 1.00 r p2
526.78 166.23 1.00 1.00 r p2
527.65 166.23 1.00 1.00 r p2
528.53 166.23 1.00 1.00 r p2
529.41 166.23 1.00 1.00 r p2
530.28 166.23 1.00 1.00 r p2
531.16 166.23 1.00 1.00 r p2
532.03 166.23 1.00 1.00 r p2
532.91 166.23 1.00 1.00 r p2
533.78 166.23 1.00 1.00 r p2
534.66 166.23 1.00 1.00 r p2
535.54 166.23 1.00 1.00 r p2
536.41 166.23 1.00 1.00 r p2
537.29 166.23 1.00 1.00 r p2
538.16 166.23 1.00 1.00 r p2
539.04 166.23 1.00 1.00 r p2
539.91 166.23 1.00 1.00 r p2
540.79 166.23 1.00 1.00 r p2
541.67 166.23 1.00 1.00 r p2
542.54 166.23 1.00 1.00 r p2
543.42 166.23 1.00 1.00 r p2
544.29 166.23 1.00 1.00 r p2
545.17 166.23 1.00 1.00 r p2
546.05 166.23 1.00 1.00 r p2
546.92 166.23 1.00 1.00 r p2
547.80 166.23 1.00 1.00 r p2
548.67 166.23 1.00 1.00 r p2
550.05 164.71 (>) .5 0 t
550.92 164.71 (>) .5 0 t
551.80 164.71 (>) .5 0 t
552.68 164.71 (>) .5 0 t
553.55 164.71 (>) .5 0 t
553.93 166.23 1.00 1.00 r p2
554.80 166.23 1.00 1.00 r p2
556.18 164.71 (>) .5 0 t
557.06 164.71 (>) .5 0 t
557.93 164.71 (>) .5 0 t
558.81 164.71 (>) .5 0 t
559.68 164.71 (>) .5 0 t
560.06 166.23 1.00 1.00 r p2
560.93 166.23 1.00 1.00 r p2
561.81 166.23 1.00 1.00 r p2
562.69 166.23 1.00 1.00 r p2
563.56 166.23 1.00 1.00 r p2
564.44 166.23 1.00 1.00 r p2
565.31 166.23 1.00 1.00 r p2
566.19 166.23 1.00 1.00 r p2
567.06 166.23 1.00 1.00 r p2
567.94 166.23 1.00 1.00 r p2
568.82 166.23 1.00 1.00 r p2
569.69 166.23 1.00 1.00 r p2
570.57 166.23 1.00 1.00 r p2
571.44 166.23 1.00 1.00 r p2
572.32 166.23 1.00 1.00 r p2
573.20 166.23 1.00 1.00 r p2
574.07 166.23 1.00 1.00 r p2
574.95 166.23 1.00 1.00 r p2
575.82 166.23 1.00 1.00 r p2
576.70 166.23 1.00 1.00 r p2
577.57 166.23 1.00 1.00 r p2
578.45 166.23 1.00 1.00 r p2
579.33 166.23 1.00 1.00 r p2
580.20 166.23 1.00 1.00 r p2
581.08 166.23 1.00 1.00 r p2
581.95 166.23 1.00 1.00 r p2
582.83 166.23 1.00 1.00 r p2
583.70 166.23 1.00 1.00 r p2
584.58 166.23 1.00 1.00 r p2
585.46 166.23 1.00 1.00 r p2
586.33 166.23 1.00 1.00 r p2
587.21 166.23 1.00 1.00 r p2
588.08 166.23 1.00 1.00 r p2
588.96 166.23 1.00 1.00 r p2
589.84 166.23 1.00 1.00 r p2
590.71 166.23 1.00 1.00 r p2
591.59 166.23 1.00 1.00 r p2
592.46 166.23 1.00 1.00 r p2
593.34 166.23 1.00 1.00 r p2
594.21 166.23 1.00 1.00 r p2
595.09 166.23 1.00 1.00 r p2
595.97 166.23 1.00 1.00 r p2
596.84 166.23 1.00 1.00 r p2
597.72 166.23 1.00 1.00 r p2
598.59 166.23 1.00 1.00 r p2
599.47 166.23 1.00 1.00 r p2
600.35 166.23 1.00 1.00 r p2
601.22 166.23 1.00 1.00 r p2
602.10 166.23 1.00 1.00 r p2
602.97 166.23 1.00 1.00 r p2
603.85 166.23 1.00 1.00 r p2
604.72 166.23 1.00 1.00 r p2
605.60 166.23 1.00 1.00 r p2
606.48 166.23 1.00 1.00 r p2
607.35 166.23 1.00 1.00 r p2
608.23 166.23 1.00 1.00 r p2
609.10 166.23 1.00 1.00 r p2
609.98 166.23 1.00 1.00 r p2
610.85 166.23 1.00 1.00 r p2
611.73 166.23 1.00 1.00 r p2
612.61 166.23 1.00 1.00 r p2
613.48 166.23 1.00 1.00 r p2
614.36 166.23 1.00 1.00 r p2
615.23 166.23 1.00 1.00 r p2
616.11 166.23 1.00 1.00 r p2
616.99 166.23 1.00 1.00 r p2
617.86 166.23 1.00 1.00 r p2
618.74 166.23 1.00 1.00 r p2
619.61 166.23 1.00 1.00 r p2
620.49 166.23 1.00 1.00 r p2
621.36 166.23 1.00 1.00 r p2
622.24 166.23 1.00 1.00 r p2
623.12 166.23 1.00 1.00 r p2
623.99 166.23 1.00 1.00 r p2
624.87 166.23 1.00 1.00 r p2
625.74 166.23 1.00 1.00 r p2
626.62 166.23 1.00 1.00 r p2
627.49 166.23 1.00 1.00 r p2
628.37 166.23 1.00 1.00 r p2
629.25 166.23 1.00 1.00 r p2
630.12 166.23 1.00 1.00 r p2
631.00 166.23 1.00 1.00 r p2
631.87 166.23 1.00 1.00 r p2
632.75 166.23 1.00 1.00 r p2
633.63 166.23 1.00 1.00 r p2
634.50 166.23 1.00 1.00 r p2
635.38 166.23 1.00 1.00 r p2
636.25 166.23 1.00 1.00 r p2
637.13 166.23 1.00 1.00 r p2
638.00 166.23 1.00 1.00 r p2
638.88 166.23 1.00 1.00 r p2
639.76 166.23 1.00 1.00 r p2
640.63 166.23 1.00 1.00 r p2
641.51 166.23 1.00 1.00 r p2
642.38 166.23 1.00 1.00 r p2
643.26 166.23 1.00 1.00 r p2
644.14 166.23 1.00 1.00 r p2
645.01 166.23 1.00 1.00 r p2
645.89 166.23 1.00 1.00 r p2
646.76 166.23 1.00 1.00 r p2
647.64 166.23 1.00 1.00 r p2
648.51 166.23 1.00 1.00 r p2
649.39 166.23 1.00 1.00 r p2
650.27 166.23 1.00 1.00 r p2
651.14 166.23 1.00 1.00 r p2
652.02 166.23 1.00 1.00 r p2
652.89 166.23 1.00 1.00 r p2
654.27 164.71 (>) .5 0 t
655.14 164.71 (>) .5 0 t
655.52 166.23 1.00 1.00 r p2
656.40 166.23 1.00 1.00 r p2
657.27 166.23 1.00 1.00 r p2
658.15 166.23 1.00 1.00 r p2
659.02 166.23 1.00 1.00 r p2
659.90 166.23 1.00 1.00 r p2
660.78 166.23 1.00 1.00 r p2
661.65 166.23 1.00 1.00 r p2
662.53 166.23 1.00 1.00 r p2
663.40 166.23 1.00 1.00 r p2
664.28 166.23 1.00 1.00 r p2
665.15 166.23 1.00 1.00 r p2
666.03 166.23 1.00 1.00 r p2
666.91 166.23 1.00 1.00 r p2
667.78 166.23 1.00 1.00 r p2
668.66 166.23 1.00 1.00 r p2
669.53 166.23 1.00 1.00 r p2
670.41 166.23 1.00 1.00 r p2
0.00 0.00 720.00 180.00 cl
0.00 0.00 720.00 180.00 cl
0 0 0 srgb
0.75 setlinewidth
[] 0 setdash
1 setlinecap
1 setlinejoin
10.00 setmiterlimit
np
49.09 36.00 m
621.82 0 l
o
np
49.09 36.00 m
0 -7.20 l
o
np
57.85 36.00 m
0 -7.20 l
o
np
66.61 36.00 m
0 -7.20 l
o
np
75.36 36.00 m
0 -7.20 l
o
np
84.12 36.00 m
0 -7.20 l
o
np
92.88 36.00 m
0 -7.20 l
o
np
101.64 36.00 m
0 -7.20 l
o
np
110.40 36.00 m
0 -7.20 l
o
np
119.15 36.00 m
0 -7.20 l
o
np
127.91 36.00 m
0 -7.20 l
o
np
136.67 36.00 m
0 -7.20 l
o
np
145.43 36.00 m
0 -7.20 l
o
np
154.19 36.00 m
0 -7.20 l
o
np
162.94 36.00 m
0 -7.20 l
o
np
171.70 36.00 m
0 -7.20 l
o
np
180.46 36.00 m
0 -7.20 l
o
np
189.22 36.00 m
0 -7.20 l
o
np
197.98 36.00 m
0 -7.20 l
o
np
206.73 36.00 m
0 -7.20 l
o
np
215.49 36.00 m
0 -7.20 l
o
np
224.25 36.00 m
0 -7.20 l
o
np
233.01 36.00 m
0 -7.20 l
o
np
241.77 36.00 m
0 -7.20 l
o
np
250.52 36.00 m
0 -7.20 l
o
np
259.28 36.00 m
0 -7.20 l
o
np
268.04 36.00 m
0 -7.20 l
o
np
276.80 36.00 m
0 -7.20 l
o
np
285.56 36.00 m
0 -7.20 l
o
np
294.31 36.00 m
0 -7.20 l
o
np
303.07 36.00 m
0 -7.20 l
o
np
311.83 36.00 m
0 -7.20 l
o
np
320.59 36.00 m
0 -7.20 l
o
np
329.35 36.00 m
0 -7.20 l
o
np
338.10 36.00 m
0 -7.20 l
o
np
346.86 36.00 m
0 -7.20 l
o
np
355.62 36.00 m
0 -7.20 l
o
np
364.38 36.00 m
0 -7.20 l
o
np
373.14 36.00 m
0 -7.20 l
o
np
381.90 36.00 m
0 -7.20 l
o
np
390.65 36.00 m
0 -7.20 l
o
np
399.41 36.00 m
0 -7.20 l
o
np
408.17 36.00 m
0 -7.20 l
o
np
416.93 36.00 m
0 -7.20 l
o
np
425.69 36.00 m
0 -7.20 l
o
np
434.44 36.00 m
0 -7.20 l
o
np
443.20 36.00 m
0 -7.20 l
o
np
451.96 36.00 m
0 -7.20 l
o
np
460.72 36.00 m
0 -7.20 l
o
np
469.48 36.00 m
0 -7.20 l
o
np
478.23 36.00 m
0 -7.20 l
o
np
486.99 36.00 m
0 -7.20 l
o
np
495.75 36.00 m
0 -7.20 l
o
np
504.51 36.00 m
0 -7.20 l
o
np
513.27 36.00 m
0 -7.20 l
o
np
522.02 36.00 m
0 -7.20 l
o
np
530.78 36.00 m
0 -7.20 l
o
np
539.54 36.00 m
0 -7.20 l
o
np
548.30 36.00 m
0 -7.20 l
o
np
557.06 36.00 m
0 -7.20 l
o
np
565.81 36.00 m
0 -7.20 l
o
np
574.57 36.00 m
0 -7.20 l
o
np
583.33 36.00 m
0 -7.20 l
o
np
592.09 36.00 m
0 -7.20 l
o
np
600.85 36.00 m
0 -7.20 l
o
np
609.60 36.00 m
0 -7.20 l
o
np
618.36 36.00 m
0 -7.20 l
o
np
627.12 36.00 m
0 -7.20 l
o
np
635.88 36.00 m
0 -7.20 l
o
np
644.64 36.00 m
0 -7.20 l
o
np
653.39 36.00 m
0 -7.20 l
o
np
662.15 36.00 m
0 -7.20 l
o
np
670.91 36.00 m
0 -7.20 l
o
/Font1 findfont 12 s
49.09 10.08 (0) .5 0 t
75.36 10.08 (30) .5 0 t
101.64 10.08 (60) .5 0 t
127.91 10.08 (90) .5 0 t
162.94 10.08 (130) .5 0 t
197.98 10.08 (170) .5 0 t
233.01 10.08 (210) .5 0 t
268.04 10.08 (250) .5 0 t
303.07 10.08 (290) .5 0 t
338.10 10.08 (330) .5 0 t
373.14 10.08 (370) .5 0 t
408.17 10.08 (410) .5 0 t
443.20 10.08 (450) .5 0 t
478.23 10.08 (490) .5 0 t
513.27 10.08 (530) .5 0 t
548.30 10.08 (570) .5 0 t
583.33 10.08 (610) .5 0 t
618.36 10.08 (650) .5 0 t
653.39 10.08 (690) .5 0 t
18.00 36.00 702.00 180.00 cl
/bg { 0 0 0 srgb } def
49.47 158.29 1.00 1.00 r p2
50.34 158.29 1.00 1.00 r p2
51.22 158.29 1.00 1.00 r p2
/Font1 findfont 8 s
0 0 0 srgb
52.59 156.77 (<) .5 0 t
53.47 156.77 (<) .5 0 t
54.35 156.77 (<) .5 0 t
55.22 156.77 (<) .5 0 t
56.10 156.77 (<) .5 0 t
56.97 156.77 (<) .5 0 t
57.85 156.77 (<) .5 0 t
58.22 158.29 1.00 1.00 r p2
59.10 158.29 1.00 1.00 r p2
59.98 158.29 1.00 1.00 r p2
60.85 158.29 1.00 1.00 r p2
61.73 158.29 1.00 1.00 r p2
62.60 158.29 1.00 1.00 r p2
63.48 158.29 1.00 1.00 r p2
64.36 158.29 1.00 1.00 r p2
65.23 158.29 1.00 1.00 r p2
66.11 158.29 1.00 1.00 r p2
66.98 158.29 1.00 1.00 r p2
67.86 158.29 1.00 1.00 r p2
68.73 158.29 1.00 1.00 r p2
69.61 158.29 1.00 1.00 r p2
70.49 158.29 1.00 1.00 r p2
71.36 158.29 1.00 1.00 r p2
72.24 158.29 1.00 1.00 r p2
73.11 158.29 1.00 1.00 r p2
73.99 158.29 1.00 1.00 r p2
74.86 158.29 1.00 1.00 r p2
75.74 158.29 1.00 1.00 r p2
76.62 158.29 1.00 1.00 r p2
77.49 158.29 1.00 1.00 r p2
78.37 158.29 1.00 1.00 r p2
79.24 158.29 1.00 1.00 r p2
80.12 158.29 1.00 1.00 r p2
81.00 158.29 1.00 1.00 r p2
81.87 158.29 1.00 1.00 r p2
82.75 158.29 1.00 1.00 r p2
83.62 158.29 1.00 1.00 r p2
84.50 158.29 1.00 1.00 r p2
85.37 158.29 1.00 1.00 r p2
86.25 158.29 1.00 1.00 r p2
87.13 158.29 1.00 1.00 r p2
88.00 158.29 1.00 1.00 r p2
88.88 158.29 1.00 1.00 r p2
89.75 158.29 1.00 1.00 r p2
90.63 158.29 1.00 1.00 r p2
91.51 158.29 1.00 1.00 r p2
92.38 158.29 1.00 1.00 r p2
93.26 158.29 1.00 1.00 r p2
94.13 158.29 1.00 1.00 r p2
95.01 158.29 1.00 1.00 r p2
95.88 158.29 1.00 1.00 r p2
96.76 158.29 1.00 1.00 r p2
97.64 158.29 1.00 1.00 r p2
98.51 158.29 1.00 1.00 r p2
99.39 158.29 1.00 1.00 r p2
100.76 156.77 (>) .5 0 t
101.64 156.77 (>) .5 0 t
102.51 156.77 (>) .5 0 t
103.39 156.77 (>) .5 0 t
104.27 156.77 (>) .5 0 t
105.14 156.77 (>) .5 0 t
106.02 156.77 (>) .5 0 t
106.39 158.29 1.00 1.00 r p2
107.27 158.29 1.00 1.00 r p2
108.65 156.77 (<) .5 0 t
109.52 156.77 (<) .5 0 t
110.40 156.77 (<) .5 0 t
111.27 156.77 (<) .5 0 t
112.15 156.77 (<) .5 0 t
113.02 156.77 (<) .5 0 t
113.90 156.77 (<) .5 0 t
114.78 156.77 (<) .5 0 t
115.65 156.77 (<) .5 0 t
116.53 156.77 (<) .5 0 t
117.40 156.77 (<) .5 0 t
118.28 156.77 (<) .5 0 t
119.15 156.77 (<) .5 0 t
120.03 156.77 (<) .5 0 t
120.41 158.29 1.00 1.00 r p2
121.28 158.29 1.00 1.00 r p2
122.16 158.29 1.00 1.00 r p2
123.03 158.29 1.00 1.00 r p2
123.91 158.29 1.00 1.00 r p2
124.79 158.29 1.00 1.00 r p2
125.66 158.29 1.00 1.00 r p2
126.54 158.29 1.00 1.00 r p2
127.41 158.29 1.00 1.00 r p2
128.29 158.29 1.00 1.00 r p2
129.16 158.29 1.00 1.00 r p2
130.04 158.29 1.00 1.00 r p2
130.92 158.29 1.00 1.00 r p2
131.79 158.29 1.00 1.00 r p2
132.67 158.29 1.00 1.00 r p2
133.54 158.29 1.00 1.00 r p2
134.42 158.29 1.00 1.00 r p2
135.30 158.29 1.00 1.00 r p2
136.17 158.29 1.00 1.00 r p2
137.05 158.29 1.00 1.00 r p2
137.92 158.29 1.00 1.00 r p2
138.80 158.29 1.00 1.00 r p2
139.67 158.29 1.00 1.00 r p2
140.55 158.29 1.00 1.00 r p2
141.43 158.29 1.00 1.00 r p2
142.30 158.29 1.00 1.00 r p2
143.18 158.29 1.00 1.00 r p2
144.05 158.29 1.00 1.00 r p2
144.93 158.29 1.00 1.00 r p2
145.80 158.29 1.00 1.00 r p2
146.68 158.29 1.00 1.00 r p2
147.56 158.29 1.00 1.00 r p2
148.43 158.29 1.00 1.00 r p2
149.81 156.77 (>) .5 0 t
150.68 156.77 (>) .5 0 t
151.56 156.77 (>) .5 0 t
152.44 156.77 (>) .5 0 t
153.31 156.77 (>) .5 0 t
154.19 156.77 (>) .5 0 t
155.06 156.77 (>) .5 0 t
155.44 158.29 1.00 1.00 r p2
156.31 158.29 1.00 1.00 r p2
157.19 158.29 1.00 1.00 r p2
158.07 158.29 1.00 1.00 r p2
159.44 156.77 (>) .5 0 t
160.32 156.77 (>) .5 0 t
161.19 156.77 (>) .5 0 t
162.07 156.77 (>) .5 0 t
162.94 156.77 (>) .5 0 t
163.82 156.77 (>) .5 0 t
164.70 156.77 (>) .5 0 t
165.57 156.77 (<) .5 0 t
166.45 156.77 (<) .5 0 t
167.32 156.77 (<) .5 0 t
167.70 158.29 1.00 1.00 r p2
168.58 158.29 1.00 1.00 r p2
169.95 156.77 (<) .5 0 t
170.83 156.77 (<) .5 0 t
171.70 156.77 (<) .5 0 t
172.58 156.77 (<) .5 0 t
173.45 156.77 (<) .5 0 t
174.33 156.77 (<) .5 0 t
175.21 156.77 (<) .5 0 t
175.58 158.29 1.00 1.00 r p2
176.46 158.29 1.00 1.00 r p2
177.33 158.29 1.00 1.00 r p2
178.21 158.29 1.00 1.00 r p2
179.09 158.29 1.00 1.00 r p2
179.96 158.29 1.00 1.00 r p2
180.84 158.29 1.00 1.00 r p2
181.71 158.29 1.00 1.00 r p2
182.59 158.29 1.00 1.00 r p2
183.46 158.29 1.00 1.00 r p2
184.34 158.29 1.00 1.00 r p2
185.22 158.29 1.00 1.00 r p2
186.09 158.29 1.00 1.00 r p2
186.97 158.29 1.00 1.00 r p2
187.84 158.29 1.00 1.00 r p2
188.72 158.29 1.00 1.00 r p2
189.59 158.29 1.00 1.00 r p2
190.47 158.29 1.00 1.00 r p2
191.35 158.29 1.00 1.00 r p2
192.22 158.29 1.00 1.00 r p2
193.10 158.29 1.00 1.00 r p2
193.97 158.29 1.00 1.00 r p2
194.85 158.29 1.00 1.00 r p2
195.73 158.29 1.00 1.00 r p2
196.60 158.29 1.00 1.00 r p2
197.48 158.29 1.00 1.00 r p2
198.35 158.29 1.00 1.00 r p2
199.23 158.29 1.00 1.00 r p2
200.10 158.29 1.00 1.00 r p2
200.98 158.29 1.00 1.00 r p2
201.86 158.29 1.00 1.00 r p2
202.73 158.29 1.00 1.00 r p2
203.61 158.29 1.00 1.00 r p2
204.48 158.29 1.00 1.00 r p2
205.36 158.29 1.00 1.00 r p2
206.23 158.29 1.00 1.00 r p2
207.11 158.29 1.00 1.00 r p2
207.99 158.29 1.00 1.00 r p2
208.86 158.29 1.00 1.00 r p2
209.74 158.29 1.00 1.00 r p2
210.61 158.29 1.00 1.00 r p2
211.49 158.29 1.00 1.00 r p2
212.37 158.29 1.00 1.00 r p2
213.24 158.29 1.00 1.00 r p2
214.12 158.29 1.00 1.00 r p2
214.99 158.29 1.00 1.00 r p2
215.87 158.29 1.00 1.00 r p2
216.74 158.29 1.00 1.00 r p2
218.12 156.77 (>) .5 0 t
219.00 156.77 (>) .5 0 t
219.87 156.77 (>) .5 0 t
220.75 156.77 (>) .5 0 t
221.62 156.77 (>) .5 0 t
222.50 156.77 (>) .5 0 t
223.38 156.77 (>) .5 0 t
223.75 158.29 1.00 1.00 r p2
225.13 156.77 (>) .5 0 t
226.00 156.77 (>) .5 0 t
226.88 156.77 (>) .5 0 t
227.25 158.29 1.00 1.00 r p2
228.13 158.29 1.00 1.00 r p2
229.51 155.92 (A) .5 0 t
230.38 155.92 (A) .5 0 t
231.26 155.92 (A) .5 0 t
232.13 155.92 (A) .5 0 t
232.51 158.29 1.00 1.00 r p2
233.88 155.92 (A) .5 0 t
234.76 155.92 (A) .5 0 t
235.64 155.92 (A) .5 0 t
236.01 158.29 1.00 1.00 r p2
236.89 158.29 1.00 1.00 r p2
237.76 158.29 1.00 1.00 r p2
239.14 156.77 (<) .5 0 t
240.02 156.77 (<) .5 0 t
240.89 156.77 (<) .5 0 t
241.77 156.77 (<) .5 0 t
242.64 156.77 (<) .5 0 t
243.52 156.77 (<) .5 0 t
243.89 158.29 1.00 1.00 r p2
244.77 158.29 1.00 1.00 r p2
246.15 156.77 (<) .5 0 t
247.02 156.77 (<) .5 0 t
247.90 156.77 (<) .5 0 t
248.77 156.77 (<) .5 0 t
249.15 158.29 1.00 1.00 r p2
250.02 158.29 1.00 1.00 r p2
250.90 158.29 1.00 1.00 r p2
251.78 158.29 1.00 1.00 r p2
253.15 156.77 (<) .5 0 t
254.03 156.77 (<) .5 0 t
254.90 156.77 (<) .5 0 t
255.78 156.77 (<) .5 0 t
256.66 156.77 (<) .5 0 t
257.53 156.77 (<) .5 0 t
257.91 158.29 1.00 1.00 r p2
258.78 158.29 1.00 1.00 r p2
259.66 158.29 1.00 1.00 r p2
260.53 158.29 1.00 1.00 r p2
261.41 158.29 1.00 1.00 r p2
262.29 158.29 1.00 1.00 r p2
263.16 158.29 1.00 1.00 r p2
264.04 158.29 1.00 1.00 r p2
264.91 158.29 1.00 1.00 r p2
265.79 158.29 1.00 1.00 r p2
266.67 158.29 1.00 1.00 r p2
267.54 158.29 1.00 1.00 r p2
268.42 158.29 1.00 1.00 r p2
269.29 158.29 1.00 1.00 r p2
270.17 158.29 1.00 1.00 r p2
271.04 158.29 1.00 1.00 r p2
271.92 158.29 1.00 1.00 r p2
272.80 158.29 1.00 1.00 r p2
273.67 158.29 1.00 1.00 r p2
274.55 158.29 1.00 1.00 r p2
275.42 158.29 1.00 1.00 r p2
276.30 158.29 1.00 1.00 r p2
277.17 158.29 1.00 1.00 r p2
278.05 158.29 1.00 1.00 r p2
278.93 158.29 1.00 1.00 r p2
279.80 158.29 1.00 1.00 r p2
280.68 158.29 1.00 1.00 r p2
281.55 158.29 1.00 1.00 r p2
282.43 158.29 1.00 1.00 r p2
283.31 158.29 1.00 1.00 r p2
284.18 158.29 1.00 1.00 r p2
285.06 158.29 1.00 1.00 r p2
285.93 158.29 1.00 1.00 r p2
286.81 158.29 1.00 1.00 r p2
287.68 158.29 1.00 1.00 r p2
288.56 158.29 1.00 1.00 r p2
289.44 158.29 1.00 1.00 r p2
290.31 158.29 1.00 1.00 r p2
291.69 156.77 (>) .5 0 t
292.56 156.77 (>) .5 0 t
293.44 156.77 (>) .5 0 t
294.31 156.77 (>) .5 0 t
295.19 156.77 (>) .5 0 t
296.07 156.77 (>) .5 0 t
296.44 158.29 1.00 1.00 r p2
297.32 158.29 1.00 1.00 r p2
298.69 156.77 (>) .5 0 t
299.57 156.77 (>) .5 0 t
300.45 156.77 (>) .5 0 t
301.32 156.77 (>) .5 0 t
301.70 158.29 1.00 1.00 r p2
302.57 158.29 1.00 1.00 r p2
303.95 156.77 (>) .5 0 t
304.82 156.77 (>) .5 0 t
305.70 156.77 (>) .5 0 t
306.58 156.77 (>) .5 0 t
307.45 156.77 (>) .5 0 t
308.33 156.77 (>) .5 0 t
309.20 156.77 (<) .5 0 t
310.08 156.77 (<) .5 0 t
310.96 156.77 (<) .5 0 t
311.83 156.77 (<) .5 0 t
312.21 158.29 1.00 1.00 r p2
313.58 156.77 (<) .5 0 t
314.46 156.77 (<) .5 0 t
315.33 156.77 (<) .5 0 t
316.21 156.77 (<) .5 0 t
317.09 156.77 (<) .5 0 t
317.96 156.77 (<) .5 0 t
318.84 156.77 (<) .5 0 t
319.71 156.77 (<) .5 0 t
320.59 156.77 (<) .5 0 t
321.46 156.77 (<) .5 0 t
322.34 156.77 (<) .5 0 t
322.72 158.29 1.00 1.00 r p2
323.59 158.29 1.00 1.00 r p2
324.47 158.29 1.00 1.00 r p2
325.34 158.29 1.00 1.00 r p2
326.22 158.29 1.00 1.00 r p2
327.10 158.29 1.00 1.00 r p2
327.97 158.29 1.00 1.00 r p2
328.85 158.29 1.00 1.00 r p2
329.72 158.29 1.00 1.00 r p2
330.60 158.29 1.00 1.00 r p2
331.47 158.29 1.00 1.00 r p2
332.35 158.29 1.00 1.00 r p2
333.23 158.29 1.00 1.00 r p2
334.10 158.29 1.00 1.00 r p2
334.98 158.29 1.00 1.00 r p2
335.85 158.29 1.00 1.00 r p2
336.73 158.29 1.00 1.00 r p2
338.10 156.77 (>) .5 0 t
338.98 156.77 (>) .5 0 t
339.86 156.77 (>) .5 0 t
340.73 156.77 (>) .5 0 t
341.61 156.77 (>) .5 0 t
342.48 156.77 (>) .5 0 t
343.36 156.77 (>) .5 0 t
343.74 158.29 1.00 1.00 r p2
344.61 158.29 1.00 1.00 r p2
345.99 156.77 (>) .5 0 t
346.86 156.77 (>) .5 0 t
347.74 156.77 (>) .5 0 t
348.61 156.77 (>) .5 0 t
349.49 156.77 (>) .5 0 t
350.37 156.77 (>) .5 0 t
351.24 156.77 (>) .5 0 t
352.12 156.77 (>) .5 0 t
352.49 158.29 1.00 1.00 r p2
353.37 158.29 1.00 1.00 r p2
354.25 158.29 1.00 1.00 r p2
355.12 158.29 1.00 1.00 r p2
356.00 158.29 1.00 1.00 r p2
357.37 156.69 (\() .5 0 t
357.75 158.29 1.00 1.00 r p2
358.62 158.29 1.00 1.00 r p2
360.00 156.69 (\() .5 0 t
360.88 156.69 (\() .5 0 t
361.75 156.69 (\() .5 0 t
362.63 156.69 (\() .5 0 t
363.50 156.69 (\() .5 0 t
363.88 158.29 1.00 1.00 r p2
364.75 158.29 1.00 1.00 r p2
365.63 158.29 1.00 1.00 r p2
367.01 156.70 (a) .5 0 t
367.88 156.70 (a) .5 0 t
368.76 156.70 (a) .5 0 t
369.63 156.70 (a) .5 0 t
370.51 156.70 (a) .5 0 t
371.39 156.70 (a) .5 0 t
372.26 156.70 (a) .5 0 t
373.14 156.77 (<) .5 0 t
374.01 156.77 (<) .5 0 t
374.89 156.77 (<) .5 0 t
375.76 156.77 (<) .5 0 t
376.64 156.77 (<) .5 0 t
377.52 156.77 (<) .5 0 t
378.39 156.77 (<) .5 0 t
379.27 156.77 (<) .5 0 t
380.14 156.77 (<) .5 0 t
380.52 158.29 1.00 1.00 r p2
381.40 158.29 1.00 1.00 r p2
382.27 158.29 1.00 1.00 r p2
383.15 158.29 1.00 1.00 r p2
384.02 158.29 1.00 1.00 r p2
384.90 158.29 1.00 1.00 r p2
385.77 158.29 1.00 1.00 r p2
386.65 158.29 1.00 1.00 r p2
387.53 158.29 1.00 1.00 r p2
388.40 158.29 1.00 1.00 r p2
389.28 158.29 1.00 1.00 r p2
390.15 158.29 1.00 1.00 r p2
391.03 158.29 1.00 1.00 r p2
391.90 158.29 1.00 1.00 r p2
392.78 158.29 1.00 1.00 r p2
393.66 158.29 1.00 1.00 r p2
394.53 158.29 1.00 1.00 r p2
395.41 158.29 1.00 1.00 r p2
396.28 158.29 1.00 1.00 r p2
397.16 158.29 1.00 1.00 r p2
398.04 158.29 1.00 1.00 r p2
398.91 158.29 1.00 1.00 r p2
399.79 158.29 1.00 1.00 r p2
400.66 158.29 1.00 1.00 r p2
401.54 158.29 1.00 1.00 r p2
402.41 158.29 1.00 1.00 r p2
403.29 158.29 1.00 1.00 r p2
404.17 158.29 1.00 1.00 r p2
405.04 158.29 1.00 1.00 r p2
405.92 158.29 1.00 1.00 r p2
406.79 158.29 1.00 1.00 r p2
407.67 158.29 1.00 1.00 r p2
408.54 158.29 1.00 1.00 r p2
409.42 158.29 1.00 1.00 r p2
410.30 158.29 1.00 1.00 r p2
411.17 158.29 1.00 1.00 r p2
412.05 158.29 1.00 1.00 r p2
413.42 156.77 (>) .5 0 t
414.30 156.77 (>) .5 0 t
415.18 156.77 (>) .5 0 t
416.05 156.77 (>) .5 0 t
416.93 156.77 (>) .5 0 t
417.80 156.77 (>) .5 0 t
418.68 156.77 (>) .5 0 t
419.55 156.77 (>) .5 0 t
420.43 156.77 (>) .5 0 t
420.81 158.29 1.00 1.00 r p2
421.68 158.29 1.00 1.00 r p2
422.56 158.29 1.00 1.00 r p2
423.43 158.29 1.00 1.00 r p2
424.31 158.29 1.00 1.00 r p2
425.19 158.29 1.00 1.00 r p2
426.06 158.29 1.00 1.00 r p2
427.44 156.69 (\)) .5 0 t
428.31 156.69 (\)) .5 0 t
429.19 156.69 (\)) .5 0 t
430.06 156.69 (\)) .5 0 t
430.94 156.69 (\)) .5 0 t
431.82 156.69 (\)) .5 0 t
432.19 158.29 1.00 1.00 r p2
433.57 156.77 (<) .5 0 t
434.44 156.77 (<) .5 0 t
434.82 158.29 1.00 1.00 r p2
435.69 158.29 1.00 1.00 r p2
436.57 158.29 1.00 1.00 r p2
437.95 156.77 (<) .5 0 t
438.82 156.77 (<) .5 0 t
439.70 156.77 (<) .5 0 t
440.57 156.77 (<) .5 0 t
441.45 156.77 (<) .5 0 t
441.83 158.29 1.00 1.00 r p2
442.70 158.29 1.00 1.00 r p2
443.58 158.29 1.00 1.00 r p2
444.45 158.29 1.00 1.00 r p2
445.33 158.29 1.00 1.00 r p2
446.20 158.29 1.00 1.00 r p2
447.08 158.29 1.00 1.00 r p2
447.96 158.29 1.00 1.00 r p2
448.83 158.29 1.00 1.00 r p2
449.71 158.29 1.00 1.00 r p2
451.08 156.77 (>) .5 0 t
451.96 156.77 (>) .5 0 t
452.83 156.77 (>) .5 0 t
453.71 156.77 (>) .5 0 t
454.59 156.77 (>) .5 0 t
454.96 158.29 1.00 1.00 r p2
455.84 158.29 1.00 1.00 r p2
457.21 156.77 (<) .5 0 t
458.09 156.77 (<) .5 0 t
458.97 156.77 (<) .5 0 t
459.84 156.77 (<) .5 0 t
460.72 156.77 (<) .5 0 t
461.59 156.77 (<) .5 0 t
462.47 156.77 (<) .5 0 t
463.34 156.77 (<) .5 0 t
463.72 158.29 1.00 1.00 r p2
464.60 158.29 1.00 1.00 r p2
465.47 158.29 1.00 1.00 r p2
466.35 158.29 1.00 1.00 r p2
467.22 158.29 1.00 1.00 r p2
468.60 156.77 (<) .5 0 t
469.48 156.77 (<) .5 0 t
470.35 156.77 (<) .5 0 t
470.73 158.29 1.00 1.00 r p2
471.60 158.29 1.00 1.00 r p2
472.48 158.29 1.00 1.00 r p2
473.35 158.29 1.00 1.00 r p2
474.23 158.29 1.00 1.00 r p2
475.11 158.29 1.00 1.00 r p2
475.98 158.29 1.00 1.00 r p2
477.36 156.77 (>) .5 0 t
478.23 156.77 (>) .5 0 t
479.11 156.77 (>) .5 0 t
479.48 158.29 1.00 1.00 r p2
480.36 158.29 1.00 1.00 r p2
481.24 158.29 1.00 1.00 r p2
482.11 158.29 1.00 1.00 r p2
482.99 158.29 1.00 1.00 r p2
484.36 156.77 (>) .5 0 t
485.24 156.77 (>) .5 0 t
486.12 156.77 (>) .5 0 t
486.99 156.77 (>) .5 0 t
487.87 156.77 (>) .5 0 t
488.74 156.77 (>) .5 0 t
489.62 156.77 (>) .5 0 t
490.49 156.77 (>) .5 0 t
490.87 158.29 1.00 1.00 r p2
491.75 158.29 1.00 1.00 r p2
492.62 158.29 1.00 1.00 r p2
493.50 158.29 1.00 1.00 r p2
494.37 158.29 1.00 1.00 r p2
495.25 158.29 1.00 1.00 r p2
496.12 158.29 1.00 1.00 r p2
497.50 156.77 (<) .5 0 t
498.38 156.77 (<) .5 0 t
499.25 156.77 (<) .5 0 t
500.13 156.77 (<) .5 0 t
501.00 156.77 (<) .5 0 t
501.38 158.29 1.00 1.00 r p2
502.26 158.29 1.00 1.00 r p2
503.13 158.29 1.00 1.00 r p2
504.51 156.77 (<) .5 0 t
505.38 156.77 (<) .5 0 t
506.26 156.77 (<) .5 0 t
507.13 156.77 (<) .5 0 t
508.01 156.77 (<) .5 0 t
508.39 158.29 1.00 1.00 r p2
509.26 158.29 1.00 1.00 r p2
510.14 158.29 1.00 1.00 r p2
511.01 158.29 1.00 1.00 r p2
511.89 158.29 1.00 1.00 r p2
512.77 158.29 1.00 1.00 r p2
513.64 158.29 1.00 1.00 r p2
514.52 158.29 1.00 1.00 r p2
515.39 158.29 1.00 1.00 r p2
516.27 158.29 1.00 1.00 r p2
517.14 158.29 1.00 1.00 r p2
518.02 158.29 1.00 1.00 r p2
518.90 158.29 1.00 1.00 r p2
519.77 158.29 1.00 1.00 r p2
520.65 158.29 1.00 1.00 r p2
521.52 158.29 1.00 1.00 r p2
522.40 158.29 1.00 1.00 r p2
523.27 158.29 1.00 1.00 r p2
524.15 158.29 1.00 1.00 r p2
525.03 158.29 1.00 1.00 r p2
525.90 158.29 1.00 1.00 r p2
526.78 158.29 1.00 1.00 r p2
527.65 158.29 1.00 1.00 r p2
528.53 158.29 1.00 1.00 r p2
529.41 158.29 1.00 1.00 r p2
530.28 158.29 1.00 1.00 r p2
531.16 158.29 1.00 1.00 r p2
532.03 158.29 1.00 1.00 r p2
532.91 158.29 1.00 1.00 r p2
533.78 158.29 1.00 1.00 r p2
534.66 158.29 1.00 1.00 r p2
535.54 158.29 1.00 1.00 r p2
536.41 158.29 1.00 1.00 r p2
537.29 158.29 1.00 1.00 r p2
538.16 158.29 1.00 1.00 r p2
539.04 158.29 1.00 1.00 r p2
539.91 158.29 1.00 1.00 r p2
540.79 158.29 1.00 1.00 r p2
541.67 158.29 1.00 1.00 r p2
542.54 158.29 1.00 1.00 r p2
543.42 158.29 1.00 1.00 r p2
544.29 158.29 1.00 1.00 r p2
545.17 158.29 1.00 1.00 r p2
546.05 158.29 1.00 1.00 r p2
546.92 158.29 1.00 1.00 r p2
547.80 158.29 1.00 1.00 r p2
548.67 158.29 1.00 1.00 r p2
550.05 156.77 (>) .5 0 t
550.92 156.77 (>) .5 0 t
551.80 156.77 (>) .5 0 t
552.68 156.77 (>) .5 0 t
553.55 156.77 (>) .5 0 t
553.93 158.29 1.00 1.00 r p2
554.80 158.29 1.00 1.00 r p2
556.18 156.77 (>) .5 0 t
557.06 156.77 (>) .5 0 t
557.93 156.77 (>) .5 0 t
558.81 156.77 (>) .5 0 t
559.68 156.77 (>) .5 0 t
560.06 158.29 1.00 1.00 r p2
560.93 158.29 1.00 1.00 r p2
561.81 158.29 1.00 1.00 r p2
562.69 158.29 1.00 1.00 r p2
563.56 158.29 1.00 1.00 r p2
564.44 158.29 1.00 1.00 r p2
565.31 158.29 1.00 1.00 r p2
566.19 158.29 1.00 1.00 r p2
567.06 158.29 1.00 1.00 r p2
567.94 158.29 1.00 1.00 r p2
568.82 158.29 1.00 1.00 r p2
569.69 158.29 1.00 1.00 r p2
570.57 158.29 1.00 1.00 r p2
571.44 158.29 1.00 1.00 r p2
572.32 158.29 1.00 1.00 r p2
573.20 158.29 1.00 1.00 r p2
574.07 158.29 1.00 1.00 r p2
574.95 158.29 1.00 1.00 r p2
575.82 158.29 1.00 1.00 r p2
576.70 158.29 1.00 1.00 r p2
577.57 158.29 1.00 1.00 r p2
578.45 158.29 1.00 1.00 r p2
579.33 158.29 1.00 1.00 r p2
580.20 158.29 1.00 1.00 r p2
581.08 158.29 1.00 1.00 r p2
581.95 158.29 1.00 1.00 r p2
582.83 158.29 1.00 1.00 r p2
583.70 158.29 1.00 1.00 r p2
584.58 158.29 1.00 1.00 r p2
585.46 158.29 1.00 1.00 r p2
586.33 158.29 1.00 1.00 r p2
587.21 158.29 1.00 1.00 r p2
588.08 158.29 1.00 1.00 r p2
588.96 158.29 1.00 1.00 r p2
589.84 158.29 1.00 1.00 r p2
590.71 158.29 1.00 1.00 r p2
591.59 158.29 1.00 1.00 r p2
592.46 158.29 1.00 1.00 r p2
593.34 158.29 1.00 1.00 r p2
594.21 158.29 1.00 1.00 r p2
595.09 158.29 1.00 1.00 r p2
595.97 158.29 1.00 1.00 r p2
596.84 158.29 1.00 1.00 r p2
597.72 158.29 1.00 1.00 r p2
598.59 158.29 1.00 1.00 r p2
599.47 158.29 1.00 1.00 r p2
600.35 158.29 1.00 1.00 r p2
601.22 158.29 1.00 1.00 r p2
602.10 158.29 1.00 1.00 r p2
602.97 158.29 1.00 1.00 r p2
603.85 158.29 1.00 1.00 r p2
604.72 158.29 1.00 1.00 r p2
605.60 158.29 1.00 1.00 r p2
606.48 158.29 1.00 1.00 r p2
607.35 158.29 1.00 1.00 r p2
608.23 158.29 1.00 1.00 r p2
609.10 158.29 1.00 1.00 r p2
609.98 158.29 1.00 1.00 r p2
610.85 158.29 1.00 1.00 r p2
611.73 158.29 1.00 1.00 r p2
612.61 158.29 1.00 1.00 r p2
613.48 158.29 1.00 1.00 r p2
614.36 158.29 1.00 1.00 r p2
615.23 158.29 1.00 1.00 r p2
616.11 158.29 1.00 1.00 r p2
616.99 158.29 1.00 1.00 r p2
617.86 158.29 1.00 1.00 r p2
618.74 158.29 1.00 1.00 r p2
619.61 158.29 1.00 1.00 r p2
620.49 158.29 1.00 1.00 r p2
621.36 158.29 1.00 1.00 r p2
622.24 158.29 1.00 1.00 r p2
623.12 158.29 1.00 1.00 r p2
623.99 158.29 1.00 1.00 r p2
624.87 158.29 1.00 1.00 r p2
625.74 158.29 1.00 1.00 r p2
626.62 158.29 1.00 1.00 r p2
627.49 158.29 1.00 1.00 r p2
628.37 158.29 1.00 1.00 r p2
629.25 158.29 1.00 1.00 r p2
630.12 158.29 1.00 1.00 r p2
631.00 158.29 1.00 1.00 r p2
631.87 158.29 1.00 1.00 r p2
632.75 158.29 1.00 1.00 r p2
633.63 158.29 1.00 1.00 r p2
634.50 158.29 1.00 1.00 r p2
635.38 158.29 1.00 1.00 r p2
636.25 158.29 1.00 1.00 r p2
637.13 158.29 1.00 1.00 r p2
638.00 158.29 1.00 1.00 r p2
638.88 158.29 1.00 1.00 r p2
639.76 158.29 1.00 1.00 r p2
640.63 158.29 1.00 1.00 r p2
641.51 158.29 1.00 1.00 r p2
642.38 158.29 1.00 1.00 r p2
643.26 158.29 1.00 1.00 r p2
644.14 158.29 1.00 1.00 r p2
645.01 158.29 1.00 1.00 r p2
645.89 158.29 1.00 1.00 r p2
646.76 158.29 1.00 1.00 r p2
647.64 158.29 1.00 1.00 r p2
648.51 158.29 1.00 1.00 r p2
649.39 158.29 1.00 1.00 r p2
650.27 158.29 1.00 1.00 r p2
651.14 158.29 1.00 1.00 r p2
652.02 158.29 1.00 1.00 r p2
652.89 158.29 1.00 1.00 r p2
654.27 156.77 (>) .5 0 t
655.14 156.77 (>) .5 0 t
655.52 158.29 1.00 1.00 r p2
656.40 158.29 1.00 1.00 r p2
657.27 158.29 1.00 1.00 r p2
658.15 158.29 1.00 1.00 r p2
659.02 158.29 1.00 1.00 r p2
659.90 158.29 1.00 1.00 r p2
660.78 158.29 1.00 1.00 r p2
661.65 158.29 1.00 1.00 r p2
662.53 158.29 1.00 1.00 r p2
663.40 158.29 1.00 1.00 r p2
664.28 158.29 1.00 1.00 r p2
665.15 158.29 1.00 1.00 r p2
666.03 158.29 1.00 1.00 r p2
666.91 158.29 1.00 1.00 r p2
667.78 158.29 1.00 1.00 r p2
668.66 158.29 1.00 1.00 r p2
669.53 158.29 1.00 1.00 r p2
670.41 158.29 1.00 1.00 r p2
49.47 150.36 1.00 1.00 r p2
50.34 150.36 1.00 1.00 r p2
51.22 150.36 1.00 1.00 r p2
52.59 148.05 (1) .5 0 t
53.47 148.05 (1) .5 0 t
54.35 148.05 (1) .5 0 t
55.22 148.05 (1) .5 0 t
56.10 148.05 (1) .5 0 t
56.97 148.05 (1) .5 0 t
57.85 148.05 (1) .5 0 t
58.22 150.36 1.00 1.00 r p2
59.10 150.36 1.00 1.00 r p2
59.98 150.36 1.00 1.00 r p2
60.85 150.36 1.00 1.00 r p2
61.73 150.36 1.00 1.00 r p2
62.60 150.36 1.00 1.00 r p2
63.48 150.36 1.00 1.00 r p2
64.36 150.36 1.00 1.00 r p2
65.23 150.36 1.00 1.00 r p2
66.11 150.36 1.00 1.00 r p2
66.98 150.36 1.00 1.00 r p2
67.86 150.36 1.00 1.00 r p2
68.73 150.36 1.00 1.00 r p2
69.61 150.36 1.00 1.00 r p2
70.49 150.36 1.00 1.00 r p2
71.36 150.36 1.00 1.00 r p2
72.24 150.36 1.00 1.00 r p2
73.11 150.36 1.00 1.00 r p2
73.99 150.36 1.00 1.00 r p2
74.86 150.36 1.00 1.00 r p2
75.74 150.36 1.00 1.00 r p2
76.62 150.36 1.00 1.00 r p2
77.49 150.36 1.00 1.00 r p2
78.37 150.36 1.00 1.00 r p2
79.24 150.36 1.00 1.00 r p2
80.12 150.36 1.00 1.00 r p2
81.00 150.36 1.00 1.00 r p2
81.87 150.36 1.00 1.00 r p2
82.75 150.36 1.00 1.00 r p2
83.62 150.36 1.00 1.00 r p2
84.50 150.36 1.00 1.00 r p2
85.37 150.36 1.00 1.00 r p2
86.25 150.36 1.00 1.00 r p2
87.13 150.36 1.00 1.00 r p2
88.00 150.36 1.00 1.00 r p2
88.88 150.36 1.00 1.00 r p2
89.75 150.36 1.00 1.00 r p2
90.63 150.36 1.00 1.00 r p2
91.51 150.36 1.00 1.00 r p2
92.38 150.36 1.00 1.00 r p2
93.26 150.36 1.00 1.00 r p2
94.13 150.36 1.00 1.00 r p2
95.01 150.36 1.00 1.00 r p2
95.88 150.36 1.00 1.00 r p2
96.76 150.36 1.00 1.00 r p2
97.64 150.36 1.00 1.00 r p2
98.51 150.36 1.00 1.00 r p2
99.39 150.36 1.00 1.00 r p2
100.76 148.05 (1) .5 0 t
101.64 148.05 (1) .5 0 t
102.51 148.05 (1) .5 0 t
103.39 148.05 (1) .5 0 t
104.27 148.05 (1) .5 0 t
105.14 148.05 (1) .5 0 t
106.02 148.05 (1) .5 0 t
106.39 150.36 1.00 1.00 r p2
107.27 150.36 1.00 1.00 r p2
108.65 148.05 (2) .5 0 t
109.52 148.05 (2) .5 0 t
110.40 148.05 (2) .5 0 t
111.27 148.05 (2) .5 0 t
112.15 148.05 (2) .5 0 t
113.02 148.05 (2) .5 0 t
113.90 148.05 (2) .5 0 t
114.78 148.05 (2) .5 0 t
115.65 148.05 (2) .5 0 t
116.53 148.05 (2) .5 0 t
117.40 148.05 (2) .5 0 t
118.28 148.05 (2) .5 0 t
119.15 148.05 (2) .5 0 t
120.03 148.05 (2) .5 0 t
120.41 150.36 1.00 1.00 r p2
121.28 150.36 1.00 1.00 r p2
122.16 150.36 1.00 1.00 r p2
123.03 150.36 1.00 1.00 r p2
123.91 150.36 1.00 1.00 r p2
124.79 150.36 1.00 1.00 r p2
125.66 150.36 1.00 1.00 r p2
126.54 150.36 1.00 1.00 r p2
127.41 150.36 1.00 1.00 r p2
128.29 150.36 1.00 1.00 r p2
129.16 150.36 1.00 1.00 r p2
130.04 150.36 1.00 1.00 r p2
130.92 150.36 1.00 1.00 r p2
131.79 150.36 1.00 1.00 r p2
132.67 150.36 1.00 1.00 r p2
133.54 150.36 1.00 1.00 r p2
134.42 150.36 1.00 1.00 r p2
135.30 150.36 1.00 1.00 r p2
136.17 150.36 1.00 1.00 r p2
137.05 150.36 1.00 1.00 r p2
137.92 150.36 1.00 1.00 r p2
138.80 150.36 1.00 1.00 r p2
139.67 150.36 1.00 1.00 r p2
140.55 150.36 1.00 1.00 r p2
141.43 150.36 1.00 1.00 r p2
142.30 150.36 1.00 1.00 r p2
143.18 150.36 1.00 1.00 r p2
144.05 150.36 1.00 1.00 r p2
144.93 150.36 1.00 1.00 r p2
145.80 150.36 1.00 1.00 r p2
146.68 150.36 1.00 1.00 r p2
147.56 150.36 1.00 1.00 r p2
148.43 150.36 1.00 1.00 r p2
149.81 148.05 (2) .5 0 t
150.68 148.05 (2) .5 0 t
151.56 148.05 (2) .5 0 t
152.44 148.05 (2) .5 0 t
153.31 148.05 (2) .5 0 t
154.19 148.05 (2) .5 0 t
155.06 148.05 (2) .5 0 t
155.44 150.36 1.00 1.00 r p2
156.31 150.36 1.00 1.00 r p2
157.19 150.36 1.00 1.00 r p2
158.07 150.36 1.00 1.00 r p2
159.44 148.05 (2) .5 0 t
160.32 148.05 (2) .5 0 t
161.19 148.05 (2) .5 0 t
162.07 148.05 (2) .5 0 t
162.94 148.05 (2) .5 0 t
163.82 148.05 (2) .5 0 t
164.70 148.05 (2) .5 0 t
165.57 148.83 (<) .5 0 t
166.45 148.83 (<) .5 0 t
167.32 148.83 (<) .5 0 t
167.70 150.36 1.00 1.00 r p2
168.58 150.36 1.00 1.00 r p2
169.95 148.83 (<) .5 0 t
170.83 148.83 (<) .5 0 t
171.70 148.83 (<) .5 0 t
172.58 148.83 (<) .5 0 t
173.45 148.83 (<) .5 0 t
174.33 148.83 (<) .5 0 t
175.21 148.83 (<) .5 0 t
175.58 150.36 1.00 1.00 r p2
176.46 150.36 1.00 1.00 r p2
177.33 150.36 1.00 1.00 r p2
178.21 150.36 1.00 1.00 r p2
179.09 150.36 1.00 1.00 r p2
179.96 150.36 1.00 1.00 r p2
180.84 150.36 1.00 1.00 r p2
181.71 150.36 1.00 1.00 r p2
182.59 150.36 1.00 1.00 r p2
183.46 150.36 1.00 1.00 r p2
184.34 150.36 1.00 1.00 r p2
185.22 150.36 1.00 1.00 r p2
186.09 150.36 1.00 1.00 r p2
186.97 150.36 1.00 1.00 r p2
187.84 150.36 1.00 1.00 r p2
188.72 150.36 1.00 1.00 r p2
189.59 150.36 1.00 1.00 r p2
190.47 150.36 1.00 1.00 r p2
191.35 150.36 1.00 1.00 r p2
192.22 150.36 1.00 1.00 r p2
193.10 150.36 1.00 1.00 r p2
193.97 150.36 1.00 1.00 r p2
194.85 150.36 1.00 1.00 r p2
195.73 150.36 1.00 1.00 r p2
196.60 150.36 1.00 1.00 r p2
197.48 150.36 1.00 1.00 r p2
198.35 150.36 1.00 1.00 r p2
199.23 150.36 1.00 1.00 r p2
200.10 150.36 1.00 1.00 r p2
200.98 150.36 1.00 1.00 r p2
201.86 150.36 1.00 1.00 r p2
202.73 150.36 1.00 1.00 r p2
203.61 150.36 1.00 1.00 r p2
204.48 150.36 1.00 1.00 r p2
205.36 150.36 1.00 1.00 r p2
206.23 150.36 1.00 1.00 r p2
207.11 150.36 1.00 1.00 r p2
207.99 150.36 1.00 1.00 r p2
208.86 150.36 1.00 1.00 r p2
209.74 150.36 1.00 1.00 r p2
210.61 150.36 1.00 1.00 r p2
211.49 150.36 1.00 1.00 r p2
212.37 150.36 1.00 1.00 r p2
213.24 150.36 1.00 1.00 r p2
214.12 150.36 1.00 1.00 r p2
214.99 150.36 1.00 1.00 r p2
215.87 150.36 1.00 1.00 r p2
216.74 150.36 1.00 1.00 r p2
218.12 148.83 (>) .5 0 t
219.00 148.83 (>) .5 0 t
219.87 148.83 (>) .5 0 t
220.75 148.83 (>) .5 0 t
221.62 148.83 (>) .5 0 t
222.50 148.83 (>) .5 0 t
223.38 148.83 (>) .5 0 t
223.75 150.36 1.00 1.00 r p2
225.13 148.83 (>) .5 0 t
226.00 148.83 (>) .5 0 t
226.88 148.83 (>) .5 0 t
227.25 150.36 1.00 1.00 r p2
228.13 150.36 1.00 1.00 r p2
229.51 148.12 (3) .5 0 t
230.38 148.12 (3) .5 0 t
231.26 148.12 (3) .5 0 t
232.13 148.12 (3) .5 0 t
232.51 150.36 1.00 1.00 r p2
233.88 148.12 (3) .5 0 t
234.76 148.12 (3) .5 0 t
235.64 148.12 (3) .5 0 t
236.01 150.36 1.00 1.00 r p2
236.89 150.36 1.00 1.00 r p2
237.76 150.36 1.00 1.00 r p2
239.14 148.05 (4) .5 0 t
240.02 148.05 (4) .5 0 t
240.89 148.05 (4) .5 0 t
241.77 148.05 (4) .5 0 t
242.64 148.05 (4) .5 0 t
243.52 148.05 (4) .5 0 t
243.89 150.36 1.00 1.00 r p2
244.77 150.36 1.00 1.00 r p2
246.15 148.05 (4) .5 0 t
247.02 148.05 (4) .5 0 t
247.90 148.05 (4) .5 0 t
248.77 148.05 (4) .5 0 t
249.15 150.36 1.00 1.00 r p2
250.02 150.36 1.00 1.00 r p2
250.90 150.36 1.00 1.00 r p2
251.78 150.36 1.00 1.00 r p2
253.15 148.05 (4) .5 0 t
254.03 148.05 (4) .5 0 t
254.90 148.05 (4) .5 0 t
255.78 148.05 (4) .5 0 t
256.66 148.05 (4) .5 0 t
257.53 148.05 (4) .5 0 t
257.91 150.36 1.00 1.00 r p2
258.78 150.36 1.00 1.00 r p2
259.66 150.36 1.00 1.00 r p2
260.53 150.36 1.00 1.00 r p2
261.41 150.36 1.00 1.00 r p2
262.29 150.36 1.00 1.00 r p2
263.16 150.36 1.00 1.00 r p2
264.04 150.36 1.00 1.00 r p2
264.91 150.36 1.00 1.00 r p2
265.79 150.36 1.00 1.00 r p2
266.67 150.36 1.00 1.00 r p2
267.54 150.36 1.00 1.00 r p2
268.42 150.36 1.00 1.00 r p2
269.29 150.36 1.00 1.00 r p2
270.17 150.36 1.00 1.00 r p2
271.04 150.36 1.00 1.00 r p2
271.92 150.36 1.00 1.00 r p2
272.80 150.36 1.00 1.00 r p2
273.67 150.36 1.00 1.00 r p2
274.55 150.36 1.00 1.00 r p2
275.42 150.36 1.00 1.00 r p2
276.30 150.36 1.00 1.00 r p2
277.17 150.36 1.00 1.00 r p2
278.05 150.36 1.00 1.00 r p2
278.93 150.36 1.00 1.00 r p2
279.80 150.36 1.00 1.00 r p2
280.68 150.36 1.00 1.00 r p2
281.55 150.36 1.00 1.00 r p2
282.43 150.36 1.00 1.00 r p2
283.31 150.36 1.00 1.00 r p2
284.18 150.36 1.00 1.00 r p2
285.06 150.36 1.00 1.00 r p2
285.93 150.36 1.00 1.00 r p2
286.81 150.36 1.00 1.00 r p2
287.68 150.36 1.00 1.00 r p2
288.56 150.36 1.00 1.00 r p2
289.44 150.36 1.00 1.00 r p2
290.31 150.36 1.00 1.00 r p2
291.69 148.05 (4) .5 0 t
292.56 148.05 (4) .5 0 t
293.44 148.05 (4) .5 0 t
294.31 148.05 (4) .5 0 t
295.19 148.05 (4) .5 0 t
296.07 148.05 (4) .5 0 t
296.44 150.36 1.00 1.00 r p2
297.32 150.36 1.00 1.00 r p2
298.69 148.05 (4) .5 0 t
299.57 148.05 (4) .5 0 t
300.45 148.05 (4) .5 0 t
301.32 148.05 (4) .5 0 t
301.70 150.36 1.00 1.00 r p2
302.57 150.36 1.00 1.00 r p2
303.95 148.05 (4) .5 0 t
304.82 148.05 (4) .5 0 t
305.70 148.05 (4) .5 0 t
306.58 148.05 (4) .5 0 t
307.45 148.05 (4) .5 0 t
308.33 148.05 (4) .5 0 t
309.20 148.18 (5) .5 0 t
310.08 148.18 (5) .5 0 t
310.96 148.18 (5) .5 0 t
311.83 148.18 (5) .5 0 t
312.21 150.36 1.00 1.00 r p2
313.58 148.18 (5) .5 0 t
314.46 148.18 (5) .5 0 t
315.33 148.18 (5) .5 0 t
316.21 148.18 (5) .5 0 t
317.09 148.18 (5) .5 0 t
317.96 148.18 (5) .5 0 t
318.84 148.18 (5) .5 0 t
319.71 148.18 (5) .5 0 t
320.59 148.18 (5) .5 0 t
321.46 148.18 (5) .5 0 t
322.34 148.18 (5) .5 0 t
322.72 150.36 1.00 1.00 r p2
323.59 150.36 1.00 1.00 r p2
324.47 150.36 1.00 1.00 r p2
325.34 150.36 1.00 1.00 r p2
326.22 150.36 1.00 1.00 r p2
327.10 150.36 1.00 1.00 r p2
327.97 150.36 1.00 1.00 r p2
328.85 150.36 1.00 1.00 r p2
329.72 150.36 1.00 1.00 r p2
330.60 150.36 1.00 1.00 r p2
331.47 150.36 1.00 1.00 r p2
332.35 150.36 1.00 1.00 r p2
333.23 150.36 1.00 1.00 r p2
334.10 150.36 1.00 1.00 r p2
334.98 150.36 1.00 1.00 r p2
335.85 150.36 1.00 1.00 r p2
336.73 150.36 1.00 1.00 r p2
338.10 148.18 (5) .5 0 t
338.98 148.18 (5) .5 0 t
339.86 148.18 (5) .5 0 t
340.73 148.18 (5) .5 0 t
341.61 148.18 (5) .5 0 t
342.48 148.18 (5) .5 0 t
343.36 148.18 (5) .5 0 t
343.74 150.36 1.00 1.00 r p2
344.61 150.36 1.00 1.00 r p2
345.99 148.18 (5) .5 0 t
346.86 148.18 (5) .5 0 t
347.74 148.18 (5) .5 0 t
348.61 148.18 (5) .5 0 t
349.49 148.18 (5) .5 0 t
350.37 148.18 (5) .5 0 t
351.24 148.18 (5) .5 0 t
352.12 148.18 (5) .5 0 t
352.49 150.36 1.00 1.00 r p2
353.37 150.36 1.00 1.00 r p2
354.25 150.36 1.00 1.00 r p2
355.12 150.36 1.00 1.00 r p2
356.00 150.36 1.00 1.00 r p2
357.37 148.12 (6) .5 0 t
357.75 150.36 1.00 1.00 r p2
358.62 150.36 1.00 1.00 r p2
360.00 148.12 (6) .5 0 t
360.88 148.12 (6) .5 0 t
361.75 148.12 (6) .5 0 t
362.63 148.12 (6) .5 0 t
363.50 148.12 (6) .5 0 t
363.88 150.36 1.00 1.00 r p2
364.75 150.36 1.00 1.00 r p2
365.63 150.36 1.00 1.00 r p2
367.01 148.12 (3) .5 0 t
367.88 148.12 (3) .5 0 t
368.76 148.12 (3) .5 0 t
369.63 148.12 (3) .5 0 t
370.51 148.12 (3) .5 0 t
371.39 148.12 (3) .5 0 t
372.26 148.12 (3) .5 0 t
373.14 148.11 (7) .5 0 t
374.01 148.11 (7) .5 0 t
374.89 148.11 (7) .5 0 t
375.76 148.11 (7) .5 0 t
376.64 148.11 (7) .5 0 t
377.52 148.11 (7) .5 0 t
378.39 148.11 (7) .5 0 t
379.27 148.11 (7) .5 0 t
380.14 148.11 (7) .5 0 t
380.52 150.36 1.00 1.00 r p2
381.40 150.36 1.00 1.00 r p2
382.27 150.36 1.00 1.00 r p2
383.15 150.36 1.00 1.00 r p2
384.02 150.36 1.00 1.00 r p2
384.90 150.36 1.00 1.00 r p2
385.77 150.36 1.00 1.00 r p2
386.65 150.36 1.00 1.00 r p2
387.53 150.36 1.00 1.00 r p2
388.40 150.36 1.00 1.00 r p2
389.28 150.36 1.00 1.00 r p2
390.15 150.36 1.00 1.00 r p2
391.03 150.36 1.00 1.00 r p2
391.90 150.36 1.00 1.00 r p2
392.78 150.36 1.00 1.00 r p2
393.66 150.36 1.00 1.00 r p2
394.53 150.36 1.00 1.00 r p2
395.41 150.36 1.00 1.00 r p2
396.28 150.36 1.00 1.00 r p2
397.16 150.36 1.00 1.00 r p2
398.04 150.36 1.00 1.00 r p2
398.91 150.36 1.00 1.00 r p2
399.79 150.36 1.00 1.00 r p2
400.66 150.36 1.00 1.00 r p2
401.54 150.36 1.00 1.00 r p2
402.41 150.36 1.00 1.00 r p2
403.29 150.36 1.00 1.00 r p2
404.17 150.36 1.00 1.00 r p2
405.04 150.36 1.00 1.00 r p2
405.92 150.36 1.00 1.00 r p2
406.79 150.36 1.00 1.00 r p2
407.67 150.36 1.00 1.00 r p2
408.54 150.36 1.00 1.00 r p2
409.42 150.36 1.00 1.00 r p2
410.30 150.36 1.00 1.00 r p2
411.17 150.36 1.00 1.00 r p2
412.05 150.36 1.00 1.00 r p2
413.42 148.11 (7) .5 0 t
414.30 148.11 (7) .5 0 t
415.18 148.11 (7) .5 0 t
416.05 148.11 (7) .5 0 t
416.93 148.11 (7) .5 0 t
417.80 148.11 (7) .5 0 t
418.68 148.11 (7) .5 0 t
419.55 148.11 (7) .5 0 t
420.43 148.11 (7) .5 0 t
420.81 150.36 1.00 1.00 r p2
421.68 150.36 1.00 1.00 r p2
422.56 150.36 1.00 1.00 r p2
423.43 150.36 1.00 1.00 r p2
424.31 150.36 1.00 1.00 r p2
425.19 150.36 1.00 1.00 r p2
426.06 150.36 1.00 1.00 r p2
427.44 148.12 (6) .5 0 t
428.31 148.12 (6) .5 0 t
429.19 148.12 (6) .5 0 t
430.06 148.12 (6) .5 0 t
430.94 148.12 (6) .5 0 t
431.82 148.12 (6) .5 0 t
432.19 150.36 1.00 1.00 r p2
433.57 148.12 (8) .5 0 t
434.44 148.12 (8) .5 0 t
434.82 150.36 1.00 1.00 r p2
435.69 150.36 1.00 1.00 r p2
436.57 150.36 1.00 1.00 r p2
437.95 148.12 (8) .5 0 t
438.82 148.12 (8) .5 0 t
439.70 148.12 (8) .5 0 t
440.57 148.12 (8) .5 0 t
441.45 148.12 (8) .5 0 t
441.83 150.36 1.00 1.00 r p2
442.70 150.36 1.00 1.00 r p2
443.58 150.36 1.00 1.00 r p2
444.45 150.36 1.00 1.00 r p2
445.33 150.36 1.00 1.00 r p2
446.20 150.36 1.00 1.00 r p2
447.08 150.36 1.00 1.00 r p2
447.96 150.36 1.00 1.00 r p2
448.83 150.36 1.00 1.00 r p2
449.71 150.36 1.00 1.00 r p2
451.08 148.12 (8) .5 0 t
451.96 148.12 (8) .5 0 t
452.83 148.12 (8) .5 0 t
453.71 148.12 (8) .5 0 t
454.59 148.12 (8) .5 0 t
454.96 150.36 1.00 1.00 r p2
455.84 150.36 1.00 1.00 r p2
457.21 148.83 (<) .5 0 t
458.09 148.83 (<) .5 0 t
458.97 148.83 (<) .5 0 t
459.84 148.83 (<) .5 0 t
460.72 148.83 (<) .5 0 t
461.59 148.83 (<) .5 0 t
462.47 148.83 (<) .5 0 t
463.34 148.83 (<) .5 0 t
463.72 150.36 1.00 1.00 r p2
464.60 150.36 1.00 1.00 r p2
465.47 150.36 1.00 1.00 r p2
466.35 150.36 1.00 1.00 r p2
467.22 150.36 1.00 1.00 r p2
468.60 148.83 (<) .5 0 t
469.48 148.83 (<) .5 0 t
470.35 148.83 (<) .5 0 t
470.73 150.36 1.00 1.00 r p2
471.60 150.36 1.00 1.00 r p2
472.48 150.36 1.00 1.00 r p2
473.35 150.36 1.00 1.00 r p2
474.23 150.36 1.00 1.00 r p2
475.11 150.36 1.00 1.00 r p2
475.98 150.36 1.00 1.00 r p2
477.36 148.83 (>) .5 0 t
478.23 148.83 (>) .5 0 t
479.11 148.83 (>) .5 0 t
479.48 150.36 1.00 1.00 r p2
480.36 150.36 1.00 1.00 r p2
481.24 150.36 1.00 1.00 r p2
482.11 150.36 1.00 1.00 r p2
482.99 150.36 1.00 1.00 r p2
484.36 148.83 (>) .5 0 t
485.24 148.83 (>) .5 0 t
486.12 148.83 (>) .5 0 t
486.99 148.83 (>) .5 0 t
487.87 148.83 (>) .5 0 t
488.74 148.83 (>) .5 0 t
489.62 148.83 (>) .5 0 t
490.49 148.83 (>) .5 0 t
490.87 150.36 1.00 1.00 r p2
491.75 150.36 1.00 1.00 r p2
492.62 150.36 1.00 1.00 r p2
493.50 150.36 1.00 1.00 r p2
494.37 150.36 1.00 1.00 r p2
495.25 150.36 1.00 1.00 r p2
496.12 150.36 1.00 1.00 r p2
497.50 148.83 (<) .5 0 t
498.38 148.83 (<) .5 0 t
499.25 148.83 (<) .5 0 t
500.13 148.83 (<) .5 0 t
501.00 148.83 (<) .5 0 t
501.38 150.36 1.00 1.00 r p2
502.26 150.36 1.00 1.00 r p2
503.13 150.36 1.00 1.00 r p2
504.51 148.83 (<) .5 0 t
505.38 148.83 (<) .5 0 t
506.26 148.83 (<) .5 0 t
507.13 148.83 (<) .5 0 t
508.01 148.83 (<) .5 0 t
508.39 150.36 1.00 1.00 r p2
509.26 150.36 1.00 1.00 r p2
510.14 150.36 1.00 1.00 r p2
511.01 150.36 1.00 1.00 r p2
511.89 150.36 1.00 1.00 r p2
512.77 150.36 1.00 1.00 r p2
513.64 150.36 1.00 1.00 r p2
514.52 150.36 1.00 1.00 r p2
515.39 150.36 1.00 1.00 r p2
516.27 150.36 1.00 1.00 r p2
517.14 150.36 1.00 1.00 r p2
518.02 150.36 1.00 1.00 r p2
518.90 150.36 1.00 1.00 r p2
519.77 150.36 1.00 1.00 r p2
520.65 150.36 1.00 1.00 r p2
521.52 150.36 1.00 1.00 r p2
522.40 150.36 1.00 1.00 r p2
523.27 150.36 1.00 1.00 r p2
524.15 150.36 1.00 1.00 r p2
525.03 150.36 1.00 1.00 r p2
525.90 150.36 1.00 1.00 r p2
526.78 150.36 1.00 1.00 r p2
527.65 150.36 1.00 1.00 r p2
528.53 150.36 1.00 1.00 r p2
529.41 150.36 1.00 1.00 r p2
530.28 150.36 1.00 1.00 r p2
531.16 150.36 1.00 1.00 r p2
532.03 150.36 1.00 1.00 r p2
532.91 150.36 1.00 1.00 r p2
533.78 150.36 1.00 1.00 r p2
534.66 150.36 1.00 1.00 r p2
535.54 150.36 1.00 1.00 r p2
536.41 150.36 1.00 1.00 r p2
537.29 150.36 1.00 1.00 r p2
538.16 150.36 1.00 1.00 r p2
539.04 150.36 1.00 1.00 r p2
539.91 150.36 1.00 1.00 r p2
540.79 150.36 1.00 1.00 r p2
541.67 150.36 1.00 1.00 r p2
542.54 150.36 1.00 1.00 r p2
543.42 150.36 1.00 1.00 r p2
544.29 150.36 1.00 1.00 r p2
545.17 150.36 1.00 1.00 r p2
546.05 150.36 1.00 1.00 r p2
546.92 150.36 1.00 1.00 r p2
547.80 150.36 1.00 1.00 r p2
548.67 150.36 1.00 1.00 r p2
550.05 148.83 (>) .5 0 t
550.92 148.83 (>) .5 0 t
551.80 148.83 (>) .5 0 t
552.68 148.83 (>) .5 0 t
553.55 148.83 (>) .5 0 t
553.93 150.36 1.00 1.00 r p2
554.80 150.36 1.00 1.00 r p2
556.18 148.83 (>) .5 0 t
557.06 148.83 (>) .5 0 t
557.93 148.83 (>) .5 0 t
558.81 148.83 (>) .5 0 t
559.68 148.83 (>) .5 0 t
560.06 150.36 1.00 1.00 r p2
560.93 150.36 1.00 1.00 r p2
561.81 150.36 1.00 1.00 r p2
562.69 150.36 1.00 1.00 r p2
563.56 150.36 1.00 1.00 r p2
564.44 150.36 1.00 1.00 r p2
565.31 150.36 1.00 1.00 r p2
566.19 150.36 1.00 1.00 r p2
567.06 150.36 1.00 1.00 r p2
567.94 150.36 1.00 1.00 r p2
568.82 150.36 1.00 1.00 r p2
569.69 150.36 1.00 1.00 r p2
570.57 150.36 1.00 1.00 r p2
571.44 150.36 1.00 1.00 r p2
572.32 150.36 1.00 1.00 r p2
573.20 150.36 1.00 1.00 r p2
574.07 150.36 1.00 1.00 r p2
574.95 150.36 1.00 1.00 r p2
575.82 150.36 1.00 1.00 r p2
576.70 150.36 1.00 1.00 r p2
577.57 150.36 1.00 1.00 r p2
578.45 150.36 1.00 1.00 r p2
579.33 150.36 1.00 1.00 r p2
580.20 150.36 1.00 1.00 r p2
581.08 150.36 1.00 1.00 r p2
581.95 150.36 1.00 1.00 r p2
582.83 150.36 1.00 1.00 r p2
583.70 150.36 1.00 1.00 r p2
584.58 150.36 1.00 1.00 r p2
585.46 150.36 1.00 1.00 r p2
586.33 150.36 1.00 1.00 r p2
587.21 150.36 1.00 1.00 r p2
588.08 150.36 1.00 1.00 r p2
588.96 150.36 1.00 1.00 r p2
589.84 150.36 1.00 1.00 r p2
590.71 150.36 1.00 1.00 r p2
591.59 150.36 1.00 1.00 r p2
592.46 150.36 1.00 1.00 r p2
593.34 150.36 1.00 1.00 r p2
594.21 150.36 1.00 1.00 r p2
595.09 150.36 1.00 1.00 r p2
595.97 150.36 1.00 1.00 r p2
596.84 150.36 1.00 1.00 r p2
597.72 150.36 1.00 1.00 r p2
598.59 150.36 1.00 1.00 r p2
599.47 150.36 1.00 1.00 r p2
600.35 150.36 1.00 1.00 r p2
601.22 150.36 1.00 1.00 r p2
602.10 150.36 1.00 1.00 r p2
602.97 150.36 1.00 1.00 r p2
603.85 150.36 1.00 1.00 r p2
604.72 150.36 1.00 1.00 r p2
605.60 150.36 1.00 1.00 r p2
606.48 150.36 1.00 1.00 r p2
607.35 150.36 1.00 1.00 r p2
608.23 150.36 1.00 1.00 r p2
609.10 150.36 1.00 1.00 r p2
609.98 150.36 1.00 1.00 r p2
610.85 150.36 1.00 1.00 r p2
611.73 150.36 1.00 1.00 r p2
612.61 150.36 1.00 1.00 r p2
613.48 150.36 1.00 1.00 r p2
614.36 150.36 1.00 1.00 r p2
615.23 150.36 1.00 1.00 r p2
616.11 150.36 1.00 1.00 r p2
616.99 150.36 1.00 1.00 r p2
617.86 150.36 1.00 1.00 r p2
618.74 150.36 1.00 1.00 r p2
619.61 150.36 1.00 1.00 r p2
620.49 150.36 1.00 1.00 r p2
621.36 150.36 1.00 1.00 r p2
622.24 150.36 1.00 1.00 r p2
623.12 150.36 1.00 1.00 r p2
623.99 150.36 1.00 1.00 r p2
624.87 150.36 1.00 1.00 r p2
625.74 150.36 1.00 1.00 r p2
626.62 150.36 1.00 1.00 r p2
627.49 150.36 1.00 1.00 r p2
628.37 150.36 1.00 1.00 r p2
629.25 150.36 1.00 1.00 r p2
630.12 150.36 1.00 1.00 r p2
631.00 150.36 1.00 1.00 r p2
631.87 150.36 1.00 1.00 r p2
632.75 150.36 1.00 1.00 r p2
633.63 150.36 1.00 1.00 r p2
634.50 150.36 1.00 1.00 r p2
635.38 150.36 1.00 1.00 r p2
636.25 150.36 1.00 1.00 r p2
637.13 150.36 1.00 1.00 r p2
638.00 150.36 1.00 1.00 r p2
638.88 150.36 1.00 1.00 r p2
639.76 150.36 1.00 1.00 r p2
640.63 150.36 1.00 1.00 r p2
641.51 150.36 1.00 1.00 r p2
642.38 150.36 1.00 1.00 r p2
643.26 150.36 1.00 1.00 r p2
644.14 150.36 1.00 1.00 r p2
645.01 150.36 1.00 1.00 r p2
645.89 150.36 1.00 1.00 r p2
646.76 150.36 1.00 1.00 r p2
647.64 150.36 1.00 1.00 r p2
648.51 150.36 1.00 1.00 r p2
649.39 150.36 1.00 1.00 r p2
650.27 150.36 1.00 1.00 r p2
651.14 150.36 1.00 1.00 r p2
652.02 150.36 1.00 1.00 r p2
652.89 150.36 1.00 1.00 r p2
654.27 148.12 (8) .5 0 t
655.14 148.12 (8) .5 0 t
655.52 150.36 1.00 1.00 r p2
656.40 150.36 1.00 1.00 r p2
657.27 150.36 1.00 1.00 r p2
658.15 150.36 1.00 1.00 r p2
659.02 150.36 1.00 1.00 r p2
659.90 150.36 1.00 1.00 r p2
660.78 150.36 1.00 1.00 r p2
661.65 150.36 1.00 1.00 r p2
662.53 150.36 1.00 1.00 r p2
663.40 150.36 1.00 1.00 r p2
664.28 150.36 1.00 1.00 r p2
665.15 150.36 1.00 1.00 r p2
666.03 150.36 1.00 1.00 r p2
666.91 150.36 1.00 1.00 r p2
667.78 150.36 1.00 1.00 r p2
668.66 150.36 1.00 1.00 r p2
669.53 150.36 1.00 1.00 r p2
670.41 150.36 1.00 1.00 r p2
1 0 0 srgb
0.75 setlinewidth
[] 0 setdash
1 setlinecap
1 setlinejoin
10.00 setmiterlimit
np
49.97 145.86 m
2.54 -4.41 l
-5.09 0 l
2.55 4.41 l
o
np
52.59 145.86 m
2.55 -4.41 l
-5.09 0 l
2.54 4.41 l
o
np
52.59 145.86 m
2.55 -4.41 l
-5.09 0 l
2.54 4.41 l
o
np
100.76 145.86 m
2.55 -4.41 l
-5.09 0 l
2.54 4.41 l
o
np
108.65 145.86 m
2.54 -4.41 l
-5.09 0 l
2.55 4.41 l
o
np
149.81 145.86 m
2.54 -4.41 l
-5.09 0 l
2.55 4.41 l
o
np
229.51 145.86 m
2.54 -4.41 l
-5.09 0 l
2.55 4.41 l
o
np
149.81 145.86 m
2.54 -4.41 l
-5.09 0 l
2.55 4.41 l
o
np
239.14 145.86 m
2.54 -4.41 l
-5.09 0 l
2.55 4.41 l
o
np
229.51 145.86 m
2.54 -4.41 l
-5.09 0 l
2.55 4.41 l
o
np
229.51 145.86 m
2.54 -4.41 l
-5.09 0 l
2.55 4.41 l
o
np
239.14 145.86 m
2.54 -4.41 l
-5.09 0 l
2.55 4.41 l
o
np
291.69 145.86 m
2.54 -4.41 l
-5.09 0 l
2.55 4.41 l
o
np
291.69 145.86 m
2.54 -4.41 l
-5.09 0 l
2.55 4.41 l
o
np
309.20 145.86 m
2.55 -4.41 l
-5.09 0 l
2.54 4.41 l
o
np
338.10 145.86 m
2.55 -4.41 l
-5.09 0 l
2.54 4.41 l
o
np
357.37 145.86 m
2.55 -4.41 l
-5.09 0 l
2.54 4.41 l
o
np
338.10 145.86 m
2.55 -4.41 l
-5.09 0 l
2.54 4.41 l
o
np
357.37 145.86 m
2.55 -4.41 l
-5.09 0 l
2.54 4.41 l
o
np
357.37 145.86 m
2.55 -4.41 l
-5.09 0 l
2.54 4.41 l
o
np
373.14 145.86 m
2.54 -4.41 l
-5.09 0 l
2.55 4.41 l
o
np
373.14 145.86 m
2.54 -4.41 l
-5.09 0 l
2.55 4.41 l
o
np
413.42 145.86 m
2.55 -4.41 l
-5.09 0 l
2.54 4.41 l
o
np
373.14 145.86 m
2.54 -4.41 l
-5.09 0 l
2.55 4.41 l
o
np
413.42 145.86 m
2.55 -4.41 l
-5.09 0 l
2.54 4.41 l
o
np
427.44 145.86 m
2.54 -4.41 l
-5.09 0 l
2.55 4.41 l
o
np
433.57 145.86 m
2.54 -4.41 l
-5.09 0 l
2.55 4.41 l
o
np
106.02 145.86 m
2.54 -4.41 l
-5.09 0 l
2.55 4.41 l
o
np
120.03 145.86 m
2.55 -4.41 l
-5.09 0 l
2.54 4.41 l
o
np
164.70 145.86 m
2.54 -4.41 l
-5.09 0 l
2.55 4.41 l
o
np
164.70 145.86 m
2.54 -4.41 l
-5.09 0 l
2.55 4.41 l
o
np
235.64 145.86 m
2.54 -4.41 l
-5.09 0 l
2.55 4.41 l
o
np
257.53 145.86 m
2.55 -4.41 l
-5.09 0 l
2.54 4.41 l
o
np
257.53 145.86 m
2.55 -4.41 l
-5.09 0 l
2.54 4.41 l
o
np
372.26 145.86 m
2.55 -4.41 l
-5.09 0 l
2.54 4.41 l
o
np
322.34 145.86 m
2.55 -4.41 l
-5.09 0 l
2.54 4.41 l
o
np
363.50 145.86 m
2.55 -4.41 l
-5.09 0 l
2.54 4.41 l
o
np
372.26 145.86 m
2.55 -4.41 l
-5.09 0 l
2.54 4.41 l
o
np
372.26 145.86 m
2.55 -4.41 l
-5.09 0 l
2.54 4.41 l
o
np
352.12 145.86 m
2.54 -4.41 l
-5.09 0 l
2.55 4.41 l
o
np
380.14 145.86 m
2.55 -4.41 l
-5.09 0 l
2.54 4.41 l
o
np
363.50 145.86 m
2.55 -4.41 l
-5.09 0 l
2.54 4.41 l
o
np
380.14 145.86 m
2.55 -4.41 l
-5.09 0 l
2.54 4.41 l
o
np
372.26 145.86 m
2.55 -4.41 l
-5.09 0 l
2.54 4.41 l
o
np
431.82 145.86 m
2.54 -4.41 l
-5.09 0 l
2.55 4.41 l
o
np
431.82 145.86 m
2.54 -4.41 l
-5.09 0 l
2.55 4.41 l
o
np
441.45 145.86 m
2.54 -4.41 l
-5.09 0 l
2.55 4.41 l
o
np
431.82 145.86 m
2.54 -4.41 l
-5.09 0 l
2.55 4.41 l
o
np
441.45 145.86 m
2.54 -4.41 l
-5.09 0 l
2.55 4.41 l
o
np
431.82 145.86 m
2.54 -4.41 l
-5.09 0 l
2.55 4.41 l
o
np
655.14 145.86 m
2.55 -4.41 l
-5.09 0 l
2.54 4.41 l
o
np
655.14 145.86 m
2.55 -4.41 l
-5.09 0 l
2.54 4.41 l
o
np
655.14 145.86 m
2.55 -4.41 l
-5.09 0 l
2.54 4.41 l
o
np
670.91 145.86 m
2.54 -4.41 l
-5.09 0 l
2.55 4.41 l
o
0 0 0.8510 srgb
np
49.97 127.05 m
56.05 0 l
o
/Font1 findfont 7 s
77.99 129.93 (left-P1) .5 0 t
0 0 0.8745 srgb
np
52.59 123.87 m
67.44 0 l
o
86.31 116.80 (P1-L2) .5 0 t
0 0 0.9765 srgb
np
52.59 120.70 m
112.11 0 l
o
108.65 123.58 (P1-P2) .5 0 t
0 0.1020 1 srgb
np
100.76 117.52 m
63.94 0 l
o
132.73 110.46 (R1-P2) .5 0 t
0 0.4510 1 srgb
np
108.65 114.35 m
126.99 0 l
o
172.14 117.23 (P2-L3) .5 0 t
0 0.7020 1 srgb
np
149.81 111.17 m
107.72 0 l
o
203.67 104.11 (R2-L4) .5 0 t
0 1 1 srgb
np
229.51 108.00 m
28.02 0 l
o
243.52 110.88 (L3-L4) .5 0 t
0.0784 1 0.9216 srgb
np
149.81 104.83 m
222.45 0 l
o
261.03 97.76 (R2-P3) .5 0 t
0.1529 1 0.8471 srgb
np
239.14 101.65 m
83.20 0 l
o
280.74 104.53 (P4-L5) .5 0 t
0.2314 1 0.7686 srgb
np
229.51 98.48 m
133.99 0 l
o
296.50 91.41 (L3-L6) .5 0 t
np
229.51 95.30 m
142.75 0 l
o
300.88 98.18 (P3-L4) .5 0 t
0.2549 1 0.7451 srgb
np
239.14 92.13 m
133.12 0 l
o
305.70 85.06 (R3-P4) .5 0 t
0.3333 1 0.6667 srgb
np
291.69 88.95 m
60.43 0 l
o
321.90 91.83 (R4-P5) .5 0 t
0.3843 1 0.6157 srgb
np
291.69 85.78 m
88.45 0 l
o
335.92 78.71 (R4-L7) .5 0 t
np
309.20 82.60 m
54.30 0 l
o
336.35 85.48 (P5-L6) .5 0 t
0.4863 1 0.5137 srgb
np
338.10 79.43 m
42.04 0 l
o
359.12 72.36 (R5-L7) .5 0 t
0.5137 1 0.4863 srgb
np
357.37 76.25 m
14.89 0 l
o
364.82 79.13 (L6-R3) .5 0 t
0.5882 1 0.4118 srgb
np
338.10 73.08 m
93.72 0 l
o
384.96 66.01 (R5-P6) .5 0 t
0.6392 1 0.3608 srgb
np
357.37 69.90 m
74.45 0 l
o
394.59 72.78 (P6-L7) .5 0 t
np
357.37 66.73 m
84.08 0 l
o
399.41 59.66 (L6-L8) .5 0 t
0.6667 1 0.3333 srgb
np
373.14 63.56 m
58.68 0 l
o
402.48 66.44 (R6-P7) .5 0 t
0.6941 1 0.3059 srgb
np
373.14 60.38 m
68.31 0 l
o
407.29 53.31 (P7-L8) .5 0 t
0.7451 1 0.2549 srgb
np
413.42 57.21 m
18.40 0 l
o
422.62 60.09 (R7-R6) .5 0 t
1 0.7490 0 srgb
np
373.14 54.03 m
282.00 0 l
o
514.14 46.96 (P7-P8) .5 0 t
1 0.6000 0 srgb
np
413.42 50.86 m
241.72 0 l
o
534.28 53.74 (R7-P8) .5 0 t
1 0.5490 0 srgb
np
427.44 47.68 m
227.70 0 l
o
541.29 40.61 (R6-P8) .5 0 t
1 0.4510 0 srgb
np
433.57 44.51 m
237.34 0 l
o
539.11 47.39 (P8-r) 0 ta
0.105 (ight) tb gr
ep
%%Trailer
%%Pages: 1
%%EOF
