%!PS-Adobe-3.0
%%DocumentNeededResources: font Helvetica
%%+ font Helvetica-Bold
%%+ font Helvetica-Oblique
%%+ font Helvetica-BoldOblique
%%+ font Symbol
%%DocumentMedia: special 180 720 0 () ()
%%Title: R Graphics Output
%%Creator: R Software
%%Pages: (atend)
%%BoundingBox: 0 0 180 720
%%EndComments
%%BeginProlog
/bp  { gs sRGB 180.00 0 translate 90 rotate gs } def
% begin .ps.prolog
/gs  { gsave } bind def
/gr  { grestore } bind def
/ep  { showpage gr gr } bind def
/m   { moveto } bind def
/l  { rlineto } bind def
/np  { newpath } bind def
/cp  { closepath } bind def
/f   { fill } bind def
/o   { stroke } bind def
/c   { newpath 0 360 arc } bind def
/r   { 4 2 roll moveto 1 copy 3 -1 roll exch 0 exch rlineto 0 rlineto -1 mul 0 exch rlineto closepath } bind def
/p1  { stroke } bind def
/p2  { gsave bg fill grestore newpath } bind def
/p3  { gsave bg fill grestore stroke } bind def
/p6  { gsave bg eofill grestore newpath } bind def
/p7  { gsave bg eofill grestore stroke } bind def
/t   { 5 -2 roll moveto gsave rotate
       1 index stringwidth pop
       mul neg 0 rmoveto show grestore } bind def
/ta  { 4 -2 roll moveto gsave rotate show } bind def
/tb  { 2 -1 roll 0 rmoveto show } bind def
/cl  { grestore gsave newpath 3 index 3 index moveto 1 index
       4 -1 roll lineto  exch 1 index lineto lineto
       closepath clip newpath } bind def
/rgb { setrgbcolor } bind def
/s   { scalefont setfont } bind def
% end   .ps.prolog
/sRGB { [ /CIEBasedABC
          << /DecodeLMN
               [ { dup 0.03928 le
                        {12.92321 div}
                        {0.055 add 1.055 div 2.4 exp }
                     ifelse
                 } bind dup dup
               ]
             /MatrixLMN [0.412457 0.212673 0.019334
                         0.357576 0.715152 0.119192
                         0.180437 0.072175 0.950301]
             /WhitePoint [0.9505 1.0 1.0890]
           >>
         ] setcolorspace } bind def
/srgb { setcolor } bind def
%%IncludeResource: font Helvetica
/Helvetica findfont
dup length dict begin
  {1 index /FID ne {def} {pop pop} ifelse} forall
  /Encoding ISOLatin1Encoding def
  currentdict
  end
/Font1 exch definefont pop
%%IncludeResource: font Helvetica-Bold
/Helvetica-Bold findfont
dup length dict begin
  {1 index /FID ne {def} {pop pop} ifelse} forall
  /Encoding ISOLatin1Encoding def
  currentdict
  end
/Font2 exch definefont pop
%%IncludeResource: font Helvetica-Oblique
/Helvetica-Oblique findfont
dup length dict begin
  {1 index /FID ne {def} {pop pop} ifelse} forall
  /Encoding ISOLatin1Encoding def
  currentdict
  end
/Font3 exch definefont pop
%%IncludeResource: font Helvetica-BoldOblique
/Helvetica-BoldOblique findfont
dup length dict begin
  {1 index /FID ne {def} {pop pop} ifelse} forall
  /Encoding ISOLatin1Encoding def
  currentdict
  end
/Font4 exch definefont pop
%%IncludeResource: font Symbol
/Symbol findfont
dup length dict begin
  {1 index /FID ne {def} {pop pop} ifelse} forall
  currentdict
  end
/Font5 exch definefont pop
%%EndProlog
%%Page: 1 1
bp
18.00 36.00 702.00 180.00 cl
/bg { 0 0 0 srgb } def
49.47 166.23 1.00 1.00 r p2
50.35 166.23 1.00 1.00 r p2
51.23 166.23 1.00 1.00 r p2
52.11 166.23 1.00 1.00 r p2
52.99 166.23 1.00 1.00 r p2
/Font1 findfont 8 s
0 0 0 srgb
54.38 164.71 (<) .5 0 t
55.26 164.71 (<) .5 0 t
56.14 164.71 (<) .5 0 t
57.02 164.71 (<) .5 0 t
57.90 164.71 (<) .5 0 t
58.78 164.71 (<) .5 0 t
59.66 164.71 (<) .5 0 t
60.04 166.23 1.00 1.00 r p2
60.92 166.23 1.00 1.00 r p2
61.80 166.23 1.00 1.00 r p2
62.68 166.23 1.00 1.00 r p2
63.56 166.23 1.00 1.00 r p2
64.44 166.23 1.00 1.00 r p2
65.33 166.23 1.00 1.00 r p2
66.21 166.23 1.00 1.00 r p2
67.09 166.23 1.00 1.00 r p2
67.97 166.23 1.00 1.00 r p2
68.85 166.23 1.00 1.00 r p2
69.73 166.23 1.00 1.00 r p2
70.61 166.23 1.00 1.00 r p2
71.49 166.23 1.00 1.00 r p2
72.37 166.23 1.00 1.00 r p2
73.25 166.23 1.00 1.00 r p2
74.13 166.23 1.00 1.00 r p2
75.01 166.23 1.00 1.00 r p2
75.89 166.23 1.00 1.00 r p2
76.78 166.23 1.00 1.00 r p2
77.66 166.23 1.00 1.00 r p2
78.54 166.23 1.00 1.00 r p2
79.42 166.23 1.00 1.00 r p2
80.30 166.23 1.00 1.00 r p2
81.18 166.23 1.00 1.00 r p2
82.06 166.23 1.00 1.00 r p2
82.94 166.23 1.00 1.00 r p2
83.82 166.23 1.00 1.00 r p2
84.70 166.23 1.00 1.00 r p2
85.58 166.23 1.00 1.00 r p2
86.46 166.23 1.00 1.00 r p2
87.84 164.71 (>) .5 0 t
88.73 164.71 (>) .5 0 t
89.61 164.71 (>) .5 0 t
90.49 164.71 (>) .5 0 t
91.37 164.71 (>) .5 0 t
92.25 164.71 (>) .5 0 t
93.13 164.71 (>) .5 0 t
93.51 166.23 1.00 1.00 r p2
94.39 166.23 1.00 1.00 r p2
95.27 166.23 1.00 1.00 r p2
96.15 166.23 1.00 1.00 r p2
97.03 166.23 1.00 1.00 r p2
97.91 166.23 1.00 1.00 r p2
99.29 164.71 (<) .5 0 t
100.18 164.71 (<) .5 0 t
101.06 164.71 (<) .5 0 t
101.94 164.71 (<) .5 0 t
102.82 164.71 (<) .5 0 t
103.20 166.23 1.00 1.00 r p2
104.08 166.23 1.00 1.00 r p2
104.96 166.23 1.00 1.00 r p2
105.84 166.23 1.00 1.00 r p2
106.72 166.23 1.00 1.00 r p2
107.60 166.23 1.00 1.00 r p2
108.48 166.23 1.00 1.00 r p2
109.36 166.23 1.00 1.00 r p2
110.24 166.23 1.00 1.00 r p2
111.13 166.23 1.00 1.00 r p2
112.01 166.23 1.00 1.00 r p2
112.89 166.23 1.00 1.00 r p2
113.77 166.23 1.00 1.00 r p2
114.65 166.23 1.00 1.00 r p2
115.53 166.23 1.00 1.00 r p2
116.41 166.23 1.00 1.00 r p2
117.29 166.23 1.00 1.00 r p2
118.17 166.23 1.00 1.00 r p2
119.05 166.23 1.00 1.00 r p2
119.93 166.23 1.00 1.00 r p2
120.81 166.23 1.00 1.00 r p2
121.69 166.23 1.00 1.00 r p2
122.57 166.23 1.00 1.00 r p2
123.46 166.23 1.00 1.00 r p2
124.34 166.23 1.00 1.00 r p2
125.22 166.23 1.00 1.00 r p2
126.10 166.23 1.00 1.00 r p2
126.98 166.23 1.00 1.00 r p2
127.86 166.23 1.00 1.00 r p2
128.74 166.23 1.00 1.00 r p2
129.62 166.23 1.00 1.00 r p2
130.50 166.23 1.00 1.00 r p2
131.38 166.23 1.00 1.00 r p2
132.26 166.23 1.00 1.00 r p2
133.14 166.23 1.00 1.00 r p2
134.02 166.23 1.00 1.00 r p2
134.91 166.23 1.00 1.00 r p2
135.79 166.23 1.00 1.00 r p2
136.67 166.23 1.00 1.00 r p2
137.55 166.23 1.00 1.00 r p2
138.43 166.23 1.00 1.00 r p2
139.31 166.23 1.00 1.00 r p2
140.69 164.71 (>) .5 0 t
141.57 164.71 (>) .5 0 t
142.45 164.71 (>) .5 0 t
143.33 164.71 (>) .5 0 t
144.21 164.71 (>) .5 0 t
144.59 166.23 1.00 1.00 r p2
145.97 164.71 (<) .5 0 t
146.86 164.71 (<) .5 0 t
147.74 164.71 (<) .5 0 t
148.62 164.71 (<) .5 0 t
149.00 166.23 1.00 1.00 r p2
149.88 166.23 1.00 1.00 r p2
151.26 164.71 (<) .5 0 t
152.14 164.71 (<) .5 0 t
153.02 164.71 (<) .5 0 t
153.90 164.71 (<) .5 0 t
154.78 164.71 (<) .5 0 t
155.16 166.23 1.00 1.00 r p2
156.04 166.23 1.00 1.00 r p2
156.92 166.23 1.00 1.00 r p2
157.81 166.23 1.00 1.00 r p2
159.19 164.71 (<) .5 0 t
160.07 164.71 (<) .5 0 t
160.95 164.71 (<) .5 0 t
161.83 164.71 (<) .5 0 t
162.71 164.71 (<) .5 0 t
163.59 164.71 (<) .5 0 t
164.47 164.71 (<) .5 0 t
164.85 166.23 1.00 1.00 r p2
165.73 166.23 1.00 1.00 r p2
166.61 166.23 1.00 1.00 r p2
167.99 164.71 (<) .5 0 t
168.87 164.71 (<) .5 0 t
169.76 164.71 (<) .5 0 t
170.64 164.71 (<) .5 0 t
171.02 166.23 1.00 1.00 r p2
171.90 166.23 1.00 1.00 r p2
172.78 166.23 1.00 1.00 r p2
173.66 166.23 1.00 1.00 r p2
174.54 166.23 1.00 1.00 r p2
175.42 166.23 1.00 1.00 r p2
176.80 164.71 (>) .5 0 t
177.68 164.71 (>) .5 0 t
178.56 164.71 (>) .5 0 t
179.44 164.71 (>) .5 0 t
179.82 166.23 1.00 1.00 r p2
180.71 166.23 1.00 1.00 r p2
181.59 166.23 1.00 1.00 r p2
182.47 166.23 1.00 1.00 r p2
183.35 166.23 1.00 1.00 r p2
184.23 166.23 1.00 1.00 r p2
185.11 166.23 1.00 1.00 r p2
185.99 166.23 1.00 1.00 r p2
186.87 166.23 1.00 1.00 r p2
187.75 166.23 1.00 1.00 r p2
188.63 166.23 1.00 1.00 r p2
190.01 164.71 (>) .5 0 t
190.39 166.23 1.00 1.00 r p2
191.77 164.71 (>) .5 0 t
192.66 164.71 (>) .5 0 t
193.54 164.71 (>) .5 0 t
193.92 166.23 1.00 1.00 r p2
194.80 166.23 1.00 1.00 r p2
195.68 166.23 1.00 1.00 r p2
196.56 166.23 1.00 1.00 r p2
197.94 164.71 (>) .5 0 t
198.82 164.71 (>) .5 0 t
199.70 164.71 (>) .5 0 t
200.08 166.23 1.00 1.00 r p2
200.96 166.23 1.00 1.00 r p2
201.84 166.23 1.00 1.00 r p2
203.22 164.71 (<) .5 0 t
204.11 164.71 (<) .5 0 t
204.99 164.71 (<) .5 0 t
205.87 164.71 (<) .5 0 t
206.75 164.71 (<) .5 0 t
207.63 164.71 (<) .5 0 t
208.01 166.23 1.00 1.00 r p2
208.89 166.23 1.00 1.00 r p2
209.77 166.23 1.00 1.00 r p2
210.65 166.23 1.00 1.00 r p2
211.53 166.23 1.00 1.00 r p2
212.41 166.23 1.00 1.00 r p2
213.29 166.23 1.00 1.00 r p2
214.17 166.23 1.00 1.00 r p2
215.05 166.23 1.00 1.00 r p2
215.94 166.23 1.00 1.00 r p2
216.82 166.23 1.00 1.00 r p2
217.70 166.23 1.00 1.00 r p2
218.58 166.23 1.00 1.00 r p2
219.46 166.23 1.00 1.00 r p2
220.34 166.23 1.00 1.00 r p2
221.22 166.23 1.00 1.00 r p2
222.10 166.23 1.00 1.00 r p2
222.98 166.23 1.00 1.00 r p2
223.86 166.23 1.00 1.00 r p2
224.74 166.23 1.00 1.00 r p2
225.62 166.23 1.00 1.00 r p2
226.50 166.23 1.00 1.00 r p2
227.39 166.23 1.00 1.00 r p2
228.27 166.23 1.00 1.00 r p2
229.15 166.23 1.00 1.00 r p2
230.53 164.71 (>) .5 0 t
231.41 164.71 (>) .5 0 t
232.29 164.71 (>) .5 0 t
232.67 166.23 1.00 1.00 r p2
234.05 164.71 (>) .5 0 t
234.93 164.71 (>) .5 0 t
235.81 164.71 (>) .5 0 t
236.19 166.23 1.00 1.00 r p2
237.07 166.23 1.00 1.00 r p2
237.95 166.23 1.00 1.00 r p2
238.84 166.23 1.00 1.00 r p2
240.22 164.71 (>) .5 0 t
241.10 164.71 (>) .5 0 t
241.98 164.71 (>) .5 0 t
242.86 164.71 (>) .5 0 t
243.74 164.71 (>) .5 0 t
244.62 164.71 (>) .5 0 t
245.50 164.71 (>) .5 0 t
246.38 164.71 (>) .5 0 t
247.26 164.71 (>) .5 0 t
247.64 166.23 1.00 1.00 r p2
248.52 166.23 1.00 1.00 r p2
249.40 166.23 1.00 1.00 r p2
250.79 164.71 (<) .5 0 t
251.67 164.71 (<) .5 0 t
252.55 164.71 (<) .5 0 t
253.43 164.71 (<) .5 0 t
253.81 166.23 1.00 1.00 r p2
255.19 164.71 (<) .5 0 t
256.07 164.71 (<) .5 0 t
256.45 166.23 1.00 1.00 r p2
257.83 164.71 (<) .5 0 t
258.21 166.23 1.00 1.00 r p2
259.09 166.23 1.00 1.00 r p2
259.97 166.23 1.00 1.00 r p2
261.35 164.71 (<) .5 0 t
262.24 164.71 (<) .5 0 t
263.12 164.71 (<) .5 0 t
264.00 164.71 (<) .5 0 t
264.88 164.71 (<) .5 0 t
265.76 164.71 (<) .5 0 t
266.14 166.23 1.00 1.00 r p2
267.02 166.23 1.00 1.00 r p2
267.90 166.23 1.00 1.00 r p2
268.78 166.23 1.00 1.00 r p2
269.66 166.23 1.00 1.00 r p2
270.54 166.23 1.00 1.00 r p2
271.42 166.23 1.00 1.00 r p2
272.30 166.23 1.00 1.00 r p2
273.69 164.71 (<) .5 0 t
274.57 164.71 (<) .5 0 t
275.45 164.71 (<) .5 0 t
275.83 166.23 1.00 1.00 r p2
276.71 166.23 1.00 1.00 r p2
277.59 166.23 1.00 1.00 r p2
278.97 164.71 (<) .5 0 t
279.85 164.71 (<) .5 0 t
280.73 164.71 (<) .5 0 t
281.11 166.23 1.00 1.00 r p2
281.99 166.23 1.00 1.00 r p2
282.87 166.23 1.00 1.00 r p2
283.75 166.23 1.00 1.00 r p2
284.64 166.23 1.00 1.00 r p2
285.52 166.23 1.00 1.00 r p2
286.40 166.23 1.00 1.00 r p2
287.28 166.23 1.00 1.00 r p2
288.16 166.23 1.00 1.00 r p2
289.04 166.23 1.00 1.00 r p2
289.92 166.23 1.00 1.00 r p2
290.80 166.23 1.00 1.00 r p2
291.68 166.23 1.00 1.00 r p2
292.56 166.23 1.00 1.00 r p2
293.44 166.23 1.00 1.00 r p2
294.32 166.23 1.00 1.00 r p2
295.20 166.23 1.00 1.00 r p2
296.09 166.23 1.00 1.00 r p2
296.97 166.23 1.00 1.00 r p2
297.85 166.23 1.00 1.00 r p2
298.73 166.23 1.00 1.00 r p2
299.61 166.23 1.00 1.00 r p2
300.49 166.23 1.00 1.00 r p2
301.37 166.23 1.00 1.00 r p2
302.25 166.23 1.00 1.00 r p2
303.13 166.23 1.00 1.00 r p2
304.01 166.23 1.00 1.00 r p2
304.89 166.23 1.00 1.00 r p2
305.77 166.23 1.00 1.00 r p2
306.65 166.23 1.00 1.00 r p2
307.54 166.23 1.00 1.00 r p2
308.92 164.71 (>) .5 0 t
309.80 164.71 (>) .5 0 t
310.68 164.71 (>) .5 0 t
311.06 166.23 1.00 1.00 r p2
311.94 166.23 1.00 1.00 r p2
313.32 164.71 (>) .5 0 t
314.20 164.71 (>) .5 0 t
315.08 164.71 (>) .5 0 t
315.46 166.23 1.00 1.00 r p2
316.34 166.23 1.00 1.00 r p2
317.22 166.23 1.00 1.00 r p2
318.10 166.23 1.00 1.00 r p2
319.48 164.71 (>) .5 0 t
320.37 164.71 (>) .5 0 t
321.25 164.71 (>) .5 0 t
322.13 164.71 (>) .5 0 t
323.01 164.71 (>) .5 0 t
323.89 164.71 (>) .5 0 t
324.77 164.71 (<) .5 0 t
325.65 164.71 (<) .5 0 t
326.53 164.71 (<) .5 0 t
327.41 164.71 (<) .5 0 t
327.79 166.23 1.00 1.00 r p2
329.17 164.71 (<) .5 0 t
330.05 164.71 (<) .5 0 t
330.93 164.71 (<) .5 0 t
331.82 164.71 (<) .5 0 t
332.70 164.71 (<) .5 0 t
333.58 164.71 (<) .5 0 t
333.96 166.23 1.00 1.00 r p2
334.84 166.23 1.00 1.00 r p2
335.72 166.23 1.00 1.00 r p2
336.60 166.23 1.00 1.00 r p2
337.48 166.23 1.00 1.00 r p2
338.36 166.23 1.00 1.00 r p2
339.24 166.23 1.00 1.00 r p2
340.12 166.23 1.00 1.00 r p2
341.50 164.71 (>) .5 0 t
342.38 164.71 (>) .5 0 t
343.27 164.71 (>) .5 0 t
344.15 164.71 (>) .5 0 t
345.03 164.71 (>) .5 0 t
345.91 164.71 (>) .5 0 t
346.79 164.71 (>) .5 0 t
347.67 164.71 (>) .5 0 t
348.55 164.71 (>) .5 0 t
349.43 164.71 (>) .5 0 t
349.81 166.23 1.00 1.00 r p2
350.69 166.23 1.00 1.00 r p2
351.57 166.23 1.00 1.00 r p2
352.95 163.86 (A) .5 0 t
353.33 166.23 1.00 1.00 r p2
354.72 163.86 (A) .5 0 t
355.60 163.86 (A) .5 0 t
356.48 163.86 (A) .5 0 t
357.36 163.86 (A) .5 0 t
358.24 163.86 (A) .5 0 t
358.62 166.23 1.00 1.00 r p2
359.50 166.23 1.00 1.00 r p2
360.38 166.23 1.00 1.00 r p2
361.26 166.23 1.00 1.00 r p2
362.14 166.23 1.00 1.00 r p2
363.52 164.71 (>) .5 0 t
364.40 164.71 (>) .5 0 t
365.28 164.71 (>) .5 0 t
366.17 164.71 (>) .5 0 t
367.05 164.71 (>) .5 0 t
367.43 166.23 1.00 1.00 r p2
368.81 164.71 (>) .5 0 t
369.69 164.71 (>) .5 0 t
370.57 164.71 (<) .5 0 t
371.45 164.71 (<) .5 0 t
372.33 164.71 (<) .5 0 t
373.21 164.71 (<) .5 0 t
374.09 164.71 (<) .5 0 t
374.97 164.71 (<) .5 0 t
375.85 164.71 (<) .5 0 t
376.73 164.71 (<) .5 0 t
377.62 164.71 (<) .5 0 t
378.00 166.23 1.00 1.00 r p2
378.88 166.23 1.00 1.00 r p2
379.76 166.23 1.00 1.00 r p2
380.64 166.23 1.00 1.00 r p2
381.52 166.23 1.00 1.00 r p2
382.40 166.23 1.00 1.00 r p2
383.28 166.23 1.00 1.00 r p2
384.16 166.23 1.00 1.00 r p2
385.04 166.23 1.00 1.00 r p2
385.92 166.23 1.00 1.00 r p2
386.80 166.23 1.00 1.00 r p2
387.68 166.23 1.00 1.00 r p2
388.57 166.23 1.00 1.00 r p2
389.45 166.23 1.00 1.00 r p2
390.33 166.23 1.00 1.00 r p2
391.21 166.23 1.00 1.00 r p2
392.09 166.23 1.00 1.00 r p2
392.97 166.23 1.00 1.00 r p2
393.85 166.23 1.00 1.00 r p2
394.73 166.23 1.00 1.00 r p2
395.61 166.23 1.00 1.00 r p2
396.49 166.23 1.00 1.00 r p2
397.37 166.23 1.00 1.00 r p2
398.25 166.23 1.00 1.00 r p2
399.13 166.23 1.00 1.00 r p2
400.02 166.23 1.00 1.00 r p2
400.90 166.23 1.00 1.00 r p2
401.78 166.23 1.00 1.00 r p2
402.66 166.23 1.00 1.00 r p2
403.54 166.23 1.00 1.00 r p2
404.42 166.23 1.00 1.00 r p2
405.80 164.71 (>) .5 0 t
406.68 164.71 (>) .5 0 t
407.56 164.71 (>) .5 0 t
408.44 164.71 (>) .5 0 t
409.32 164.71 (>) .5 0 t
410.20 164.71 (>) .5 0 t
411.08 164.71 (>) .5 0 t
411.96 164.71 (>) .5 0 t
412.85 164.71 (>) .5 0 t
413.23 166.23 1.00 1.00 r p2
414.11 166.23 1.00 1.00 r p2
414.99 166.23 1.00 1.00 r p2
415.87 166.23 1.00 1.00 r p2
416.75 166.23 1.00 1.00 r p2
417.63 166.23 1.00 1.00 r p2
418.51 166.23 1.00 1.00 r p2
419.89 164.64 (a) .5 0 t
420.77 164.64 (a) .5 0 t
421.65 164.64 (a) .5 0 t
422.53 164.64 (a) .5 0 t
423.41 164.64 (a) .5 0 t
424.30 164.64 (a) .5 0 t
424.68 166.23 1.00 1.00 r p2
426.06 164.71 (<) .5 0 t
426.94 164.71 (<) .5 0 t
427.32 166.23 1.00 1.00 r p2
428.20 166.23 1.00 1.00 r p2
429.58 164.71 (<) .5 0 t
430.46 164.71 (<) .5 0 t
431.34 164.71 (<) .5 0 t
432.22 164.71 (<) .5 0 t
433.10 164.71 (<) .5 0 t
433.48 166.23 1.00 1.00 r p2
434.36 166.23 1.00 1.00 r p2
435.25 166.23 1.00 1.00 r p2
436.13 166.23 1.00 1.00 r p2
437.01 166.23 1.00 1.00 r p2
437.89 166.23 1.00 1.00 r p2
438.77 166.23 1.00 1.00 r p2
439.65 166.23 1.00 1.00 r p2
440.53 166.23 1.00 1.00 r p2
441.41 166.23 1.00 1.00 r p2
442.29 166.23 1.00 1.00 r p2
443.17 166.23 1.00 1.00 r p2
444.05 166.23 1.00 1.00 r p2
444.93 166.23 1.00 1.00 r p2
446.31 164.71 (>) .5 0 t
447.20 164.71 (>) .5 0 t
448.08 164.71 (>) .5 0 t
448.96 164.71 (>) .5 0 t
449.84 164.71 (>) .5 0 t
450.22 166.23 1.00 1.00 r p2
451.10 166.23 1.00 1.00 r p2
451.98 166.23 1.00 1.00 r p2
453.36 164.71 (<) .5 0 t
454.24 164.71 (<) .5 0 t
455.12 164.71 (<) .5 0 t
456.00 164.71 (<) .5 0 t
456.88 164.71 (<) .5 0 t
457.76 164.71 (<) .5 0 t
458.65 164.71 (<) .5 0 t
459.53 164.71 (<) .5 0 t
459.91 166.23 1.00 1.00 r p2
460.79 166.23 1.00 1.00 r p2
461.67 166.23 1.00 1.00 r p2
462.55 166.23 1.00 1.00 r p2
463.43 166.23 1.00 1.00 r p2
464.31 166.23 1.00 1.00 r p2
465.69 164.71 (<) .5 0 t
466.57 164.71 (<) .5 0 t
467.45 164.71 (<) .5 0 t
467.83 166.23 1.00 1.00 r p2
468.71 166.23 1.00 1.00 r p2
469.60 166.23 1.00 1.00 r p2
470.48 166.23 1.00 1.00 r p2
471.36 166.23 1.00 1.00 r p2
472.24 166.23 1.00 1.00 r p2
473.12 166.23 1.00 1.00 r p2
474.50 164.71 (>) .5 0 t
475.38 164.71 (>) .5 0 t
476.26 164.71 (>) .5 0 t
476.64 166.23 1.00 1.00 r p2
477.52 166.23 1.00 1.00 r p2
478.40 166.23 1.00 1.00 r p2
479.28 166.23 1.00 1.00 r p2
480.16 166.23 1.00 1.00 r p2
481.05 166.23 1.00 1.00 r p2
481.93 166.23 1.00 1.00 r p2
483.31 164.71 (>) .5 0 t
484.19 164.71 (>) .5 0 t
485.07 164.71 (>) .5 0 t
485.95 164.71 (>) .5 0 t
486.83 164.71 (>) .5 0 t
487.71 164.71 (>) .5 0 t
488.59 164.71 (>) .5 0 t
489.47 164.71 (>) .5 0 t
489.85 166.23 1.00 1.00 r p2
490.73 166.23 1.00 1.00 r p2
492.11 164.71 (<) .5 0 t
493.00 164.71 (<) .5 0 t
493.88 164.71 (<) .5 0 t
494.76 164.71 (<) .5 0 t
495.64 164.71 (<) .5 0 t
496.52 164.71 (<) .5 0 t
497.40 164.71 (<) .5 0 t
498.28 164.71 (<) .5 0 t
499.16 164.71 (<) .5 0 t
500.04 164.71 (<) .5 0 t
500.42 166.23 1.00 1.00 r p2
501.30 166.23 1.00 1.00 r p2
502.18 166.23 1.00 1.00 r p2
503.06 166.23 1.00 1.00 r p2
503.95 166.23 1.00 1.00 r p2
504.83 166.23 1.00 1.00 r p2
505.71 166.23 1.00 1.00 r p2
506.59 166.23 1.00 1.00 r p2
507.47 166.23 1.00 1.00 r p2
508.35 166.23 1.00 1.00 r p2
509.23 166.23 1.00 1.00 r p2
510.11 166.23 1.00 1.00 r p2
510.99 166.23 1.00 1.00 r p2
511.87 166.23 1.00 1.00 r p2
512.75 166.23 1.00 1.00 r p2
513.63 166.23 1.00 1.00 r p2
514.51 166.23 1.00 1.00 r p2
515.39 166.23 1.00 1.00 r p2
516.28 166.23 1.00 1.00 r p2
517.16 166.23 1.00 1.00 r p2
518.04 166.23 1.00 1.00 r p2
518.92 166.23 1.00 1.00 r p2
519.80 166.23 1.00 1.00 r p2
520.68 166.23 1.00 1.00 r p2
521.56 166.23 1.00 1.00 r p2
522.44 166.23 1.00 1.00 r p2
523.32 166.23 1.00 1.00 r p2
524.20 166.23 1.00 1.00 r p2
525.08 166.23 1.00 1.00 r p2
525.96 166.23 1.00 1.00 r p2
526.84 166.23 1.00 1.00 r p2
528.23 164.71 (>) .5 0 t
529.11 164.71 (>) .5 0 t
529.99 164.71 (>) .5 0 t
530.87 164.71 (>) .5 0 t
531.75 164.71 (>) .5 0 t
532.63 164.71 (>) .5 0 t
533.51 164.71 (>) .5 0 t
534.39 164.71 (>) .5 0 t
535.27 164.71 (>) .5 0 t
536.15 164.71 (>) .5 0 t
536.53 166.23 1.00 1.00 r p2
537.41 166.23 1.00 1.00 r p2
538.29 166.23 1.00 1.00 r p2
539.18 166.23 1.00 1.00 r p2
540.06 166.23 1.00 1.00 r p2
540.94 166.23 1.00 1.00 r p2
541.82 166.23 1.00 1.00 r p2
542.70 166.23 1.00 1.00 r p2
543.58 166.23 1.00 1.00 r p2
544.96 164.71 (<) .5 0 t
545.84 164.71 (<) .5 0 t
546.72 164.71 (<) .5 0 t
547.60 164.71 (<) .5 0 t
548.48 164.71 (<) .5 0 t
549.36 164.71 (<) .5 0 t
550.24 164.71 (<) .5 0 t
551.13 164.71 (<) .5 0 t
552.01 164.71 (<) .5 0 t
552.39 166.23 1.00 1.00 r p2
553.27 166.23 1.00 1.00 r p2
554.15 166.23 1.00 1.00 r p2
555.03 166.23 1.00 1.00 r p2
555.91 166.23 1.00 1.00 r p2
556.79 166.23 1.00 1.00 r p2
557.67 166.23 1.00 1.00 r p2
558.55 166.23 1.00 1.00 r p2
559.43 166.23 1.00 1.00 r p2
560.31 166.23 1.00 1.00 r p2
561.19 166.23 1.00 1.00 r p2
562.08 166.23 1.00 1.00 r p2
562.96 166.23 1.00 1.00 r p2
563.84 166.23 1.00 1.00 r p2
564.72 166.23 1.00 1.00 r p2
565.60 166.23 1.00 1.00 r p2
566.48 166.23 1.00 1.00 r p2
567.36 166.23 1.00 1.00 r p2
568.24 166.23 1.00 1.00 r p2
569.12 166.23 1.00 1.00 r p2
570.00 166.23 1.00 1.00 r p2
570.88 166.23 1.00 1.00 r p2
571.76 166.23 1.00 1.00 r p2
572.64 166.23 1.00 1.00 r p2
573.53 166.23 1.00 1.00 r p2
574.41 166.23 1.00 1.00 r p2
575.29 166.23 1.00 1.00 r p2
576.17 166.23 1.00 1.00 r p2
577.05 166.23 1.00 1.00 r p2
577.93 166.23 1.00 1.00 r p2
578.81 166.23 1.00 1.00 r p2
579.69 166.23 1.00 1.00 r p2
580.57 166.23 1.00 1.00 r p2
581.45 166.23 1.00 1.00 r p2
582.33 166.23 1.00 1.00 r p2
583.21 166.23 1.00 1.00 r p2
584.09 166.23 1.00 1.00 r p2
584.98 166.23 1.00 1.00 r p2
585.86 166.23 1.00 1.00 r p2
586.74 166.23 1.00 1.00 r p2
587.62 166.23 1.00 1.00 r p2
588.50 166.23 1.00 1.00 r p2
589.38 166.23 1.00 1.00 r p2
590.26 166.23 1.00 1.00 r p2
591.14 166.23 1.00 1.00 r p2
592.02 166.23 1.00 1.00 r p2
592.90 166.23 1.00 1.00 r p2
593.78 166.23 1.00 1.00 r p2
594.66 166.23 1.00 1.00 r p2
595.54 166.23 1.00 1.00 r p2
596.43 166.23 1.00 1.00 r p2
597.31 166.23 1.00 1.00 r p2
598.19 166.23 1.00 1.00 r p2
599.07 166.23 1.00 1.00 r p2
599.95 166.23 1.00 1.00 r p2
600.83 166.23 1.00 1.00 r p2
601.71 166.23 1.00 1.00 r p2
602.59 166.23 1.00 1.00 r p2
603.47 166.23 1.00 1.00 r p2
604.35 166.23 1.00 1.00 r p2
605.23 166.23 1.00 1.00 r p2
606.11 166.23 1.00 1.00 r p2
606.99 166.23 1.00 1.00 r p2
607.87 166.23 1.00 1.00 r p2
608.76 166.23 1.00 1.00 r p2
609.64 166.23 1.00 1.00 r p2
610.52 166.23 1.00 1.00 r p2
611.40 166.23 1.00 1.00 r p2
612.28 166.23 1.00 1.00 r p2
613.16 166.23 1.00 1.00 r p2
614.04 166.23 1.00 1.00 r p2
614.92 166.23 1.00 1.00 r p2
615.80 166.23 1.00 1.00 r p2
616.68 166.23 1.00 1.00 r p2
617.56 166.23 1.00 1.00 r p2
618.44 166.23 1.00 1.00 r p2
619.32 166.23 1.00 1.00 r p2
620.21 166.23 1.00 1.00 r p2
621.09 166.23 1.00 1.00 r p2
621.97 166.23 1.00 1.00 r p2
622.85 166.23 1.00 1.00 r p2
623.73 166.23 1.00 1.00 r p2
624.61 166.23 1.00 1.00 r p2
625.49 166.23 1.00 1.00 r p2
626.37 166.23 1.00 1.00 r p2
627.25 166.23 1.00 1.00 r p2
628.13 166.23 1.00 1.00 r p2
629.01 166.23 1.00 1.00 r p2
629.89 166.23 1.00 1.00 r p2
630.77 166.23 1.00 1.00 r p2
631.66 166.23 1.00 1.00 r p2
632.54 166.23 1.00 1.00 r p2
633.42 166.23 1.00 1.00 r p2
634.30 166.23 1.00 1.00 r p2
635.18 166.23 1.00 1.00 r p2
636.56 164.71 (>) .5 0 t
637.44 164.71 (>) .5 0 t
638.32 164.71 (>) .5 0 t
639.20 164.71 (>) .5 0 t
640.08 164.71 (>) .5 0 t
640.96 164.71 (>) .5 0 t
641.84 164.71 (>) .5 0 t
642.72 164.71 (>) .5 0 t
643.61 164.71 (>) .5 0 t
643.99 166.23 1.00 1.00 r p2
644.87 166.23 1.00 1.00 r p2
645.75 166.23 1.00 1.00 r p2
646.63 166.23 1.00 1.00 r p2
647.51 166.23 1.00 1.00 r p2
648.39 166.23 1.00 1.00 r p2
649.27 166.23 1.00 1.00 r p2
650.15 166.23 1.00 1.00 r p2
651.03 166.23 1.00 1.00 r p2
651.91 166.23 1.00 1.00 r p2
652.79 166.23 1.00 1.00 r p2
653.67 166.23 1.00 1.00 r p2
654.56 166.23 1.00 1.00 r p2
655.44 166.23 1.00 1.00 r p2
656.82 164.71 (>) .5 0 t
657.70 164.71 (>) .5 0 t
658.08 166.23 1.00 1.00 r p2
658.96 166.23 1.00 1.00 r p2
659.84 166.23 1.00 1.00 r p2
660.72 166.23 1.00 1.00 r p2
661.60 166.23 1.00 1.00 r p2
662.48 166.23 1.00 1.00 r p2
663.36 166.23 1.00 1.00 r p2
664.24 166.23 1.00 1.00 r p2
665.12 166.23 1.00 1.00 r p2
666.01 166.23 1.00 1.00 r p2
666.89 166.23 1.00 1.00 r p2
667.77 166.23 1.00 1.00 r p2
668.65 166.23 1.00 1.00 r p2
669.53 166.23 1.00 1.00 r p2
670.41 166.23 1.00 1.00 r p2
0.00 0.00 720.00 180.00 cl
0.00 0.00 720.00 180.00 cl
0 0 0 srgb
0.75 setlinewidth
[] 0 setdash
1 setlinecap
1 setlinejoin
10.00 setmiterlimit
np
49.09 36.00 m
616.53 0 l
o
np
49.09 36.00 m
0 -7.20 l
o
np
57.90 36.00 m
0 -7.20 l
o
np
66.71 36.00 m
0 -7.20 l
o
np
75.51 36.00 m
0 -7.20 l
o
np
84.32 36.00 m
0 -7.20 l
o
np
93.13 36.00 m
0 -7.20 l
o
np
101.94 36.00 m
0 -7.20 l
o
np
110.74 36.00 m
0 -7.20 l
o
np
119.55 36.00 m
0 -7.20 l
o
np
128.36 36.00 m
0 -7.20 l
o
np
137.17 36.00 m
0 -7.20 l
o
np
145.97 36.00 m
0 -7.20 l
o
np
154.78 36.00 m
0 -7.20 l
o
np
163.59 36.00 m
0 -7.20 l
o
np
172.40 36.00 m
0 -7.20 l
o
np
181.21 36.00 m
0 -7.20 l
o
np
190.01 36.00 m
0 -7.20 l
o
np
198.82 36.00 m
0 -7.20 l
o
np
207.63 36.00 m
0 -7.20 l
o
np
216.44 36.00 m
0 -7.20 l
o
np
225.24 36.00 m
0 -7.20 l
o
np
234.05 36.00 m
0 -7.20 l
o
np
242.86 36.00 m
0 -7.20 l
o
np
251.67 36.00 m
0 -7.20 l
o
np
260.47 36.00 m
0 -7.20 l
o
np
269.28 36.00 m
0 -7.20 l
o
np
278.09 36.00 m
0 -7.20 l
o
np
286.90 36.00 m
0 -7.20 l
o
np
295.70 36.00 m
0 -7.20 l
o
np
304.51 36.00 m
0 -7.20 l
o
np
313.32 36.00 m
0 -7.20 l
o
np
322.13 36.00 m
0 -7.20 l
o
np
330.93 36.00 m
0 -7.20 l
o
np
339.74 36.00 m
0 -7.20 l
o
np
348.55 36.00 m
0 -7.20 l
o
np
357.36 36.00 m
0 -7.20 l
o
np
366.17 36.00 m
0 -7.20 l
o
np
374.97 36.00 m
0 -7.20 l
o
np
383.78 36.00 m
0 -7.20 l
o
np
392.59 36.00 m
0 -7.20 l
o
np
401.40 36.00 m
0 -7.20 l
o
np
410.20 36.00 m
0 -7.20 l
o
np
419.01 36.00 m
0 -7.20 l
o
np
427.82 36.00 m
0 -7.20 l
o
np
436.63 36.00 m
0 -7.20 l
o
np
445.43 36.00 m
0 -7.20 l
o
np
454.24 36.00 m
0 -7.20 l
o
np
463.05 36.00 m
0 -7.20 l
o
np
471.86 36.00 m
0 -7.20 l
o
np
480.66 36.00 m
0 -7.20 l
o
np
489.47 36.00 m
0 -7.20 l
o
np
498.28 36.00 m
0 -7.20 l
o
np
507.09 36.00 m
0 -7.20 l
o
np
515.89 36.00 m
0 -7.20 l
o
np
524.70 36.00 m
0 -7.20 l
o
np
533.51 36.00 m
0 -7.20 l
o
np
542.32 36.00 m
0 -7.20 l
o
np
551.13 36.00 m
0 -7.20 l
o
np
559.93 36.00 m
0 -7.20 l
o
np
568.74 36.00 m
0 -7.20 l
o
np
577.55 36.00 m
0 -7.20 l
o
np
586.36 36.00 m
0 -7.20 l
o
np
595.16 36.00 m
0 -7.20 l
o
np
603.97 36.00 m
0 -7.20 l
o
np
612.78 36.00 m
0 -7.20 l
o
np
621.59 36.00 m
0 -7.20 l
o
np
630.39 36.00 m
0 -7.20 l
o
np
639.20 36.00 m
0 -7.20 l
o
np
648.01 36.00 m
0 -7.20 l
o
np
656.82 36.00 m
0 -7.20 l
o
np
665.62 36.00 m
0 -7.20 l
o
/Font1 findfont 12 s
49.09 10.08 (0) .5 0 t
75.51 10.08 (30) .5 0 t
101.94 10.08 (60) .5 0 t
128.36 10.08 (90) .5 0 t
163.59 10.08 (130) .5 0 t
198.82 10.08 (170) .5 0 t
234.05 10.08 (210) .5 0 t
269.28 10.08 (250) .5 0 t
304.51 10.08 (290) .5 0 t
339.74 10.08 (330) .5 0 t
374.97 10.08 (370) .5 0 t
410.20 10.08 (410) .5 0 t
445.43 10.08 (450) .5 0 t
480.66 10.08 (490) .5 0 t
515.89 10.08 (530) .5 0 t
551.13 10.08 (570) .5 0 t
586.36 10.08 (610) .5 0 t
621.59 10.08 (650) .5 0 t
656.82 10.08 (690) .5 0 t
18.00 36.00 702.00 180.00 cl
/bg { 0 0 0 srgb } def
49.47 158.29 1.00 1.00 r p2
50.35 158.29 1.00 1.00 r p2
51.23 158.29 1.00 1.00 r p2
52.11 158.29 1.00 1.00 r p2
52.99 158.29 1.00 1.00 r p2
/Font1 findfont 8 s
0 0 0 srgb
54.38 156.77 (<) .5 0 t
55.26 156.77 (<) .5 0 t
56.14 156.77 (<) .5 0 t
57.02 156.77 (<) .5 0 t
57.90 156.77 (<) .5 0 t
58.78 156.77 (<) .5 0 t
59.66 156.77 (<) .5 0 t
60.04 158.29 1.00 1.00 r p2
60.92 158.29 1.00 1.00 r p2
61.80 158.29 1.00 1.00 r p2
62.68 158.29 1.00 1.00 r p2
63.56 158.29 1.00 1.00 r p2
64.44 158.29 1.00 1.00 r p2
65.33 158.29 1.00 1.00 r p2
66.21 158.29 1.00 1.00 r p2
67.09 158.29 1.00 1.00 r p2
67.97 158.29 1.00 1.00 r p2
68.85 158.29 1.00 1.00 r p2
69.73 158.29 1.00 1.00 r p2
70.61 158.29 1.00 1.00 r p2
71.49 158.29 1.00 1.00 r p2
72.37 158.29 1.00 1.00 r p2
73.25 158.29 1.00 1.00 r p2
74.13 158.29 1.00 1.00 r p2
75.01 158.29 1.00 1.00 r p2
75.89 158.29 1.00 1.00 r p2
76.78 158.29 1.00 1.00 r p2
77.66 158.29 1.00 1.00 r p2
78.54 158.29 1.00 1.00 r p2
79.42 158.29 1.00 1.00 r p2
80.30 158.29 1.00 1.00 r p2
81.18 158.29 1.00 1.00 r p2
82.06 158.29 1.00 1.00 r p2
82.94 158.29 1.00 1.00 r p2
83.82 158.29 1.00 1.00 r p2
84.70 158.29 1.00 1.00 r p2
85.58 158.29 1.00 1.00 r p2
86.46 158.29 1.00 1.00 r p2
87.84 156.77 (>) .5 0 t
88.73 156.77 (>) .5 0 t
89.61 156.77 (>) .5 0 t
90.49 156.77 (>) .5 0 t
91.37 156.77 (>) .5 0 t
92.25 156.77 (>) .5 0 t
93.13 156.77 (>) .5 0 t
93.51 158.29 1.00 1.00 r p2
94.39 158.29 1.00 1.00 r p2
95.27 158.29 1.00 1.00 r p2
96.15 158.29 1.00 1.00 r p2
97.03 158.29 1.00 1.00 r p2
97.91 158.29 1.00 1.00 r p2
99.29 156.77 (<) .5 0 t
100.18 156.77 (<) .5 0 t
101.06 156.77 (<) .5 0 t
101.94 156.77 (<) .5 0 t
102.82 156.77 (<) .5 0 t
103.20 158.29 1.00 1.00 r p2
104.08 158.29 1.00 1.00 r p2
104.96 158.29 1.00 1.00 r p2
105.84 158.29 1.00 1.00 r p2
106.72 158.29 1.00 1.00 r p2
107.60 158.29 1.00 1.00 r p2
108.48 158.29 1.00 1.00 r p2
109.36 158.29 1.00 1.00 r p2
110.24 158.29 1.00 1.00 r p2
111.13 158.29 1.00 1.00 r p2
112.01 158.29 1.00 1.00 r p2
112.89 158.29 1.00 1.00 r p2
113.77 158.29 1.00 1.00 r p2
114.65 158.29 1.00 1.00 r p2
115.53 158.29 1.00 1.00 r p2
116.41 158.29 1.00 1.00 r p2
117.29 158.29 1.00 1.00 r p2
118.17 158.29 1.00 1.00 r p2
119.05 158.29 1.00 1.00 r p2
119.93 158.29 1.00 1.00 r p2
120.81 158.29 1.00 1.00 r p2
121.69 158.29 1.00 1.00 r p2
122.57 158.29 1.00 1.00 r p2
123.46 158.29 1.00 1.00 r p2
124.34 158.29 1.00 1.00 r p2
125.22 158.29 1.00 1.00 r p2
126.10 158.29 1.00 1.00 r p2
126.98 158.29 1.00 1.00 r p2
127.86 158.29 1.00 1.00 r p2
128.74 158.29 1.00 1.00 r p2
129.62 158.29 1.00 1.00 r p2
130.50 158.29 1.00 1.00 r p2
131.38 158.29 1.00 1.00 r p2
132.26 158.29 1.00 1.00 r p2
133.14 158.29 1.00 1.00 r p2
134.02 158.29 1.00 1.00 r p2
134.91 158.29 1.00 1.00 r p2
135.79 158.29 1.00 1.00 r p2
136.67 158.29 1.00 1.00 r p2
137.55 158.29 1.00 1.00 r p2
138.43 158.29 1.00 1.00 r p2
139.31 158.29 1.00 1.00 r p2
140.69 156.77 (>) .5 0 t
141.57 156.77 (>) .5 0 t
142.45 156.77 (>) .5 0 t
143.33 156.77 (>) .5 0 t
144.21 156.77 (>) .5 0 t
144.59 158.29 1.00 1.00 r p2
145.97 156.77 (<) .5 0 t
146.86 156.77 (<) .5 0 t
147.74 156.77 (<) .5 0 t
148.62 156.77 (<) .5 0 t
149.00 158.29 1.00 1.00 r p2
149.88 158.29 1.00 1.00 r p2
151.26 156.77 (<) .5 0 t
152.14 156.77 (<) .5 0 t
153.02 156.77 (<) .5 0 t
153.90 156.77 (<) .5 0 t
154.78 156.77 (<) .5 0 t
155.16 158.29 1.00 1.00 r p2
156.04 158.29 1.00 1.00 r p2
156.92 158.29 1.00 1.00 r p2
157.81 158.29 1.00 1.00 r p2
159.19 156.77 (<) .5 0 t
160.07 156.77 (<) .5 0 t
160.95 156.77 (<) .5 0 t
161.83 156.77 (<) .5 0 t
162.71 156.77 (<) .5 0 t
163.59 156.77 (<) .5 0 t
164.47 156.77 (<) .5 0 t
164.85 158.29 1.00 1.00 r p2
165.73 158.29 1.00 1.00 r p2
166.61 158.29 1.00 1.00 r p2
167.99 156.77 (<) .5 0 t
168.87 156.77 (<) .5 0 t
169.76 156.77 (<) .5 0 t
170.64 156.77 (<) .5 0 t
171.02 158.29 1.00 1.00 r p2
171.90 158.29 1.00 1.00 r p2
172.78 158.29 1.00 1.00 r p2
173.66 158.29 1.00 1.00 r p2
174.54 158.29 1.00 1.00 r p2
175.42 158.29 1.00 1.00 r p2
176.80 156.77 (>) .5 0 t
177.68 156.77 (>) .5 0 t
178.56 156.77 (>) .5 0 t
179.44 156.77 (>) .5 0 t
179.82 158.29 1.00 1.00 r p2
180.71 158.29 1.00 1.00 r p2
181.59 158.29 1.00 1.00 r p2
182.47 158.29 1.00 1.00 r p2
183.35 158.29 1.00 1.00 r p2
184.23 158.29 1.00 1.00 r p2
185.11 158.29 1.00 1.00 r p2
185.99 158.29 1.00 1.00 r p2
186.87 158.29 1.00 1.00 r p2
187.75 158.29 1.00 1.00 r p2
188.63 158.29 1.00 1.00 r p2
190.01 156.77 (>) .5 0 t
190.39 158.29 1.00 1.00 r p2
191.77 156.77 (>) .5 0 t
192.66 156.77 (>) .5 0 t
193.54 156.77 (>) .5 0 t
193.92 158.29 1.00 1.00 r p2
194.80 158.29 1.00 1.00 r p2
195.68 158.29 1.00 1.00 r p2
196.56 158.29 1.00 1.00 r p2
197.94 156.77 (>) .5 0 t
198.82 156.77 (>) .5 0 t
199.70 156.77 (>) .5 0 t
200.08 158.29 1.00 1.00 r p2
200.96 158.29 1.00 1.00 r p2
201.84 158.29 1.00 1.00 r p2
203.22 156.77 (<) .5 0 t
204.11 156.77 (<) .5 0 t
204.99 156.77 (<) .5 0 t
205.87 156.77 (<) .5 0 t
206.75 156.77 (<) .5 0 t
207.63 156.77 (<) .5 0 t
208.01 158.29 1.00 1.00 r p2
208.89 158.29 1.00 1.00 r p2
209.77 158.29 1.00 1.00 r p2
210.65 158.29 1.00 1.00 r p2
211.53 158.29 1.00 1.00 r p2
212.41 158.29 1.00 1.00 r p2
213.29 158.29 1.00 1.00 r p2
214.17 158.29 1.00 1.00 r p2
215.05 158.29 1.00 1.00 r p2
215.94 158.29 1.00 1.00 r p2
216.82 158.29 1.00 1.00 r p2
217.70 158.29 1.00 1.00 r p2
218.58 158.29 1.00 1.00 r p2
219.46 158.29 1.00 1.00 r p2
220.34 158.29 1.00 1.00 r p2
221.22 158.29 1.00 1.00 r p2
222.10 158.29 1.00 1.00 r p2
222.98 158.29 1.00 1.00 r p2
223.86 158.29 1.00 1.00 r p2
224.74 158.29 1.00 1.00 r p2
225.62 158.29 1.00 1.00 r p2
226.50 158.29 1.00 1.00 r p2
227.39 158.29 1.00 1.00 r p2
228.27 158.29 1.00 1.00 r p2
229.15 158.29 1.00 1.00 r p2
230.53 156.77 (>) .5 0 t
231.41 156.77 (>) .5 0 t
232.29 156.77 (>) .5 0 t
232.67 158.29 1.00 1.00 r p2
234.05 156.77 (>) .5 0 t
234.93 156.77 (>) .5 0 t
235.81 156.77 (>) .5 0 t
236.19 158.29 1.00 1.00 r p2
237.07 158.29 1.00 1.00 r p2
237.95 158.29 1.00 1.00 r p2
238.84 158.29 1.00 1.00 r p2
240.22 156.77 (>) .5 0 t
241.10 156.77 (>) .5 0 t
241.98 156.77 (>) .5 0 t
242.86 156.77 (>) .5 0 t
243.74 156.77 (>) .5 0 t
244.62 156.77 (>) .5 0 t
245.50 156.77 (>) .5 0 t
246.38 156.77 (>) .5 0 t
247.26 156.77 (>) .5 0 t
247.64 158.29 1.00 1.00 r p2
248.52 158.29 1.00 1.00 r p2
249.40 158.29 1.00 1.00 r p2
250.79 155.92 (A) .5 0 t
251.67 155.92 (A) .5 0 t
252.55 155.92 (A) .5 0 t
253.43 155.92 (A) .5 0 t
253.81 158.29 1.00 1.00 r p2
255.19 155.92 (A) .5 0 t
256.07 155.92 (A) .5 0 t
256.45 158.29 1.00 1.00 r p2
257.83 155.92 (A) .5 0 t
258.21 158.29 1.00 1.00 r p2
259.09 158.29 1.00 1.00 r p2
259.97 158.29 1.00 1.00 r p2
261.35 156.77 (<) .5 0 t
262.24 156.77 (<) .5 0 t
263.12 156.77 (<) .5 0 t
264.00 156.77 (<) .5 0 t
264.88 156.77 (<) .5 0 t
265.76 156.77 (<) .5 0 t
266.14 158.29 1.00 1.00 r p2
267.02 158.29 1.00 1.00 r p2
267.90 158.29 1.00 1.00 r p2
268.78 158.29 1.00 1.00 r p2
269.66 158.29 1.00 1.00 r p2
270.54 158.29 1.00 1.00 r p2
271.42 158.29 1.00 1.00 r p2
272.30 158.29 1.00 1.00 r p2
273.69 156.77 (<) .5 0 t
274.57 156.77 (<) .5 0 t
275.45 156.77 (<) .5 0 t
275.83 158.29 1.00 1.00 r p2
276.71 158.29 1.00 1.00 r p2
277.59 158.29 1.00 1.00 r p2
278.97 156.77 (<) .5 0 t
279.85 156.77 (<) .5 0 t
280.73 156.77 (<) .5 0 t
281.11 158.29 1.00 1.00 r p2
281.99 158.29 1.00 1.00 r p2
282.87 158.29 1.00 1.00 r p2
283.75 158.29 1.00 1.00 r p2
284.64 158.29 1.00 1.00 r p2
285.52 158.29 1.00 1.00 r p2
286.40 158.29 1.00 1.00 r p2
287.28 158.29 1.00 1.00 r p2
288.16 158.29 1.00 1.00 r p2
289.04 158.29 1.00 1.00 r p2
289.92 158.29 1.00 1.00 r p2
290.80 158.29 1.00 1.00 r p2
291.68 158.29 1.00 1.00 r p2
292.56 158.29 1.00 1.00 r p2
293.44 158.29 1.00 1.00 r p2
294.32 158.29 1.00 1.00 r p2
295.20 158.29 1.00 1.00 r p2
296.09 158.29 1.00 1.00 r p2
296.97 158.29 1.00 1.00 r p2
297.85 158.29 1.00 1.00 r p2
298.73 158.29 1.00 1.00 r p2
299.61 158.29 1.00 1.00 r p2
300.49 158.29 1.00 1.00 r p2
301.37 158.29 1.00 1.00 r p2
302.25 158.29 1.00 1.00 r p2
303.13 158.29 1.00 1.00 r p2
304.01 158.29 1.00 1.00 r p2
304.89 158.29 1.00 1.00 r p2
305.77 158.29 1.00 1.00 r p2
306.65 158.29 1.00 1.00 r p2
307.54 158.29 1.00 1.00 r p2
308.92 156.77 (>) .5 0 t
309.80 156.77 (>) .5 0 t
310.68 156.77 (>) .5 0 t
311.06 158.29 1.00 1.00 r p2
311.94 158.29 1.00 1.00 r p2
313.32 156.77 (>) .5 0 t
314.20 156.77 (>) .5 0 t
315.08 156.77 (>) .5 0 t
315.46 158.29 1.00 1.00 r p2
316.34 158.29 1.00 1.00 r p2
317.22 158.29 1.00 1.00 r p2
318.10 158.29 1.00 1.00 r p2
319.48 156.77 (>) .5 0 t
320.37 156.77 (>) .5 0 t
321.25 156.77 (>) .5 0 t
322.13 156.77 (>) .5 0 t
323.01 156.77 (>) .5 0 t
323.89 156.77 (>) .5 0 t
324.77 156.77 (<) .5 0 t
325.65 156.77 (<) .5 0 t
326.53 156.77 (<) .5 0 t
327.41 156.77 (<) .5 0 t
327.79 158.29 1.00 1.00 r p2
329.17 156.77 (<) .5 0 t
330.05 156.77 (<) .5 0 t
330.93 156.77 (<) .5 0 t
331.82 156.77 (<) .5 0 t
332.70 156.77 (<) .5 0 t
333.58 156.77 (<) .5 0 t
333.96 158.29 1.00 1.00 r p2
334.84 158.29 1.00 1.00 r p2
335.72 158.29 1.00 1.00 r p2
336.60 158.29 1.00 1.00 r p2
337.48 158.29 1.00 1.00 r p2
338.36 158.29 1.00 1.00 r p2
339.24 158.29 1.00 1.00 r p2
340.12 158.29 1.00 1.00 r p2
341.50 156.77 (>) .5 0 t
342.38 156.77 (>) .5 0 t
343.27 156.77 (>) .5 0 t
344.15 156.77 (>) .5 0 t
345.03 156.77 (>) .5 0 t
345.91 156.77 (>) .5 0 t
346.79 156.77 (>) .5 0 t
347.67 156.77 (>) .5 0 t
348.55 156.77 (>) .5 0 t
349.43 156.77 (>) .5 0 t
349.81 158.29 1.00 1.00 r p2
350.69 158.29 1.00 1.00 r p2
351.57 158.29 1.00 1.00 r p2
352.95 156.69 (\() .5 0 t
353.33 158.29 1.00 1.00 r p2
354.72 156.69 (\() .5 0 t
355.60 156.69 (\() .5 0 t
356.48 156.69 (\() .5 0 t
357.36 156.69 (\() .5 0 t
358.24 156.69 (\() .5 0 t
358.62 158.29 1.00 1.00 r p2
359.50 158.29 1.00 1.00 r p2
360.38 158.29 1.00 1.00 r p2
361.26 158.29 1.00 1.00 r p2
362.14 158.29 1.00 1.00 r p2
363.52 156.70 (a) .5 0 t
364.40 156.70 (a) .5 0 t
365.28 156.70 (a) .5 0 t
366.17 156.70 (a) .5 0 t
367.05 156.70 (a) .5 0 t
367.43 158.29 1.00 1.00 r p2
368.81 156.70 (a) .5 0 t
369.69 156.70 (a) .5 0 t
370.57 156.77 (<) .5 0 t
371.45 156.77 (<) .5 0 t
372.33 156.77 (<) .5 0 t
373.21 156.77 (<) .5 0 t
374.09 156.77 (<) .5 0 t
374.97 156.77 (<) .5 0 t
375.85 156.77 (<) .5 0 t
376.73 156.77 (<) .5 0 t
377.62 156.77 (<) .5 0 t
378.00 158.29 1.00 1.00 r p2
378.88 158.29 1.00 1.00 r p2
379.76 158.29 1.00 1.00 r p2
380.64 158.29 1.00 1.00 r p2
381.52 158.29 1.00 1.00 r p2
382.40 158.29 1.00 1.00 r p2
383.28 158.29 1.00 1.00 r p2
384.16 158.29 1.00 1.00 r p2
385.04 158.29 1.00 1.00 r p2
385.92 158.29 1.00 1.00 r p2
386.80 158.29 1.00 1.00 r p2
387.68 158.29 1.00 1.00 r p2
388.57 158.29 1.00 1.00 r p2
389.45 158.29 1.00 1.00 r p2
390.33 158.29 1.00 1.00 r p2
391.21 158.29 1.00 1.00 r p2
392.09 158.29 1.00 1.00 r p2
392.97 158.29 1.00 1.00 r p2
393.85 158.29 1.00 1.00 r p2
394.73 158.29 1.00 1.00 r p2
395.61 158.29 1.00 1.00 r p2
396.49 158.29 1.00 1.00 r p2
397.37 158.29 1.00 1.00 r p2
398.25 158.29 1.00 1.00 r p2
399.13 158.29 1.00 1.00 r p2
400.02 158.29 1.00 1.00 r p2
400.90 158.29 1.00 1.00 r p2
401.78 158.29 1.00 1.00 r p2
402.66 158.29 1.00 1.00 r p2
403.54 158.29 1.00 1.00 r p2
404.42 158.29 1.00 1.00 r p2
405.80 156.77 (>) .5 0 t
406.68 156.77 (>) .5 0 t
407.56 156.77 (>) .5 0 t
408.44 156.77 (>) .5 0 t
409.32 156.77 (>) .5 0 t
410.20 156.77 (>) .5 0 t
411.08 156.77 (>) .5 0 t
411.96 156.77 (>) .5 0 t
412.85 156.77 (>) .5 0 t
413.23 158.29 1.00 1.00 r p2
414.11 158.29 1.00 1.00 r p2
414.99 158.29 1.00 1.00 r p2
415.87 158.29 1.00 1.00 r p2
416.75 158.29 1.00 1.00 r p2
417.63 158.29 1.00 1.00 r p2
418.51 158.29 1.00 1.00 r p2
419.89 156.69 (\)) .5 0 t
420.77 156.69 (\)) .5 0 t
421.65 156.69 (\)) .5 0 t
422.53 156.69 (\)) .5 0 t
423.41 156.69 (\)) .5 0 t
424.30 156.69 (\)) .5 0 t
424.68 158.29 1.00 1.00 r p2
426.06 156.77 (<) .5 0 t
426.94 156.77 (<) .5 0 t
427.32 158.29 1.00 1.00 r p2
428.20 158.29 1.00 1.00 r p2
429.58 156.77 (<) .5 0 t
430.46 156.77 (<) .5 0 t
431.34 156.77 (<) .5 0 t
432.22 156.77 (<) .5 0 t
433.10 156.77 (<) .5 0 t
433.48 158.29 1.00 1.00 r p2
434.36 158.29 1.00 1.00 r p2
435.25 158.29 1.00 1.00 r p2
436.13 158.29 1.00 1.00 r p2
437.01 158.29 1.00 1.00 r p2
437.89 158.29 1.00 1.00 r p2
438.77 158.29 1.00 1.00 r p2
439.65 158.29 1.00 1.00 r p2
440.53 158.29 1.00 1.00 r p2
441.41 158.29 1.00 1.00 r p2
442.29 158.29 1.00 1.00 r p2
443.17 158.29 1.00 1.00 r p2
444.05 158.29 1.00 1.00 r p2
444.93 158.29 1.00 1.00 r p2
446.31 156.77 (>) .5 0 t
447.20 156.77 (>) .5 0 t
448.08 156.77 (>) .5 0 t
448.96 156.77 (>) .5 0 t
449.84 156.77 (>) .5 0 t
450.22 158.29 1.00 1.00 r p2
451.10 158.29 1.00 1.00 r p2
451.98 158.29 1.00 1.00 r p2
453.36 156.77 (<) .5 0 t
454.24 156.77 (<) .5 0 t
455.12 156.77 (<) .5 0 t
456.00 156.77 (<) .5 0 t
456.88 156.77 (<) .5 0 t
457.76 156.77 (<) .5 0 t
458.65 156.77 (<) .5 0 t
459.53 156.77 (<) .5 0 t
459.91 158.29 1.00 1.00 r p2
460.79 158.29 1.00 1.00 r p2
461.67 158.29 1.00 1.00 r p2
462.55 158.29 1.00 1.00 r p2
463.43 158.29 1.00 1.00 r p2
464.31 158.29 1.00 1.00 r p2
465.69 156.77 (<) .5 0 t
466.57 156.77 (<) .5 0 t
467.45 156.77 (<) .5 0 t
467.83 158.29 1.00 1.00 r p2
468.71 158.29 1.00 1.00 r p2
469.60 158.29 1.00 1.00 r p2
470.48 158.29 1.00 1.00 r p2
471.36 158.29 1.00 1.00 r p2
472.24 158.29 1.00 1.00 r p2
473.12 158.29 1.00 1.00 r p2
474.50 156.77 (>) .5 0 t
475.38 156.77 (>) .5 0 t
476.26 156.77 (>) .5 0 t
476.64 158.29 1.00 1.00 r p2
477.52 158.29 1.00 1.00 r p2
478.40 158.29 1.00 1.00 r p2
479.28 158.29 1.00 1.00 r p2
480.16 158.29 1.00 1.00 r p2
481.05 158.29 1.00 1.00 r p2
481.93 158.29 1.00 1.00 r p2
483.31 156.77 (>) .5 0 t
484.19 156.77 (>) .5 0 t
485.07 156.77 (>) .5 0 t
485.95 156.77 (>) .5 0 t
486.83 156.77 (>) .5 0 t
487.71 156.77 (>) .5 0 t
488.59 156.77 (>) .5 0 t
489.47 156.77 (>) .5 0 t
489.85 158.29 1.00 1.00 r p2
490.73 158.29 1.00 1.00 r p2
492.11 156.77 (<) .5 0 t
493.00 156.77 (<) .5 0 t
493.88 156.77 (<) .5 0 t
494.76 156.77 (<) .5 0 t
495.64 156.77 (<) .5 0 t
496.52 156.77 (<) .5 0 t
497.40 156.77 (<) .5 0 t
498.28 156.77 (<) .5 0 t
499.16 156.77 (<) .5 0 t
500.04 156.77 (<) .5 0 t
500.42 158.29 1.00 1.00 r p2
501.30 158.29 1.00 1.00 r p2
502.18 158.29 1.00 1.00 r p2
503.06 158.29 1.00 1.00 r p2
503.95 158.29 1.00 1.00 r p2
504.83 158.29 1.00 1.00 r p2
505.71 158.29 1.00 1.00 r p2
506.59 158.29 1.00 1.00 r p2
507.47 158.29 1.00 1.00 r p2
508.35 158.29 1.00 1.00 r p2
509.23 158.29 1.00 1.00 r p2
510.11 158.29 1.00 1.00 r p2
510.99 158.29 1.00 1.00 r p2
511.87 158.29 1.00 1.00 r p2
512.75 158.29 1.00 1.00 r p2
513.63 158.29 1.00 1.00 r p2
514.51 158.29 1.00 1.00 r p2
515.39 158.29 1.00 1.00 r p2
516.28 158.29 1.00 1.00 r p2
517.16 158.29 1.00 1.00 r p2
518.04 158.29 1.00 1.00 r p2
518.92 158.29 1.00 1.00 r p2
519.80 158.29 1.00 1.00 r p2
520.68 158.29 1.00 1.00 r p2
521.56 158.29 1.00 1.00 r p2
522.44 158.29 1.00 1.00 r p2
523.32 158.29 1.00 1.00 r p2
524.20 158.29 1.00 1.00 r p2
525.08 158.29 1.00 1.00 r p2
525.96 158.29 1.00 1.00 r p2
526.84 158.29 1.00 1.00 r p2
528.23 156.77 (>) .5 0 t
529.11 156.77 (>) .5 0 t
529.99 156.77 (>) .5 0 t
530.87 156.77 (>) .5 0 t
531.75 156.77 (>) .5 0 t
532.63 156.77 (>) .5 0 t
533.51 156.77 (>) .5 0 t
534.39 156.77 (>) .5 0 t
535.27 156.77 (>) .5 0 t
536.15 156.77 (>) .5 0 t
536.53 158.29 1.00 1.00 r p2
537.41 158.29 1.00 1.00 r p2
538.29 158.29 1.00 1.00 r p2
539.18 158.29 1.00 1.00 r p2
540.06 158.29 1.00 1.00 r p2
540.94 158.29 1.00 1.00 r p2
541.82 158.29 1.00 1.00 r p2
542.70 158.29 1.00 1.00 r p2
543.58 158.29 1.00 1.00 r p2
544.96 156.77 (<) .5 0 t
545.84 156.77 (<) .5 0 t
546.72 156.77 (<) .5 0 t
547.60 156.77 (<) .5 0 t
548.48 156.77 (<) .5 0 t
549.36 156.77 (<) .5 0 t
550.24 156.77 (<) .5 0 t
551.13 156.77 (<) .5 0 t
552.01 156.77 (<) .5 0 t
552.39 158.29 1.00 1.00 r p2
553.27 158.29 1.00 1.00 r p2
554.15 158.29 1.00 1.00 r p2
555.03 158.29 1.00 1.00 r p2
555.91 158.29 1.00 1.00 r p2
556.79 158.29 1.00 1.00 r p2
557.67 158.29 1.00 1.00 r p2
558.55 158.29 1.00 1.00 r p2
559.43 158.29 1.00 1.00 r p2
560.31 158.29 1.00 1.00 r p2
561.19 158.29 1.00 1.00 r p2
562.08 158.29 1.00 1.00 r p2
562.96 158.29 1.00 1.00 r p2
563.84 158.29 1.00 1.00 r p2
564.72 158.29 1.00 1.00 r p2
565.60 158.29 1.00 1.00 r p2
566.48 158.29 1.00 1.00 r p2
567.36 158.29 1.00 1.00 r p2
568.24 158.29 1.00 1.00 r p2
569.12 158.29 1.00 1.00 r p2
570.00 158.29 1.00 1.00 r p2
570.88 158.29 1.00 1.00 r p2
571.76 158.29 1.00 1.00 r p2
572.64 158.29 1.00 1.00 r p2
573.53 158.29 1.00 1.00 r p2
574.41 158.29 1.00 1.00 r p2
575.29 158.29 1.00 1.00 r p2
576.17 158.29 1.00 1.00 r p2
577.05 158.29 1.00 1.00 r p2
577.93 158.29 1.00 1.00 r p2
578.81 158.29 1.00 1.00 r p2
579.69 158.29 1.00 1.00 r p2
580.57 158.29 1.00 1.00 r p2
581.45 158.29 1.00 1.00 r p2
582.33 158.29 1.00 1.00 r p2
583.21 158.29 1.00 1.00 r p2
584.09 158.29 1.00 1.00 r p2
584.98 158.29 1.00 1.00 r p2
585.86 158.29 1.00 1.00 r p2
586.74 158.29 1.00 1.00 r p2
587.62 158.29 1.00 1.00 r p2
588.50 158.29 1.00 1.00 r p2
589.38 158.29 1.00 1.00 r p2
590.26 158.29 1.00 1.00 r p2
591.14 158.29 1.00 1.00 r p2
592.02 158.29 1.00 1.00 r p2
592.90 158.29 1.00 1.00 r p2
593.78 158.29 1.00 1.00 r p2
594.66 158.29 1.00 1.00 r p2
595.54 158.29 1.00 1.00 r p2
596.43 158.29 1.00 1.00 r p2
597.31 158.29 1.00 1.00 r p2
598.19 158.29 1.00 1.00 r p2
599.07 158.29 1.00 1.00 r p2
599.95 158.29 1.00 1.00 r p2
600.83 158.29 1.00 1.00 r p2
601.71 158.29 1.00 1.00 r p2
602.59 158.29 1.00 1.00 r p2
603.47 158.29 1.00 1.00 r p2
604.35 158.29 1.00 1.00 r p2
605.23 158.29 1.00 1.00 r p2
606.11 158.29 1.00 1.00 r p2
606.99 158.29 1.00 1.00 r p2
607.87 158.29 1.00 1.00 r p2
608.76 158.29 1.00 1.00 r p2
609.64 158.29 1.00 1.00 r p2
610.52 158.29 1.00 1.00 r p2
611.40 158.29 1.00 1.00 r p2
612.28 158.29 1.00 1.00 r p2
613.16 158.29 1.00 1.00 r p2
614.04 158.29 1.00 1.00 r p2
614.92 158.29 1.00 1.00 r p2
615.80 158.29 1.00 1.00 r p2
616.68 158.29 1.00 1.00 r p2
617.56 158.29 1.00 1.00 r p2
618.44 158.29 1.00 1.00 r p2
619.32 158.29 1.00 1.00 r p2
620.21 158.29 1.00 1.00 r p2
621.09 158.29 1.00 1.00 r p2
621.97 158.29 1.00 1.00 r p2
622.85 158.29 1.00 1.00 r p2
623.73 158.29 1.00 1.00 r p2
624.61 158.29 1.00 1.00 r p2
625.49 158.29 1.00 1.00 r p2
626.37 158.29 1.00 1.00 r p2
627.25 158.29 1.00 1.00 r p2
628.13 158.29 1.00 1.00 r p2
629.01 158.29 1.00 1.00 r p2
629.89 158.29 1.00 1.00 r p2
630.77 158.29 1.00 1.00 r p2
631.66 158.29 1.00 1.00 r p2
632.54 158.29 1.00 1.00 r p2
633.42 158.29 1.00 1.00 r p2
634.30 158.29 1.00 1.00 r p2
635.18 158.29 1.00 1.00 r p2
636.56 156.77 (>) .5 0 t
637.44 156.77 (>) .5 0 t
638.32 156.77 (>) .5 0 t
639.20 156.77 (>) .5 0 t
640.08 156.77 (>) .5 0 t
640.96 156.77 (>) .5 0 t
641.84 156.77 (>) .5 0 t
642.72 156.77 (>) .5 0 t
643.61 156.77 (>) .5 0 t
643.99 158.29 1.00 1.00 r p2
644.87 158.29 1.00 1.00 r p2
645.75 158.29 1.00 1.00 r p2
646.63 158.29 1.00 1.00 r p2
647.51 158.29 1.00 1.00 r p2
648.39 158.29 1.00 1.00 r p2
649.27 158.29 1.00 1.00 r p2
650.15 158.29 1.00 1.00 r p2
651.03 158.29 1.00 1.00 r p2
651.91 158.29 1.00 1.00 r p2
652.79 158.29 1.00 1.00 r p2
653.67 158.29 1.00 1.00 r p2
654.56 158.29 1.00 1.00 r p2
655.44 158.29 1.00 1.00 r p2
656.82 156.77 (>) .5 0 t
657.70 156.77 (>) .5 0 t
658.08 158.29 1.00 1.00 r p2
658.96 158.29 1.00 1.00 r p2
659.84 158.29 1.00 1.00 r p2
660.72 158.29 1.00 1.00 r p2
661.60 158.29 1.00 1.00 r p2
662.48 158.29 1.00 1.00 r p2
663.36 158.29 1.00 1.00 r p2
664.24 158.29 1.00 1.00 r p2
665.12 158.29 1.00 1.00 r p2
666.01 158.29 1.00 1.00 r p2
666.89 158.29 1.00 1.00 r p2
667.77 158.29 1.00 1.00 r p2
668.65 158.29 1.00 1.00 r p2
669.53 158.29 1.00 1.00 r p2
670.41 158.29 1.00 1.00 r p2
49.47 150.36 1.00 1.00 r p2
50.35 150.36 1.00 1.00 r p2
51.23 150.36 1.00 1.00 r p2
52.11 150.36 1.00 1.00 r p2
52.99 150.36 1.00 1.00 r p2
54.38 148.05 (1) .5 0 t
55.26 148.05 (1) .5 0 t
56.14 148.05 (1) .5 0 t
57.02 148.05 (1) .5 0 t
57.90 148.05 (1) .5 0 t
58.78 148.05 (1) .5 0 t
59.66 148.05 (1) .5 0 t
60.04 150.36 1.00 1.00 r p2
60.92 150.36 1.00 1.00 r p2
61.80 150.36 1.00 1.00 r p2
62.68 150.36 1.00 1.00 r p2
63.56 150.36 1.00 1.00 r p2
64.44 150.36 1.00 1.00 r p2
65.33 150.36 1.00 1.00 r p2
66.21 150.36 1.00 1.00 r p2
67.09 150.36 1.00 1.00 r p2
67.97 150.36 1.00 1.00 r p2
68.85 150.36 1.00 1.00 r p2
69.73 150.36 1.00 1.00 r p2
70.61 150.36 1.00 1.00 r p2
71.49 150.36 1.00 1.00 r p2
72.37 150.36 1.00 1.00 r p2
73.25 150.36 1.00 1.00 r p2
74.13 150.36 1.00 1.00 r p2
75.01 150.36 1.00 1.00 r p2
75.89 150.36 1.00 1.00 r p2
76.78 150.36 1.00 1.00 r p2
77.66 150.36 1.00 1.00 r p2
78.54 150.36 1.00 1.00 r p2
79.42 150.36 1.00 1.00 r p2
80.30 150.36 1.00 1.00 r p2
81.18 150.36 1.00 1.00 r p2
82.06 150.36 1.00 1.00 r p2
82.94 150.36 1.00 1.00 r p2
83.82 150.36 1.00 1.00 r p2
84.70 150.36 1.00 1.00 r p2
85.58 150.36 1.00 1.00 r p2
86.46 150.36 1.00 1.00 r p2
87.84 148.05 (1) .5 0 t
88.73 148.05 (1) .5 0 t
89.61 148.05 (1) .5 0 t
90.49 148.05 (1) .5 0 t
91.37 148.05 (1) .5 0 t
92.25 148.05 (1) .5 0 t
93.13 148.05 (1) .5 0 t
93.51 150.36 1.00 1.00 r p2
94.39 150.36 1.00 1.00 r p2
95.27 150.36 1.00 1.00 r p2
96.15 150.36 1.00 1.00 r p2
97.03 150.36 1.00 1.00 r p2
97.91 150.36 1.00 1.00 r p2
99.29 148.05 (2) .5 0 t
100.18 148.05 (2) .5 0 t
101.06 148.05 (2) .5 0 t
101.94 148.05 (2) .5 0 t
102.82 148.05 (2) .5 0 t
103.20 150.36 1.00 1.00 r p2
104.08 150.36 1.00 1.00 r p2
104.96 150.36 1.00 1.00 r p2
105.84 150.36 1.00 1.00 r p2
106.72 150.36 1.00 1.00 r p2
107.60 150.36 1.00 1.00 r p2
108.48 150.36 1.00 1.00 r p2
109.36 150.36 1.00 1.00 r p2
110.24 150.36 1.00 1.00 r p2
111.13 150.36 1.00 1.00 r p2
112.01 150.36 1.00 1.00 r p2
112.89 150.36 1.00 1.00 r p2
113.77 150.36 1.00 1.00 r p2
114.65 150.36 1.00 1.00 r p2
115.53 150.36 1.00 1.00 r p2
116.41 150.36 1.00 1.00 r p2
117.29 150.36 1.00 1.00 r p2
118.17 150.36 1.00 1.00 r p2
119.05 150.36 1.00 1.00 r p2
119.93 150.36 1.00 1.00 r p2
120.81 150.36 1.00 1.00 r p2
121.69 150.36 1.00 1.00 r p2
122.57 150.36 1.00 1.00 r p2
123.46 150.36 1.00 1.00 r p2
124.34 150.36 1.00 1.00 r p2
125.22 150.36 1.00 1.00 r p2
126.10 150.36 1.00 1.00 r p2
126.98 150.36 1.00 1.00 r p2
127.86 150.36 1.00 1.00 r p2
128.74 150.36 1.00 1.00 r p2
129.62 150.36 1.00 1.00 r p2
130.50 150.36 1.00 1.00 r p2
131.38 150.36 1.00 1.00 r p2
132.26 150.36 1.00 1.00 r p2
133.14 150.36 1.00 1.00 r p2
134.02 150.36 1.00 1.00 r p2
134.91 150.36 1.00 1.00 r p2
135.79 150.36 1.00 1.00 r p2
136.67 150.36 1.00 1.00 r p2
137.55 150.36 1.00 1.00 r p2
138.43 150.36 1.00 1.00 r p2
139.31 150.36 1.00 1.00 r p2
140.69 148.05 (2) .5 0 t
141.57 148.05 (2) .5 0 t
142.45 148.05 (2) .5 0 t
143.33 148.05 (2) .5 0 t
144.21 148.05 (2) .5 0 t
144.59 150.36 1.00 1.00 r p2
145.97 148.75 (\() .5 0 t
146.86 148.75 (\() .5 0 t
147.74 148.75 (\() .5 0 t
148.62 148.75 (\() .5 0 t
149.00 150.36 1.00 1.00 r p2
149.88 150.36 1.00 1.00 r p2
151.26 148.75 (\() .5 0 t
152.14 148.75 (\() .5 0 t
153.02 148.75 (\() .5 0 t
153.90 148.75 (\() .5 0 t
154.78 148.75 (\() .5 0 t
155.16 150.36 1.00 1.00 r p2
156.04 150.36 1.00 1.00 r p2
156.92 150.36 1.00 1.00 r p2
157.81 150.36 1.00 1.00 r p2
159.19 148.83 (<) .5 0 t
160.07 148.83 (<) .5 0 t
160.95 148.83 (<) .5 0 t
161.83 148.83 (<) .5 0 t
162.71 148.83 (<) .5 0 t
163.59 148.83 (<) .5 0 t
164.47 148.83 (<) .5 0 t
164.85 150.36 1.00 1.00 r p2
165.73 150.36 1.00 1.00 r p2
166.61 150.36 1.00 1.00 r p2
167.99 148.83 (<) .5 0 t
168.87 148.83 (<) .5 0 t
169.76 148.83 (<) .5 0 t
170.64 148.83 (<) .5 0 t
171.02 150.36 1.00 1.00 r p2
171.90 150.36 1.00 1.00 r p2
172.78 150.36 1.00 1.00 r p2
173.66 150.36 1.00 1.00 r p2
174.54 150.36 1.00 1.00 r p2
175.42 150.36 1.00 1.00 r p2
176.80 148.83 (>) .5 0 t
177.68 148.83 (>) .5 0 t
178.56 148.83 (>) .5 0 t
179.44 148.83 (>) .5 0 t
179.82 150.36 1.00 1.00 r p2
180.71 150.36 1.00 1.00 r p2
181.59 150.36 1.00 1.00 r p2
182.47 150.36 1.00 1.00 r p2
183.35 150.36 1.00 1.00 r p2
184.23 150.36 1.00 1.00 r p2
185.11 150.36 1.00 1.00 r p2
185.99 150.36 1.00 1.00 r p2
186.87 150.36 1.00 1.00 r p2
187.75 150.36 1.00 1.00 r p2
188.63 150.36 1.00 1.00 r p2
190.01 148.83 (>) .5 0 t
190.39 150.36 1.00 1.00 r p2
191.77 148.83 (>) .5 0 t
192.66 148.83 (>) .5 0 t
193.54 148.83 (>) .5 0 t
193.92 150.36 1.00 1.00 r p2
194.80 150.36 1.00 1.00 r p2
195.68 150.36 1.00 1.00 r p2
196.56 150.36 1.00 1.00 r p2
197.94 148.83 (>) .5 0 t
198.82 148.83 (>) .5 0 t
199.70 148.83 (>) .5 0 t
200.08 150.36 1.00 1.00 r p2
200.96 150.36 1.00 1.00 r p2
201.84 150.36 1.00 1.00 r p2
203.22 148.83 (<) .5 0 t
204.11 148.83 (<) .5 0 t
204.99 148.83 (<) .5 0 t
205.87 148.83 (<) .5 0 t
206.75 148.83 (<) .5 0 t
207.63 148.83 (<) .5 0 t
208.01 150.36 1.00 1.00 r p2
208.89 150.36 1.00 1.00 r p2
209.77 150.36 1.00 1.00 r p2
210.65 150.36 1.00 1.00 r p2
211.53 150.36 1.00 1.00 r p2
212.41 150.36 1.00 1.00 r p2
213.29 150.36 1.00 1.00 r p2
214.17 150.36 1.00 1.00 r p2
215.05 150.36 1.00 1.00 r p2
215.94 150.36 1.00 1.00 r p2
216.82 150.36 1.00 1.00 r p2
217.70 150.36 1.00 1.00 r p2
218.58 150.36 1.00 1.00 r p2
219.46 150.36 1.00 1.00 r p2
220.34 150.36 1.00 1.00 r p2
221.22 150.36 1.00 1.00 r p2
222.10 150.36 1.00 1.00 r p2
222.98 150.36 1.00 1.00 r p2
223.86 150.36 1.00 1.00 r p2
224.74 150.36 1.00 1.00 r p2
225.62 150.36 1.00 1.00 r p2
226.50 150.36 1.00 1.00 r p2
227.39 150.36 1.00 1.00 r p2
228.27 150.36 1.00 1.00 r p2
229.15 150.36 1.00 1.00 r p2
230.53 148.83 (>) .5 0 t
231.41 148.83 (>) .5 0 t
232.29 148.83 (>) .5 0 t
232.67 150.36 1.00 1.00 r p2
234.05 148.83 (>) .5 0 t
234.93 148.83 (>) .5 0 t
235.81 148.83 (>) .5 0 t
236.19 150.36 1.00 1.00 r p2
237.07 150.36 1.00 1.00 r p2
237.95 150.36 1.00 1.00 r p2
238.84 150.36 1.00 1.00 r p2
240.22 148.75 (\)) .5 0 t
241.10 148.75 (\)) .5 0 t
241.98 148.75 (\)) .5 0 t
242.86 148.75 (\)) .5 0 t
243.74 148.75 (\)) .5 0 t
244.62 148.75 (\)) .5 0 t
245.50 148.75 (\)) .5 0 t
246.38 148.75 (\)) .5 0 t
247.26 148.75 (\)) .5 0 t
247.64 150.36 1.00 1.00 r p2
248.52 150.36 1.00 1.00 r p2
249.40 150.36 1.00 1.00 r p2
250.79 148.12 (3) .5 0 t
251.67 148.12 (3) .5 0 t
252.55 148.12 (3) .5 0 t
253.43 148.12 (3) .5 0 t
253.81 150.36 1.00 1.00 r p2
255.19 148.12 (3) .5 0 t
256.07 148.12 (3) .5 0 t
256.45 150.36 1.00 1.00 r p2
257.83 148.12 (3) .5 0 t
258.21 150.36 1.00 1.00 r p2
259.09 150.36 1.00 1.00 r p2
259.97 150.36 1.00 1.00 r p2
261.35 148.05 (4) .5 0 t
262.24 148.05 (4) .5 0 t
263.12 148.05 (4) .5 0 t
264.00 148.05 (4) .5 0 t
264.88 148.05 (4) .5 0 t
265.76 148.05 (4) .5 0 t
266.14 150.36 1.00 1.00 r p2
267.02 150.36 1.00 1.00 r p2
267.90 150.36 1.00 1.00 r p2
268.78 150.36 1.00 1.00 r p2
269.66 150.36 1.00 1.00 r p2
270.54 150.36 1.00 1.00 r p2
271.42 150.36 1.00 1.00 r p2
272.30 150.36 1.00 1.00 r p2
273.69 148.05 (4) .5 0 t
274.57 148.05 (4) .5 0 t
275.45 148.05 (4) .5 0 t
275.83 150.36 1.00 1.00 r p2
276.71 150.36 1.00 1.00 r p2
277.59 150.36 1.00 1.00 r p2
278.97 148.05 (4) .5 0 t
279.85 148.05 (4) .5 0 t
280.73 148.05 (4) .5 0 t
281.11 150.36 1.00 1.00 r p2
281.99 150.36 1.00 1.00 r p2
282.87 150.36 1.00 1.00 r p2
283.75 150.36 1.00 1.00 r p2
284.64 150.36 1.00 1.00 r p2
285.52 150.36 1.00 1.00 r p2
286.40 150.36 1.00 1.00 r p2
287.28 150.36 1.00 1.00 r p2
288.16 150.36 1.00 1.00 r p2
289.04 150.36 1.00 1.00 r p2
289.92 150.36 1.00 1.00 r p2
290.80 150.36 1.00 1.00 r p2
291.68 150.36 1.00 1.00 r p2
292.56 150.36 1.00 1.00 r p2
293.44 150.36 1.00 1.00 r p2
294.32 150.36 1.00 1.00 r p2
295.20 150.36 1.00 1.00 r p2
296.09 150.36 1.00 1.00 r p2
296.97 150.36 1.00 1.00 r p2
297.85 150.36 1.00 1.00 r p2
298.73 150.36 1.00 1.00 r p2
299.61 150.36 1.00 1.00 r p2
300.49 150.36 1.00 1.00 r p2
301.37 150.36 1.00 1.00 r p2
302.25 150.36 1.00 1.00 r p2
303.13 150.36 1.00 1.00 r p2
304.01 150.36 1.00 1.00 r p2
304.89 150.36 1.00 1.00 r p2
305.77 150.36 1.00 1.00 r p2
306.65 150.36 1.00 1.00 r p2
307.54 150.36 1.00 1.00 r p2
308.92 148.05 (4) .5 0 t
309.80 148.05 (4) .5 0 t
310.68 148.05 (4) .5 0 t
311.06 150.36 1.00 1.00 r p2
311.94 150.36 1.00 1.00 r p2
313.32 148.05 (4) .5 0 t
314.20 148.05 (4) .5 0 t
315.08 148.05 (4) .5 0 t
315.46 150.36 1.00 1.00 r p2
316.34 150.36 1.00 1.00 r p2
317.22 150.36 1.00 1.00 r p2
318.10 150.36 1.00 1.00 r p2
319.48 148.05 (4) .5 0 t
320.37 148.05 (4) .5 0 t
321.25 148.05 (4) .5 0 t
322.13 148.05 (4) .5 0 t
323.01 148.05 (4) .5 0 t
323.89 148.05 (4) .5 0 t
324.77 148.18 (5) .5 0 t
325.65 148.18 (5) .5 0 t
326.53 148.18 (5) .5 0 t
327.41 148.18 (5) .5 0 t
327.79 150.36 1.00 1.00 r p2
329.17 148.18 (5) .5 0 t
330.05 148.18 (5) .5 0 t
330.93 148.18 (5) .5 0 t
331.82 148.18 (5) .5 0 t
332.70 148.18 (5) .5 0 t
333.58 148.18 (5) .5 0 t
333.96 150.36 1.00 1.00 r p2
334.84 150.36 1.00 1.00 r p2
335.72 150.36 1.00 1.00 r p2
336.60 150.36 1.00 1.00 r p2
337.48 150.36 1.00 1.00 r p2
338.36 150.36 1.00 1.00 r p2
339.24 150.36 1.00 1.00 r p2
340.12 150.36 1.00 1.00 r p2
341.50 148.18 (5) .5 0 t
342.38 148.18 (5) .5 0 t
343.27 148.18 (5) .5 0 t
344.15 148.18 (5) .5 0 t
345.03 148.18 (5) .5 0 t
345.91 148.18 (5) .5 0 t
346.79 148.18 (5) .5 0 t
347.67 148.18 (5) .5 0 t
348.55 148.18 (5) .5 0 t
349.43 148.18 (5) .5 0 t
349.81 150.36 1.00 1.00 r p2
350.69 150.36 1.00 1.00 r p2
351.57 150.36 1.00 1.00 r p2
352.95 148.12 (6) .5 0 t
353.33 150.36 1.00 1.00 r p2
354.72 148.12 (6) .5 0 t
355.60 148.12 (6) .5 0 t
356.48 148.12 (6) .5 0 t
357.36 148.12 (6) .5 0 t
358.24 148.12 (6) .5 0 t
358.62 150.36 1.00 1.00 r p2
359.50 150.36 1.00 1.00 r p2
360.38 150.36 1.00 1.00 r p2
361.26 150.36 1.00 1.00 r p2
362.14 150.36 1.00 1.00 r p2
363.52 148.12 (3) .5 0 t
364.40 148.12 (3) .5 0 t
365.28 148.12 (3) .5 0 t
366.17 148.12 (3) .5 0 t
367.05 148.12 (3) .5 0 t
367.43 150.36 1.00 1.00 r p2
368.81 148.12 (3) .5 0 t
369.69 148.12 (3) .5 0 t
370.57 148.11 (7) .5 0 t
371.45 148.11 (7) .5 0 t
372.33 148.11 (7) .5 0 t
373.21 148.11 (7) .5 0 t
374.09 148.11 (7) .5 0 t
374.97 148.11 (7) .5 0 t
375.85 148.11 (7) .5 0 t
376.73 148.11 (7) .5 0 t
377.62 148.11 (7) .5 0 t
378.00 150.36 1.00 1.00 r p2
378.88 150.36 1.00 1.00 r p2
379.76 150.36 1.00 1.00 r p2
380.64 150.36 1.00 1.00 r p2
381.52 150.36 1.00 1.00 r p2
382.40 150.36 1.00 1.00 r p2
383.28 150.36 1.00 1.00 r p2
384.16 150.36 1.00 1.00 r p2
385.04 150.36 1.00 1.00 r p2
385.92 150.36 1.00 1.00 r p2
386.80 150.36 1.00 1.00 r p2
387.68 150.36 1.00 1.00 r p2
388.57 150.36 1.00 1.00 r p2
389.45 150.36 1.00 1.00 r p2
390.33 150.36 1.00 1.00 r p2
391.21 150.36 1.00 1.00 r p2
392.09 150.36 1.00 1.00 r p2
392.97 150.36 1.00 1.00 r p2
393.85 150.36 1.00 1.00 r p2
394.73 150.36 1.00 1.00 r p2
395.61 150.36 1.00 1.00 r p2
396.49 150.36 1.00 1.00 r p2
397.37 150.36 1.00 1.00 r p2
398.25 150.36 1.00 1.00 r p2
399.13 150.36 1.00 1.00 r p2
400.02 150.36 1.00 1.00 r p2
400.90 150.36 1.00 1.00 r p2
401.78 150.36 1.00 1.00 r p2
402.66 150.36 1.00 1.00 r p2
403.54 150.36 1.00 1.00 r p2
404.42 150.36 1.00 1.00 r p2
405.80 148.11 (7) .5 0 t
406.68 148.11 (7) .5 0 t
407.56 148.11 (7) .5 0 t
408.44 148.11 (7) .5 0 t
409.32 148.11 (7) .5 0 t
410.20 148.11 (7) .5 0 t
411.08 148.11 (7) .5 0 t
411.96 148.11 (7) .5 0 t
412.85 148.11 (7) .5 0 t
413.23 150.36 1.00 1.00 r p2
414.11 150.36 1.00 1.00 r p2
414.99 150.36 1.00 1.00 r p2
415.87 150.36 1.00 1.00 r p2
416.75 150.36 1.00 1.00 r p2
417.63 150.36 1.00 1.00 r p2
418.51 150.36 1.00 1.00 r p2
419.89 148.12 (6) .5 0 t
420.77 148.12 (6) .5 0 t
421.65 148.12 (6) .5 0 t
422.53 148.12 (6) .5 0 t
423.41 148.12 (6) .5 0 t
424.30 148.12 (6) .5 0 t
424.68 150.36 1.00 1.00 r p2
426.06 148.12 (8) .5 0 t
426.94 148.12 (8) .5 0 t
427.32 150.36 1.00 1.00 r p2
428.20 150.36 1.00 1.00 r p2
429.58 148.12 (8) .5 0 t
430.46 148.12 (8) .5 0 t
431.34 148.12 (8) .5 0 t
432.22 148.12 (8) .5 0 t
433.10 148.12 (8) .5 0 t
433.48 150.36 1.00 1.00 r p2
434.36 150.36 1.00 1.00 r p2
435.25 150.36 1.00 1.00 r p2
436.13 150.36 1.00 1.00 r p2
437.01 150.36 1.00 1.00 r p2
437.89 150.36 1.00 1.00 r p2
438.77 150.36 1.00 1.00 r p2
439.65 150.36 1.00 1.00 r p2
440.53 150.36 1.00 1.00 r p2
441.41 150.36 1.00 1.00 r p2
442.29 150.36 1.00 1.00 r p2
443.17 150.36 1.00 1.00 r p2
444.05 150.36 1.00 1.00 r p2
444.93 150.36 1.00 1.00 r p2
446.31 148.12 (8) .5 0 t
447.20 148.12 (8) .5 0 t
448.08 148.12 (8) .5 0 t
448.96 148.12 (8) .5 0 t
449.84 148.12 (8) .5 0 t
450.22 150.36 1.00 1.00 r p2
451.10 150.36 1.00 1.00 r p2
451.98 150.36 1.00 1.00 r p2
453.36 148.83 (<) .5 0 t
454.24 148.83 (<) .5 0 t
455.12 148.83 (<) .5 0 t
456.00 148.83 (<) .5 0 t
456.88 148.83 (<) .5 0 t
457.76 148.83 (<) .5 0 t
458.65 148.83 (<) .5 0 t
459.53 148.83 (<) .5 0 t
459.91 150.36 1.00 1.00 r p2
460.79 150.36 1.00 1.00 r p2
461.67 150.36 1.00 1.00 r p2
462.55 150.36 1.00 1.00 r p2
463.43 150.36 1.00 1.00 r p2
464.31 150.36 1.00 1.00 r p2
465.69 148.83 (<) .5 0 t
466.57 148.83 (<) .5 0 t
467.45 148.83 (<) .5 0 t
467.83 150.36 1.00 1.00 r p2
468.71 150.36 1.00 1.00 r p2
469.60 150.36 1.00 1.00 r p2
470.48 150.36 1.00 1.00 r p2
471.36 150.36 1.00 1.00 r p2
472.24 150.36 1.00 1.00 r p2
473.12 150.36 1.00 1.00 r p2
474.50 148.83 (>) .5 0 t
475.38 148.83 (>) .5 0 t
476.26 148.83 (>) .5 0 t
476.64 150.36 1.00 1.00 r p2
477.52 150.36 1.00 1.00 r p2
478.40 150.36 1.00 1.00 r p2
479.28 150.36 1.00 1.00 r p2
480.16 150.36 1.00 1.00 r p2
481.05 150.36 1.00 1.00 r p2
481.93 150.36 1.00 1.00 r p2
483.31 148.83 (>) .5 0 t
484.19 148.83 (>) .5 0 t
485.07 148.83 (>) .5 0 t
485.95 148.83 (>) .5 0 t
486.83 148.83 (>) .5 0 t
487.71 148.83 (>) .5 0 t
488.59 148.83 (>) .5 0 t
489.47 148.83 (>) .5 0 t
489.85 150.36 1.00 1.00 r p2
490.73 150.36 1.00 1.00 r p2
492.11 148.83 (<) .5 0 t
493.00 148.83 (<) .5 0 t
493.88 148.83 (<) .5 0 t
494.76 148.83 (<) .5 0 t
495.64 148.83 (<) .5 0 t
496.52 148.83 (<) .5 0 t
497.40 148.83 (<) .5 0 t
498.28 148.83 (<) .5 0 t
499.16 148.83 (<) .5 0 t
500.04 148.83 (<) .5 0 t
500.42 150.36 1.00 1.00 r p2
501.30 150.36 1.00 1.00 r p2
502.18 150.36 1.00 1.00 r p2
503.06 150.36 1.00 1.00 r p2
503.95 150.36 1.00 1.00 r p2
504.83 150.36 1.00 1.00 r p2
505.71 150.36 1.00 1.00 r p2
506.59 150.36 1.00 1.00 r p2
507.47 150.36 1.00 1.00 r p2
508.35 150.36 1.00 1.00 r p2
509.23 150.36 1.00 1.00 r p2
510.11 150.36 1.00 1.00 r p2
510.99 150.36 1.00 1.00 r p2
511.87 150.36 1.00 1.00 r p2
512.75 150.36 1.00 1.00 r p2
513.63 150.36 1.00 1.00 r p2
514.51 150.36 1.00 1.00 r p2
515.39 150.36 1.00 1.00 r p2
516.28 150.36 1.00 1.00 r p2
517.16 150.36 1.00 1.00 r p2
518.04 150.36 1.00 1.00 r p2
518.92 150.36 1.00 1.00 r p2
519.80 150.36 1.00 1.00 r p2
520.68 150.36 1.00 1.00 r p2
521.56 150.36 1.00 1.00 r p2
522.44 150.36 1.00 1.00 r p2
523.32 150.36 1.00 1.00 r p2
524.20 150.36 1.00 1.00 r p2
525.08 150.36 1.00 1.00 r p2
525.96 150.36 1.00 1.00 r p2
526.84 150.36 1.00 1.00 r p2
528.23 148.83 (>) .5 0 t
529.11 148.83 (>) .5 0 t
529.99 148.83 (>) .5 0 t
530.87 148.83 (>) .5 0 t
531.75 148.83 (>) .5 0 t
532.63 148.83 (>) .5 0 t
533.51 148.83 (>) .5 0 t
534.39 148.83 (>) .5 0 t
535.27 148.83 (>) .5 0 t
536.15 148.83 (>) .5 0 t
536.53 150.36 1.00 1.00 r p2
537.41 150.36 1.00 1.00 r p2
538.29 150.36 1.00 1.00 r p2
539.18 150.36 1.00 1.00 r p2
540.06 150.36 1.00 1.00 r p2
540.94 150.36 1.00 1.00 r p2
541.82 150.36 1.00 1.00 r p2
542.70 150.36 1.00 1.00 r p2
543.58 150.36 1.00 1.00 r p2
544.96 148.83 (<) .5 0 t
545.84 148.83 (<) .5 0 t
546.72 148.83 (<) .5 0 t
547.60 148.83 (<) .5 0 t
548.48 148.83 (<) .5 0 t
549.36 148.83 (<) .5 0 t
550.24 148.83 (<) .5 0 t
551.13 148.83 (<) .5 0 t
552.01 148.83 (<) .5 0 t
552.39 150.36 1.00 1.00 r p2
553.27 150.36 1.00 1.00 r p2
554.15 150.36 1.00 1.00 r p2
555.03 150.36 1.00 1.00 r p2
555.91 150.36 1.00 1.00 r p2
556.79 150.36 1.00 1.00 r p2
557.67 150.36 1.00 1.00 r p2
558.55 150.36 1.00 1.00 r p2
559.43 150.36 1.00 1.00 r p2
560.31 150.36 1.00 1.00 r p2
561.19 150.36 1.00 1.00 r p2
562.08 150.36 1.00 1.00 r p2
562.96 150.36 1.00 1.00 r p2
563.84 150.36 1.00 1.00 r p2
564.72 150.36 1.00 1.00 r p2
565.60 150.36 1.00 1.00 r p2
566.48 150.36 1.00 1.00 r p2
567.36 150.36 1.00 1.00 r p2
568.24 150.36 1.00 1.00 r p2
569.12 150.36 1.00 1.00 r p2
570.00 150.36 1.00 1.00 r p2
570.88 150.36 1.00 1.00 r p2
571.76 150.36 1.00 1.00 r p2
572.64 150.36 1.00 1.00 r p2
573.53 150.36 1.00 1.00 r p2
574.41 150.36 1.00 1.00 r p2
575.29 150.36 1.00 1.00 r p2
576.17 150.36 1.00 1.00 r p2
577.05 150.36 1.00 1.00 r p2
577.93 150.36 1.00 1.00 r p2
578.81 150.36 1.00 1.00 r p2
579.69 150.36 1.00 1.00 r p2
580.57 150.36 1.00 1.00 r p2
581.45 150.36 1.00 1.00 r p2
582.33 150.36 1.00 1.00 r p2
583.21 150.36 1.00 1.00 r p2
584.09 150.36 1.00 1.00 r p2
584.98 150.36 1.00 1.00 r p2
585.86 150.36 1.00 1.00 r p2
586.74 150.36 1.00 1.00 r p2
587.62 150.36 1.00 1.00 r p2
588.50 150.36 1.00 1.00 r p2
589.38 150.36 1.00 1.00 r p2
590.26 150.36 1.00 1.00 r p2
591.14 150.36 1.00 1.00 r p2
592.02 150.36 1.00 1.00 r p2
592.90 150.36 1.00 1.00 r p2
593.78 150.36 1.00 1.00 r p2
594.66 150.36 1.00 1.00 r p2
595.54 150.36 1.00 1.00 r p2
596.43 150.36 1.00 1.00 r p2
597.31 150.36 1.00 1.00 r p2
598.19 150.36 1.00 1.00 r p2
599.07 150.36 1.00 1.00 r p2
599.95 150.36 1.00 1.00 r p2
600.83 150.36 1.00 1.00 r p2
601.71 150.36 1.00 1.00 r p2
602.59 150.36 1.00 1.00 r p2
603.47 150.36 1.00 1.00 r p2
604.35 150.36 1.00 1.00 r p2
605.23 150.36 1.00 1.00 r p2
606.11 150.36 1.00 1.00 r p2
606.99 150.36 1.00 1.00 r p2
607.87 150.36 1.00 1.00 r p2
608.76 150.36 1.00 1.00 r p2
609.64 150.36 1.00 1.00 r p2
610.52 150.36 1.00 1.00 r p2
611.40 150.36 1.00 1.00 r p2
612.28 150.36 1.00 1.00 r p2
613.16 150.36 1.00 1.00 r p2
614.04 150.36 1.00 1.00 r p2
614.92 150.36 1.00 1.00 r p2
615.80 150.36 1.00 1.00 r p2
616.68 150.36 1.00 1.00 r p2
617.56 150.36 1.00 1.00 r p2
618.44 150.36 1.00 1.00 r p2
619.32 150.36 1.00 1.00 r p2
620.21 150.36 1.00 1.00 r p2
621.09 150.36 1.00 1.00 r p2
621.97 150.36 1.00 1.00 r p2
622.85 150.36 1.00 1.00 r p2
623.73 150.36 1.00 1.00 r p2
624.61 150.36 1.00 1.00 r p2
625.49 150.36 1.00 1.00 r p2
626.37 150.36 1.00 1.00 r p2
627.25 150.36 1.00 1.00 r p2
628.13 150.36 1.00 1.00 r p2
629.01 150.36 1.00 1.00 r p2
629.89 150.36 1.00 1.00 r p2
630.77 150.36 1.00 1.00 r p2
631.66 150.36 1.00 1.00 r p2
632.54 150.36 1.00 1.00 r p2
633.42 150.36 1.00 1.00 r p2
634.30 150.36 1.00 1.00 r p2
635.18 150.36 1.00 1.00 r p2
636.56 148.83 (>) .5 0 t
637.44 148.83 (>) .5 0 t
638.32 148.83 (>) .5 0 t
639.20 148.83 (>) .5 0 t
640.08 148.83 (>) .5 0 t
640.96 148.83 (>) .5 0 t
641.84 148.83 (>) .5 0 t
642.72 148.83 (>) .5 0 t
643.61 148.83 (>) .5 0 t
643.99 150.36 1.00 1.00 r p2
644.87 150.36 1.00 1.00 r p2
645.75 150.36 1.00 1.00 r p2
646.63 150.36 1.00 1.00 r p2
647.51 150.36 1.00 1.00 r p2
648.39 150.36 1.00 1.00 r p2
649.27 150.36 1.00 1.00 r p2
650.15 150.36 1.00 1.00 r p2
651.03 150.36 1.00 1.00 r p2
651.91 150.36 1.00 1.00 r p2
652.79 150.36 1.00 1.00 r p2
653.67 150.36 1.00 1.00 r p2
654.56 150.36 1.00 1.00 r p2
655.44 150.36 1.00 1.00 r p2
656.82 148.12 (8) .5 0 t
657.70 148.12 (8) .5 0 t
658.08 150.36 1.00 1.00 r p2
658.96 150.36 1.00 1.00 r p2
659.84 150.36 1.00 1.00 r p2
660.72 150.36 1.00 1.00 r p2
661.60 150.36 1.00 1.00 r p2
662.48 150.36 1.00 1.00 r p2
663.36 150.36 1.00 1.00 r p2
664.24 150.36 1.00 1.00 r p2
665.12 150.36 1.00 1.00 r p2
666.01 150.36 1.00 1.00 r p2
666.89 150.36 1.00 1.00 r p2
667.77 150.36 1.00 1.00 r p2
668.65 150.36 1.00 1.00 r p2
669.53 150.36 1.00 1.00 r p2
670.41 150.36 1.00 1.00 r p2
1 0 0 srgb
0.75 setlinewidth
[] 0 setdash
1 setlinecap
1 setlinejoin
10.00 setmiterlimit
np
49.97 145.86 m
2.55 -4.41 l
-5.09 0 l
2.54 4.41 l
o
np
54.38 145.86 m
2.54 -4.41 l
-5.09 0 l
2.55 4.41 l
o
np
54.38 145.86 m
2.54 -4.41 l
-5.09 0 l
2.55 4.41 l
o
np
87.84 145.86 m
2.55 -4.41 l
-5.09 0 l
2.54 4.41 l
o
np
99.29 145.86 m
2.55 -4.41 l
-5.09 0 l
2.54 4.41 l
o
np
140.69 145.86 m
2.55 -4.41 l
-5.10 0 l
2.55 4.41 l
o
np
140.69 145.86 m
2.55 -4.41 l
-5.10 0 l
2.55 4.41 l
o
np
250.79 145.86 m
2.54 -4.41 l
-5.09 0 l
2.55 4.41 l
o
np
261.35 145.86 m
2.55 -4.41 l
-5.09 0 l
2.54 4.41 l
o
np
250.79 145.86 m
2.54 -4.41 l
-5.09 0 l
2.55 4.41 l
o
np
250.79 145.86 m
2.54 -4.41 l
-5.09 0 l
2.55 4.41 l
o
np
261.35 145.86 m
2.55 -4.41 l
-5.09 0 l
2.54 4.41 l
o
np
308.92 145.86 m
2.54 -4.41 l
-5.09 0 l
2.55 4.41 l
o
np
324.77 145.86 m
2.54 -4.41 l
-5.09 0 l
2.55 4.41 l
o
np
308.92 145.86 m
2.54 -4.41 l
-5.09 0 l
2.55 4.41 l
o
np
341.50 145.86 m
2.55 -4.41 l
-5.09 0 l
2.54 4.41 l
o
np
352.95 145.86 m
2.55 -4.41 l
-5.09 0 l
2.54 4.41 l
o
np
341.50 145.86 m
2.55 -4.41 l
-5.09 0 l
2.54 4.41 l
o
np
352.95 145.86 m
2.55 -4.41 l
-5.09 0 l
2.54 4.41 l
o
np
352.95 145.86 m
2.55 -4.41 l
-5.09 0 l
2.54 4.41 l
o
np
370.57 145.86 m
2.54 -4.41 l
-5.09 0 l
2.55 4.41 l
o
np
370.57 145.86 m
2.54 -4.41 l
-5.09 0 l
2.55 4.41 l
o
np
405.80 145.86 m
2.55 -4.41 l
-5.10 0 l
2.55 4.41 l
o
np
370.57 145.86 m
2.54 -4.41 l
-5.09 0 l
2.55 4.41 l
o
np
405.80 145.86 m
2.55 -4.41 l
-5.10 0 l
2.55 4.41 l
o
np
419.89 145.86 m
2.55 -4.41 l
-5.09 0 l
2.54 4.41 l
o
np
426.06 145.86 m
2.54 -4.41 l
-5.09 0 l
2.55 4.41 l
o
np
93.13 145.86 m
2.54 -4.41 l
-5.09 0 l
2.55 4.41 l
o
np
102.82 145.86 m
2.54 -4.41 l
-5.09 0 l
2.55 4.41 l
o
np
144.21 145.86 m
2.55 -4.41 l
-5.09 0 l
2.54 4.41 l
o
np
144.21 145.86 m
2.55 -4.41 l
-5.09 0 l
2.54 4.41 l
o
np
257.83 145.86 m
2.55 -4.41 l
-5.09 0 l
2.54 4.41 l
o
np
280.73 145.86 m
2.55 -4.41 l
-5.09 0 l
2.54 4.41 l
o
np
369.69 145.86 m
2.54 -4.41 l
-5.09 0 l
2.55 4.41 l
o
np
280.73 145.86 m
2.55 -4.41 l
-5.09 0 l
2.54 4.41 l
o
np
333.58 145.86 m
2.54 -4.41 l
-5.09 0 l
2.55 4.41 l
o
np
358.24 145.86 m
2.54 -4.41 l
-5.09 0 l
2.55 4.41 l
o
np
369.69 145.86 m
2.54 -4.41 l
-5.09 0 l
2.55 4.41 l
o
np
369.69 145.86 m
2.54 -4.41 l
-5.09 0 l
2.55 4.41 l
o
np
349.43 145.86 m
2.55 -4.41 l
-5.09 0 l
2.54 4.41 l
o
np
358.24 145.86 m
2.54 -4.41 l
-5.09 0 l
2.55 4.41 l
o
np
377.62 145.86 m
2.54 -4.41 l
-5.09 0 l
2.55 4.41 l
o
np
377.62 145.86 m
2.54 -4.41 l
-5.09 0 l
2.55 4.41 l
o
np
369.69 145.86 m
2.54 -4.41 l
-5.09 0 l
2.55 4.41 l
o
np
424.30 145.86 m
2.54 -4.41 l
-5.09 0 l
2.55 4.41 l
o
np
424.30 145.86 m
2.54 -4.41 l
-5.09 0 l
2.55 4.41 l
o
np
433.10 145.86 m
2.55 -4.41 l
-5.09 0 l
2.54 4.41 l
o
np
424.30 145.86 m
2.54 -4.41 l
-5.09 0 l
2.55 4.41 l
o
np
433.10 145.86 m
2.55 -4.41 l
-5.09 0 l
2.54 4.41 l
o
np
424.30 145.86 m
2.54 -4.41 l
-5.09 0 l
2.55 4.41 l
o
np
657.70 145.86 m
2.54 -4.41 l
-5.09 0 l
2.55 4.41 l
o
np
657.70 145.86 m
2.54 -4.41 l
-5.09 0 l
2.55 4.41 l
o
np
657.70 145.86 m
2.54 -4.41 l
-5.09 0 l
2.55 4.41 l
o
np
670.91 145.86 m
2.54 -4.41 l
-5.09 0 l
2.55 4.41 l
o
0 0 0.8235 srgb
np
49.97 127.05 m
43.16 0 l
o
/Font1 findfont 7 s
71.55 129.93 (left-P1) .5 0 t
0 0 0.8510 srgb
np
54.38 123.87 m
48.44 0 l
o
78.60 116.80 (P1-L2) .5 0 t
0 0 0.9255 srgb
np
54.38 120.70 m
89.83 0 l
o
99.29 123.58 (P1-P2) .5 0 t
0 0 1 srgb
np
87.84 117.52 m
56.37 0 l
o
116.03 110.46 (R1-P2) .5 0 t
0 0.5020 1 srgb
np
99.29 114.35 m
158.54 0 l
o
178.56 117.23 (P2-L3) .5 0 t
0 0.7490 1 srgb
np
140.69 111.17 m
140.04 0 l
o
210.71 104.11 (R2-L4) .5 0 t
0.0510 1 0.9490 srgb
np
140.69 108.00 m
229.00 0 l
o
255.19 110.88 (R2-P3) .5 0 t
0.1020 1 0.8980 srgb
np
250.79 104.83 m
29.94 0 l
o
265.76 97.76 (L3-L4) .5 0 t
0.2314 1 0.7686 srgb
np
261.35 101.65 m
72.23 0 l
o
297.47 104.53 (P4-L5) .5 0 t
0.2549 1 0.7451 srgb
np
250.79 98.48 m
107.45 0 l
o
304.51 91.41 (L3-L6) .5 0 t
0.2824 1 0.7176 srgb
np
250.79 95.30 m
118.90 0 l
o
310.24 98.18 (P3-L4) .5 0 t
0.3059 1 0.6941 srgb
np
261.35 92.13 m
108.34 0 l
o
315.52 85.06 (R3-P4) .5 0 t
0.3608 1 0.6392 srgb
np
308.92 88.95 m
40.51 0 l
o
329.17 91.83 (R4-P5) .5 0 t
0.4118 1 0.5882 srgb
np
324.77 85.78 m
33.47 0 l
o
341.50 78.71 (P5-L6) .5 0 t
np
308.92 82.60 m
68.70 0 l
o
343.27 85.48 (R4-L7) .5 0 t
0.4863 1 0.5137 srgb
np
341.50 79.43 m
36.12 0 l
o
359.56 72.36 (R5-L7) .5 0 t
np
352.95 76.25 m
16.74 0 l
o
361.32 79.13 (L6-R3) .5 0 t
0.5882 1 0.4118 srgb
np
341.50 73.08 m
82.80 0 l
o
382.90 66.01 (R5-P6) .5 0 t
0.6157 1 0.3843 srgb
np
352.95 69.90 m
71.35 0 l
o
388.62 72.78 (P6-L7) .5 0 t
np
352.95 66.73 m
80.15 0 l
o
393.03 59.66 (L6-L8) .5 0 t
0.6392 1 0.3608 srgb
np
370.57 63.56 m
53.73 0 l
o
397.43 66.44 (R6-P7) .5 0 t
0.6667 1 0.3333 srgb
np
370.57 60.38 m
62.53 0 l
o
401.84 53.31 (P7-L8) .5 0 t
0.7176 1 0.2824 srgb
np
405.80 57.21 m
18.50 0 l
o
415.05 60.09 (R7-R6) .5 0 t
1 0.7490 0 srgb
np
370.57 54.03 m
287.13 0 l
o
514.13 46.96 (P7-P8) .5 0 t
1 0.6000 0 srgb
np
405.80 50.86 m
251.90 0 l
o
531.75 53.74 (R7-P8) .5 0 t
1 0.5490 0 srgb
np
419.89 47.68 m
237.81 0 l
o
538.79 40.61 (R6-P8) .5 0 t
1 0.5020 0 srgb
np
426.06 44.51 m
244.85 0 l
o
535.35 47.39 (P8-r) 0 ta
0.105 (ight) tb gr
ep
%%Trailer
%%Pages: 1
%%EOF
