%!PS-Adobe-3.0
%%Creator: graphviz version 2.28.0 (20120127.1553)
%%Title: _anonymous_0
%%Pages: (atend)
%%BoundingBox: (atend)
%%EndComments
save
%%BeginProlog
/DotDict 200 dict def
DotDict begin

/setupLatin1 {
mark
/EncodingVector 256 array def
 EncodingVector 0

ISOLatin1Encoding 0 255 getinterval putinterval
EncodingVector 45 /hyphen put

% Set up ISO Latin 1 character encoding
/starnetISO {
        dup dup findfont dup length dict begin
        { 1 index /FID ne { def }{ pop pop } ifelse
        } forall
        /Encoding EncodingVector def
        currentdict end definefont
} def
/Times-Roman starnetISO def
/Times-Italic starnetISO def
/Times-Bold starnetISO def
/Times-BoldItalic starnetISO def
/Helvetica starnetISO def
/Helvetica-Oblique starnetISO def
/Helvetica-Bold starnetISO def
/Helvetica-BoldOblique starnetISO def
/Courier starnetISO def
/Courier-Oblique starnetISO def
/Courier-Bold starnetISO def
/Courier-BoldOblique starnetISO def
cleartomark
} bind def

%%BeginResource: procset graphviz 0 0
/coord-font-family /Times-Roman def
/default-font-family /Times-Roman def
/coordfont coord-font-family findfont 8 scalefont def

/InvScaleFactor 1.0 def
/set_scale {
       dup 1 exch div /InvScaleFactor exch def
       scale
} bind def

% styles
/solid { [] 0 setdash } bind def
/dashed { [9 InvScaleFactor mul dup ] 0 setdash } bind def
/dotted { [1 InvScaleFactor mul 6 InvScaleFactor mul] 0 setdash } bind def
/invis {/fill {newpath} def /stroke {newpath} def /show {pop newpath} def} bind def
/bold { 2 setlinewidth } bind def
/filled { } bind def
/unfilled { } bind def
/rounded { } bind def
/diagonals { } bind def

% hooks for setting color 
/nodecolor { sethsbcolor } bind def
/edgecolor { sethsbcolor } bind def
/graphcolor { sethsbcolor } bind def
/nopcolor {pop pop pop} bind def

/beginpage {	% i j npages
	/npages exch def
	/j exch def
	/i exch def
	/str 10 string def
	npages 1 gt {
		gsave
			coordfont setfont
			0 0 moveto
			(\() show i str cvs show (,) show j str cvs show (\)) show
		grestore
	} if
} bind def

/set_font {
	findfont exch
	scalefont setfont
} def

% draw text fitted to its expected width
/alignedtext {			% width text
	/text exch def
	/width exch def
	gsave
		width 0 gt {
			[] 0 setdash
			text stringwidth pop width exch sub text length div 0 text ashow
		} if
	grestore
} def

/boxprim {				% xcorner ycorner xsize ysize
		4 2 roll
		moveto
		2 copy
		exch 0 rlineto
		0 exch rlineto
		pop neg 0 rlineto
		closepath
} bind def

/ellipse_path {
	/ry exch def
	/rx exch def
	/y exch def
	/x exch def
	matrix currentmatrix
	newpath
	x y translate
	rx ry scale
	0 0 1 0 360 arc
	setmatrix
} bind def

/endpage { showpage } bind def
/showpage { } def

/layercolorseq
	[	% layer color sequence - darkest to lightest
		[0 0 0]
		[.2 .8 .8]
		[.4 .8 .8]
		[.6 .8 .8]
		[.8 .8 .8]
	]
def

/layerlen layercolorseq length def

/setlayer {/maxlayer exch def /curlayer exch def
	layercolorseq curlayer 1 sub layerlen mod get
	aload pop sethsbcolor
	/nodecolor {nopcolor} def
	/edgecolor {nopcolor} def
	/graphcolor {nopcolor} def
} bind def

/onlayer { curlayer ne {invis} if } def

/onlayers {
	/myupper exch def
	/mylower exch def
	curlayer mylower lt
	curlayer myupper gt
	or
	{invis} if
} def

/curlayer 0 def

%%EndResource
%%EndProlog
%%BeginSetup
14 default-font-family set_font
1 setmiterlimit
% /arrowlength 10 def
% /arrowwidth 5 def

% make sure pdfmark is harmless for PS-interpreters other than Distiller
/pdfmark where {pop} {userdict /pdfmark /cleartomark load put} ifelse
% make '<<' and '>>' safe on PS Level 1 devices
/languagelevel where {pop languagelevel}{1} ifelse
2 lt {
    userdict (<<) cvn ([) cvn load put
    userdict (>>) cvn ([) cvn load put
} if

%%EndSetup
setupLatin1
%%Page: 1 1
%%PageBoundingBox: 36 36 1307 1952
%%PageOrientation: Portrait
0 0 1 beginpage
gsave
36 36 1271 1916 boxprim clip newpath
1 1 set_scale 0 rotate 40 41 translate
% left_P1
gsave
0.66667 1 0.8 nodecolor
746 1890 36.1 18 ellipse_path fill
1 setlinewidth
filled
0 0 0 nodecolor
746 1890 36.1 18 ellipse_path stroke
0 0 1 nodecolor
14 /Times-Roman set_font
726 1886.3 moveto 40 (left_P1) alignedtext
grestore
% P1_L2
gsave
0.66667 1 0.82353 nodecolor
808 1818 34.17 18 ellipse_path fill
1 setlinewidth
filled
0 0 0 nodecolor
808 1818 34.17 18 ellipse_path stroke
0 0 1 nodecolor
14 /Times-Roman set_font
789.5 1814.3 moveto 37 (P1_L2) alignedtext
grestore
% left_P1->P1_L2
gsave
1 setlinewidth
0 0 0 edgecolor
newpath 760.07 1873.12 moveto
768.08 1864.08 778.26 1852.58 787.17 1842.52 curveto
stroke
0 0 0 edgecolor
newpath 789.98 1844.63 moveto
793.99 1834.82 lineto
784.74 1839.99 lineto
closepath fill
1 setlinewidth
solid
0 0 0 edgecolor
newpath 789.98 1844.63 moveto
793.99 1834.82 lineto
784.74 1839.99 lineto
closepath stroke
grestore
% P1_P2
gsave
0.66667 1 0.90196 nodecolor
684 1746 33.2 18 ellipse_path fill
1 setlinewidth
filled
0 0 0 nodecolor
684 1746 33.2 18 ellipse_path stroke
0 0 1 nodecolor
14 /Times-Roman set_font
666 1742.3 moveto 36 (P1_P2) alignedtext
grestore
% left_P1->P1_P2
gsave
1 setlinewidth
0 0 0 edgecolor
newpath 738.64 1872.15 moveto
727.97 1847.71 708.09 1802.17 695.48 1773.29 curveto
stroke
0 0 0 edgecolor
newpath 698.56 1771.59 moveto
691.35 1763.82 lineto
692.14 1774.39 lineto
closepath fill
1 setlinewidth
solid
0 0 0 edgecolor
newpath 698.56 1771.59 moveto
691.35 1763.82 lineto
692.14 1774.39 lineto
closepath stroke
grestore
% R1_P2
gsave
0.66667 1 0.94902 nodecolor
760 1674 34.17 18 ellipse_path fill
1 setlinewidth
filled
0 0 0 nodecolor
760 1674 34.17 18 ellipse_path stroke
0 0 1 nodecolor
14 /Times-Roman set_font
741.5 1670.3 moveto 37 (R1_P2) alignedtext
grestore
% left_P1->R1_P2
gsave
1 setlinewidth
0 0 0 edgecolor
newpath 747.12 1871.85 moveto
749.54 1834.83 755.28 1747.18 758.21 1702.39 curveto
stroke
0 0 0 edgecolor
newpath 761.71 1702.44 moveto
758.87 1692.23 lineto
754.73 1701.98 lineto
closepath fill
1 setlinewidth
solid
0 0 0 edgecolor
newpath 761.71 1702.44 moveto
758.87 1692.23 lineto
754.73 1701.98 lineto
closepath stroke
grestore
% P1_L2->P1_P2
gsave
1 setlinewidth
0 0 0 edgecolor
newpath 785.54 1804.32 moveto
765.88 1793.22 737.11 1776.98 715.21 1764.62 curveto
stroke
0 0 0 edgecolor
newpath 716.72 1761.45 moveto
706.29 1759.58 lineto
713.28 1767.55 lineto
closepath fill
1 setlinewidth
solid
0 0 0 edgecolor
newpath 716.72 1761.45 moveto
706.29 1759.58 lineto
713.28 1767.55 lineto
closepath stroke
grestore
% P1_L2->R1_P2
gsave
1 setlinewidth
0 0 0 edgecolor
newpath 802.31 1800.15 moveto
794.08 1775.81 778.78 1730.57 769.01 1701.67 curveto
stroke
0 0 0 edgecolor
newpath 772.21 1700.18 moveto
765.69 1691.82 lineto
765.57 1702.42 lineto
closepath fill
1 setlinewidth
solid
0 0 0 edgecolor
newpath 772.21 1700.18 moveto
765.69 1691.82 lineto
765.57 1702.42 lineto
closepath stroke
grestore
% P2_L3
gsave
0.62484 1 1 nodecolor
660 1602 34.17 18 ellipse_path fill
1 setlinewidth
filled
0 0 0 nodecolor
660 1602 34.17 18 ellipse_path stroke
0 0 1 nodecolor
14 /Times-Roman set_font
641.5 1598.3 moveto 37 (P2_L3) alignedtext
grestore
% P1_L2->P2_L3
gsave
1 setlinewidth
0 0 0 edgecolor
newpath 813.1 1800.02 moveto
821.49 1768.36 834.35 1699.59 803 1656 curveto
780.38 1624.54 736.88 1611.73 703.77 1606.53 curveto
stroke
0 0 0 edgecolor
newpath 704.25 1603.06 moveto
693.87 1605.14 lineto
703.29 1609.99 lineto
closepath fill
1 setlinewidth
solid
0 0 0 edgecolor
newpath 704.25 1603.06 moveto
693.87 1605.14 lineto
703.29 1609.99 lineto
closepath stroke
grestore
% P1_P2->R1_P2
gsave
1 setlinewidth
0 0 0 edgecolor
newpath 700.12 1730.15 moveto
710.63 1720.48 724.52 1707.68 736.28 1696.85 curveto
stroke
0 0 0 edgecolor
newpath 738.66 1699.41 moveto
743.64 1690.07 lineto
733.92 1694.27 lineto
closepath fill
1 setlinewidth
solid
0 0 0 edgecolor
newpath 738.66 1699.41 moveto
743.64 1690.07 lineto
733.92 1694.27 lineto
closepath stroke
grestore
% P1_P2->P2_L3
gsave
1 setlinewidth
0 0 0 edgecolor
newpath 681.11 1727.87 moveto
677.01 1703.67 669.5 1659.21 664.63 1630.39 curveto
stroke
0 0 0 edgecolor
newpath 668.02 1629.47 moveto
662.91 1620.19 lineto
661.12 1630.63 lineto
closepath fill
1 setlinewidth
solid
0 0 0 edgecolor
newpath 668.02 1629.47 moveto
662.91 1620.19 lineto
661.12 1630.63 lineto
closepath stroke
grestore
% R2_L4
gsave
0.58301 1 1 nodecolor
761 1530 35.15 18 ellipse_path fill
1 setlinewidth
filled
0 0 0 nodecolor
761 1530 35.15 18 ellipse_path stroke
0 0 1 nodecolor
14 /Times-Roman set_font
742 1526.3 moveto 38 (R2_L4) alignedtext
grestore
% P1_P2->R2_L4
gsave
1 setlinewidth
0 0 0 edgecolor
newpath 690.04 1728.21 moveto
703.36 1691.19 735.35 1602.3 751.43 1557.6 curveto
stroke
0 0 0 edgecolor
newpath 754.79 1558.6 moveto
754.88 1548.01 lineto
748.2 1556.23 lineto
closepath fill
1 setlinewidth
solid
0 0 0 edgecolor
newpath 754.79 1558.6 moveto
754.88 1548.01 lineto
748.2 1556.23 lineto
closepath stroke
grestore
% R2_P3
gsave
0.46332 0.81961 1 nodecolor
494 1386 34.17 18 ellipse_path fill
1 setlinewidth
filled
0 0 0 nodecolor
494 1386 34.17 18 ellipse_path stroke
0 0 1 nodecolor
14 /Times-Roman set_font
475.5 1382.3 moveto 37 (R2_P3) alignedtext
grestore
% P1_P2->R2_P3
gsave
1 setlinewidth
0 0 0 edgecolor
newpath 668.57 1729.88 moveto
630.89 1691.69 535.2 1586.45 506 1476 curveto
500.63 1455.68 497.59 1432.09 495.91 1414.3 curveto
stroke
0 0 0 edgecolor
newpath 499.4 1413.97 moveto
495.05 1404.31 lineto
492.42 1414.57 lineto
closepath fill
1 setlinewidth
solid
0 0 0 edgecolor
newpath 499.4 1413.97 moveto
495.05 1404.31 lineto
492.42 1414.57 lineto
closepath stroke
grestore
% R1_P2->P2_L3
gsave
1 setlinewidth
0 0 0 edgecolor
newpath 740.24 1659.17 moveto
725.31 1648.72 704.62 1634.24 687.99 1622.59 curveto
stroke
0 0 0 edgecolor
newpath 689.92 1619.67 moveto
679.72 1616.8 lineto
685.9 1625.4 lineto
closepath fill
1 setlinewidth
solid
0 0 0 edgecolor
newpath 689.92 1619.67 moveto
679.72 1616.8 lineto
685.9 1625.4 lineto
closepath stroke
grestore
% R1_P2->R2_L4
gsave
1 setlinewidth
0 0 0 edgecolor
newpath 760.12 1655.87 moveto
760.29 1631.67 760.6 1587.21 760.81 1558.39 curveto
stroke
0 0 0 edgecolor
newpath 764.31 1558.21 moveto
760.88 1548.19 lineto
757.31 1558.16 lineto
closepath fill
1 setlinewidth
solid
0 0 0 edgecolor
newpath 764.31 1558.21 moveto
760.88 1548.19 lineto
757.31 1558.16 lineto
closepath stroke
grestore
% R1_P2->R2_P3
gsave
1 setlinewidth
0 0 0 edgecolor
newpath 727.94 1667.5 moveto
696.74 1660.78 649.44 1646.83 617 1620 curveto
549.69 1564.32 514.35 1462.03 500.75 1413.68 curveto
stroke
0 0 0 edgecolor
newpath 504.1 1412.67 moveto
498.1 1403.94 lineto
497.34 1414.51 lineto
closepath fill
1 setlinewidth
solid
0 0 0 edgecolor
newpath 504.1 1412.67 moveto
498.1 1403.94 lineto
497.34 1414.51 lineto
closepath stroke
grestore
% P2_L3->R2_L4
gsave
1 setlinewidth
0 0 0 edgecolor
newpath 679.95 1587.17 moveto
694.93 1576.79 715.66 1562.42 732.4 1550.82 curveto
stroke
0 0 0 edgecolor
newpath 734.52 1553.61 moveto
740.74 1545.04 lineto
730.53 1547.86 lineto
closepath fill
1 setlinewidth
solid
0 0 0 edgecolor
newpath 734.52 1553.61 moveto
740.74 1545.04 lineto
730.53 1547.86 lineto
closepath stroke
grestore
% L3_L4
gsave
0.53333 1 1 nodecolor
761 1458 34.17 18 ellipse_path fill
1 setlinewidth
filled
0 0 0 nodecolor
761 1458 34.17 18 ellipse_path stroke
0 0 1 nodecolor
14 /Times-Roman set_font
742.5 1454.3 moveto 37 (L3_L4) alignedtext
grestore
% P2_L3->L3_L4
gsave
1 setlinewidth
0 0 0 edgecolor
newpath 669.71 1584.52 moveto
680.62 1566.35 699.13 1536.44 717 1512 curveto
724.24 1502.1 732.74 1491.62 740.34 1482.62 curveto
stroke
0 0 0 edgecolor
newpath 743.16 1484.7 moveto
746.99 1474.82 lineto
737.83 1480.16 lineto
closepath fill
1 setlinewidth
solid
0 0 0 edgecolor
newpath 743.16 1484.7 moveto
746.99 1474.82 lineto
737.83 1480.16 lineto
closepath stroke
grestore
% P2_L3->R2_P3
gsave
1 setlinewidth
0 0 0 edgecolor
newpath 646.86 1584.97 moveto
627.56 1561.33 590.53 1515.63 560 1476 curveto
543.35 1454.39 524.9 1429.42 511.75 1411.43 curveto
stroke
0 0 0 edgecolor
newpath 514.47 1409.23 moveto
505.75 1403.21 lineto
508.81 1413.35 lineto
closepath fill
1 setlinewidth
solid
0 0 0 edgecolor
newpath 514.47 1409.23 moveto
505.75 1403.21 lineto
508.81 1413.35 lineto
closepath stroke
grestore
% L3_L6
gsave
0.44298 0.7451 1 nodecolor
798 1242 34.17 18 ellipse_path fill
1 setlinewidth
filled
0 0 0 nodecolor
798 1242 34.17 18 ellipse_path stroke
0 0 1 nodecolor
14 /Times-Roman set_font
779.5 1238.3 moveto 37 (L3_L6) alignedtext
grestore
% P2_L3->L3_L6
gsave
1 setlinewidth
0 0 0 edgecolor
newpath 665.12 1584.15 moveto
670.66 1566.17 679.94 1536.89 689 1512 curveto
721.81 1421.81 766.13 1316.93 786.68 1269.14 curveto
stroke
0 0 0 edgecolor
newpath 789.94 1270.4 moveto
790.69 1259.83 lineto
783.51 1267.63 lineto
closepath fill
1 setlinewidth
solid
0 0 0 edgecolor
newpath 789.94 1270.4 moveto
790.69 1259.83 lineto
783.51 1267.63 lineto
closepath stroke
grestore
% P3_L4
gsave
0.40593 0.63922 1 nodecolor
494 1170 34.17 18 ellipse_path fill
1 setlinewidth
filled
0 0 0 nodecolor
494 1170 34.17 18 ellipse_path stroke
0 0 1 nodecolor
14 /Times-Roman set_font
475.5 1166.3 moveto 37 (P3_L4) alignedtext
grestore
% P2_L3->P3_L4
gsave
1 setlinewidth
0 0 0 edgecolor
newpath 632.95 1590.72 moveto
572.56 1565.81 432 1496.12 432 1387 curveto
432 1387 432 1387 432 1313 curveto
432 1268.77 457.57 1222.78 475.87 1195.54 curveto
stroke
0 0 0 edgecolor
newpath 478.94 1197.26 moveto
481.75 1187.05 lineto
473.18 1193.28 lineto
closepath fill
1 setlinewidth
solid
0 0 0 edgecolor
newpath 478.94 1197.26 moveto
481.75 1187.05 lineto
473.18 1193.28 lineto
closepath stroke
grestore
% R2_L4->L3_L4
gsave
1 setlinewidth
0 0 0 edgecolor
newpath 761 1511.7 moveto
761 1503.98 761 1494.71 761 1486.11 curveto
stroke
0 0 0 edgecolor
newpath 764.5 1486.1 moveto
761 1476.1 lineto
757.5 1486.1 lineto
closepath fill
1 setlinewidth
solid
0 0 0 edgecolor
newpath 764.5 1486.1 moveto
761 1476.1 lineto
757.5 1486.1 lineto
closepath stroke
grestore
% R2_L4->R2_P3
gsave
1 setlinewidth
0 0 0 edgecolor
newpath 729.85 1521.46 moveto
698.02 1513.01 647.76 1497.63 608 1476 curveto
598.57 1470.87 550.91 1432.92 520.28 1408.25 curveto
stroke
0 0 0 edgecolor
newpath 522.12 1405.24 moveto
512.13 1401.69 lineto
517.72 1410.69 lineto
closepath fill
1 setlinewidth
solid
0 0 0 edgecolor
newpath 522.12 1405.24 moveto
512.13 1401.69 lineto
517.72 1410.69 lineto
closepath stroke
grestore
% P4_L5
gsave
0.45731 0.79608 1 nodecolor
950 1314 34.17 18 ellipse_path fill
1 setlinewidth
filled
0 0 0 nodecolor
950 1314 34.17 18 ellipse_path stroke
0 0 1 nodecolor
14 /Times-Roman set_font
931.5 1310.3 moveto 37 (P4_L5) alignedtext
grestore
% R2_L4->P4_L5
gsave
1 setlinewidth
0 0 0 edgecolor
newpath 789.66 1519.64 moveto
812.1 1511.14 842.94 1496.74 864 1476 curveto
903.46 1437.14 929.12 1376.32 941.43 1341.62 curveto
stroke
0 0 0 edgecolor
newpath 944.75 1342.75 moveto
944.69 1332.15 lineto
938.13 1340.47 lineto
closepath fill
1 setlinewidth
solid
0 0 0 edgecolor
newpath 944.75 1342.75 moveto
944.69 1332.15 lineto
938.13 1340.47 lineto
closepath stroke
grestore
% R2_L4->L3_L6
gsave
1 setlinewidth
0 0 0 edgecolor
newpath 777.81 1514.12 moveto
787.5 1504.37 798.77 1490.74 804 1476 curveto
829.11 1405.18 814.64 1314.51 804.79 1270.05 curveto
stroke
0 0 0 edgecolor
newpath 808.14 1268.98 moveto
802.48 1260.03 lineto
801.32 1270.56 lineto
closepath fill
1 setlinewidth
solid
0 0 0 edgecolor
newpath 808.14 1268.98 moveto
802.48 1260.03 lineto
801.32 1270.56 lineto
closepath stroke
grestore
% R2_L4->P3_L4
gsave
1 setlinewidth
0 0 0 edgecolor
newpath 735.51 1517.35 moveto
695.38 1497.05 622 1451.17 622 1387 curveto
622 1387 622 1387 622 1313 curveto
622 1255.85 564.09 1211.33 526.17 1188.32 curveto
stroke
0 0 0 edgecolor
newpath 527.87 1185.25 moveto
517.48 1183.2 lineto
524.32 1191.29 lineto
closepath fill
1 setlinewidth
solid
0 0 0 edgecolor
newpath 527.87 1185.25 moveto
517.48 1183.2 lineto
524.32 1191.29 lineto
closepath stroke
grestore
% R3_P4
gsave
0.40593 0.63922 1 nodecolor
1019 1098 34.17 18 ellipse_path fill
1 setlinewidth
filled
0 0 0 nodecolor
1019 1098 34.17 18 ellipse_path stroke
0 0 1 nodecolor
14 /Times-Roman set_font
1000.5 1094.3 moveto 37 (R3_P4) alignedtext
grestore
% R2_L4->R3_P4
gsave
1 setlinewidth
0 0 0 edgecolor
newpath 795.5 1526.73 moveto
908.92 1518.35 1263 1484.37 1263 1387 curveto
1263 1387 1263 1387 1263 1241 curveto
1263 1149.28 1132.61 1115.77 1062.46 1104.39 curveto
stroke
0 0 0 edgecolor
newpath 1062.58 1100.86 moveto
1052.16 1102.8 lineto
1061.51 1107.78 lineto
closepath fill
1 setlinewidth
solid
0 0 0 edgecolor
newpath 1062.58 1100.86 moveto
1052.16 1102.8 lineto
1061.51 1107.78 lineto
closepath stroke
grestore
% L3_L4->R2_P3
gsave
1 setlinewidth
0 0 0 edgecolor
newpath 731.15 1449.17 moveto
682.95 1436.54 587.96 1411.63 533.97 1397.48 curveto
stroke
0 0 0 edgecolor
newpath 534.63 1394.03 moveto
524.07 1394.88 lineto
532.85 1400.8 lineto
closepath fill
1 setlinewidth
solid
0 0 0 edgecolor
newpath 534.63 1394.03 moveto
524.07 1394.88 lineto
532.85 1400.8 lineto
closepath stroke
grestore
% L3_L4->P4_L5
gsave
1 setlinewidth
0 0 0 edgecolor
newpath 779.81 1442.87 moveto
813.49 1417.56 884.19 1364.44 923.03 1335.26 curveto
stroke
0 0 0 edgecolor
newpath 925.37 1337.88 moveto
931.26 1329.08 lineto
921.17 1332.29 lineto
closepath fill
1 setlinewidth
solid
0 0 0 edgecolor
newpath 925.37 1337.88 moveto
931.26 1329.08 lineto
921.17 1332.29 lineto
closepath stroke
grestore
% L3_L4->L3_L6
gsave
1 setlinewidth
0 0 0 edgecolor
newpath 763.97 1439.85 moveto
770.38 1402.74 785.6 1314.75 793.32 1270.05 curveto
stroke
0 0 0 edgecolor
newpath 796.82 1270.39 moveto
795.07 1259.94 lineto
789.92 1269.19 lineto
closepath fill
1 setlinewidth
solid
0 0 0 edgecolor
newpath 796.82 1270.39 moveto
795.07 1259.94 lineto
789.92 1269.19 lineto
closepath stroke
grestore
% L3_L4->P3_L4
gsave
1 setlinewidth
0 0 0 edgecolor
newpath 756.44 1440 moveto
744.22 1397.53 706.71 1285.75 636 1224 curveto
631.83 1220.36 571.89 1198.64 531.23 1184.16 curveto
stroke
0 0 0 edgecolor
newpath 532.2 1180.79 moveto
521.61 1180.74 lineto
529.86 1187.39 lineto
closepath fill
1 setlinewidth
solid
0 0 0 edgecolor
newpath 532.2 1180.79 moveto
521.61 1180.74 lineto
529.86 1187.39 lineto
closepath stroke
grestore
% L3_L4->R3_P4
gsave
1 setlinewidth
0 0 0 edgecolor
newpath 794.07 1453.22 moveto
894.16 1440.89 1187 1397.73 1187 1315 curveto
1187 1315 1187 1315 1187 1241 curveto
1187 1173.33 1106.52 1131.31 1056.96 1111.85 curveto
stroke
0 0 0 edgecolor
newpath 1058.09 1108.53 moveto
1047.5 1108.26 lineto
1055.61 1115.08 lineto
closepath fill
1 setlinewidth
solid
0 0 0 edgecolor
newpath 1058.09 1108.53 moveto
1047.5 1108.26 lineto
1055.61 1115.08 lineto
closepath stroke
grestore
% R2_P3->P4_L5
gsave
1 setlinewidth
0 0 0 edgecolor
newpath 528.02 1383.02 moveto
598.59 1378.37 765.67 1364.61 902 1332 curveto
905.86 1331.08 909.83 1329.96 913.77 1328.74 curveto
stroke
0 0 0 edgecolor
newpath 915 1332.02 moveto
923.39 1325.55 lineto
912.8 1325.37 lineto
closepath fill
1 setlinewidth
solid
0 0 0 edgecolor
newpath 915 1332.02 moveto
923.39 1325.55 lineto
912.8 1325.37 lineto
closepath stroke
grestore
% R2_P3->L3_L6
gsave
1 setlinewidth
0 0 0 edgecolor
newpath 518.88 1373.38 moveto
573.12 1348.04 702.12 1287.79 763.89 1258.93 curveto
stroke
0 0 0 edgecolor
newpath 765.63 1261.99 moveto
773.21 1254.58 lineto
762.66 1255.64 lineto
closepath fill
1 setlinewidth
solid
0 0 0 edgecolor
newpath 765.63 1261.99 moveto
773.21 1254.58 lineto
762.66 1255.64 lineto
closepath stroke
grestore
% R2_P3->P3_L4
gsave
1 setlinewidth
0 0 0 edgecolor
newpath 494 1367.85 moveto
494 1330.83 494 1243.18 494 1198.39 curveto
stroke
0 0 0 edgecolor
newpath 497.5 1198.23 moveto
494 1188.23 lineto
490.5 1198.23 lineto
closepath fill
1 setlinewidth
solid
0 0 0 edgecolor
newpath 497.5 1198.23 moveto
494 1188.23 lineto
490.5 1198.23 lineto
closepath stroke
grestore
% R2_P3->R3_P4
gsave
1 setlinewidth
0 0 0 edgecolor
newpath 522.99 1376.41 moveto
556.29 1366.4 612.43 1349.03 660 1332 curveto
741.51 1302.82 766.28 1303.72 841 1260 curveto
884.91 1234.31 892.18 1222.04 930 1188 curveto
953.88 1166.51 979.68 1140.36 997.32 1121.98 curveto
stroke
0 0 0 edgecolor
newpath 999.98 1124.26 moveto
1004.35 1114.61 lineto
994.92 1119.43 lineto
closepath fill
1 setlinewidth
solid
0 0 0 edgecolor
newpath 999.98 1124.26 moveto
1004.35 1114.61 lineto
994.92 1119.43 lineto
closepath stroke
grestore
% R4_P5
gsave
0.32443 0.51373 1 nodecolor
746 1026 34.17 18 ellipse_path fill
1 setlinewidth
filled
0 0 0 nodecolor
746 1026 34.17 18 ellipse_path stroke
0 0 1 nodecolor
14 /Times-Roman set_font
727.5 1022.3 moveto 37 (R4_P5) alignedtext
grestore
% R2_P3->R4_P5
gsave
1 setlinewidth
0 0 0 edgecolor
newpath 505.48 1368.69 moveto
545.75 1311.48 680.71 1119.75 728.8 1051.43 curveto
stroke
0 0 0 edgecolor
newpath 731.84 1053.19 moveto
734.74 1043 lineto
726.12 1049.16 lineto
closepath fill
1 setlinewidth
solid
0 0 0 edgecolor
newpath 731.84 1053.19 moveto
734.74 1043 lineto
726.12 1049.16 lineto
closepath stroke
grestore
% P5_L6
gsave
0.29514 0.56471 1 nodecolor
594 954 34.17 18 ellipse_path fill
1 setlinewidth
filled
0 0 0 nodecolor
594 954 34.17 18 ellipse_path stroke
0 0 1 nodecolor
14 /Times-Roman set_font
575.5 950.3 moveto 37 (P5_L6) alignedtext
grestore
% R2_P3->P5_L6
gsave
1 setlinewidth
0 0 0 edgecolor
newpath 463.47 1377.4 moveto
409.76 1361.99 304 1321.65 304 1243 curveto
304 1243 304 1243 304 1169 curveto
304 1046.44 473.77 986.15 553.52 964.59 curveto
stroke
0 0 0 edgecolor
newpath 554.46 967.96 moveto
563.24 962.03 lineto
552.68 961.19 lineto
closepath fill
1 setlinewidth
solid
0 0 0 edgecolor
newpath 554.46 967.96 moveto
563.24 962.03 lineto
552.68 961.19 lineto
closepath stroke
grestore
% R4_L7
gsave
0.26074 0.63922 1 nodecolor
760 882 35.15 18 ellipse_path fill
1 setlinewidth
filled
0 0 0 nodecolor
760 882 35.15 18 ellipse_path stroke
0 0 1 nodecolor
14 /Times-Roman set_font
741 878.3 moveto 38 (R4_L7) alignedtext
grestore
% R2_P3->R4_L7
gsave
1 setlinewidth
0 0 0 edgecolor
newpath 460.63 1381.97 moveto
423 1377.05 361.64 1364.36 320 1332 curveto
283.47 1303.61 266 1289.27 266 1243 curveto
266 1243 266 1243 266 1169 curveto
266 962.21 594.22 902.51 715.58 887.51 curveto
stroke
0 0 0 edgecolor
newpath 716.14 890.97 moveto
725.66 886.31 lineto
715.31 884.02 lineto
closepath fill
1 setlinewidth
solid
0 0 0 edgecolor
newpath 716.14 890.97 moveto
725.66 886.31 lineto
715.31 884.02 lineto
closepath stroke
grestore
% R5_L7
gsave
0.23224 0.71765 1 nodecolor
829 810 35.15 18 ellipse_path fill
1 setlinewidth
filled
0 0 0 nodecolor
829 810 35.15 18 ellipse_path stroke
0 0 1 nodecolor
14 /Times-Roman set_font
810 806.3 moveto 38 (R5_L7) alignedtext
grestore
% R2_P3->R5_L7
gsave
1 setlinewidth
0 0 0 edgecolor
newpath 459.75 1384.75 moveto
413.91 1382.75 332.11 1373.12 278 1332 curveto
241.88 1304.55 228 1288.37 228 1243 curveto
228 1243 228 1243 228 1097 curveto
228 851.21 642.92 816.42 783.25 811.68 curveto
stroke
0 0 0 edgecolor
newpath 783.76 815.17 moveto
793.65 811.37 lineto
783.55 808.17 lineto
closepath fill
1 setlinewidth
solid
0 0 0 edgecolor
newpath 783.76 815.17 moveto
793.65 811.37 lineto
783.55 808.17 lineto
closepath stroke
grestore
% L6_R3
gsave
0.22368 0.7451 1 nodecolor
545 738 35.15 18 ellipse_path fill
1 setlinewidth
filled
0 0 0 nodecolor
545 738 35.15 18 ellipse_path stroke
0 0 1 nodecolor
14 /Times-Roman set_font
526 734.3 moveto 38 (L6_R3) alignedtext
grestore
% R2_P3->L6_R3
gsave
1 setlinewidth
0 0 0 edgecolor
newpath 460.55 1381.6 moveto
399.47 1374.83 272.94 1358.03 238 1332 curveto
201.96 1305.16 190 1287.94 190 1243 curveto
190 1243 190 1243 190 953 curveto
190 809.24 406.16 759.53 501.13 744.63 curveto
stroke
0 0 0 edgecolor
newpath 501.92 748.05 moveto
511.28 743.1 lineto
500.87 741.13 lineto
closepath fill
1 setlinewidth
solid
0 0 0 edgecolor
newpath 501.92 748.05 moveto
511.28 743.1 lineto
500.87 741.13 lineto
closepath stroke
grestore
% R5_P6
gsave
0.11634 1 1 nodecolor
622 666 34.17 18 ellipse_path fill
1 setlinewidth
filled
0 0 0 nodecolor
622 666 34.17 18 ellipse_path stroke
0 0 1 nodecolor
14 /Times-Roman set_font
603.5 662.3 moveto 37 (R5_P6) alignedtext
grestore
% R2_P3->R5_P6
gsave
1 setlinewidth
0 0 0 edgecolor
newpath 459.87 1383.77 moveto
403.44 1380.69 288.07 1369.87 199 1332 curveto
136.9 1305.59 76 1310.48 76 1243 curveto
76 1243 76 1243 76 1025 curveto
76 851.96 168.38 806.94 318 720 curveto
361.54 694.7 505.09 677.97 578.27 670.88 curveto
stroke
0 0 0 edgecolor
newpath 578.91 674.33 moveto
588.53 669.9 lineto
578.25 667.36 lineto
closepath fill
1 setlinewidth
solid
0 0 0 edgecolor
newpath 578.91 674.33 moveto
588.53 669.9 lineto
578.25 667.36 lineto
closepath stroke
grestore
% P6_L7
gsave
0.1085 1 1 nodecolor
394 594 34.17 18 ellipse_path fill
1 setlinewidth
filled
0 0 0 nodecolor
394 594 34.17 18 ellipse_path stroke
0 0 1 nodecolor
14 /Times-Roman set_font
375.5 590.3 moveto 37 (P6_L7) alignedtext
grestore
% R2_P3->P6_L7
gsave
1 setlinewidth
0 0 0 edgecolor
newpath 459.89 1383.89 moveto
375.66 1380.61 160.24 1368.77 100 1332 curveto
58.85 1306.88 38 1291.21 38 1243 curveto
38 1243 38 1243 38 737 curveto
38 691.41 51.67 674.16 89 648 curveto
130.43 618.97 275.84 603.98 349.92 598.07 curveto
stroke
0 0 0 edgecolor
newpath 350.61 601.53 moveto
360.31 597.27 lineto
350.07 594.55 lineto
closepath fill
1 setlinewidth
solid
0 0 0 edgecolor
newpath 350.61 601.53 moveto
360.31 597.27 lineto
350.07 594.55 lineto
closepath stroke
grestore
% L6_L8
gsave
0.1085 1 1 nodecolor
722 522 34.17 18 ellipse_path fill
1 setlinewidth
filled
0 0 0 nodecolor
722 522 34.17 18 ellipse_path stroke
0 0 1 nodecolor
14 /Times-Roman set_font
703.5 518.3 moveto 37 (L6_L8) alignedtext
grestore
% R2_P3->L6_L8
gsave
1 setlinewidth
0 0 0 edgecolor
newpath 459.77 1384.83 moveto
367.68 1383.79 117.06 1376.79 50 1332 curveto
12.27 1306.8 0 1288.37 0 1243 curveto
0 1243 0 1243 0 665 curveto
0 526.23 520.01 520.72 677.4 522.24 curveto
stroke
0 0 0 edgecolor
newpath 677.62 525.74 moveto
687.66 522.35 lineto
677.7 518.74 lineto
closepath fill
1 setlinewidth
solid
0 0 0 edgecolor
newpath 677.62 525.74 moveto
687.66 522.35 lineto
677.7 518.74 lineto
closepath stroke
grestore
% P4_L5->L3_L6
gsave
1 setlinewidth
0 0 0 edgecolor
newpath 924.9 1301.44 moveto
899.52 1289.75 860.13 1271.61 831.97 1258.64 curveto
stroke
0 0 0 edgecolor
newpath 833.43 1255.46 moveto
822.88 1254.46 lineto
830.5 1261.82 lineto
closepath fill
1 setlinewidth
solid
0 0 0 edgecolor
newpath 833.43 1255.46 moveto
822.88 1254.46 lineto
830.5 1261.82 lineto
closepath stroke
grestore
% P4_L5->P3_L4
gsave
1 setlinewidth
0 0 0 edgecolor
newpath 917.37 1308.53 moveto
877.32 1302.09 808.18 1287.77 755 1260 curveto
732.91 1248.46 734.41 1234.91 712 1224 curveto
642.55 1190.21 616.34 1208.94 542 1188 curveto
538.23 1186.94 534.33 1185.74 530.45 1184.47 curveto
stroke
0 0 0 edgecolor
newpath 531.56 1181.15 moveto
520.96 1181.25 lineto
529.31 1187.78 lineto
closepath fill
1 setlinewidth
solid
0 0 0 edgecolor
newpath 531.56 1181.15 moveto
520.96 1181.25 lineto
529.31 1187.78 lineto
closepath stroke
grestore
% P4_L5->R3_P4
gsave
1 setlinewidth
0 0 0 edgecolor
newpath 973.78 1300.81 moveto
989.42 1291.62 1009.12 1277.59 1021 1260 curveto
1048.27 1219.61 1049.14 1199.87 1040 1152 curveto
1038.27 1142.92 1035 1133.4 1031.55 1124.98 curveto
stroke
0 0 0 edgecolor
newpath 1034.71 1123.46 moveto
1027.5 1115.69 lineto
1028.29 1126.26 lineto
closepath fill
1 setlinewidth
solid
0 0 0 edgecolor
newpath 1034.71 1123.46 moveto
1027.5 1115.69 lineto
1028.29 1126.26 lineto
closepath stroke
grestore
% P4_L5->R4_P5
gsave
1 setlinewidth
0 0 0 edgecolor
newpath 954.14 1295.84 moveto
963.25 1253.48 980.18 1142.82 926 1080 curveto
883.76 1031.02 846.18 1064.99 785 1044 curveto
783.56 1043.51 782.1 1042.98 780.63 1042.43 curveto
stroke
0 0 0 edgecolor
newpath 781.53 1039.02 moveto
770.94 1038.58 lineto
778.94 1045.53 lineto
closepath fill
1 setlinewidth
solid
0 0 0 edgecolor
newpath 781.53 1039.02 moveto
770.94 1038.58 lineto
778.94 1045.53 lineto
closepath stroke
grestore
% P4_L5->P5_L6
gsave
1 setlinewidth
0 0 0 edgecolor
newpath 936.41 1297.43 moveto
895.95 1251.4 772.09 1112.61 659 1008 curveto
646.84 996.75 632.65 985.04 620.64 975.49 curveto
stroke
0 0 0 edgecolor
newpath 622.75 972.69 moveto
612.73 969.26 lineto
618.42 978.19 lineto
closepath fill
1 setlinewidth
solid
0 0 0 edgecolor
newpath 622.75 972.69 moveto
612.73 969.26 lineto
618.42 978.19 lineto
closepath stroke
grestore
% P4_L5->R4_L7
gsave
1 setlinewidth
0 0 0 edgecolor
newpath 979.95 1305.22 moveto
1051.23 1284.72 1225 1222.11 1225 1099 curveto
1225 1099 1225 1099 1225 1025 curveto
1225 937.53 920.25 898.62 804.17 886.97 curveto
stroke
0 0 0 edgecolor
newpath 804.49 883.49 moveto
794.19 885.99 lineto
803.8 890.45 lineto
closepath fill
1 setlinewidth
solid
0 0 0 edgecolor
newpath 804.49 883.49 moveto
794.19 885.99 lineto
803.8 890.45 lineto
closepath stroke
grestore
% L3_L6->P3_L4
gsave
1 setlinewidth
0 0 0 edgecolor
newpath 771.34 1230.66 moveto
764.46 1228.24 757.01 1225.83 750 1224 curveto
659.24 1200.25 632.76 1211.75 542 1188 curveto
538.16 1187 534.2 1185.82 530.27 1184.57 curveto
stroke
0 0 0 edgecolor
newpath 531.25 1181.21 moveto
520.66 1181.34 lineto
529.03 1187.84 lineto
closepath fill
1 setlinewidth
solid
0 0 0 edgecolor
newpath 531.25 1181.21 moveto
520.66 1181.34 lineto
529.03 1187.84 lineto
closepath stroke
grestore
% L3_L6->R3_P4
gsave
1 setlinewidth
0 0 0 edgecolor
newpath 820.43 1228.33 moveto
838.79 1217.83 865.33 1202.36 888 1188 curveto
924.11 1165.14 964.66 1137.23 990.95 1118.83 curveto
stroke
0 0 0 edgecolor
newpath 993.12 1121.58 moveto
999.29 1112.98 lineto
989.1 1115.85 lineto
closepath fill
1 setlinewidth
solid
0 0 0 edgecolor
newpath 993.12 1121.58 moveto
999.29 1112.98 lineto
989.1 1115.85 lineto
closepath stroke
grestore
% L3_L6->R4_P5
gsave
1 setlinewidth
0 0 0 edgecolor
newpath 797.33 1223.64 moveto
795.74 1193.65 790.56 1130.48 774 1080 curveto
770.9 1070.56 766.22 1060.79 761.57 1052.25 curveto
stroke
0 0 0 edgecolor
newpath 764.6 1050.49 moveto
756.61 1043.54 lineto
758.51 1053.96 lineto
closepath fill
1 setlinewidth
solid
0 0 0 edgecolor
newpath 764.6 1050.49 moveto
756.61 1043.54 lineto
758.51 1053.96 lineto
closepath stroke
grestore
% L3_L6->P5_L6
gsave
1 setlinewidth
0 0 0 edgecolor
newpath 786.45 1224.8 moveto
752.36 1177.02 652.08 1036.42 611.42 979.42 curveto
stroke
0 0 0 edgecolor
newpath 614.08 977.13 moveto
605.43 971.02 lineto
608.38 981.19 lineto
closepath fill
1 setlinewidth
solid
0 0 0 edgecolor
newpath 614.08 977.13 moveto
605.43 971.02 lineto
608.38 981.19 lineto
closepath stroke
grestore
% L3_L6->R4_L7
gsave
1 setlinewidth
0 0 0 edgecolor
newpath 801.65 1223.91 moveto
803.68 1213.57 805.98 1200.09 807 1188 curveto
808.34 1172.06 807.99 1167.97 807 1152 curveto
802.99 1087.63 800.3 1071.5 789 1008 curveto
782.92 973.84 773.5 934.98 767.06 909.78 curveto
stroke
0 0 0 edgecolor
newpath 770.39 908.67 moveto
764.5 899.87 lineto
763.61 910.43 lineto
closepath fill
1 setlinewidth
solid
0 0 0 edgecolor
newpath 770.39 908.67 moveto
764.5 899.87 lineto
763.61 910.43 lineto
closepath stroke
grestore
% L3_L6->R5_L7
gsave
1 setlinewidth
0 0 0 edgecolor
newpath 807.62 1224.43 moveto
812.97 1214.28 819.11 1200.81 822 1188 curveto
850.88 1059.99 838.82 901.29 832.23 838.46 curveto
stroke
0 0 0 edgecolor
newpath 835.68 837.76 moveto
831.11 828.2 lineto
828.72 838.52 lineto
closepath fill
1 setlinewidth
solid
0 0 0 edgecolor
newpath 835.68 837.76 moveto
831.11 828.2 lineto
828.72 838.52 lineto
closepath stroke
grestore
% L3_L6->L6_R3
gsave
1 setlinewidth
0 0 0 edgecolor
newpath 777.6 1227.44 moveto
727.07 1192.45 596.87 1093.27 551 972 curveto
524.42 901.72 533.24 810.81 540.09 766.17 curveto
stroke
0 0 0 edgecolor
newpath 543.58 766.54 moveto
541.73 756.11 lineto
536.67 765.42 lineto
closepath fill
1 setlinewidth
solid
0 0 0 edgecolor
newpath 543.58 766.54 moveto
541.73 756.11 lineto
536.67 765.42 lineto
closepath stroke
grestore
% L3_L6->R5_P6
gsave
1 setlinewidth
0 0 0 edgecolor
newpath 769.71 1231.52 moveto
745.19 1222.52 709.44 1207.49 682 1188 curveto
533.48 1082.5 519.35 1007.1 486 828 curveto
477.21 780.8 456.81 759.57 484 720 curveto
504.98 689.46 546.19 676.51 578.14 671.02 curveto
stroke
0 0 0 edgecolor
newpath 578.79 674.46 moveto
588.15 669.49 lineto
577.73 667.55 lineto
closepath fill
1 setlinewidth
solid
0 0 0 edgecolor
newpath 578.79 674.46 moveto
588.15 669.49 lineto
577.73 667.55 lineto
closepath stroke
grestore
% L3_L6->P6_L7
gsave
1 setlinewidth
0 0 0 edgecolor
newpath 763.54 1241.88 moveto
668.74 1242.68 399.3 1233.76 222 1116 curveto
96.81 1032.85 76 961.29 76 811 curveto
76 811 76 811 76 737 curveto
76 618.62 262.01 598.26 349.5 595.22 curveto
stroke
0 0 0 edgecolor
newpath 349.77 598.72 moveto
359.67 594.94 lineto
349.57 591.72 lineto
closepath fill
1 setlinewidth
solid
0 0 0 edgecolor
newpath 349.77 598.72 moveto
359.67 594.94 lineto
349.57 591.72 lineto
closepath stroke
grestore
% L3_L6->L6_L8
gsave
1 setlinewidth
0 0 0 edgecolor
newpath 827.31 1232.61 moveto
879.16 1216.67 988.52 1177.93 1062 1116 curveto
1152.72 1039.55 1169.08 981.09 1150 864 curveto
1121.53 689.32 1034.64 652.41 875 576 curveto
837.82 558.2 793.04 543.41 761.56 534.01 curveto
stroke
0 0 0 edgecolor
newpath 762.41 530.61 moveto
751.83 531.15 lineto
760.44 537.33 lineto
closepath fill
1 setlinewidth
solid
0 0 0 edgecolor
newpath 762.41 530.61 moveto
751.83 531.15 lineto
760.44 537.33 lineto
closepath stroke
grestore
% P3_L4->R3_P4
gsave
1 setlinewidth
0 0 0 edgecolor
newpath 526.84 1164.62 moveto
617.99 1152.47 874.12 1118.32 976.21 1104.71 curveto
stroke
0 0 0 edgecolor
newpath 976.72 1108.17 moveto
986.17 1103.38 lineto
975.8 1101.23 lineto
closepath fill
1 setlinewidth
solid
0 0 0 edgecolor
newpath 976.72 1108.17 moveto
986.17 1103.38 lineto
975.8 1101.23 lineto
closepath stroke
grestore
% P3_L4->R4_P5
gsave
1 setlinewidth
0 0 0 edgecolor
newpath 522.07 1159.5 moveto
548.59 1150.03 589.1 1134.3 622 1116 curveto
658.05 1095.95 696.1 1067.38 720.39 1048.06 curveto
stroke
0 0 0 edgecolor
newpath 722.78 1050.64 moveto
728.39 1041.65 lineto
718.4 1045.18 lineto
closepath fill
1 setlinewidth
solid
0 0 0 edgecolor
newpath 722.78 1050.64 moveto
728.39 1041.65 lineto
718.4 1045.18 lineto
closepath stroke
grestore
% P3_L4->P5_L6
gsave
1 setlinewidth
0 0 0 edgecolor
newpath 501.85 1152.21 moveto
519.23 1115.02 561.06 1025.48 581.85 980.99 curveto
stroke
0 0 0 edgecolor
newpath 585.13 982.26 moveto
586.19 971.71 lineto
578.79 979.29 lineto
closepath fill
1 setlinewidth
solid
0 0 0 edgecolor
newpath 585.13 982.26 moveto
586.19 971.71 lineto
578.79 979.29 lineto
closepath stroke
grestore
% P3_L4->R4_L7
gsave
1 setlinewidth
0 0 0 edgecolor
newpath 508.3 1153.62 moveto
552.41 1106.2 686.53 962 738.81 905.78 curveto
stroke
0 0 0 edgecolor
newpath 741.38 908.16 moveto
745.63 898.45 lineto
736.25 903.39 lineto
closepath fill
1 setlinewidth
solid
0 0 0 edgecolor
newpath 741.38 908.16 moveto
745.63 898.45 lineto
736.25 903.39 lineto
closepath stroke
grestore
% P3_L4->R5_L7
gsave
1 setlinewidth
0 0 0 edgecolor
newpath 494.05 1151.75 moveto
494.98 1110.57 502.31 1004.85 551 936 curveto
606.14 858.04 721.68 827.87 785.07 816.86 curveto
stroke
0 0 0 edgecolor
newpath 785.85 820.28 moveto
795.15 815.2 lineto
784.71 813.37 lineto
closepath fill
1 setlinewidth
solid
0 0 0 edgecolor
newpath 785.85 820.28 moveto
795.15 815.2 lineto
784.71 813.37 lineto
closepath stroke
grestore
% P3_L4->L6_R3
gsave
1 setlinewidth
0 0 0 edgecolor
newpath 485.39 1152.28 moveto
462.45 1105.43 404.16 969.41 442 864 curveto
457.26 821.49 493.92 783.12 519.11 760.42 curveto
stroke
0 0 0 edgecolor
newpath 521.65 762.85 moveto
526.85 753.62 lineto
517.03 757.6 lineto
closepath fill
1 setlinewidth
solid
0 0 0 edgecolor
newpath 521.65 762.85 moveto
526.85 753.62 lineto
517.03 757.6 lineto
closepath stroke
grestore
% P3_L4->R5_P6
gsave
1 setlinewidth
0 0 0 edgecolor
newpath 475.54 1154.74 moveto
414.51 1105.76 226.63 939.32 290 792 curveto
299.19 770.63 345.38 730.77 366 720 curveto
434.27 684.35 524.51 672.67 577.6 668.85 curveto
stroke
0 0 0 edgecolor
newpath 577.96 672.34 moveto
587.71 668.19 lineto
577.5 665.35 lineto
closepath fill
1 setlinewidth
solid
0 0 0 edgecolor
newpath 577.96 672.34 moveto
587.71 668.19 lineto
577.5 665.35 lineto
closepath stroke
grestore
% P3_L4->P6_L7
gsave
1 setlinewidth
0 0 0 edgecolor
newpath 467.76 1158.35 moveto
446.6 1149.02 416.73 1134.14 394 1116 curveto
361 1089.66 356.34 1078.51 332 1044 curveto
310.78 1013.91 304.48 1006.27 291 972 curveto
278.96 941.4 277.8 932.66 274 900 curveto
271.56 879.01 274.22 798.1 276 792 curveto
296.04 723.26 346.04 654.01 374.1 618.8 curveto
stroke
0 0 0 edgecolor
newpath 376.84 620.98 moveto
380.4 611 lineto
371.39 616.58 lineto
closepath fill
1 setlinewidth
solid
0 0 0 edgecolor
newpath 376.84 620.98 moveto
380.4 611 lineto
371.39 616.58 lineto
closepath stroke
grestore
% P3_L4->L6_L8
gsave
1 setlinewidth
0 0 0 edgecolor
newpath 461.21 1164.42 moveto
375.61 1150.42 152 1099.98 152 955 curveto
152 955 152 955 152 881 curveto
152 650.31 361.93 671.33 572 576 curveto
608.72 559.34 652.34 544.44 683.05 534.72 curveto
stroke
0 0 0 edgecolor
newpath 684.44 537.95 moveto
692.94 531.62 lineto
682.35 531.27 lineto
closepath fill
1 setlinewidth
solid
0 0 0 edgecolor
newpath 684.44 537.95 moveto
692.94 531.62 lineto
682.35 531.27 lineto
closepath stroke
grestore
% R3_P4->R4_P5
gsave
1 setlinewidth
0 0 0 edgecolor
newpath 990.6 1087.68 moveto
982.09 1085.03 972.71 1082.26 964 1080 curveto
889.25 1060.58 868.34 1064.94 794 1044 curveto
790.23 1042.94 786.33 1041.74 782.45 1040.47 curveto
stroke
0 0 0 edgecolor
newpath 783.56 1037.15 moveto
772.96 1037.25 lineto
781.31 1043.78 lineto
closepath fill
1 setlinewidth
solid
0 0 0 edgecolor
newpath 783.56 1037.15 moveto
772.96 1037.25 lineto
781.31 1043.78 lineto
closepath stroke
grestore
% R3_P4->P5_L6
gsave
1 setlinewidth
0 0 0 edgecolor
newpath 990.75 1087.67 moveto
960.6 1077.55 911.56 1060.6 870 1044 curveto
833.41 1029.39 826.12 1021.2 789 1008 curveto
736.7 989.39 674.56 973.54 634.72 964.15 curveto
stroke
0 0 0 edgecolor
newpath 635.38 960.71 moveto
624.84 961.84 lineto
633.79 967.52 lineto
closepath fill
1 setlinewidth
solid
0 0 0 edgecolor
newpath 635.38 960.71 moveto
624.84 961.84 lineto
633.79 967.52 lineto
closepath stroke
grestore
% R3_P4->R4_L7
gsave
1 setlinewidth
0 0 0 edgecolor
newpath 999.13 1083.29 moveto
984.25 1072.85 963.52 1057.95 946 1044 curveto
888.82 998.49 877.33 983.74 822 936 curveto
809.92 925.58 796.47 914.07 785.19 904.44 curveto
stroke
0 0 0 edgecolor
newpath 787.29 901.63 moveto
777.41 897.81 lineto
782.75 906.96 lineto
closepath fill
1 setlinewidth
solid
0 0 0 edgecolor
newpath 787.29 901.63 moveto
777.41 897.81 lineto
782.75 906.96 lineto
closepath stroke
grestore
% R3_P4->R5_L7
gsave
1 setlinewidth
0 0 0 edgecolor
newpath 1006.52 1081.09 moveto
999.08 1070.95 989.96 1057.28 984 1044 curveto
950.08 968.47 988.43 928.08 936 864 curveto
919.19 843.46 892.43 830.2 869.87 822.09 curveto
stroke
0 0 0 edgecolor
newpath 870.77 818.7 moveto
860.18 818.82 lineto
868.53 825.33 lineto
closepath fill
1 setlinewidth
solid
0 0 0 edgecolor
newpath 870.77 818.7 moveto
860.18 818.82 lineto
868.53 825.33 lineto
closepath stroke
grestore
% R3_P4->L6_R3
gsave
1 setlinewidth
0 0 0 edgecolor
newpath 1018.5 1079.99 moveto
1016.57 1039.34 1007.12 934.7 961 864 curveto
933.39 821.68 919.08 812.74 873 792 curveto
778.83 749.61 655.95 740.59 590.58 739 curveto
stroke
0 0 0 edgecolor
newpath 590.28 735.49 moveto
580.21 738.8 lineto
590.14 742.49 lineto
closepath fill
1 setlinewidth
solid
0 0 0 edgecolor
newpath 590.28 735.49 moveto
580.21 738.8 lineto
590.14 742.49 lineto
closepath stroke
grestore
% R3_P4->R5_P6
gsave
1 setlinewidth
0 0 0 edgecolor
newpath 1020.96 1079.89 moveto
1024.77 1039.03 1029.24 933.97 985 864 curveto
923.93 767.42 877.25 764.51 772 720 curveto
727.72 701.28 715.32 700.02 670 684 curveto
666.5 682.76 662.86 681.48 659.22 680.19 curveto
stroke
0 0 0 edgecolor
newpath 660.26 676.84 moveto
649.66 676.8 lineto
657.92 683.44 lineto
closepath fill
1 setlinewidth
solid
0 0 0 edgecolor
newpath 660.26 676.84 moveto
649.66 676.8 lineto
657.92 683.44 lineto
closepath stroke
grestore
% R3_P4->P6_L7
gsave
1 setlinewidth
0 0 0 edgecolor
newpath 1035.4 1081.69 moveto
1059.59 1057.36 1102 1007.26 1102 955 curveto
1102 955 1102 955 1102 881 curveto
1102 660.9 875.12 713.53 665 648 curveto
586.32 623.46 491.1 607.98 437.03 600.46 curveto
stroke
0 0 0 edgecolor
newpath 437.49 596.99 moveto
427.11 599.1 lineto
436.54 603.92 lineto
closepath fill
1 setlinewidth
solid
0 0 0 edgecolor
newpath 437.49 596.99 moveto
427.11 599.1 lineto
436.54 603.92 lineto
closepath stroke
grestore
% R3_P4->L6_L8
gsave
1 setlinewidth
0 0 0 edgecolor
newpath 1043.14 1085.04 moveto
1059.37 1075.86 1080.07 1061.76 1093 1044 curveto
1158.99 953.35 1150.62 894.43 1105 792 curveto
1088.17 754.21 1077.23 747.13 1046 720 curveto
951.42 637.83 818.4 568.96 756.36 539.02 curveto
stroke
0 0 0 edgecolor
newpath 757.56 535.72 moveto
747.03 534.56 lineto
754.54 542.03 lineto
closepath fill
1 setlinewidth
solid
0 0 0 edgecolor
newpath 757.56 535.72 moveto
747.03 534.56 lineto
754.54 542.03 lineto
closepath stroke
grestore
% R4_P5->P5_L6
gsave
1 setlinewidth
0 0 0 edgecolor
newpath 720.9 1013.44 moveto
695.52 1001.75 656.13 983.61 627.97 970.64 curveto
stroke
0 0 0 edgecolor
newpath 629.43 967.46 moveto
618.88 966.46 lineto
626.5 973.82 lineto
closepath fill
1 setlinewidth
solid
0 0 0 edgecolor
newpath 629.43 967.46 moveto
618.88 966.46 lineto
626.5 973.82 lineto
closepath stroke
grestore
% R4_P5->R4_L7
gsave
1 setlinewidth
0 0 0 edgecolor
newpath 747.69 1007.87 moveto
750.07 983.67 754.46 939.21 757.3 910.39 curveto
stroke
0 0 0 edgecolor
newpath 760.81 910.48 moveto
758.31 900.19 lineto
753.84 909.8 lineto
closepath fill
1 setlinewidth
solid
0 0 0 edgecolor
newpath 760.81 910.48 moveto
758.31 900.19 lineto
753.84 909.8 lineto
closepath stroke
grestore
% R4_P5->R5_L7
gsave
1 setlinewidth
0 0 0 edgecolor
newpath 754.76 1008.38 moveto
766.96 984.77 789.23 939.94 804 900 curveto
811.58 879.49 818.18 855.6 822.69 837.74 curveto
stroke
0 0 0 edgecolor
newpath 826.09 838.54 moveto
825.09 827.99 lineto
819.3 836.86 lineto
closepath fill
1 setlinewidth
solid
0 0 0 edgecolor
newpath 826.09 838.54 moveto
825.09 827.99 lineto
819.3 836.86 lineto
closepath stroke
grestore
% R4_P5->R5_P6
gsave
1 setlinewidth
0 0 0 edgecolor
newpath 740.19 1008.21 moveto
720.37 951.02 655.4 763.43 631.2 693.55 curveto
stroke
0 0 0 edgecolor
newpath 634.38 692.05 moveto
627.8 683.75 lineto
627.77 694.35 lineto
closepath fill
1 setlinewidth
solid
0 0 0 edgecolor
newpath 634.38 692.05 moveto
627.8 683.75 lineto
627.77 694.35 lineto
closepath stroke
grestore
% P5_L6->R4_L7
gsave
1 setlinewidth
0 0 0 edgecolor
newpath 619.94 942.06 moveto
648.03 930.21 693.04 911.24 724.43 898 curveto
stroke
0 0 0 edgecolor
newpath 725.84 901.2 moveto
733.7 894.09 lineto
723.12 894.75 lineto
closepath fill
1 setlinewidth
solid
0 0 0 edgecolor
newpath 725.84 901.2 moveto
733.7 894.09 lineto
723.12 894.75 lineto
closepath stroke
grestore
% P5_L6->R5_L7
gsave
1 setlinewidth
0 0 0 edgecolor
newpath 611.85 938.29 moveto
634.97 919.62 676.97 887.1 716 864 curveto
740.8 849.32 770.33 835.59 792.98 825.78 curveto
stroke
0 0 0 edgecolor
newpath 794.42 828.98 moveto
802.24 821.83 lineto
791.67 822.54 lineto
closepath fill
1 setlinewidth
solid
0 0 0 edgecolor
newpath 794.42 828.98 moveto
802.24 821.83 lineto
791.67 822.54 lineto
closepath stroke
grestore
% P5_L6->L6_R3
gsave
1 setlinewidth
0 0 0 edgecolor
newpath 590.07 935.85 moveto
581.56 898.66 561.34 810.37 551.13 765.77 curveto
stroke
0 0 0 edgecolor
newpath 554.52 764.9 moveto
548.88 755.94 lineto
547.7 766.46 lineto
closepath fill
1 setlinewidth
solid
0 0 0 edgecolor
newpath 554.52 764.9 moveto
548.88 755.94 lineto
547.7 766.46 lineto
closepath stroke
grestore
% P5_L6->R5_P6
gsave
1 setlinewidth
0 0 0 edgecolor
newpath 578.58 937.84 moveto
541.17 899.19 452.15 794.74 501 720 curveto
518.27 693.59 551.93 680.25 579.37 673.57 curveto
stroke
0 0 0 edgecolor
newpath 580.16 676.99 moveto
589.16 671.4 lineto
578.64 670.15 lineto
closepath fill
1 setlinewidth
solid
0 0 0 edgecolor
newpath 580.16 676.99 moveto
589.16 671.4 lineto
578.64 670.15 lineto
closepath stroke
grestore
% P5_L6->P6_L7
gsave
1 setlinewidth
0 0 0 edgecolor
newpath 564.25 945.03 moveto
539.26 937.07 503.88 922.71 480 900 curveto
400.61 824.52 392.69 681.95 393.09 622.31 curveto
stroke
0 0 0 edgecolor
newpath 396.59 622.23 moveto
393.25 612.18 lineto
389.59 622.12 lineto
closepath fill
1 setlinewidth
solid
0 0 0 edgecolor
newpath 396.59 622.23 moveto
393.25 612.18 lineto
389.59 622.12 lineto
closepath stroke
grestore
% P5_L6->L6_L8
gsave
1 setlinewidth
0 0 0 edgecolor
newpath 569.78 941.03 moveto
553.09 931.77 531.41 917.56 517 900 curveto
465.4 837.13 449.59 793.69 484 720 curveto
526.26 629.49 632.98 566.42 688.02 538.76 curveto
stroke
0 0 0 edgecolor
newpath 689.61 541.87 moveto
697.03 534.31 lineto
686.51 535.6 lineto
closepath fill
1 setlinewidth
solid
0 0 0 edgecolor
newpath 689.61 541.87 moveto
697.03 534.31 lineto
686.51 535.6 lineto
closepath stroke
grestore
% R4_L7->R5_L7
gsave
1 setlinewidth
0 0 0 edgecolor
newpath 775.31 865.46 moveto
784.51 856.13 796.39 844.09 806.62 833.7 curveto
stroke
0 0 0 edgecolor
newpath 809.2 836.07 moveto
813.73 826.49 lineto
804.22 831.16 lineto
closepath fill
1 setlinewidth
solid
0 0 0 edgecolor
newpath 809.2 836.07 moveto
813.73 826.49 lineto
804.22 831.16 lineto
closepath stroke
grestore
% R4_L7->L6_R3
gsave
1 setlinewidth
0 0 0 edgecolor
newpath 730.11 872.43 moveto
703.03 863.81 662.78 848.82 632 828 curveto
605.22 809.89 580.02 782.54 563.71 762.95 curveto
stroke
0 0 0 edgecolor
newpath 566.32 760.61 moveto
557.28 755.07 lineto
560.89 765.03 lineto
closepath fill
1 setlinewidth
solid
0 0 0 edgecolor
newpath 566.32 760.61 moveto
557.28 755.07 lineto
560.89 765.03 lineto
closepath stroke
grestore
% R4_L7->R5_P6
gsave
1 setlinewidth
0 0 0 edgecolor
newpath 754.88 864.1 moveto
743.65 827.73 716.38 743.46 698 720 curveto
686.5 705.32 669.82 693.07 655.03 684.05 curveto
stroke
0 0 0 edgecolor
newpath 656.52 680.87 moveto
646.12 678.87 lineto
653 686.92 lineto
closepath fill
1 setlinewidth
solid
0 0 0 edgecolor
newpath 656.52 680.87 moveto
646.12 678.87 lineto
653 686.92 lineto
closepath stroke
grestore
% R4_L7->P6_L7
gsave
1 setlinewidth
0 0 0 edgecolor
newpath 746.89 865.26 moveto
720.08 833.92 655.86 763.03 589 720 curveto
553.46 697.13 535.67 708.16 501 684 curveto
483.19 671.59 484.24 662.4 468 648 curveto
454.09 635.67 437.35 623.49 423.31 613.92 curveto
stroke
0 0 0 edgecolor
newpath 425.22 610.98 moveto
414.96 608.32 lineto
421.32 616.79 lineto
closepath fill
1 setlinewidth
solid
0 0 0 edgecolor
newpath 425.22 610.98 moveto
414.96 608.32 lineto
421.32 616.79 lineto
closepath stroke
grestore
% R4_L7->L6_L8
gsave
1 setlinewidth
0 0 0 edgecolor
newpath 760 863.95 moveto
760 837.29 760 784.11 760 739 curveto
760 739 760 739 760 665 curveto
760 623.41 744.6 577.22 733.4 549.14 curveto
stroke
0 0 0 edgecolor
newpath 736.55 547.58 moveto
729.51 539.66 lineto
730.07 550.24 lineto
closepath fill
1 setlinewidth
solid
0 0 0 edgecolor
newpath 736.55 547.58 moveto
729.51 539.66 lineto
730.07 550.24 lineto
closepath stroke
grestore
% R6_P7
gsave
0.075163 1 1 nodecolor
670 450 34.17 18 ellipse_path fill
1 setlinewidth
filled
0 0 0 nodecolor
670 450 34.17 18 ellipse_path stroke
0 0 1 nodecolor
14 /Times-Roman set_font
651.5 446.3 moveto 37 (R6_P7) alignedtext
grestore
% R4_L7->R6_P7
gsave
1 setlinewidth
0 0 0 edgecolor
newpath 792.84 875.44 moveto
819.53 869 855.51 855.52 873 828 curveto
900.84 784.19 948.9 892.59 834 576 curveto
821.44 541.38 820.44 528.56 793 504 curveto
769.52 482.99 736.43 469.37 710.49 461.21 curveto
stroke
0 0 0 edgecolor
newpath 711.16 457.75 moveto
700.57 458.24 lineto
709.15 464.46 lineto
closepath fill
1 setlinewidth
solid
0 0 0 edgecolor
newpath 711.16 457.75 moveto
700.57 458.24 lineto
709.15 464.46 lineto
closepath stroke
grestore
% P7_L8
gsave
0.075163 1 1 nodecolor
746 378 34.17 18 ellipse_path fill
1 setlinewidth
filled
0 0 0 nodecolor
746 378 34.17 18 ellipse_path stroke
0 0 1 nodecolor
14 /Times-Roman set_font
727.5 374.3 moveto 37 (P7_L8) alignedtext
grestore
% R4_L7->P7_L8
gsave
1 setlinewidth
0 0 0 edgecolor
newpath 794.87 879.13 moveto
829.3 875.21 880.27 863.37 905 828 curveto
932.5 788.66 912.69 767.38 905 720 curveto
883.1 585.06 873.31 545.43 797 432 curveto
789.54 420.91 779.65 410.03 770.57 401.03 curveto
stroke
0 0 0 edgecolor
newpath 772.84 398.36 moveto
763.2 393.96 lineto
767.99 403.41 lineto
closepath fill
1 setlinewidth
solid
0 0 0 edgecolor
newpath 772.84 398.36 moveto
763.2 393.96 lineto
767.99 403.41 lineto
closepath stroke
grestore
% P7_P8
gsave
0.066667 1 1 nodecolor
916 306 33.2 18 ellipse_path fill
1 setlinewidth
filled
0 0 0 nodecolor
916 306 33.2 18 ellipse_path stroke
0 0 1 nodecolor
14 /Times-Roman set_font
898 302.3 moveto 36 (P7_P8) alignedtext
grestore
% R4_L7->P7_P8
gsave
1 setlinewidth
0 0 0 edgecolor
newpath 792.45 875.15 moveto
890.66 855.39 1178 781.63 1178 595 curveto
1178 595 1178 595 1178 521 curveto
1178 406.99 1027.35 342.84 954.52 318.48 curveto
stroke
0 0 0 edgecolor
newpath 955.38 315.08 moveto
944.79 315.31 lineto
953.21 321.74 lineto
closepath fill
1 setlinewidth
solid
0 0 0 edgecolor
newpath 955.38 315.08 moveto
944.79 315.31 lineto
953.21 321.74 lineto
closepath stroke
grestore
% R5_L7->L6_R3
gsave
1 setlinewidth
0 0 0 edgecolor
newpath 798.07 801.38 moveto
746.53 788.67 643.1 763.18 585.71 749.04 curveto
stroke
0 0 0 edgecolor
newpath 586.44 745.61 moveto
575.9 746.62 lineto
584.77 752.41 lineto
closepath fill
1 setlinewidth
solid
0 0 0 edgecolor
newpath 586.44 745.61 moveto
575.9 746.62 lineto
584.77 752.41 lineto
closepath stroke
grestore
% R5_L7->R5_P6
gsave
1 setlinewidth
0 0 0 edgecolor
newpath 815.49 793.21 moveto
798.45 774.02 767.56 741.56 736 720 curveto
712.03 703.63 682.2 689.96 659.06 680.61 curveto
stroke
0 0 0 edgecolor
newpath 660.18 677.29 moveto
649.59 676.87 lineto
657.61 683.8 lineto
closepath fill
1 setlinewidth
solid
0 0 0 edgecolor
newpath 660.18 677.29 moveto
649.59 676.87 lineto
657.61 683.8 lineto
closepath stroke
grestore
% R5_L7->P6_L7
gsave
1 setlinewidth
0 0 0 edgecolor
newpath 804.68 797.04 moveto
731.2 760.89 511.38 652.75 427.25 611.36 curveto
stroke
0 0 0 edgecolor
newpath 428.67 608.15 moveto
418.15 606.88 lineto
425.58 614.43 lineto
closepath fill
1 setlinewidth
solid
0 0 0 edgecolor
newpath 428.67 608.15 moveto
418.15 606.88 lineto
425.58 614.43 lineto
closepath stroke
grestore
% R5_L7->L6_L8
gsave
1 setlinewidth
0 0 0 edgecolor
newpath 828.08 791.79 moveto
825.29 751.58 814.43 649.34 774 576 curveto
767.48 564.18 757.6 553.17 748.2 544.27 curveto
stroke
0 0 0 edgecolor
newpath 750.26 541.43 moveto
740.49 537.33 lineto
745.58 546.63 lineto
closepath fill
1 setlinewidth
solid
0 0 0 edgecolor
newpath 750.26 541.43 moveto
740.49 537.33 lineto
745.58 546.63 lineto
closepath stroke
grestore
% R5_L7->R6_P7
gsave
1 setlinewidth
0 0 0 edgecolor
newpath 832.49 791.93 moveto
835.69 774 839.58 745 837 720 curveto
826.63 619.34 833.24 578.72 765 504 curveto
749.2 486.7 726.41 473.72 707.11 464.94 curveto
stroke
0 0 0 edgecolor
newpath 708.24 461.62 moveto
697.68 460.85 lineto
705.46 468.04 lineto
closepath fill
1 setlinewidth
solid
0 0 0 edgecolor
newpath 708.24 461.62 moveto
697.68 460.85 lineto
705.46 468.04 lineto
closepath stroke
grestore
% R5_L7->P7_L8
gsave
1 setlinewidth
0 0 0 edgecolor
newpath 838.3 792.4 moveto
843.46 782.24 849.35 768.77 852 756 curveto
855.25 740.33 852.66 735.99 852 720 curveto
850.67 687.92 849.98 679.86 846 648 curveto
841.98 615.81 843.36 607.06 834 576 curveto
814.71 511.96 779.52 441.42 759.99 404.6 curveto
stroke
0 0 0 edgecolor
newpath 762.96 402.73 moveto
755.16 395.57 lineto
756.79 406.04 lineto
closepath fill
1 setlinewidth
solid
0 0 0 edgecolor
newpath 762.96 402.73 moveto
755.16 395.57 lineto
756.79 406.04 lineto
closepath stroke
grestore
% R5_L7->P7_P8
gsave
1 setlinewidth
0 0 0 edgecolor
newpath 863.58 806.83 moveto
937.04 800.15 1102 773.31 1102 667 curveto
1102 667 1102 667 1102 521 curveto
1102 428.17 1001.06 355.97 947.9 324.39 curveto
stroke
0 0 0 edgecolor
newpath 949.58 321.32 moveto
939.18 319.32 lineto
946.07 327.37 lineto
closepath fill
1 setlinewidth
solid
0 0 0 edgecolor
newpath 949.58 321.32 moveto
939.18 319.32 lineto
946.07 327.37 lineto
closepath stroke
grestore
% L6_R3->R5_P6
gsave
1 setlinewidth
0 0 0 edgecolor
newpath 561.71 721.81 moveto
572.27 712.21 586.1 699.63 597.85 688.95 curveto
stroke
0 0 0 edgecolor
newpath 600.54 691.24 moveto
605.59 681.92 lineto
595.84 686.06 lineto
closepath fill
1 setlinewidth
solid
0 0 0 edgecolor
newpath 600.54 691.24 moveto
605.59 681.92 lineto
595.84 686.06 lineto
closepath stroke
grestore
% L6_R3->P6_L7
gsave
1 setlinewidth
0 0 0 edgecolor
newpath 523.25 723.7 moveto
507.67 713.69 486.61 699.15 470 684 curveto
448.13 664.05 426.54 637.98 411.99 619.22 curveto
stroke
0 0 0 edgecolor
newpath 414.68 616.98 moveto
405.83 611.16 lineto
409.12 621.23 lineto
closepath fill
1 setlinewidth
solid
0 0 0 edgecolor
newpath 414.68 616.98 moveto
405.83 611.16 lineto
409.12 621.23 lineto
closepath stroke
grestore
% L6_R3->L6_L8
gsave
1 setlinewidth
0 0 0 edgecolor
newpath 576.94 730.36 moveto
603.82 723.22 641.54 709.3 665 684 curveto
700.08 646.16 713.8 585.38 719 550.33 curveto
stroke
0 0 0 edgecolor
newpath 722.48 550.71 moveto
720.35 540.33 lineto
715.54 549.77 lineto
closepath fill
1 setlinewidth
solid
0 0 0 edgecolor
newpath 722.48 550.71 moveto
720.35 540.33 lineto
715.54 549.77 lineto
closepath stroke
grestore
% R5_P6->P6_L7
gsave
1 setlinewidth
0 0 0 edgecolor
newpath 594.7 654.94 moveto
587.97 652.56 580.75 650.11 574 648 curveto
515.97 629.84 500.03 630.16 442 612 curveto
438.41 610.88 434.7 609.66 430.99 608.41 curveto
stroke
0 0 0 edgecolor
newpath 431.89 605.02 moveto
421.3 605.06 lineto
429.61 611.63 lineto
closepath fill
1 setlinewidth
solid
0 0 0 edgecolor
newpath 431.89 605.02 moveto
421.3 605.06 lineto
429.61 611.63 lineto
closepath stroke
grestore
% R5_P6->L6_L8
gsave
1 setlinewidth
0 0 0 edgecolor
newpath 633.7 648.8 moveto
641.24 638.33 651.24 624.39 660 612 curveto
675.27 590.39 692.46 565.69 704.85 547.81 curveto
stroke
0 0 0 edgecolor
newpath 708.05 549.34 moveto
710.86 539.12 lineto
702.29 545.35 lineto
closepath fill
1 setlinewidth
solid
0 0 0 edgecolor
newpath 708.05 549.34 moveto
710.86 539.12 lineto
702.29 545.35 lineto
closepath stroke
grestore
% R5_P6->R6_P7
gsave
1 setlinewidth
0 0 0 edgecolor
newpath 621.47 647.58 moveto
621.08 617.5 622.52 554.2 639 504 curveto
642.17 494.33 647.29 484.5 652.46 475.98 curveto
stroke
0 0 0 edgecolor
newpath 655.57 477.62 moveto
658 467.31 lineto
649.67 473.85 lineto
closepath fill
1 setlinewidth
solid
0 0 0 edgecolor
newpath 655.57 477.62 moveto
658 467.31 lineto
649.67 473.85 lineto
closepath stroke
grestore
% R5_P6->P7_L8
gsave
1 setlinewidth
0 0 0 edgecolor
newpath 625.55 648 moveto
632.45 617.47 649.62 552.07 679 504 curveto
690.48 485.22 701.39 486.69 713 468 curveto
725.05 448.6 733.73 424.13 739.15 405.75 curveto
stroke
0 0 0 edgecolor
newpath 742.56 406.56 moveto
741.89 395.99 lineto
735.82 404.67 lineto
closepath fill
1 setlinewidth
solid
0 0 0 edgecolor
newpath 742.56 406.56 moveto
741.89 395.99 lineto
735.82 404.67 lineto
closepath stroke
grestore
% R5_P6->P7_P8
gsave
1 setlinewidth
0 0 0 edgecolor
newpath 645.72 652.89 moveto
696.34 626 816.08 556.62 887 468 curveto
908.88 440.66 911.73 430.26 919 396 curveto
922.32 380.35 919.45 375.99 919 360 curveto
918.76 351.67 918.32 342.62 917.85 334.39 curveto
stroke
0 0 0 edgecolor
newpath 921.33 333.94 moveto
917.22 324.18 lineto
914.34 334.37 lineto
closepath fill
1 setlinewidth
solid
0 0 0 edgecolor
newpath 921.33 333.94 moveto
917.22 324.18 lineto
914.34 334.37 lineto
closepath stroke
grestore
% R7_R6
gsave
0 1 0.85098 nodecolor
576 234 35.62 18 ellipse_path fill
1 setlinewidth
filled
0 0 0 nodecolor
576 234 35.62 18 ellipse_path stroke
0 0 1 nodecolor
14 /Times-Roman set_font
556.5 230.3 moveto 39 (R7_R6) alignedtext
grestore
% R5_P6->R7_R6
gsave
1 setlinewidth
0 0 0 edgecolor
newpath 618.33 648.08 moveto
607.82 598.57 577.95 449.51 571 324 curveto
570.12 308.02 570.25 303.98 571 288 curveto
571.39 279.66 572.13 270.6 572.92 262.37 curveto
stroke
0 0 0 edgecolor
newpath 576.43 262.46 moveto
573.97 252.16 lineto
569.47 261.75 lineto
closepath fill
1 setlinewidth
solid
0 0 0 edgecolor
newpath 576.43 262.46 moveto
573.97 252.16 lineto
569.47 261.75 lineto
closepath stroke
grestore
% R7_P8
gsave
0 1 0.82353 nodecolor
784 162 34.17 18 ellipse_path fill
1 setlinewidth
filled
0 0 0 nodecolor
784 162 34.17 18 ellipse_path stroke
0 0 1 nodecolor
14 /Times-Roman set_font
765.5 158.3 moveto 37 (R7_P8) alignedtext
grestore
% R5_P6->R7_P8
gsave
1 setlinewidth
0 0 0 edgecolor
newpath 655.99 663.06 moveto
771.23 655.56 1140 623.71 1140 523 curveto
1140 523 1140 523 1140 305 curveto
1140 238.06 920.08 188.62 825.94 170.53 curveto
stroke
0 0 0 edgecolor
newpath 826.38 167.05 moveto
815.91 168.63 lineto
825.08 173.93 lineto
closepath fill
1 setlinewidth
solid
0 0 0 edgecolor
newpath 826.38 167.05 moveto
815.91 168.63 lineto
825.08 173.93 lineto
closepath stroke
grestore
% R6_P8
gsave
0 1 0.8 nodecolor
646 90 34.17 18 ellipse_path fill
1 setlinewidth
filled
0 0 0 nodecolor
646 90 34.17 18 ellipse_path stroke
0 0 1 nodecolor
14 /Times-Roman set_font
627.5 86.3 moveto 37 (R6_P8) alignedtext
grestore
% R5_P6->R6_P8
gsave
1 setlinewidth
0 0 0 edgecolor
newpath 600.03 651.73 moveto
534.02 610.02 342 474.28 342 307 curveto
342 307 342 307 342 233 curveto
342 119.76 517.29 96.62 601.66 92.04 curveto
stroke
0 0 0 edgecolor
newpath 601.9 95.53 moveto
611.72 91.56 lineto
601.56 88.54 lineto
closepath fill
1 setlinewidth
solid
0 0 0 edgecolor
newpath 601.9 95.53 moveto
611.72 91.56 lineto
601.56 88.54 lineto
closepath stroke
grestore
% P6_L7->L6_L8
gsave
1 setlinewidth
0 0 0 edgecolor
newpath 425.15 586.35 moveto
484.5 573.69 613.79 546.09 680.44 531.87 curveto
stroke
0 0 0 edgecolor
newpath 681.53 535.22 moveto
690.57 529.71 lineto
680.06 528.37 lineto
closepath fill
1 setlinewidth
solid
0 0 0 edgecolor
newpath 681.53 535.22 moveto
690.57 529.71 lineto
680.06 528.37 lineto
closepath stroke
grestore
% P6_L7->R6_P7
gsave
1 setlinewidth
0 0 0 edgecolor
newpath 417.53 580.89 moveto
466.7 555.6 580.44 497.08 636.93 468.01 curveto
stroke
0 0 0 edgecolor
newpath 638.85 470.97 moveto
646.14 463.28 lineto
635.64 464.74 lineto
closepath fill
1 setlinewidth
solid
0 0 0 edgecolor
newpath 638.85 470.97 moveto
646.14 463.28 lineto
635.64 464.74 lineto
closepath stroke
grestore
% P6_L7->P7_L8
gsave
1 setlinewidth
0 0 0 edgecolor
newpath 408.63 577.4 moveto
427.38 558.11 461.6 525.23 496 504 curveto
531.96 481.81 547.81 489.82 584 468 curveto
605.34 455.13 605.86 445.2 627 432 curveto
652.97 415.79 684.74 401.91 708.92 392.42 curveto
stroke
0 0 0 edgecolor
newpath 710.37 395.61 moveto
718.45 388.75 lineto
707.86 389.08 lineto
closepath fill
1 setlinewidth
solid
0 0 0 edgecolor
newpath 710.37 395.61 moveto
718.45 388.75 lineto
707.86 389.08 lineto
closepath stroke
grestore
% P6_L7->P7_P8
gsave
1 setlinewidth
0 0 0 edgecolor
newpath 400.61 576.15 moveto
408.86 556.81 424.55 525.07 446 504 curveto
571.23 381.01 784.64 330.33 874.34 313.75 curveto
stroke
0 0 0 edgecolor
newpath 875.18 317.16 moveto
884.4 311.94 lineto
873.94 310.27 lineto
closepath fill
1 setlinewidth
solid
0 0 0 edgecolor
newpath 875.18 317.16 moveto
884.4 311.94 lineto
873.94 310.27 lineto
closepath stroke
grestore
% P6_L7->R7_R6
gsave
1 setlinewidth
0 0 0 edgecolor
newpath 394.32 575.72 moveto
396.11 525.6 407.6 378.04 480 288 curveto
494.76 269.64 517.69 256.65 537.43 248.12 curveto
stroke
0 0 0 edgecolor
newpath 538.88 251.31 moveto
546.82 244.29 lineto
536.24 244.83 lineto
closepath fill
1 setlinewidth
solid
0 0 0 edgecolor
newpath 538.88 251.31 moveto
546.82 244.29 lineto
536.24 244.83 lineto
closepath stroke
grestore
% P6_L7->R7_P8
gsave
1 setlinewidth
0 0 0 edgecolor
newpath 392.64 575.91 moveto
389.59 526.32 387.03 380.06 453 288 curveto
480.48 249.65 489.07 237.62 531 216 curveto
598.5 181.2 687.31 169.25 739.76 165.15 curveto
stroke
0 0 0 edgecolor
newpath 740.03 168.64 moveto
749.75 164.43 lineto
739.52 161.65 lineto
closepath fill
1 setlinewidth
solid
0 0 0 edgecolor
newpath 740.03 168.64 moveto
749.75 164.43 lineto
739.52 161.65 lineto
closepath stroke
grestore
% P6_L7->R6_P8
gsave
1 setlinewidth
0 0 0 edgecolor
newpath 376.65 578.37 moveto
350.49 554.57 304 504.7 304 451 curveto
304 451 304 451 304 233 curveto
304 192.03 297.64 171.51 328 144 curveto
367.41 108.28 523.58 96.39 601.42 92.63 curveto
stroke
0 0 0 edgecolor
newpath 602.03 96.1 moveto
611.86 92.15 lineto
601.71 89.11 lineto
closepath fill
1 setlinewidth
solid
0 0 0 edgecolor
newpath 602.03 96.1 moveto
611.86 92.15 lineto
601.71 89.11 lineto
closepath stroke
grestore
% L6_L8->R6_P7
gsave
1 setlinewidth
0 0 0 edgecolor
newpath 709.94 504.76 moveto
703.44 496.02 695.3 485.05 688.06 475.31 curveto
stroke
0 0 0 edgecolor
newpath 690.77 473.09 moveto
682 467.15 lineto
685.15 477.26 lineto
closepath fill
1 setlinewidth
solid
0 0 0 edgecolor
newpath 690.77 473.09 moveto
682 467.15 lineto
685.15 477.26 lineto
closepath stroke
grestore
% L6_L8->P7_L8
gsave
1 setlinewidth
0 0 0 edgecolor
newpath 731.71 504.45 moveto
737.08 494.3 743.23 480.84 746 468 curveto
750.39 447.64 750.16 424.05 748.96 406.27 curveto
stroke
0 0 0 edgecolor
newpath 752.44 405.97 moveto
748.14 396.29 lineto
745.47 406.54 lineto
closepath fill
1 setlinewidth
solid
0 0 0 edgecolor
newpath 752.44 405.97 moveto
748.14 396.29 lineto
745.47 406.54 lineto
closepath stroke
grestore
% L6_L8->P7_P8
gsave
1 setlinewidth
0 0 0 edgecolor
newpath 754.78 516.45 moveto
785.83 510.49 831.79 497.13 860 468 curveto
896.01 430.82 908.96 369.29 913.54 334.04 curveto
stroke
0 0 0 edgecolor
newpath 917.03 334.34 moveto
914.71 324 lineto
910.08 333.53 lineto
closepath fill
1 setlinewidth
solid
0 0 0 edgecolor
newpath 917.03 334.34 moveto
914.71 324 lineto
910.08 333.53 lineto
closepath stroke
grestore
% L6_L8->R7_R6
gsave
1 setlinewidth
0 0 0 edgecolor
newpath 693.46 511.89 moveto
672.16 503.67 643.93 489.53 627 468 curveto
578.67 406.55 573.89 309.01 574.71 262.04 curveto
stroke
0 0 0 edgecolor
newpath 578.21 262.11 moveto
574.98 252.02 lineto
571.21 261.92 lineto
closepath fill
1 setlinewidth
solid
0 0 0 edgecolor
newpath 578.21 262.11 moveto
574.98 252.02 lineto
571.21 261.92 lineto
closepath stroke
grestore
% L6_L8->R7_P8
gsave
1 setlinewidth
0 0 0 edgecolor
newpath 735.9 505.13 moveto
744.26 495.01 754.67 481.33 762 468 curveto
778.46 438.05 782.9 429.63 789 396 curveto
802.31 322.6 793.85 234.07 788.08 190.27 curveto
stroke
0 0 0 edgecolor
newpath 791.52 189.57 moveto
786.69 180.14 lineto
784.58 190.52 lineto
closepath fill
1 setlinewidth
solid
0 0 0 edgecolor
newpath 791.52 189.57 moveto
786.69 180.14 lineto
784.58 190.52 lineto
closepath stroke
grestore
% L6_L8->R6_P8
gsave
1 setlinewidth
0 0 0 edgecolor
newpath 692.52 512.75 moveto
623.26 491.38 456 427.32 456 307 curveto
456 307 456 307 456 233 curveto
456 158.8 550.12 118.7 605.87 101.46 curveto
stroke
0 0 0 edgecolor
newpath 606.89 104.81 moveto
615.47 98.6 lineto
604.89 98.1 lineto
closepath fill
1 setlinewidth
solid
0 0 0 edgecolor
newpath 606.89 104.81 moveto
615.47 98.6 lineto
604.89 98.1 lineto
closepath stroke
grestore
% P8_right
gsave
0 1 0.77647 nodecolor
884 18 40.42 18 ellipse_path fill
1 setlinewidth
filled
0 0 0 nodecolor
884 18 40.42 18 ellipse_path stroke
0 0 1 nodecolor
14 /Times-Roman set_font
860.5 14.3 moveto 47 (P8_right) alignedtext
grestore
% L6_L8->P8_right
gsave
1 setlinewidth
0 0 0 edgecolor
newpath 753.56 514.95 moveto
838.23 497.82 1064 445.86 1064 379 curveto
1064 379 1064 379 1064 161 curveto
1064 91.3 979.79 50.52 926.56 31.7 curveto
stroke
0 0 0 edgecolor
newpath 927.61 28.36 moveto
917.01 28.44 lineto
925.35 34.98 lineto
closepath fill
1 setlinewidth
solid
0 0 0 edgecolor
newpath 927.61 28.36 moveto
917.01 28.44 lineto
925.35 34.98 lineto
closepath stroke
grestore
% R6_P7->P7_L8
gsave
1 setlinewidth
0 0 0 edgecolor
newpath 686.49 433.81 moveto
696.92 424.21 710.57 411.63 722.17 400.95 curveto
stroke
0 0 0 edgecolor
newpath 724.82 403.27 moveto
729.8 393.92 lineto
720.08 398.12 lineto
closepath fill
1 setlinewidth
solid
0 0 0 edgecolor
newpath 724.82 403.27 moveto
729.8 393.92 lineto
720.08 398.12 lineto
closepath stroke
grestore
% R6_P7->P7_P8
gsave
1 setlinewidth
0 0 0 edgecolor
newpath 697.19 438.63 moveto
721.78 428.85 758.69 413.16 789 396 curveto
825.47 375.35 864.54 346.91 889.57 327.79 curveto
stroke
0 0 0 edgecolor
newpath 892.02 330.32 moveto
897.81 321.44 lineto
887.75 324.77 lineto
closepath fill
1 setlinewidth
solid
0 0 0 edgecolor
newpath 892.02 330.32 moveto
897.81 321.44 lineto
887.75 324.77 lineto
closepath stroke
grestore
% R6_P7->R7_R6
gsave
1 setlinewidth
0 0 0 edgecolor
newpath 656.73 433.08 moveto
648.77 422.94 638.88 409.27 632 396 curveto
608.77 351.2 591.64 294.64 582.79 261.87 curveto
stroke
0 0 0 edgecolor
newpath 586.15 260.88 moveto
580.21 252.11 lineto
579.38 262.67 lineto
closepath fill
1 setlinewidth
solid
0 0 0 edgecolor
newpath 586.15 260.88 moveto
580.21 252.11 lineto
579.38 262.67 lineto
closepath stroke
grestore
% R6_P7->R7_P8
gsave
1 setlinewidth
0 0 0 edgecolor
newpath 676.03 432.2 moveto
682.52 414.26 693.22 385.02 703 360 curveto
727.1 298.35 757.1 226.59 772.97 189.01 curveto
stroke
0 0 0 edgecolor
newpath 776.2 190.36 moveto
776.87 179.79 lineto
769.75 187.63 lineto
closepath fill
1 setlinewidth
solid
0 0 0 edgecolor
newpath 776.2 190.36 moveto
776.87 179.79 lineto
769.75 187.63 lineto
closepath stroke
grestore
% R6_P7->R6_P8
gsave
1 setlinewidth
0 0 0 edgecolor
newpath 665.26 432.11 moveto
658.26 405.66 646 352.75 646 307 curveto
646 307 646 307 646 233 curveto
646 193 646 146.65 646 118.08 curveto
stroke
0 0 0 edgecolor
newpath 649.5 118.05 moveto
646 108.05 lineto
642.5 118.05 lineto
closepath fill
1 setlinewidth
solid
0 0 0 edgecolor
newpath 649.5 118.05 moveto
646 108.05 lineto
642.5 118.05 lineto
closepath stroke
grestore
% P7_L8->P7_P8
gsave
1 setlinewidth
0 0 0 edgecolor
newpath 772.19 366.22 moveto
801.31 354.23 848.49 334.8 880.82 321.49 curveto
stroke
0 0 0 edgecolor
newpath 882.42 324.61 moveto
890.34 317.57 lineto
879.76 318.14 lineto
closepath fill
1 setlinewidth
solid
0 0 0 edgecolor
newpath 882.42 324.61 moveto
890.34 317.57 lineto
879.76 318.14 lineto
closepath stroke
grestore
% P7_L8->R7_R6
gsave
1 setlinewidth
0 0 0 edgecolor
newpath 728.45 362.34 moveto
698.29 337.15 636.52 285.55 601.57 256.36 curveto
stroke
0 0 0 edgecolor
newpath 603.63 253.52 moveto
593.71 249.79 lineto
599.14 258.89 lineto
closepath fill
1 setlinewidth
solid
0 0 0 edgecolor
newpath 603.63 253.52 moveto
593.71 249.79 lineto
599.14 258.89 lineto
closepath stroke
grestore
% P7_L8->R7_P8
gsave
1 setlinewidth
0 0 0 edgecolor
newpath 749.05 359.85 moveto
755.63 322.74 771.26 234.75 779.2 190.05 curveto
stroke
0 0 0 edgecolor
newpath 782.69 190.39 moveto
780.99 179.94 lineto
775.8 189.17 lineto
closepath fill
1 setlinewidth
solid
0 0 0 edgecolor
newpath 782.69 190.39 moveto
780.99 179.94 lineto
775.8 189.17 lineto
closepath stroke
grestore
% P7_L8->R6_P8
gsave
1 setlinewidth
0 0 0 edgecolor
newpath 740.04 359.97 moveto
723.27 311.98 675.52 175.41 655.26 117.49 curveto
stroke
0 0 0 edgecolor
newpath 658.53 116.23 moveto
651.92 107.94 lineto
651.92 118.54 lineto
closepath fill
1 setlinewidth
solid
0 0 0 edgecolor
newpath 658.53 116.23 moveto
651.92 107.94 lineto
651.92 118.54 lineto
closepath stroke
grestore
% P7_L8->P8_right
gsave
1 setlinewidth
0 0 0 edgecolor
newpath 755 360.52 moveto
760.5 350.18 767.5 336.47 773 324 curveto
817.19 223.69 858.32 99.71 875.52 45.96 curveto
stroke
0 0 0 edgecolor
newpath 878.94 46.76 moveto
878.63 36.17 lineto
872.26 44.64 lineto
closepath fill
1 setlinewidth
solid
0 0 0 edgecolor
newpath 878.94 46.76 moveto
878.63 36.17 lineto
872.26 44.64 lineto
closepath stroke
grestore
% P7_P8->R7_R6
gsave
1 setlinewidth
0 0 0 edgecolor
newpath 885.23 298.66 moveto
824.28 286.12 688.11 258.08 618.6 243.77 curveto
stroke
0 0 0 edgecolor
newpath 618.94 240.27 moveto
608.44 241.68 lineto
617.53 247.12 lineto
closepath fill
1 setlinewidth
solid
0 0 0 edgecolor
newpath 618.94 240.27 moveto
608.44 241.68 lineto
617.53 247.12 lineto
closepath stroke
grestore
% P7_P8->R7_P8
gsave
1 setlinewidth
0 0 0 edgecolor
newpath 906.63 288.43 moveto
895.54 269.64 875.79 238.67 854 216 curveto
841.87 203.38 826.53 191.42 813.31 182.06 curveto
stroke
0 0 0 edgecolor
newpath 815.2 179.11 moveto
804.98 176.31 lineto
811.22 184.87 lineto
closepath fill
1 setlinewidth
solid
0 0 0 edgecolor
newpath 815.2 179.11 moveto
804.98 176.31 lineto
811.22 184.87 lineto
closepath stroke
grestore
% P7_P8->R6_P8
gsave
1 setlinewidth
0 0 0 edgecolor
newpath 912.02 287.9 moveto
903.18 254.11 878.5 179.03 827 144 curveto
785.25 115.6 728.11 102.18 689.28 96 curveto
stroke
0 0 0 edgecolor
newpath 689.74 92.53 moveto
679.34 94.52 lineto
688.71 99.46 lineto
closepath fill
1 setlinewidth
solid
0 0 0 edgecolor
newpath 689.74 92.53 moveto
679.34 94.52 lineto
688.71 99.46 lineto
closepath stroke
grestore
% P7_P8->P8_right
gsave
1 setlinewidth
0 0 0 edgecolor
newpath 915.74 287.91 moveto
914.91 249.21 911.54 152.01 898 72 curveto
896.53 63.33 894.3 54.01 892.05 45.64 curveto
stroke
0 0 0 edgecolor
newpath 895.41 44.69 moveto
889.34 36.01 lineto
888.68 46.59 lineto
closepath fill
1 setlinewidth
solid
0 0 0 edgecolor
newpath 895.41 44.69 moveto
889.34 36.01 lineto
888.68 46.59 lineto
closepath stroke
grestore
% R7_R6->R7_P8
gsave
1 setlinewidth
0 0 0 edgecolor
newpath 604.92 223.27 moveto
641.84 210.84 705.79 189.32 746.44 175.64 curveto
stroke
0 0 0 edgecolor
newpath 747.63 178.93 moveto
755.99 172.43 lineto
745.39 172.3 lineto
closepath fill
1 setlinewidth
solid
0 0 0 edgecolor
newpath 747.63 178.93 moveto
755.99 172.43 lineto
745.39 172.3 lineto
closepath stroke
grestore
% R7_R6->R6_P8
gsave
1 setlinewidth
0 0 0 edgecolor
newpath 584.17 216.43 moveto
596.22 191.98 618.89 146 633.17 117.02 curveto
stroke
0 0 0 edgecolor
newpath 636.39 118.42 moveto
637.67 107.9 lineto
630.11 115.32 lineto
closepath fill
1 setlinewidth
solid
0 0 0 edgecolor
newpath 636.39 118.42 moveto
637.67 107.9 lineto
630.11 115.32 lineto
closepath stroke
grestore
% R7_P8->R6_P8
gsave
1 setlinewidth
0 0 0 edgecolor
newpath 760.28 148.97 moveto
737.86 137.6 704.04 120.44 679 107.74 curveto
stroke
0 0 0 edgecolor
newpath 680.38 104.51 moveto
669.88 103.11 lineto
677.21 110.76 lineto
closepath fill
1 setlinewidth
solid
0 0 0 edgecolor
newpath 680.38 104.51 moveto
669.88 103.11 lineto
677.21 110.76 lineto
closepath stroke
grestore
% R7_P8->P8_right
gsave
1 setlinewidth
0 0 0 edgecolor
newpath 795.28 144.99 moveto
812.59 120.4 845.86 73.16 866.38 44.03 curveto
stroke
0 0 0 edgecolor
newpath 869.41 45.8 moveto
872.3 35.61 lineto
863.68 41.77 lineto
closepath fill
1 setlinewidth
solid
0 0 0 edgecolor
newpath 869.41 45.8 moveto
872.3 35.61 lineto
863.68 41.77 lineto
closepath stroke
grestore
% R6_P8->P8_right
gsave
1 setlinewidth
0 0 0 edgecolor
newpath 675.18 80.42 moveto
716.79 68.18 793.4 45.65 841.36 31.54 curveto
stroke
0 0 0 edgecolor
newpath 842.54 34.84 moveto
851.14 28.66 lineto
840.56 28.13 lineto
closepath fill
1 setlinewidth
solid
0 0 0 edgecolor
newpath 842.54 34.84 moveto
851.14 28.66 lineto
840.56 28.13 lineto
closepath stroke
grestore
endpage
showpage
grestore
%%PageTrailer
%%EndPage: 1
%%Trailer
%%Pages: 1
%%BoundingBox: 36 36 1307 1952
end
restore
%%EOF
