%!PS-Adobe-3.0
%%DocumentNeededResources: font Helvetica
%%+ font Helvetica-Bold
%%+ font Helvetica-Oblique
%%+ font Helvetica-BoldOblique
%%+ font Symbol
%%DocumentMedia: special 180 720 0 () ()
%%Title: R Graphics Output
%%Creator: R Software
%%Pages: (atend)
%%BoundingBox: 0 0 180 720
%%EndComments
%%BeginProlog
/bp  { gs sRGB 180.00 0 translate 90 rotate gs } def
% begin .ps.prolog
/gs  { gsave } bind def
/gr  { grestore } bind def
/ep  { showpage gr gr } bind def
/m   { moveto } bind def
/l  { rlineto } bind def
/np  { newpath } bind def
/cp  { closepath } bind def
/f   { fill } bind def
/o   { stroke } bind def
/c   { newpath 0 360 arc } bind def
/r   { 4 2 roll moveto 1 copy 3 -1 roll exch 0 exch rlineto 0 rlineto -1 mul 0 exch rlineto closepath } bind def
/p1  { stroke } bind def
/p2  { gsave bg fill grestore newpath } bind def
/p3  { gsave bg fill grestore stroke } bind def
/p6  { gsave bg eofill grestore newpath } bind def
/p7  { gsave bg eofill grestore stroke } bind def
/t   { 5 -2 roll moveto gsave rotate
       1 index stringwidth pop
       mul neg 0 rmoveto show grestore } bind def
/ta  { 4 -2 roll moveto gsave rotate show } bind def
/tb  { 2 -1 roll 0 rmoveto show } bind def
/cl  { grestore gsave newpath 3 index 3 index moveto 1 index
       4 -1 roll lineto  exch 1 index lineto lineto
       closepath clip newpath } bind def
/rgb { setrgbcolor } bind def
/s   { scalefont setfont } bind def
% end   .ps.prolog
/sRGB { [ /CIEBasedABC
          << /DecodeLMN
               [ { dup 0.03928 le
                        {12.92321 div}
                        {0.055 add 1.055 div 2.4 exp }
                     ifelse
                 } bind dup dup
               ]
             /MatrixLMN [0.412457 0.212673 0.019334
                         0.357576 0.715152 0.119192
                         0.180437 0.072175 0.950301]
             /WhitePoint [0.9505 1.0 1.0890]
           >>
         ] setcolorspace } bind def
/srgb { setcolor } bind def
%%IncludeResource: font Helvetica
/Helvetica findfont
dup length dict begin
  {1 index /FID ne {def} {pop pop} ifelse} forall
  /Encoding ISOLatin1Encoding def
  currentdict
  end
/Font1 exch definefont pop
%%IncludeResource: font Helvetica-Bold
/Helvetica-Bold findfont
dup length dict begin
  {1 index /FID ne {def} {pop pop} ifelse} forall
  /Encoding ISOLatin1Encoding def
  currentdict
  end
/Font2 exch definefont pop
%%IncludeResource: font Helvetica-Oblique
/Helvetica-Oblique findfont
dup length dict begin
  {1 index /FID ne {def} {pop pop} ifelse} forall
  /Encoding ISOLatin1Encoding def
  currentdict
  end
/Font3 exch definefont pop
%%IncludeResource: font Helvetica-BoldOblique
/Helvetica-BoldOblique findfont
dup length dict begin
  {1 index /FID ne {def} {pop pop} ifelse} forall
  /Encoding ISOLatin1Encoding def
  currentdict
  end
/Font4 exch definefont pop
%%IncludeResource: font Symbol
/Symbol findfont
dup length dict begin
  {1 index /FID ne {def} {pop pop} ifelse} forall
  currentdict
  end
/Font5 exch definefont pop
%%EndProlog
%%Page: 1 1
bp
18.00 36.00 702.00 180.00 cl
/bg { 0 0 0 srgb } def
17.50 165.83 1.00 1.00 r p2
18.27 165.83 1.00 1.00 r p2
19.04 165.83 1.00 1.00 r p2
19.81 165.83 1.00 1.00 r p2
/Font1 findfont 8 s
0 0 0 srgb
21.07 164.31 (<) .5 0 t
21.84 164.31 (<) .5 0 t
22.61 164.31 (<) .5 0 t
23.38 164.31 (<) .5 0 t
24.15 164.31 (<) .5 0 t
24.92 164.31 (<) .5 0 t
25.69 164.31 (<) .5 0 t
26.45 164.31 (<) .5 0 t
27.22 164.31 (<) .5 0 t
27.49 165.83 1.00 1.00 r p2
28.26 165.83 1.00 1.00 r p2
29.03 165.83 1.00 1.00 r p2
29.80 165.83 1.00 1.00 r p2
30.57 165.83 1.00 1.00 r p2
31.33 165.83 1.00 1.00 r p2
32.10 165.83 1.00 1.00 r p2
32.87 165.83 1.00 1.00 r p2
33.64 165.83 1.00 1.00 r p2
34.41 165.83 1.00 1.00 r p2
35.18 165.83 1.00 1.00 r p2
35.94 165.83 1.00 1.00 r p2
36.71 165.83 1.00 1.00 r p2
37.48 165.83 1.00 1.00 r p2
38.25 165.83 1.00 1.00 r p2
39.02 165.83 1.00 1.00 r p2
39.79 165.83 1.00 1.00 r p2
40.56 165.83 1.00 1.00 r p2
41.32 165.83 1.00 1.00 r p2
42.09 165.83 1.00 1.00 r p2
42.86 165.83 1.00 1.00 r p2
43.63 165.83 1.00 1.00 r p2
44.40 165.83 1.00 1.00 r p2
45.17 165.83 1.00 1.00 r p2
45.94 165.83 1.00 1.00 r p2
46.70 165.83 1.00 1.00 r p2
47.47 165.83 1.00 1.00 r p2
48.24 165.83 1.00 1.00 r p2
49.01 165.83 1.00 1.00 r p2
49.78 165.83 1.00 1.00 r p2
50.55 165.83 1.00 1.00 r p2
51.82 164.31 (>) .5 0 t
52.58 164.31 (>) .5 0 t
53.35 164.31 (>) .5 0 t
54.12 164.31 (>) .5 0 t
54.89 164.31 (>) .5 0 t
55.66 164.31 (>) .5 0 t
56.43 164.31 (>) .5 0 t
57.20 164.31 (>) .5 0 t
57.96 164.31 (>) .5 0 t
58.23 165.83 1.00 1.00 r p2
59.00 165.83 1.00 1.00 r p2
59.77 165.83 1.00 1.00 r p2
61.04 164.31 (<) .5 0 t
61.81 164.31 (<) .5 0 t
62.58 164.31 (<) .5 0 t
62.84 165.83 1.00 1.00 r p2
63.61 165.83 1.00 1.00 r p2
64.38 165.83 1.00 1.00 r p2
65.15 165.83 1.00 1.00 r p2
65.92 165.83 1.00 1.00 r p2
66.69 165.83 1.00 1.00 r p2
67.46 165.83 1.00 1.00 r p2
68.22 165.83 1.00 1.00 r p2
68.99 165.83 1.00 1.00 r p2
69.76 165.83 1.00 1.00 r p2
70.53 165.83 1.00 1.00 r p2
71.30 165.83 1.00 1.00 r p2
72.07 165.83 1.00 1.00 r p2
72.83 165.83 1.00 1.00 r p2
73.60 165.83 1.00 1.00 r p2
74.37 165.83 1.00 1.00 r p2
75.14 165.83 1.00 1.00 r p2
75.91 165.83 1.00 1.00 r p2
76.68 165.83 1.00 1.00 r p2
77.45 165.83 1.00 1.00 r p2
78.21 165.83 1.00 1.00 r p2
78.98 165.83 1.00 1.00 r p2
79.75 165.83 1.00 1.00 r p2
80.52 165.83 1.00 1.00 r p2
81.29 165.83 1.00 1.00 r p2
82.06 165.83 1.00 1.00 r p2
82.83 165.83 1.00 1.00 r p2
83.59 165.83 1.00 1.00 r p2
84.36 165.83 1.00 1.00 r p2
85.13 165.83 1.00 1.00 r p2
85.90 165.83 1.00 1.00 r p2
86.67 165.83 1.00 1.00 r p2
87.44 165.83 1.00 1.00 r p2
88.21 165.83 1.00 1.00 r p2
88.97 165.83 1.00 1.00 r p2
89.74 165.83 1.00 1.00 r p2
90.51 165.83 1.00 1.00 r p2
91.28 165.83 1.00 1.00 r p2
92.05 165.83 1.00 1.00 r p2
92.82 165.83 1.00 1.00 r p2
93.59 165.83 1.00 1.00 r p2
94.35 165.83 1.00 1.00 r p2
95.12 165.83 1.00 1.00 r p2
95.89 165.83 1.00 1.00 r p2
96.66 165.83 1.00 1.00 r p2
97.43 165.83 1.00 1.00 r p2
98.20 165.83 1.00 1.00 r p2
98.97 165.83 1.00 1.00 r p2
99.73 165.83 1.00 1.00 r p2
100.50 165.83 1.00 1.00 r p2
101.27 165.83 1.00 1.00 r p2
102.04 165.83 1.00 1.00 r p2
102.81 165.83 1.00 1.00 r p2
103.58 165.83 1.00 1.00 r p2
104.84 164.31 (>) .5 0 t
105.61 164.31 (>) .5 0 t
106.38 164.31 (>) .5 0 t
106.65 165.83 1.00 1.00 r p2
107.42 165.83 1.00 1.00 r p2
108.19 165.83 1.00 1.00 r p2
108.96 165.83 1.00 1.00 r p2
109.72 165.83 1.00 1.00 r p2
110.49 165.83 1.00 1.00 r p2
111.26 165.83 1.00 1.00 r p2
112.03 165.83 1.00 1.00 r p2
112.80 165.83 1.00 1.00 r p2
113.57 165.83 1.00 1.00 r p2
114.34 165.83 1.00 1.00 r p2
115.10 165.83 1.00 1.00 r p2
115.87 165.83 1.00 1.00 r p2
116.64 165.83 1.00 1.00 r p2
117.41 165.83 1.00 1.00 r p2
118.18 165.83 1.00 1.00 r p2
118.95 165.83 1.00 1.00 r p2
119.72 165.83 1.00 1.00 r p2
120.48 165.83 1.00 1.00 r p2
121.25 165.83 1.00 1.00 r p2
122.02 165.83 1.00 1.00 r p2
122.79 165.83 1.00 1.00 r p2
123.56 165.83 1.00 1.00 r p2
124.33 165.83 1.00 1.00 r p2
125.10 165.83 1.00 1.00 r p2
125.86 165.83 1.00 1.00 r p2
126.63 165.83 1.00 1.00 r p2
127.40 165.83 1.00 1.00 r p2
128.17 165.83 1.00 1.00 r p2
128.94 165.83 1.00 1.00 r p2
129.71 165.83 1.00 1.00 r p2
130.48 165.83 1.00 1.00 r p2
131.24 165.83 1.00 1.00 r p2
132.01 165.83 1.00 1.00 r p2
132.78 165.83 1.00 1.00 r p2
133.55 165.83 1.00 1.00 r p2
134.32 165.83 1.00 1.00 r p2
135.09 165.83 1.00 1.00 r p2
135.86 165.83 1.00 1.00 r p2
136.62 165.83 1.00 1.00 r p2
137.39 165.83 1.00 1.00 r p2
138.16 165.83 1.00 1.00 r p2
138.93 165.83 1.00 1.00 r p2
139.70 165.83 1.00 1.00 r p2
140.47 165.83 1.00 1.00 r p2
141.23 165.83 1.00 1.00 r p2
142.00 165.83 1.00 1.00 r p2
142.77 165.83 1.00 1.00 r p2
143.54 165.83 1.00 1.00 r p2
144.31 165.83 1.00 1.00 r p2
145.08 165.83 1.00 1.00 r p2
145.85 165.83 1.00 1.00 r p2
146.61 165.83 1.00 1.00 r p2
147.38 165.83 1.00 1.00 r p2
148.15 165.83 1.00 1.00 r p2
148.92 165.83 1.00 1.00 r p2
149.69 165.83 1.00 1.00 r p2
150.46 165.83 1.00 1.00 r p2
151.23 165.83 1.00 1.00 r p2
151.99 165.83 1.00 1.00 r p2
152.76 165.83 1.00 1.00 r p2
153.53 165.83 1.00 1.00 r p2
154.30 165.83 1.00 1.00 r p2
155.07 165.83 1.00 1.00 r p2
155.84 165.83 1.00 1.00 r p2
156.61 165.83 1.00 1.00 r p2
157.37 165.83 1.00 1.00 r p2
158.14 165.83 1.00 1.00 r p2
158.91 165.83 1.00 1.00 r p2
159.68 165.83 1.00 1.00 r p2
160.45 165.83 1.00 1.00 r p2
161.22 165.83 1.00 1.00 r p2
161.99 165.83 1.00 1.00 r p2
162.75 165.83 1.00 1.00 r p2
163.52 165.83 1.00 1.00 r p2
164.29 165.83 1.00 1.00 r p2
165.06 165.83 1.00 1.00 r p2
165.83 165.83 1.00 1.00 r p2
166.60 165.83 1.00 1.00 r p2
167.37 165.83 1.00 1.00 r p2
168.13 165.83 1.00 1.00 r p2
168.90 165.83 1.00 1.00 r p2
169.67 165.83 1.00 1.00 r p2
170.44 165.83 1.00 1.00 r p2
171.21 165.83 1.00 1.00 r p2
171.98 165.83 1.00 1.00 r p2
172.74 165.83 1.00 1.00 r p2
173.51 165.83 1.00 1.00 r p2
174.28 165.83 1.00 1.00 r p2
175.05 165.83 1.00 1.00 r p2
175.82 165.83 1.00 1.00 r p2
176.59 165.83 1.00 1.00 r p2
177.36 165.83 1.00 1.00 r p2
178.12 165.83 1.00 1.00 r p2
178.89 165.83 1.00 1.00 r p2
179.66 165.83 1.00 1.00 r p2
180.43 165.83 1.00 1.00 r p2
181.20 165.83 1.00 1.00 r p2
181.97 165.83 1.00 1.00 r p2
182.74 165.83 1.00 1.00 r p2
183.50 165.83 1.00 1.00 r p2
184.27 165.83 1.00 1.00 r p2
185.04 165.83 1.00 1.00 r p2
185.81 165.83 1.00 1.00 r p2
186.58 165.83 1.00 1.00 r p2
187.35 165.83 1.00 1.00 r p2
188.12 165.83 1.00 1.00 r p2
188.88 165.83 1.00 1.00 r p2
189.65 165.83 1.00 1.00 r p2
190.42 165.83 1.00 1.00 r p2
191.69 164.31 (<) .5 0 t
192.46 164.31 (<) .5 0 t
193.23 164.31 (<) .5 0 t
194.00 164.31 (<) .5 0 t
194.76 164.31 (<) .5 0 t
195.03 165.83 1.00 1.00 r p2
196.30 164.31 (<) .5 0 t
197.07 164.31 (<) .5 0 t
197.34 165.83 1.00 1.00 r p2
198.11 165.83 1.00 1.00 r p2
198.88 165.83 1.00 1.00 r p2
200.14 164.31 (<) .5 0 t
200.91 164.31 (<) .5 0 t
201.18 165.83 1.00 1.00 r p2
202.45 164.31 (<) .5 0 t
203.22 164.31 (<) .5 0 t
203.99 164.31 (<) .5 0 t
204.76 164.31 (<) .5 0 t
205.02 165.83 1.00 1.00 r p2
205.79 165.83 1.00 1.00 r p2
206.56 165.83 1.00 1.00 r p2
207.83 164.31 (<) .5 0 t
208.60 164.31 (<) .5 0 t
209.37 164.31 (<) .5 0 t
210.13 164.31 (<) .5 0 t
210.90 164.31 (<) .5 0 t
211.67 164.31 (<) .5 0 t
211.94 165.83 1.00 1.00 r p2
212.71 165.83 1.00 1.00 r p2
213.48 165.83 1.00 1.00 r p2
214.25 165.83 1.00 1.00 r p2
215.01 165.83 1.00 1.00 r p2
215.78 165.83 1.00 1.00 r p2
216.55 165.83 1.00 1.00 r p2
217.32 165.83 1.00 1.00 r p2
218.09 165.83 1.00 1.00 r p2
218.86 165.83 1.00 1.00 r p2
219.63 165.83 1.00 1.00 r p2
220.39 165.83 1.00 1.00 r p2
221.16 165.83 1.00 1.00 r p2
221.93 165.83 1.00 1.00 r p2
222.70 165.83 1.00 1.00 r p2
223.47 165.83 1.00 1.00 r p2
224.24 165.83 1.00 1.00 r p2
225.01 165.83 1.00 1.00 r p2
225.77 165.83 1.00 1.00 r p2
226.54 165.83 1.00 1.00 r p2
227.31 165.83 1.00 1.00 r p2
228.08 165.83 1.00 1.00 r p2
228.85 165.83 1.00 1.00 r p2
229.62 165.83 1.00 1.00 r p2
230.39 165.83 1.00 1.00 r p2
231.15 165.83 1.00 1.00 r p2
231.92 165.83 1.00 1.00 r p2
232.69 165.83 1.00 1.00 r p2
233.46 165.83 1.00 1.00 r p2
234.23 165.83 1.00 1.00 r p2
235.00 165.83 1.00 1.00 r p2
235.77 165.83 1.00 1.00 r p2
236.53 165.83 1.00 1.00 r p2
237.30 165.83 1.00 1.00 r p2
238.07 165.83 1.00 1.00 r p2
238.84 165.83 1.00 1.00 r p2
239.61 165.83 1.00 1.00 r p2
240.38 165.83 1.00 1.00 r p2
241.14 165.83 1.00 1.00 r p2
241.91 165.83 1.00 1.00 r p2
242.68 165.83 1.00 1.00 r p2
243.45 165.83 1.00 1.00 r p2
244.22 165.83 1.00 1.00 r p2
244.99 165.83 1.00 1.00 r p2
245.76 165.83 1.00 1.00 r p2
246.52 165.83 1.00 1.00 r p2
247.29 165.83 1.00 1.00 r p2
248.06 165.83 1.00 1.00 r p2
248.83 165.83 1.00 1.00 r p2
249.60 165.83 1.00 1.00 r p2
250.37 165.83 1.00 1.00 r p2
251.14 165.83 1.00 1.00 r p2
251.90 165.83 1.00 1.00 r p2
252.67 165.83 1.00 1.00 r p2
253.44 165.83 1.00 1.00 r p2
254.21 165.83 1.00 1.00 r p2
254.98 165.83 1.00 1.00 r p2
255.75 165.83 1.00 1.00 r p2
256.52 165.83 1.00 1.00 r p2
257.28 165.83 1.00 1.00 r p2
258.05 165.83 1.00 1.00 r p2
258.82 165.83 1.00 1.00 r p2
259.59 165.83 1.00 1.00 r p2
260.36 165.83 1.00 1.00 r p2
261.13 165.83 1.00 1.00 r p2
261.90 165.83 1.00 1.00 r p2
262.66 165.83 1.00 1.00 r p2
263.43 165.83 1.00 1.00 r p2
264.20 165.83 1.00 1.00 r p2
264.97 165.83 1.00 1.00 r p2
265.74 165.83 1.00 1.00 r p2
266.51 165.83 1.00 1.00 r p2
267.28 165.83 1.00 1.00 r p2
268.04 165.83 1.00 1.00 r p2
268.81 165.83 1.00 1.00 r p2
269.58 165.83 1.00 1.00 r p2
270.35 165.83 1.00 1.00 r p2
271.12 165.83 1.00 1.00 r p2
271.89 165.83 1.00 1.00 r p2
272.66 165.83 1.00 1.00 r p2
273.42 165.83 1.00 1.00 r p2
274.19 165.83 1.00 1.00 r p2
274.96 165.83 1.00 1.00 r p2
275.73 165.83 1.00 1.00 r p2
276.50 165.83 1.00 1.00 r p2
277.27 165.83 1.00 1.00 r p2
278.03 165.83 1.00 1.00 r p2
278.80 165.83 1.00 1.00 r p2
279.57 165.83 1.00 1.00 r p2
280.34 165.83 1.00 1.00 r p2
281.11 165.83 1.00 1.00 r p2
281.88 165.83 1.00 1.00 r p2
282.65 165.83 1.00 1.00 r p2
283.41 165.83 1.00 1.00 r p2
284.18 165.83 1.00 1.00 r p2
284.95 165.83 1.00 1.00 r p2
285.72 165.83 1.00 1.00 r p2
286.49 165.83 1.00 1.00 r p2
287.26 165.83 1.00 1.00 r p2
288.03 165.83 1.00 1.00 r p2
288.79 165.83 1.00 1.00 r p2
289.56 165.83 1.00 1.00 r p2
290.33 165.83 1.00 1.00 r p2
291.10 165.83 1.00 1.00 r p2
291.87 165.83 1.00 1.00 r p2
292.64 165.83 1.00 1.00 r p2
293.41 165.83 1.00 1.00 r p2
294.17 165.83 1.00 1.00 r p2
294.94 165.83 1.00 1.00 r p2
295.71 165.83 1.00 1.00 r p2
296.48 165.83 1.00 1.00 r p2
297.25 165.83 1.00 1.00 r p2
298.02 165.83 1.00 1.00 r p2
298.79 165.83 1.00 1.00 r p2
299.55 165.83 1.00 1.00 r p2
300.32 165.83 1.00 1.00 r p2
301.09 165.83 1.00 1.00 r p2
301.86 165.83 1.00 1.00 r p2
302.63 165.83 1.00 1.00 r p2
303.40 165.83 1.00 1.00 r p2
304.17 165.83 1.00 1.00 r p2
304.93 165.83 1.00 1.00 r p2
305.70 165.83 1.00 1.00 r p2
306.47 165.83 1.00 1.00 r p2
307.24 165.83 1.00 1.00 r p2
308.01 165.83 1.00 1.00 r p2
308.78 165.83 1.00 1.00 r p2
309.54 165.83 1.00 1.00 r p2
310.31 165.83 1.00 1.00 r p2
311.08 165.83 1.00 1.00 r p2
311.85 165.83 1.00 1.00 r p2
312.62 165.83 1.00 1.00 r p2
313.39 165.83 1.00 1.00 r p2
314.16 165.83 1.00 1.00 r p2
314.92 165.83 1.00 1.00 r p2
315.69 165.83 1.00 1.00 r p2
316.46 165.83 1.00 1.00 r p2
317.23 165.83 1.00 1.00 r p2
318.00 165.83 1.00 1.00 r p2
318.77 165.83 1.00 1.00 r p2
319.54 165.83 1.00 1.00 r p2
320.30 165.83 1.00 1.00 r p2
321.07 165.83 1.00 1.00 r p2
321.84 165.83 1.00 1.00 r p2
322.61 165.83 1.00 1.00 r p2
323.38 165.83 1.00 1.00 r p2
324.15 165.83 1.00 1.00 r p2
324.92 165.83 1.00 1.00 r p2
325.68 165.83 1.00 1.00 r p2
326.45 165.83 1.00 1.00 r p2
327.22 165.83 1.00 1.00 r p2
327.99 165.83 1.00 1.00 r p2
328.76 165.83 1.00 1.00 r p2
329.53 165.83 1.00 1.00 r p2
330.30 165.83 1.00 1.00 r p2
331.06 165.83 1.00 1.00 r p2
331.83 165.83 1.00 1.00 r p2
332.60 165.83 1.00 1.00 r p2
333.37 165.83 1.00 1.00 r p2
334.14 165.83 1.00 1.00 r p2
334.91 165.83 1.00 1.00 r p2
335.68 165.83 1.00 1.00 r p2
336.44 165.83 1.00 1.00 r p2
337.71 164.31 (>) .5 0 t
338.48 164.31 (>) .5 0 t
339.25 164.31 (>) .5 0 t
340.02 164.31 (>) .5 0 t
340.79 164.31 (>) .5 0 t
341.56 164.31 (>) .5 0 t
341.82 165.83 1.00 1.00 r p2
342.59 165.83 1.00 1.00 r p2
343.86 164.31 (>) .5 0 t
344.63 164.31 (>) .5 0 t
344.90 165.83 1.00 1.00 r p2
346.17 164.31 (>) .5 0 t
346.93 164.31 (>) .5 0 t
347.70 164.31 (>) .5 0 t
348.47 164.31 (>) .5 0 t
349.24 164.31 (<) .5 0 t
350.01 164.31 (<) .5 0 t
350.28 165.83 1.00 1.00 r p2
351.05 165.83 1.00 1.00 r p2
351.81 165.83 1.00 1.00 r p2
353.08 164.31 (<) .5 0 t
353.85 164.31 (<) .5 0 t
354.62 164.31 (<) .5 0 t
355.39 164.31 (<) .5 0 t
355.66 165.83 1.00 1.00 r p2
356.43 165.83 1.00 1.00 r p2
357.19 165.83 1.00 1.00 r p2
357.96 165.83 1.00 1.00 r p2
359.23 164.31 (<) .5 0 t
360.00 164.31 (<) .5 0 t
360.77 164.31 (<) .5 0 t
361.54 164.31 (<) .5 0 t
362.31 164.31 (<) .5 0 t
363.07 164.31 (<) .5 0 t
363.84 164.31 (<) .5 0 t
364.11 165.83 1.00 1.00 r p2
364.88 165.83 1.00 1.00 r p2
365.65 165.83 1.00 1.00 r p2
366.42 165.83 1.00 1.00 r p2
367.19 165.83 1.00 1.00 r p2
367.95 165.83 1.00 1.00 r p2
368.72 165.83 1.00 1.00 r p2
369.49 165.83 1.00 1.00 r p2
370.26 165.83 1.00 1.00 r p2
371.03 165.83 1.00 1.00 r p2
371.80 165.83 1.00 1.00 r p2
372.57 165.83 1.00 1.00 r p2
373.33 165.83 1.00 1.00 r p2
374.10 165.83 1.00 1.00 r p2
374.87 165.83 1.00 1.00 r p2
375.64 165.83 1.00 1.00 r p2
376.41 165.83 1.00 1.00 r p2
377.18 165.83 1.00 1.00 r p2
377.94 165.83 1.00 1.00 r p2
378.71 165.83 1.00 1.00 r p2
379.48 165.83 1.00 1.00 r p2
380.25 165.83 1.00 1.00 r p2
381.02 165.83 1.00 1.00 r p2
381.79 165.83 1.00 1.00 r p2
382.56 165.83 1.00 1.00 r p2
383.32 165.83 1.00 1.00 r p2
384.09 165.83 1.00 1.00 r p2
385.36 164.31 (>) .5 0 t
386.13 164.31 (>) .5 0 t
386.90 164.31 (>) .5 0 t
387.67 164.31 (>) .5 0 t
388.44 164.31 (>) .5 0 t
389.20 164.31 (>) .5 0 t
389.97 164.31 (>) .5 0 t
390.24 165.83 1.00 1.00 r p2
391.01 165.83 1.00 1.00 r p2
391.78 165.83 1.00 1.00 r p2
393.05 164.31 (>) .5 0 t
393.82 164.31 (>) .5 0 t
394.58 164.31 (>) .5 0 t
395.35 164.31 (>) .5 0 t
395.62 165.83 1.00 1.00 r p2
396.39 165.83 1.00 1.00 r p2
397.16 165.83 1.00 1.00 r p2
398.43 164.31 (>) .5 0 t
399.20 164.31 (>) .5 0 t
399.46 165.83 1.00 1.00 r p2
400.23 165.83 1.00 1.00 r p2
401.00 165.83 1.00 1.00 r p2
402.27 163.46 (A) .5 0 t
402.54 165.83 1.00 1.00 r p2
403.81 163.46 (A) .5 0 t
404.58 163.46 (A) .5 0 t
405.34 163.46 (A) .5 0 t
406.11 163.46 (A) .5 0 t
406.88 163.46 (A) .5 0 t
407.15 165.83 1.00 1.00 r p2
407.92 165.83 1.00 1.00 r p2
408.69 165.83 1.00 1.00 r p2
409.46 165.83 1.00 1.00 r p2
410.22 165.83 1.00 1.00 r p2
410.99 165.83 1.00 1.00 r p2
411.76 165.83 1.00 1.00 r p2
412.53 165.83 1.00 1.00 r p2
413.30 165.83 1.00 1.00 r p2
414.07 165.83 1.00 1.00 r p2
414.83 165.83 1.00 1.00 r p2
415.60 165.83 1.00 1.00 r p2
416.37 165.83 1.00 1.00 r p2
417.14 165.83 1.00 1.00 r p2
417.91 165.83 1.00 1.00 r p2
418.68 165.83 1.00 1.00 r p2
419.45 165.83 1.00 1.00 r p2
420.21 165.83 1.00 1.00 r p2
420.98 165.83 1.00 1.00 r p2
421.75 165.83 1.00 1.00 r p2
422.52 165.83 1.00 1.00 r p2
423.29 165.83 1.00 1.00 r p2
424.06 165.83 1.00 1.00 r p2
424.83 165.83 1.00 1.00 r p2
425.59 165.83 1.00 1.00 r p2
426.36 165.83 1.00 1.00 r p2
427.13 165.83 1.00 1.00 r p2
427.90 165.83 1.00 1.00 r p2
428.67 165.83 1.00 1.00 r p2
429.44 165.83 1.00 1.00 r p2
430.21 165.83 1.00 1.00 r p2
430.97 165.83 1.00 1.00 r p2
431.74 165.83 1.00 1.00 r p2
432.51 165.83 1.00 1.00 r p2
433.28 165.83 1.00 1.00 r p2
434.05 165.83 1.00 1.00 r p2
434.82 165.83 1.00 1.00 r p2
435.59 165.83 1.00 1.00 r p2
436.35 165.83 1.00 1.00 r p2
437.12 165.83 1.00 1.00 r p2
437.89 165.83 1.00 1.00 r p2
438.66 165.83 1.00 1.00 r p2
439.43 165.83 1.00 1.00 r p2
440.20 165.83 1.00 1.00 r p2
440.97 165.83 1.00 1.00 r p2
441.73 165.83 1.00 1.00 r p2
442.50 165.83 1.00 1.00 r p2
443.27 165.83 1.00 1.00 r p2
444.04 165.83 1.00 1.00 r p2
444.81 165.83 1.00 1.00 r p2
445.58 165.83 1.00 1.00 r p2
446.34 165.83 1.00 1.00 r p2
447.11 165.83 1.00 1.00 r p2
447.88 165.83 1.00 1.00 r p2
448.65 165.83 1.00 1.00 r p2
449.92 164.31 (>) .5 0 t
450.69 164.31 (>) .5 0 t
450.96 165.83 1.00 1.00 r p2
452.22 164.31 (>) .5 0 t
452.99 164.31 (>) .5 0 t
453.76 164.31 (>) .5 0 t
454.53 164.31 (>) .5 0 t
455.30 164.31 (>) .5 0 t
455.57 165.83 1.00 1.00 r p2
456.84 164.31 (<) .5 0 t
457.60 164.31 (<) .5 0 t
458.37 164.31 (<) .5 0 t
459.14 164.31 (<) .5 0 t
459.91 164.31 (<) .5 0 t
460.68 164.31 (<) .5 0 t
461.45 164.31 (<) .5 0 t
462.22 164.31 (<) .5 0 t
462.98 164.31 (<) .5 0 t
463.25 165.83 1.00 1.00 r p2
464.02 165.83 1.00 1.00 r p2
464.79 165.83 1.00 1.00 r p2
465.56 165.83 1.00 1.00 r p2
466.33 165.83 1.00 1.00 r p2
467.10 165.83 1.00 1.00 r p2
467.86 165.83 1.00 1.00 r p2
468.63 165.83 1.00 1.00 r p2
469.40 165.83 1.00 1.00 r p2
470.17 165.83 1.00 1.00 r p2
470.94 165.83 1.00 1.00 r p2
471.71 165.83 1.00 1.00 r p2
472.48 165.83 1.00 1.00 r p2
473.24 165.83 1.00 1.00 r p2
474.01 165.83 1.00 1.00 r p2
474.78 165.83 1.00 1.00 r p2
475.55 165.83 1.00 1.00 r p2
476.32 165.83 1.00 1.00 r p2
477.09 165.83 1.00 1.00 r p2
477.86 165.83 1.00 1.00 r p2
478.62 165.83 1.00 1.00 r p2
479.39 165.83 1.00 1.00 r p2
480.16 165.83 1.00 1.00 r p2
480.93 165.83 1.00 1.00 r p2
481.70 165.83 1.00 1.00 r p2
482.47 165.83 1.00 1.00 r p2
483.23 165.83 1.00 1.00 r p2
484.00 165.83 1.00 1.00 r p2
484.77 165.83 1.00 1.00 r p2
485.54 165.83 1.00 1.00 r p2
486.31 165.83 1.00 1.00 r p2
487.08 165.83 1.00 1.00 r p2
487.85 165.83 1.00 1.00 r p2
488.61 165.83 1.00 1.00 r p2
489.38 165.83 1.00 1.00 r p2
490.15 165.83 1.00 1.00 r p2
490.92 165.83 1.00 1.00 r p2
491.69 165.83 1.00 1.00 r p2
492.46 165.83 1.00 1.00 r p2
493.23 165.83 1.00 1.00 r p2
493.99 165.83 1.00 1.00 r p2
494.76 165.83 1.00 1.00 r p2
495.53 165.83 1.00 1.00 r p2
496.30 165.83 1.00 1.00 r p2
497.07 165.83 1.00 1.00 r p2
497.84 165.83 1.00 1.00 r p2
498.61 165.83 1.00 1.00 r p2
499.37 165.83 1.00 1.00 r p2
500.14 165.83 1.00 1.00 r p2
500.91 165.83 1.00 1.00 r p2
501.68 165.83 1.00 1.00 r p2
502.45 165.83 1.00 1.00 r p2
503.22 165.83 1.00 1.00 r p2
503.99 165.83 1.00 1.00 r p2
504.75 165.83 1.00 1.00 r p2
505.52 165.83 1.00 1.00 r p2
506.29 165.83 1.00 1.00 r p2
507.06 165.83 1.00 1.00 r p2
507.83 165.83 1.00 1.00 r p2
508.60 165.83 1.00 1.00 r p2
509.37 165.83 1.00 1.00 r p2
510.13 165.83 1.00 1.00 r p2
510.90 165.83 1.00 1.00 r p2
511.67 165.83 1.00 1.00 r p2
512.44 165.83 1.00 1.00 r p2
513.21 165.83 1.00 1.00 r p2
513.98 165.83 1.00 1.00 r p2
514.74 165.83 1.00 1.00 r p2
515.51 165.83 1.00 1.00 r p2
516.28 165.83 1.00 1.00 r p2
517.05 165.83 1.00 1.00 r p2
517.82 165.83 1.00 1.00 r p2
518.59 165.83 1.00 1.00 r p2
519.36 165.83 1.00 1.00 r p2
520.12 165.83 1.00 1.00 r p2
520.89 165.83 1.00 1.00 r p2
521.66 165.83 1.00 1.00 r p2
522.43 165.83 1.00 1.00 r p2
523.20 165.83 1.00 1.00 r p2
523.97 165.83 1.00 1.00 r p2
524.74 165.83 1.00 1.00 r p2
525.50 165.83 1.00 1.00 r p2
526.27 165.83 1.00 1.00 r p2
527.04 165.83 1.00 1.00 r p2
527.81 165.83 1.00 1.00 r p2
528.58 165.83 1.00 1.00 r p2
529.35 165.83 1.00 1.00 r p2
530.12 165.83 1.00 1.00 r p2
530.88 165.83 1.00 1.00 r p2
531.65 165.83 1.00 1.00 r p2
532.42 165.83 1.00 1.00 r p2
533.19 165.83 1.00 1.00 r p2
533.96 165.83 1.00 1.00 r p2
534.73 165.83 1.00 1.00 r p2
535.50 165.83 1.00 1.00 r p2
536.26 165.83 1.00 1.00 r p2
537.03 165.83 1.00 1.00 r p2
537.80 165.83 1.00 1.00 r p2
538.57 165.83 1.00 1.00 r p2
539.34 165.83 1.00 1.00 r p2
540.11 165.83 1.00 1.00 r p2
540.88 165.83 1.00 1.00 r p2
541.64 165.83 1.00 1.00 r p2
542.41 165.83 1.00 1.00 r p2
543.18 165.83 1.00 1.00 r p2
543.95 165.83 1.00 1.00 r p2
544.72 165.83 1.00 1.00 r p2
545.49 165.83 1.00 1.00 r p2
546.26 165.83 1.00 1.00 r p2
547.02 165.83 1.00 1.00 r p2
547.79 165.83 1.00 1.00 r p2
548.56 165.83 1.00 1.00 r p2
549.33 165.83 1.00 1.00 r p2
550.10 165.83 1.00 1.00 r p2
550.87 165.83 1.00 1.00 r p2
551.63 165.83 1.00 1.00 r p2
552.40 165.83 1.00 1.00 r p2
553.17 165.83 1.00 1.00 r p2
553.94 165.83 1.00 1.00 r p2
554.71 165.83 1.00 1.00 r p2
555.48 165.83 1.00 1.00 r p2
556.25 165.83 1.00 1.00 r p2
557.01 165.83 1.00 1.00 r p2
557.78 165.83 1.00 1.00 r p2
558.55 165.83 1.00 1.00 r p2
559.32 165.83 1.00 1.00 r p2
560.09 165.83 1.00 1.00 r p2
560.86 165.83 1.00 1.00 r p2
561.63 165.83 1.00 1.00 r p2
562.39 165.83 1.00 1.00 r p2
563.16 165.83 1.00 1.00 r p2
563.93 165.83 1.00 1.00 r p2
564.70 165.83 1.00 1.00 r p2
565.47 165.83 1.00 1.00 r p2
566.24 165.83 1.00 1.00 r p2
567.01 165.83 1.00 1.00 r p2
567.77 165.83 1.00 1.00 r p2
568.54 165.83 1.00 1.00 r p2
569.31 165.83 1.00 1.00 r p2
570.08 165.83 1.00 1.00 r p2
570.85 165.83 1.00 1.00 r p2
571.62 165.83 1.00 1.00 r p2
572.39 165.83 1.00 1.00 r p2
573.15 165.83 1.00 1.00 r p2
573.92 165.83 1.00 1.00 r p2
574.69 165.83 1.00 1.00 r p2
575.46 165.83 1.00 1.00 r p2
576.23 165.83 1.00 1.00 r p2
577.00 165.83 1.00 1.00 r p2
577.77 165.83 1.00 1.00 r p2
578.53 165.83 1.00 1.00 r p2
579.30 165.83 1.00 1.00 r p2
580.07 165.83 1.00 1.00 r p2
580.84 165.83 1.00 1.00 r p2
581.61 165.83 1.00 1.00 r p2
582.38 165.83 1.00 1.00 r p2
583.14 165.83 1.00 1.00 r p2
583.91 165.83 1.00 1.00 r p2
584.68 165.83 1.00 1.00 r p2
585.45 165.83 1.00 1.00 r p2
586.22 165.83 1.00 1.00 r p2
586.99 165.83 1.00 1.00 r p2
587.76 165.83 1.00 1.00 r p2
588.52 165.83 1.00 1.00 r p2
589.29 165.83 1.00 1.00 r p2
590.06 165.83 1.00 1.00 r p2
590.83 165.83 1.00 1.00 r p2
591.60 165.83 1.00 1.00 r p2
592.37 165.83 1.00 1.00 r p2
593.14 165.83 1.00 1.00 r p2
593.90 165.83 1.00 1.00 r p2
594.67 165.83 1.00 1.00 r p2
595.44 165.83 1.00 1.00 r p2
596.21 165.83 1.00 1.00 r p2
596.98 165.83 1.00 1.00 r p2
597.75 165.83 1.00 1.00 r p2
598.52 165.83 1.00 1.00 r p2
599.28 165.83 1.00 1.00 r p2
600.05 165.83 1.00 1.00 r p2
600.82 165.83 1.00 1.00 r p2
601.59 165.83 1.00 1.00 r p2
602.36 165.83 1.00 1.00 r p2
603.13 165.83 1.00 1.00 r p2
603.90 165.83 1.00 1.00 r p2
604.66 165.83 1.00 1.00 r p2
605.43 165.83 1.00 1.00 r p2
606.20 165.83 1.00 1.00 r p2
606.97 165.83 1.00 1.00 r p2
607.74 165.83 1.00 1.00 r p2
608.51 165.83 1.00 1.00 r p2
609.28 165.83 1.00 1.00 r p2
610.04 165.83 1.00 1.00 r p2
610.81 165.83 1.00 1.00 r p2
611.58 165.83 1.00 1.00 r p2
612.35 165.83 1.00 1.00 r p2
613.12 165.83 1.00 1.00 r p2
613.89 165.83 1.00 1.00 r p2
614.66 165.83 1.00 1.00 r p2
615.42 165.83 1.00 1.00 r p2
616.19 165.83 1.00 1.00 r p2
616.96 165.83 1.00 1.00 r p2
617.73 165.83 1.00 1.00 r p2
618.50 165.83 1.00 1.00 r p2
619.27 165.83 1.00 1.00 r p2
620.03 165.83 1.00 1.00 r p2
620.80 165.83 1.00 1.00 r p2
621.57 165.83 1.00 1.00 r p2
622.34 165.83 1.00 1.00 r p2
623.11 165.83 1.00 1.00 r p2
623.88 165.83 1.00 1.00 r p2
624.65 165.83 1.00 1.00 r p2
625.41 165.83 1.00 1.00 r p2
626.18 165.83 1.00 1.00 r p2
626.95 165.83 1.00 1.00 r p2
627.72 165.83 1.00 1.00 r p2
628.49 165.83 1.00 1.00 r p2
629.26 165.83 1.00 1.00 r p2
630.03 165.83 1.00 1.00 r p2
630.79 165.83 1.00 1.00 r p2
631.56 165.83 1.00 1.00 r p2
632.33 165.83 1.00 1.00 r p2
633.10 165.83 1.00 1.00 r p2
633.87 165.83 1.00 1.00 r p2
634.64 165.83 1.00 1.00 r p2
635.41 165.83 1.00 1.00 r p2
636.17 165.83 1.00 1.00 r p2
636.94 165.83 1.00 1.00 r p2
637.71 165.83 1.00 1.00 r p2
638.48 165.83 1.00 1.00 r p2
639.25 165.83 1.00 1.00 r p2
640.02 165.83 1.00 1.00 r p2
640.79 165.83 1.00 1.00 r p2
641.55 165.83 1.00 1.00 r p2
642.32 165.83 1.00 1.00 r p2
643.09 165.83 1.00 1.00 r p2
643.86 165.83 1.00 1.00 r p2
644.63 165.83 1.00 1.00 r p2
645.40 165.83 1.00 1.00 r p2
646.17 165.83 1.00 1.00 r p2
646.93 165.83 1.00 1.00 r p2
647.70 165.83 1.00 1.00 r p2
648.47 165.83 1.00 1.00 r p2
649.24 165.83 1.00 1.00 r p2
650.01 165.83 1.00 1.00 r p2
650.78 165.83 1.00 1.00 r p2
651.54 165.83 1.00 1.00 r p2
652.31 165.83 1.00 1.00 r p2
653.08 165.83 1.00 1.00 r p2
653.85 165.83 1.00 1.00 r p2
654.62 165.83 1.00 1.00 r p2
655.39 165.83 1.00 1.00 r p2
656.16 165.83 1.00 1.00 r p2
656.92 165.83 1.00 1.00 r p2
657.69 165.83 1.00 1.00 r p2
658.46 165.83 1.00 1.00 r p2
659.23 165.83 1.00 1.00 r p2
660.00 165.83 1.00 1.00 r p2
660.77 165.83 1.00 1.00 r p2
661.54 165.83 1.00 1.00 r p2
662.30 165.83 1.00 1.00 r p2
663.07 165.83 1.00 1.00 r p2
663.84 165.83 1.00 1.00 r p2
664.61 165.83 1.00 1.00 r p2
665.38 165.83 1.00 1.00 r p2
666.15 165.83 1.00 1.00 r p2
666.92 165.83 1.00 1.00 r p2
668.18 164.31 (>) .5 0 t
668.95 164.31 (>) .5 0 t
669.72 164.31 (>) .5 0 t
670.49 164.31 (>) .5 0 t
671.26 164.31 (>) .5 0 t
672.03 164.31 (>) .5 0 t
672.80 164.31 (>) .5 0 t
673.56 164.31 (>) .5 0 t
674.33 164.31 (>) .5 0 t
674.60 165.83 1.00 1.00 r p2
675.37 165.83 1.00 1.00 r p2
676.14 165.83 1.00 1.00 r p2
676.91 165.83 1.00 1.00 r p2
677.68 165.83 1.00 1.00 r p2
678.44 165.83 1.00 1.00 r p2
679.21 165.83 1.00 1.00 r p2
679.98 165.83 1.00 1.00 r p2
681.25 164.24 (a) .5 0 t
682.02 164.24 (a) .5 0 t
682.79 164.24 (a) .5 0 t
683.56 164.24 (a) .5 0 t
684.32 164.24 (a) .5 0 t
685.09 164.24 (a) .5 0 t
685.36 165.83 1.00 1.00 r p2
686.13 165.83 1.00 1.00 r p2
686.90 165.83 1.00 1.00 r p2
687.67 165.83 1.00 1.00 r p2
688.43 165.83 1.00 1.00 r p2
689.20 165.83 1.00 1.00 r p2
690.47 164.31 (<) .5 0 t
691.24 164.31 (<) .5 0 t
692.01 164.31 (<) .5 0 t
692.78 164.31 (<) .5 0 t
693.55 164.31 (<) .5 0 t
693.81 165.83 1.00 1.00 r p2
694.58 165.83 1.00 1.00 r p2
695.35 165.83 1.00 1.00 r p2
696.12 165.83 1.00 1.00 r p2
697.39 164.31 (>) .5 0 t
698.16 164.31 (>) .5 0 t
698.93 164.31 (>) .5 0 t
699.69 164.31 (>) .5 0 t
700.46 164.31 (>) .5 0 t
700.73 165.83 1.00 1.00 r p2
701.50 165.83 1.00 1.00 r p2
0.00 0.00 720.00 180.00 cl
0.00 0.00 720.00 180.00 cl
0 0 0 srgb
0.75 setlinewidth
[] 0 setdash
1 setlinecap
1 setlinejoin
10.00 setmiterlimit
np
18.00 36.00 m
683.23 0 l
o
np
24.92 36.00 m
0 -7.20 l
o
np
32.60 36.00 m
0 -7.20 l
o
np
40.29 36.00 m
0 -7.20 l
o
np
47.97 36.00 m
0 -7.20 l
o
np
55.66 36.00 m
0 -7.20 l
o
np
63.34 36.00 m
0 -7.20 l
o
np
71.03 36.00 m
0 -7.20 l
o
np
78.71 36.00 m
0 -7.20 l
o
np
86.40 36.00 m
0 -7.20 l
o
np
94.09 36.00 m
0 -7.20 l
o
np
101.77 36.00 m
0 -7.20 l
o
np
109.46 36.00 m
0 -7.20 l
o
np
117.14 36.00 m
0 -7.20 l
o
np
124.83 36.00 m
0 -7.20 l
o
np
132.51 36.00 m
0 -7.20 l
o
np
140.20 36.00 m
0 -7.20 l
o
np
147.88 36.00 m
0 -7.20 l
o
np
155.57 36.00 m
0 -7.20 l
o
np
163.25 36.00 m
0 -7.20 l
o
np
170.94 36.00 m
0 -7.20 l
o
np
178.62 36.00 m
0 -7.20 l
o
np
186.31 36.00 m
0 -7.20 l
o
np
194.00 36.00 m
0 -7.20 l
o
np
201.68 36.00 m
0 -7.20 l
o
np
209.37 36.00 m
0 -7.20 l
o
np
217.05 36.00 m
0 -7.20 l
o
np
224.74 36.00 m
0 -7.20 l
o
np
232.42 36.00 m
0 -7.20 l
o
np
240.11 36.00 m
0 -7.20 l
o
np
247.79 36.00 m
0 -7.20 l
o
np
255.48 36.00 m
0 -7.20 l
o
np
263.16 36.00 m
0 -7.20 l
o
np
270.85 36.00 m
0 -7.20 l
o
np
278.53 36.00 m
0 -7.20 l
o
np
286.22 36.00 m
0 -7.20 l
o
np
293.91 36.00 m
0 -7.20 l
o
np
301.59 36.00 m
0 -7.20 l
o
np
309.28 36.00 m
0 -7.20 l
o
np
316.96 36.00 m
0 -7.20 l
o
np
324.65 36.00 m
0 -7.20 l
o
np
332.33 36.00 m
0 -7.20 l
o
np
340.02 36.00 m
0 -7.20 l
o
np
347.70 36.00 m
0 -7.20 l
o
np
355.39 36.00 m
0 -7.20 l
o
np
363.07 36.00 m
0 -7.20 l
o
np
370.76 36.00 m
0 -7.20 l
o
np
378.44 36.00 m
0 -7.20 l
o
np
386.13 36.00 m
0 -7.20 l
o
np
393.82 36.00 m
0 -7.20 l
o
np
401.50 36.00 m
0 -7.20 l
o
np
409.19 36.00 m
0 -7.20 l
o
np
416.87 36.00 m
0 -7.20 l
o
np
424.56 36.00 m
0 -7.20 l
o
np
432.24 36.00 m
0 -7.20 l
o
np
439.93 36.00 m
0 -7.20 l
o
np
447.61 36.00 m
0 -7.20 l
o
np
455.30 36.00 m
0 -7.20 l
o
np
462.98 36.00 m
0 -7.20 l
o
np
470.67 36.00 m
0 -7.20 l
o
np
478.36 36.00 m
0 -7.20 l
o
np
486.04 36.00 m
0 -7.20 l
o
np
493.73 36.00 m
0 -7.20 l
o
np
501.41 36.00 m
0 -7.20 l
o
np
509.10 36.00 m
0 -7.20 l
o
np
516.78 36.00 m
0 -7.20 l
o
np
524.47 36.00 m
0 -7.20 l
o
np
532.15 36.00 m
0 -7.20 l
o
np
539.84 36.00 m
0 -7.20 l
o
np
547.52 36.00 m
0 -7.20 l
o
np
555.21 36.00 m
0 -7.20 l
o
np
562.89 36.00 m
0 -7.20 l
o
np
570.58 36.00 m
0 -7.20 l
o
np
578.27 36.00 m
0 -7.20 l
o
np
585.95 36.00 m
0 -7.20 l
o
np
593.64 36.00 m
0 -7.20 l
o
np
601.32 36.00 m
0 -7.20 l
o
np
609.01 36.00 m
0 -7.20 l
o
np
616.69 36.00 m
0 -7.20 l
o
np
624.38 36.00 m
0 -7.20 l
o
np
632.06 36.00 m
0 -7.20 l
o
np
639.75 36.00 m
0 -7.20 l
o
np
647.43 36.00 m
0 -7.20 l
o
np
655.12 36.00 m
0 -7.20 l
o
np
662.80 36.00 m
0 -7.20 l
o
np
670.49 36.00 m
0 -7.20 l
o
np
678.18 36.00 m
0 -7.20 l
o
np
685.86 36.00 m
0 -7.20 l
o
np
693.55 36.00 m
0 -7.20 l
o
np
701.23 36.00 m
0 -7.20 l
o
/Font1 findfont 12 s
24.92 10.08 (10) .5 0 t
55.66 10.08 (50) .5 0 t
86.40 10.08 (90) .5 0 t
117.14 10.08 (130) .5 0 t
147.88 10.08 (170) .5 0 t
178.62 10.08 (210) .5 0 t
209.37 10.08 (250) .5 0 t
240.11 10.08 (290) .5 0 t
270.85 10.08 (330) .5 0 t
301.59 10.08 (370) .5 0 t
332.33 10.08 (410) .5 0 t
363.07 10.08 (450) .5 0 t
393.82 10.08 (490) .5 0 t
424.56 10.08 (530) .5 0 t
455.30 10.08 (570) .5 0 t
486.04 10.08 (610) .5 0 t
516.78 10.08 (650) .5 0 t
547.52 10.08 (690) .5 0 t
578.27 10.08 (730) .5 0 t
609.01 10.08 (770) .5 0 t
639.75 10.08 (810) .5 0 t
670.49 10.08 (850) .5 0 t
701.23 10.08 (890) .5 0 t
18.00 36.00 702.00 180.00 cl
/bg { 0 0 0 srgb } def
17.50 157.50 1.00 1.00 r p2
18.27 157.50 1.00 1.00 r p2
19.04 157.50 1.00 1.00 r p2
19.81 157.50 1.00 1.00 r p2
/Font1 findfont 8 s
0 0 0 srgb
21.07 155.98 (<) .5 0 t
21.84 155.98 (<) .5 0 t
22.61 155.98 (<) .5 0 t
23.38 155.98 (<) .5 0 t
24.15 155.98 (<) .5 0 t
24.92 155.98 (<) .5 0 t
25.69 155.98 (<) .5 0 t
26.45 155.98 (<) .5 0 t
27.22 155.98 (<) .5 0 t
27.49 157.50 1.00 1.00 r p2
28.26 157.50 1.00 1.00 r p2
29.03 157.50 1.00 1.00 r p2
29.80 157.50 1.00 1.00 r p2
30.57 157.50 1.00 1.00 r p2
31.33 157.50 1.00 1.00 r p2
32.10 157.50 1.00 1.00 r p2
32.87 157.50 1.00 1.00 r p2
33.64 157.50 1.00 1.00 r p2
34.41 157.50 1.00 1.00 r p2
35.18 157.50 1.00 1.00 r p2
35.94 157.50 1.00 1.00 r p2
36.71 157.50 1.00 1.00 r p2
37.48 157.50 1.00 1.00 r p2
38.25 157.50 1.00 1.00 r p2
39.02 157.50 1.00 1.00 r p2
39.79 157.50 1.00 1.00 r p2
40.56 157.50 1.00 1.00 r p2
41.32 157.50 1.00 1.00 r p2
42.09 157.50 1.00 1.00 r p2
42.86 157.50 1.00 1.00 r p2
43.63 157.50 1.00 1.00 r p2
44.40 157.50 1.00 1.00 r p2
45.17 157.50 1.00 1.00 r p2
45.94 157.50 1.00 1.00 r p2
46.70 157.50 1.00 1.00 r p2
47.47 157.50 1.00 1.00 r p2
48.24 157.50 1.00 1.00 r p2
49.01 157.50 1.00 1.00 r p2
49.78 157.50 1.00 1.00 r p2
50.55 157.50 1.00 1.00 r p2
51.82 155.98 (>) .5 0 t
52.58 155.98 (>) .5 0 t
53.35 155.98 (>) .5 0 t
54.12 155.98 (>) .5 0 t
54.89 155.98 (>) .5 0 t
55.66 155.98 (>) .5 0 t
56.43 155.98 (>) .5 0 t
57.20 155.98 (>) .5 0 t
57.96 155.98 (>) .5 0 t
58.23 157.50 1.00 1.00 r p2
59.00 157.50 1.00 1.00 r p2
59.77 157.50 1.00 1.00 r p2
61.04 155.98 (<) .5 0 t
61.81 155.98 (<) .5 0 t
62.58 155.98 (<) .5 0 t
62.84 157.50 1.00 1.00 r p2
63.61 157.50 1.00 1.00 r p2
64.38 157.50 1.00 1.00 r p2
65.15 157.50 1.00 1.00 r p2
65.92 157.50 1.00 1.00 r p2
66.69 157.50 1.00 1.00 r p2
67.46 157.50 1.00 1.00 r p2
68.22 157.50 1.00 1.00 r p2
68.99 157.50 1.00 1.00 r p2
69.76 157.50 1.00 1.00 r p2
70.53 157.50 1.00 1.00 r p2
71.30 157.50 1.00 1.00 r p2
72.07 157.50 1.00 1.00 r p2
72.83 157.50 1.00 1.00 r p2
73.60 157.50 1.00 1.00 r p2
74.37 157.50 1.00 1.00 r p2
75.14 157.50 1.00 1.00 r p2
75.91 157.50 1.00 1.00 r p2
76.68 157.50 1.00 1.00 r p2
77.45 157.50 1.00 1.00 r p2
78.21 157.50 1.00 1.00 r p2
78.98 157.50 1.00 1.00 r p2
79.75 157.50 1.00 1.00 r p2
80.52 157.50 1.00 1.00 r p2
81.29 157.50 1.00 1.00 r p2
82.06 157.50 1.00 1.00 r p2
82.83 157.50 1.00 1.00 r p2
83.59 157.50 1.00 1.00 r p2
84.36 157.50 1.00 1.00 r p2
85.13 157.50 1.00 1.00 r p2
85.90 157.50 1.00 1.00 r p2
86.67 157.50 1.00 1.00 r p2
87.44 157.50 1.00 1.00 r p2
88.21 157.50 1.00 1.00 r p2
88.97 157.50 1.00 1.00 r p2
89.74 157.50 1.00 1.00 r p2
90.51 157.50 1.00 1.00 r p2
91.28 157.50 1.00 1.00 r p2
92.05 157.50 1.00 1.00 r p2
92.82 157.50 1.00 1.00 r p2
93.59 157.50 1.00 1.00 r p2
94.35 157.50 1.00 1.00 r p2
95.12 157.50 1.00 1.00 r p2
95.89 157.50 1.00 1.00 r p2
96.66 157.50 1.00 1.00 r p2
97.43 157.50 1.00 1.00 r p2
98.20 157.50 1.00 1.00 r p2
98.97 157.50 1.00 1.00 r p2
99.73 157.50 1.00 1.00 r p2
100.50 157.50 1.00 1.00 r p2
101.27 157.50 1.00 1.00 r p2
102.04 157.50 1.00 1.00 r p2
102.81 157.50 1.00 1.00 r p2
103.58 157.50 1.00 1.00 r p2
104.84 155.98 (>) .5 0 t
105.61 155.98 (>) .5 0 t
106.38 155.98 (>) .5 0 t
106.65 157.50 1.00 1.00 r p2
107.42 157.50 1.00 1.00 r p2
108.19 157.50 1.00 1.00 r p2
108.96 157.50 1.00 1.00 r p2
109.72 157.50 1.00 1.00 r p2
110.49 157.50 1.00 1.00 r p2
111.26 157.50 1.00 1.00 r p2
112.03 157.50 1.00 1.00 r p2
112.80 157.50 1.00 1.00 r p2
113.57 157.50 1.00 1.00 r p2
114.34 157.50 1.00 1.00 r p2
115.10 157.50 1.00 1.00 r p2
115.87 157.50 1.00 1.00 r p2
116.64 157.50 1.00 1.00 r p2
117.41 157.50 1.00 1.00 r p2
118.18 157.50 1.00 1.00 r p2
118.95 157.50 1.00 1.00 r p2
119.72 157.50 1.00 1.00 r p2
120.48 157.50 1.00 1.00 r p2
121.25 157.50 1.00 1.00 r p2
122.02 157.50 1.00 1.00 r p2
122.79 157.50 1.00 1.00 r p2
123.56 157.50 1.00 1.00 r p2
124.33 157.50 1.00 1.00 r p2
125.10 157.50 1.00 1.00 r p2
125.86 157.50 1.00 1.00 r p2
126.63 157.50 1.00 1.00 r p2
127.40 157.50 1.00 1.00 r p2
128.17 157.50 1.00 1.00 r p2
128.94 157.50 1.00 1.00 r p2
129.71 157.50 1.00 1.00 r p2
130.48 157.50 1.00 1.00 r p2
131.24 157.50 1.00 1.00 r p2
132.01 157.50 1.00 1.00 r p2
132.78 157.50 1.00 1.00 r p2
133.55 157.50 1.00 1.00 r p2
134.32 157.50 1.00 1.00 r p2
135.09 157.50 1.00 1.00 r p2
135.86 157.50 1.00 1.00 r p2
136.62 157.50 1.00 1.00 r p2
137.39 157.50 1.00 1.00 r p2
138.16 157.50 1.00 1.00 r p2
138.93 157.50 1.00 1.00 r p2
139.70 157.50 1.00 1.00 r p2
140.47 157.50 1.00 1.00 r p2
141.23 157.50 1.00 1.00 r p2
142.00 157.50 1.00 1.00 r p2
142.77 157.50 1.00 1.00 r p2
143.54 157.50 1.00 1.00 r p2
144.31 157.50 1.00 1.00 r p2
145.08 157.50 1.00 1.00 r p2
145.85 157.50 1.00 1.00 r p2
146.61 157.50 1.00 1.00 r p2
147.38 157.50 1.00 1.00 r p2
148.15 157.50 1.00 1.00 r p2
148.92 157.50 1.00 1.00 r p2
149.69 157.50 1.00 1.00 r p2
150.46 157.50 1.00 1.00 r p2
151.23 157.50 1.00 1.00 r p2
151.99 157.50 1.00 1.00 r p2
152.76 157.50 1.00 1.00 r p2
153.53 157.50 1.00 1.00 r p2
154.30 157.50 1.00 1.00 r p2
155.07 157.50 1.00 1.00 r p2
155.84 157.50 1.00 1.00 r p2
156.61 157.50 1.00 1.00 r p2
157.37 157.50 1.00 1.00 r p2
158.14 157.50 1.00 1.00 r p2
158.91 157.50 1.00 1.00 r p2
159.68 157.50 1.00 1.00 r p2
160.45 157.50 1.00 1.00 r p2
161.22 157.50 1.00 1.00 r p2
161.99 157.50 1.00 1.00 r p2
162.75 157.50 1.00 1.00 r p2
163.52 157.50 1.00 1.00 r p2
164.29 157.50 1.00 1.00 r p2
165.06 157.50 1.00 1.00 r p2
165.83 157.50 1.00 1.00 r p2
166.60 157.50 1.00 1.00 r p2
167.37 157.50 1.00 1.00 r p2
168.13 157.50 1.00 1.00 r p2
168.90 157.50 1.00 1.00 r p2
169.67 157.50 1.00 1.00 r p2
170.44 157.50 1.00 1.00 r p2
171.21 157.50 1.00 1.00 r p2
171.98 157.50 1.00 1.00 r p2
172.74 157.50 1.00 1.00 r p2
173.51 157.50 1.00 1.00 r p2
174.28 157.50 1.00 1.00 r p2
175.05 157.50 1.00 1.00 r p2
175.82 157.50 1.00 1.00 r p2
176.59 157.50 1.00 1.00 r p2
177.36 157.50 1.00 1.00 r p2
178.12 157.50 1.00 1.00 r p2
178.89 157.50 1.00 1.00 r p2
179.66 157.50 1.00 1.00 r p2
180.43 157.50 1.00 1.00 r p2
181.20 157.50 1.00 1.00 r p2
181.97 157.50 1.00 1.00 r p2
182.74 157.50 1.00 1.00 r p2
183.50 157.50 1.00 1.00 r p2
184.27 157.50 1.00 1.00 r p2
185.04 157.50 1.00 1.00 r p2
185.81 157.50 1.00 1.00 r p2
186.58 157.50 1.00 1.00 r p2
187.35 157.50 1.00 1.00 r p2
188.12 157.50 1.00 1.00 r p2
188.88 157.50 1.00 1.00 r p2
189.65 157.50 1.00 1.00 r p2
190.42 157.50 1.00 1.00 r p2
191.69 155.13 (A) .5 0 t
192.46 155.13 (A) .5 0 t
193.23 155.13 (A) .5 0 t
194.00 155.13 (A) .5 0 t
194.76 155.13 (A) .5 0 t
195.03 157.50 1.00 1.00 r p2
196.30 155.13 (A) .5 0 t
197.07 155.13 (A) .5 0 t
197.34 157.50 1.00 1.00 r p2
198.11 157.50 1.00 1.00 r p2
198.88 157.50 1.00 1.00 r p2
200.14 155.98 (<) .5 0 t
200.91 155.98 (<) .5 0 t
201.18 157.50 1.00 1.00 r p2
202.45 155.98 (<) .5 0 t
203.22 155.98 (<) .5 0 t
203.99 155.98 (<) .5 0 t
204.76 155.98 (<) .5 0 t
205.02 157.50 1.00 1.00 r p2
205.79 157.50 1.00 1.00 r p2
206.56 157.50 1.00 1.00 r p2
207.83 155.98 (<) .5 0 t
208.60 155.98 (<) .5 0 t
209.37 155.98 (<) .5 0 t
210.13 155.98 (<) .5 0 t
210.90 155.98 (<) .5 0 t
211.67 155.98 (<) .5 0 t
211.94 157.50 1.00 1.00 r p2
212.71 157.50 1.00 1.00 r p2
213.48 157.50 1.00 1.00 r p2
214.25 157.50 1.00 1.00 r p2
215.01 157.50 1.00 1.00 r p2
215.78 157.50 1.00 1.00 r p2
216.55 157.50 1.00 1.00 r p2
217.32 157.50 1.00 1.00 r p2
218.09 157.50 1.00 1.00 r p2
218.86 157.50 1.00 1.00 r p2
219.63 157.50 1.00 1.00 r p2
220.39 157.50 1.00 1.00 r p2
221.16 157.50 1.00 1.00 r p2
221.93 157.50 1.00 1.00 r p2
222.70 157.50 1.00 1.00 r p2
223.47 157.50 1.00 1.00 r p2
224.24 157.50 1.00 1.00 r p2
225.01 157.50 1.00 1.00 r p2
225.77 157.50 1.00 1.00 r p2
226.54 157.50 1.00 1.00 r p2
227.31 157.50 1.00 1.00 r p2
228.08 157.50 1.00 1.00 r p2
228.85 157.50 1.00 1.00 r p2
229.62 157.50 1.00 1.00 r p2
230.39 157.50 1.00 1.00 r p2
231.15 157.50 1.00 1.00 r p2
231.92 157.50 1.00 1.00 r p2
232.69 157.50 1.00 1.00 r p2
233.46 157.50 1.00 1.00 r p2
234.23 157.50 1.00 1.00 r p2
235.00 157.50 1.00 1.00 r p2
235.77 157.50 1.00 1.00 r p2
236.53 157.50 1.00 1.00 r p2
237.30 157.50 1.00 1.00 r p2
238.07 157.50 1.00 1.00 r p2
238.84 157.50 1.00 1.00 r p2
239.61 157.50 1.00 1.00 r p2
240.38 157.50 1.00 1.00 r p2
241.14 157.50 1.00 1.00 r p2
241.91 157.50 1.00 1.00 r p2
242.68 157.50 1.00 1.00 r p2
243.45 157.50 1.00 1.00 r p2
244.22 157.50 1.00 1.00 r p2
244.99 157.50 1.00 1.00 r p2
245.76 157.50 1.00 1.00 r p2
246.52 157.50 1.00 1.00 r p2
247.29 157.50 1.00 1.00 r p2
248.06 157.50 1.00 1.00 r p2
248.83 157.50 1.00 1.00 r p2
249.60 157.50 1.00 1.00 r p2
250.37 157.50 1.00 1.00 r p2
251.14 157.50 1.00 1.00 r p2
251.90 157.50 1.00 1.00 r p2
252.67 157.50 1.00 1.00 r p2
253.44 157.50 1.00 1.00 r p2
254.21 157.50 1.00 1.00 r p2
254.98 157.50 1.00 1.00 r p2
255.75 157.50 1.00 1.00 r p2
256.52 157.50 1.00 1.00 r p2
257.28 157.50 1.00 1.00 r p2
258.05 157.50 1.00 1.00 r p2
258.82 157.50 1.00 1.00 r p2
259.59 157.50 1.00 1.00 r p2
260.36 157.50 1.00 1.00 r p2
261.13 157.50 1.00 1.00 r p2
261.90 157.50 1.00 1.00 r p2
262.66 157.50 1.00 1.00 r p2
263.43 157.50 1.00 1.00 r p2
264.20 157.50 1.00 1.00 r p2
264.97 157.50 1.00 1.00 r p2
265.74 157.50 1.00 1.00 r p2
266.51 157.50 1.00 1.00 r p2
267.28 157.50 1.00 1.00 r p2
268.04 157.50 1.00 1.00 r p2
268.81 157.50 1.00 1.00 r p2
269.58 157.50 1.00 1.00 r p2
270.35 157.50 1.00 1.00 r p2
271.12 157.50 1.00 1.00 r p2
271.89 157.50 1.00 1.00 r p2
272.66 157.50 1.00 1.00 r p2
273.42 157.50 1.00 1.00 r p2
274.19 157.50 1.00 1.00 r p2
274.96 157.50 1.00 1.00 r p2
275.73 157.50 1.00 1.00 r p2
276.50 157.50 1.00 1.00 r p2
277.27 157.50 1.00 1.00 r p2
278.03 157.50 1.00 1.00 r p2
278.80 157.50 1.00 1.00 r p2
279.57 157.50 1.00 1.00 r p2
280.34 157.50 1.00 1.00 r p2
281.11 157.50 1.00 1.00 r p2
281.88 157.50 1.00 1.00 r p2
282.65 157.50 1.00 1.00 r p2
283.41 157.50 1.00 1.00 r p2
284.18 157.50 1.00 1.00 r p2
284.95 157.50 1.00 1.00 r p2
285.72 157.50 1.00 1.00 r p2
286.49 157.50 1.00 1.00 r p2
287.26 157.50 1.00 1.00 r p2
288.03 157.50 1.00 1.00 r p2
288.79 157.50 1.00 1.00 r p2
289.56 157.50 1.00 1.00 r p2
290.33 157.50 1.00 1.00 r p2
291.10 157.50 1.00 1.00 r p2
291.87 157.50 1.00 1.00 r p2
292.64 157.50 1.00 1.00 r p2
293.41 157.50 1.00 1.00 r p2
294.17 157.50 1.00 1.00 r p2
294.94 157.50 1.00 1.00 r p2
295.71 157.50 1.00 1.00 r p2
296.48 157.50 1.00 1.00 r p2
297.25 157.50 1.00 1.00 r p2
298.02 157.50 1.00 1.00 r p2
298.79 157.50 1.00 1.00 r p2
299.55 157.50 1.00 1.00 r p2
300.32 157.50 1.00 1.00 r p2
301.09 157.50 1.00 1.00 r p2
301.86 157.50 1.00 1.00 r p2
302.63 157.50 1.00 1.00 r p2
303.40 157.50 1.00 1.00 r p2
304.17 157.50 1.00 1.00 r p2
304.93 157.50 1.00 1.00 r p2
305.70 157.50 1.00 1.00 r p2
306.47 157.50 1.00 1.00 r p2
307.24 157.50 1.00 1.00 r p2
308.01 157.50 1.00 1.00 r p2
308.78 157.50 1.00 1.00 r p2
309.54 157.50 1.00 1.00 r p2
310.31 157.50 1.00 1.00 r p2
311.08 157.50 1.00 1.00 r p2
311.85 157.50 1.00 1.00 r p2
312.62 157.50 1.00 1.00 r p2
313.39 157.50 1.00 1.00 r p2
314.16 157.50 1.00 1.00 r p2
314.92 157.50 1.00 1.00 r p2
315.69 157.50 1.00 1.00 r p2
316.46 157.50 1.00 1.00 r p2
317.23 157.50 1.00 1.00 r p2
318.00 157.50 1.00 1.00 r p2
318.77 157.50 1.00 1.00 r p2
319.54 157.50 1.00 1.00 r p2
320.30 157.50 1.00 1.00 r p2
321.07 157.50 1.00 1.00 r p2
321.84 157.50 1.00 1.00 r p2
322.61 157.50 1.00 1.00 r p2
323.38 157.50 1.00 1.00 r p2
324.15 157.50 1.00 1.00 r p2
324.92 157.50 1.00 1.00 r p2
325.68 157.50 1.00 1.00 r p2
326.45 157.50 1.00 1.00 r p2
327.22 157.50 1.00 1.00 r p2
327.99 157.50 1.00 1.00 r p2
328.76 157.50 1.00 1.00 r p2
329.53 157.50 1.00 1.00 r p2
330.30 157.50 1.00 1.00 r p2
331.06 157.50 1.00 1.00 r p2
331.83 157.50 1.00 1.00 r p2
332.60 157.50 1.00 1.00 r p2
333.37 157.50 1.00 1.00 r p2
334.14 157.50 1.00 1.00 r p2
334.91 157.50 1.00 1.00 r p2
335.68 157.50 1.00 1.00 r p2
336.44 157.50 1.00 1.00 r p2
337.71 155.98 (>) .5 0 t
338.48 155.98 (>) .5 0 t
339.25 155.98 (>) .5 0 t
340.02 155.98 (>) .5 0 t
340.79 155.98 (>) .5 0 t
341.56 155.98 (>) .5 0 t
341.82 157.50 1.00 1.00 r p2
342.59 157.50 1.00 1.00 r p2
343.86 155.98 (>) .5 0 t
344.63 155.98 (>) .5 0 t
344.90 157.50 1.00 1.00 r p2
346.17 155.98 (>) .5 0 t
346.93 155.98 (>) .5 0 t
347.70 155.98 (>) .5 0 t
348.47 155.98 (>) .5 0 t
349.24 155.98 (<) .5 0 t
350.01 155.98 (<) .5 0 t
350.28 157.50 1.00 1.00 r p2
351.05 157.50 1.00 1.00 r p2
351.81 157.50 1.00 1.00 r p2
353.08 155.98 (<) .5 0 t
353.85 155.98 (<) .5 0 t
354.62 155.98 (<) .5 0 t
355.39 155.98 (<) .5 0 t
355.66 157.50 1.00 1.00 r p2
356.43 157.50 1.00 1.00 r p2
357.19 157.50 1.00 1.00 r p2
357.96 157.50 1.00 1.00 r p2
359.23 155.98 (<) .5 0 t
360.00 155.98 (<) .5 0 t
360.77 155.98 (<) .5 0 t
361.54 155.98 (<) .5 0 t
362.31 155.98 (<) .5 0 t
363.07 155.98 (<) .5 0 t
363.84 155.98 (<) .5 0 t
364.11 157.50 1.00 1.00 r p2
364.88 157.50 1.00 1.00 r p2
365.65 157.50 1.00 1.00 r p2
366.42 157.50 1.00 1.00 r p2
367.19 157.50 1.00 1.00 r p2
367.95 157.50 1.00 1.00 r p2
368.72 157.50 1.00 1.00 r p2
369.49 157.50 1.00 1.00 r p2
370.26 157.50 1.00 1.00 r p2
371.03 157.50 1.00 1.00 r p2
371.80 157.50 1.00 1.00 r p2
372.57 157.50 1.00 1.00 r p2
373.33 157.50 1.00 1.00 r p2
374.10 157.50 1.00 1.00 r p2
374.87 157.50 1.00 1.00 r p2
375.64 157.50 1.00 1.00 r p2
376.41 157.50 1.00 1.00 r p2
377.18 157.50 1.00 1.00 r p2
377.94 157.50 1.00 1.00 r p2
378.71 157.50 1.00 1.00 r p2
379.48 157.50 1.00 1.00 r p2
380.25 157.50 1.00 1.00 r p2
381.02 157.50 1.00 1.00 r p2
381.79 157.50 1.00 1.00 r p2
382.56 157.50 1.00 1.00 r p2
383.32 157.50 1.00 1.00 r p2
384.09 157.50 1.00 1.00 r p2
385.36 155.98 (>) .5 0 t
386.13 155.98 (>) .5 0 t
386.90 155.98 (>) .5 0 t
387.67 155.98 (>) .5 0 t
388.44 155.98 (>) .5 0 t
389.20 155.98 (>) .5 0 t
389.97 155.98 (>) .5 0 t
390.24 157.50 1.00 1.00 r p2
391.01 157.50 1.00 1.00 r p2
391.78 157.50 1.00 1.00 r p2
393.05 155.98 (>) .5 0 t
393.82 155.98 (>) .5 0 t
394.58 155.98 (>) .5 0 t
395.35 155.98 (>) .5 0 t
395.62 157.50 1.00 1.00 r p2
396.39 157.50 1.00 1.00 r p2
397.16 157.50 1.00 1.00 r p2
398.43 155.98 (>) .5 0 t
399.20 155.98 (>) .5 0 t
399.46 157.50 1.00 1.00 r p2
400.23 157.50 1.00 1.00 r p2
401.00 157.50 1.00 1.00 r p2
402.27 155.90 (\() .5 0 t
402.54 157.50 1.00 1.00 r p2
403.81 155.90 (\() .5 0 t
404.58 155.90 (\() .5 0 t
405.34 155.90 (\() .5 0 t
406.11 155.90 (\() .5 0 t
406.88 155.90 (\() .5 0 t
407.15 157.50 1.00 1.00 r p2
407.92 157.50 1.00 1.00 r p2
408.69 157.50 1.00 1.00 r p2
409.46 157.50 1.00 1.00 r p2
410.22 157.50 1.00 1.00 r p2
410.99 157.50 1.00 1.00 r p2
411.76 157.50 1.00 1.00 r p2
412.53 157.50 1.00 1.00 r p2
413.30 157.50 1.00 1.00 r p2
414.07 157.50 1.00 1.00 r p2
414.83 157.50 1.00 1.00 r p2
415.60 157.50 1.00 1.00 r p2
416.37 157.50 1.00 1.00 r p2
417.14 157.50 1.00 1.00 r p2
417.91 157.50 1.00 1.00 r p2
418.68 157.50 1.00 1.00 r p2
419.45 157.50 1.00 1.00 r p2
420.21 157.50 1.00 1.00 r p2
420.98 157.50 1.00 1.00 r p2
421.75 157.50 1.00 1.00 r p2
422.52 157.50 1.00 1.00 r p2
423.29 157.50 1.00 1.00 r p2
424.06 157.50 1.00 1.00 r p2
424.83 157.50 1.00 1.00 r p2
425.59 157.50 1.00 1.00 r p2
426.36 157.50 1.00 1.00 r p2
427.13 157.50 1.00 1.00 r p2
427.90 157.50 1.00 1.00 r p2
428.67 157.50 1.00 1.00 r p2
429.44 157.50 1.00 1.00 r p2
430.21 157.50 1.00 1.00 r p2
430.97 157.50 1.00 1.00 r p2
431.74 157.50 1.00 1.00 r p2
432.51 157.50 1.00 1.00 r p2
433.28 157.50 1.00 1.00 r p2
434.05 157.50 1.00 1.00 r p2
434.82 157.50 1.00 1.00 r p2
435.59 157.50 1.00 1.00 r p2
436.35 157.50 1.00 1.00 r p2
437.12 157.50 1.00 1.00 r p2
437.89 157.50 1.00 1.00 r p2
438.66 157.50 1.00 1.00 r p2
439.43 157.50 1.00 1.00 r p2
440.20 157.50 1.00 1.00 r p2
440.97 157.50 1.00 1.00 r p2
441.73 157.50 1.00 1.00 r p2
442.50 157.50 1.00 1.00 r p2
443.27 157.50 1.00 1.00 r p2
444.04 157.50 1.00 1.00 r p2
444.81 157.50 1.00 1.00 r p2
445.58 157.50 1.00 1.00 r p2
446.34 157.50 1.00 1.00 r p2
447.11 157.50 1.00 1.00 r p2
447.88 157.50 1.00 1.00 r p2
448.65 157.50 1.00 1.00 r p2
449.92 155.91 (a) .5 0 t
450.69 155.91 (a) .5 0 t
450.96 157.50 1.00 1.00 r p2
452.22 155.91 (a) .5 0 t
452.99 155.91 (a) .5 0 t
453.76 155.91 (a) .5 0 t
454.53 155.91 (a) .5 0 t
455.30 155.91 (a) .5 0 t
455.57 157.50 1.00 1.00 r p2
456.84 155.98 (<) .5 0 t
457.60 155.98 (<) .5 0 t
458.37 155.98 (<) .5 0 t
459.14 155.98 (<) .5 0 t
459.91 155.98 (<) .5 0 t
460.68 155.98 (<) .5 0 t
461.45 155.98 (<) .5 0 t
462.22 155.98 (<) .5 0 t
462.98 155.98 (<) .5 0 t
463.25 157.50 1.00 1.00 r p2
464.02 157.50 1.00 1.00 r p2
464.79 157.50 1.00 1.00 r p2
465.56 157.50 1.00 1.00 r p2
466.33 157.50 1.00 1.00 r p2
467.10 157.50 1.00 1.00 r p2
467.86 157.50 1.00 1.00 r p2
468.63 157.50 1.00 1.00 r p2
469.40 157.50 1.00 1.00 r p2
470.17 157.50 1.00 1.00 r p2
470.94 157.50 1.00 1.00 r p2
471.71 157.50 1.00 1.00 r p2
472.48 157.50 1.00 1.00 r p2
473.24 157.50 1.00 1.00 r p2
474.01 157.50 1.00 1.00 r p2
474.78 157.50 1.00 1.00 r p2
475.55 157.50 1.00 1.00 r p2
476.32 157.50 1.00 1.00 r p2
477.09 157.50 1.00 1.00 r p2
477.86 157.50 1.00 1.00 r p2
478.62 157.50 1.00 1.00 r p2
479.39 157.50 1.00 1.00 r p2
480.16 157.50 1.00 1.00 r p2
480.93 157.50 1.00 1.00 r p2
481.70 157.50 1.00 1.00 r p2
482.47 157.50 1.00 1.00 r p2
483.23 157.50 1.00 1.00 r p2
484.00 157.50 1.00 1.00 r p2
484.77 157.50 1.00 1.00 r p2
485.54 157.50 1.00 1.00 r p2
486.31 157.50 1.00 1.00 r p2
487.08 157.50 1.00 1.00 r p2
487.85 157.50 1.00 1.00 r p2
488.61 157.50 1.00 1.00 r p2
489.38 157.50 1.00 1.00 r p2
490.15 157.50 1.00 1.00 r p2
490.92 157.50 1.00 1.00 r p2
491.69 157.50 1.00 1.00 r p2
492.46 157.50 1.00 1.00 r p2
493.23 157.50 1.00 1.00 r p2
493.99 157.50 1.00 1.00 r p2
494.76 157.50 1.00 1.00 r p2
495.53 157.50 1.00 1.00 r p2
496.30 157.50 1.00 1.00 r p2
497.07 157.50 1.00 1.00 r p2
497.84 157.50 1.00 1.00 r p2
498.61 157.50 1.00 1.00 r p2
499.37 157.50 1.00 1.00 r p2
500.14 157.50 1.00 1.00 r p2
500.91 157.50 1.00 1.00 r p2
501.68 157.50 1.00 1.00 r p2
502.45 157.50 1.00 1.00 r p2
503.22 157.50 1.00 1.00 r p2
503.99 157.50 1.00 1.00 r p2
504.75 157.50 1.00 1.00 r p2
505.52 157.50 1.00 1.00 r p2
506.29 157.50 1.00 1.00 r p2
507.06 157.50 1.00 1.00 r p2
507.83 157.50 1.00 1.00 r p2
508.60 157.50 1.00 1.00 r p2
509.37 157.50 1.00 1.00 r p2
510.13 157.50 1.00 1.00 r p2
510.90 157.50 1.00 1.00 r p2
511.67 157.50 1.00 1.00 r p2
512.44 157.50 1.00 1.00 r p2
513.21 157.50 1.00 1.00 r p2
513.98 157.50 1.00 1.00 r p2
514.74 157.50 1.00 1.00 r p2
515.51 157.50 1.00 1.00 r p2
516.28 157.50 1.00 1.00 r p2
517.05 157.50 1.00 1.00 r p2
517.82 157.50 1.00 1.00 r p2
518.59 157.50 1.00 1.00 r p2
519.36 157.50 1.00 1.00 r p2
520.12 157.50 1.00 1.00 r p2
520.89 157.50 1.00 1.00 r p2
521.66 157.50 1.00 1.00 r p2
522.43 157.50 1.00 1.00 r p2
523.20 157.50 1.00 1.00 r p2
523.97 157.50 1.00 1.00 r p2
524.74 157.50 1.00 1.00 r p2
525.50 157.50 1.00 1.00 r p2
526.27 157.50 1.00 1.00 r p2
527.04 157.50 1.00 1.00 r p2
527.81 157.50 1.00 1.00 r p2
528.58 157.50 1.00 1.00 r p2
529.35 157.50 1.00 1.00 r p2
530.12 157.50 1.00 1.00 r p2
530.88 157.50 1.00 1.00 r p2
531.65 157.50 1.00 1.00 r p2
532.42 157.50 1.00 1.00 r p2
533.19 157.50 1.00 1.00 r p2
533.96 157.50 1.00 1.00 r p2
534.73 157.50 1.00 1.00 r p2
535.50 157.50 1.00 1.00 r p2
536.26 157.50 1.00 1.00 r p2
537.03 157.50 1.00 1.00 r p2
537.80 157.50 1.00 1.00 r p2
538.57 157.50 1.00 1.00 r p2
539.34 157.50 1.00 1.00 r p2
540.11 157.50 1.00 1.00 r p2
540.88 157.50 1.00 1.00 r p2
541.64 157.50 1.00 1.00 r p2
542.41 157.50 1.00 1.00 r p2
543.18 157.50 1.00 1.00 r p2
543.95 157.50 1.00 1.00 r p2
544.72 157.50 1.00 1.00 r p2
545.49 157.50 1.00 1.00 r p2
546.26 157.50 1.00 1.00 r p2
547.02 157.50 1.00 1.00 r p2
547.79 157.50 1.00 1.00 r p2
548.56 157.50 1.00 1.00 r p2
549.33 157.50 1.00 1.00 r p2
550.10 157.50 1.00 1.00 r p2
550.87 157.50 1.00 1.00 r p2
551.63 157.50 1.00 1.00 r p2
552.40 157.50 1.00 1.00 r p2
553.17 157.50 1.00 1.00 r p2
553.94 157.50 1.00 1.00 r p2
554.71 157.50 1.00 1.00 r p2
555.48 157.50 1.00 1.00 r p2
556.25 157.50 1.00 1.00 r p2
557.01 157.50 1.00 1.00 r p2
557.78 157.50 1.00 1.00 r p2
558.55 157.50 1.00 1.00 r p2
559.32 157.50 1.00 1.00 r p2
560.09 157.50 1.00 1.00 r p2
560.86 157.50 1.00 1.00 r p2
561.63 157.50 1.00 1.00 r p2
562.39 157.50 1.00 1.00 r p2
563.16 157.50 1.00 1.00 r p2
563.93 157.50 1.00 1.00 r p2
564.70 157.50 1.00 1.00 r p2
565.47 157.50 1.00 1.00 r p2
566.24 157.50 1.00 1.00 r p2
567.01 157.50 1.00 1.00 r p2
567.77 157.50 1.00 1.00 r p2
568.54 157.50 1.00 1.00 r p2
569.31 157.50 1.00 1.00 r p2
570.08 157.50 1.00 1.00 r p2
570.85 157.50 1.00 1.00 r p2
571.62 157.50 1.00 1.00 r p2
572.39 157.50 1.00 1.00 r p2
573.15 157.50 1.00 1.00 r p2
573.92 157.50 1.00 1.00 r p2
574.69 157.50 1.00 1.00 r p2
575.46 157.50 1.00 1.00 r p2
576.23 157.50 1.00 1.00 r p2
577.00 157.50 1.00 1.00 r p2
577.77 157.50 1.00 1.00 r p2
578.53 157.50 1.00 1.00 r p2
579.30 157.50 1.00 1.00 r p2
580.07 157.50 1.00 1.00 r p2
580.84 157.50 1.00 1.00 r p2
581.61 157.50 1.00 1.00 r p2
582.38 157.50 1.00 1.00 r p2
583.14 157.50 1.00 1.00 r p2
583.91 157.50 1.00 1.00 r p2
584.68 157.50 1.00 1.00 r p2
585.45 157.50 1.00 1.00 r p2
586.22 157.50 1.00 1.00 r p2
586.99 157.50 1.00 1.00 r p2
587.76 157.50 1.00 1.00 r p2
588.52 157.50 1.00 1.00 r p2
589.29 157.50 1.00 1.00 r p2
590.06 157.50 1.00 1.00 r p2
590.83 157.50 1.00 1.00 r p2
591.60 157.50 1.00 1.00 r p2
592.37 157.50 1.00 1.00 r p2
593.14 157.50 1.00 1.00 r p2
593.90 157.50 1.00 1.00 r p2
594.67 157.50 1.00 1.00 r p2
595.44 157.50 1.00 1.00 r p2
596.21 157.50 1.00 1.00 r p2
596.98 157.50 1.00 1.00 r p2
597.75 157.50 1.00 1.00 r p2
598.52 157.50 1.00 1.00 r p2
599.28 157.50 1.00 1.00 r p2
600.05 157.50 1.00 1.00 r p2
600.82 157.50 1.00 1.00 r p2
601.59 157.50 1.00 1.00 r p2
602.36 157.50 1.00 1.00 r p2
603.13 157.50 1.00 1.00 r p2
603.90 157.50 1.00 1.00 r p2
604.66 157.50 1.00 1.00 r p2
605.43 157.50 1.00 1.00 r p2
606.20 157.50 1.00 1.00 r p2
606.97 157.50 1.00 1.00 r p2
607.74 157.50 1.00 1.00 r p2
608.51 157.50 1.00 1.00 r p2
609.28 157.50 1.00 1.00 r p2
610.04 157.50 1.00 1.00 r p2
610.81 157.50 1.00 1.00 r p2
611.58 157.50 1.00 1.00 r p2
612.35 157.50 1.00 1.00 r p2
613.12 157.50 1.00 1.00 r p2
613.89 157.50 1.00 1.00 r p2
614.66 157.50 1.00 1.00 r p2
615.42 157.50 1.00 1.00 r p2
616.19 157.50 1.00 1.00 r p2
616.96 157.50 1.00 1.00 r p2
617.73 157.50 1.00 1.00 r p2
618.50 157.50 1.00 1.00 r p2
619.27 157.50 1.00 1.00 r p2
620.03 157.50 1.00 1.00 r p2
620.80 157.50 1.00 1.00 r p2
621.57 157.50 1.00 1.00 r p2
622.34 157.50 1.00 1.00 r p2
623.11 157.50 1.00 1.00 r p2
623.88 157.50 1.00 1.00 r p2
624.65 157.50 1.00 1.00 r p2
625.41 157.50 1.00 1.00 r p2
626.18 157.50 1.00 1.00 r p2
626.95 157.50 1.00 1.00 r p2
627.72 157.50 1.00 1.00 r p2
628.49 157.50 1.00 1.00 r p2
629.26 157.50 1.00 1.00 r p2
630.03 157.50 1.00 1.00 r p2
630.79 157.50 1.00 1.00 r p2
631.56 157.50 1.00 1.00 r p2
632.33 157.50 1.00 1.00 r p2
633.10 157.50 1.00 1.00 r p2
633.87 157.50 1.00 1.00 r p2
634.64 157.50 1.00 1.00 r p2
635.41 157.50 1.00 1.00 r p2
636.17 157.50 1.00 1.00 r p2
636.94 157.50 1.00 1.00 r p2
637.71 157.50 1.00 1.00 r p2
638.48 157.50 1.00 1.00 r p2
639.25 157.50 1.00 1.00 r p2
640.02 157.50 1.00 1.00 r p2
640.79 157.50 1.00 1.00 r p2
641.55 157.50 1.00 1.00 r p2
642.32 157.50 1.00 1.00 r p2
643.09 157.50 1.00 1.00 r p2
643.86 157.50 1.00 1.00 r p2
644.63 157.50 1.00 1.00 r p2
645.40 157.50 1.00 1.00 r p2
646.17 157.50 1.00 1.00 r p2
646.93 157.50 1.00 1.00 r p2
647.70 157.50 1.00 1.00 r p2
648.47 157.50 1.00 1.00 r p2
649.24 157.50 1.00 1.00 r p2
650.01 157.50 1.00 1.00 r p2
650.78 157.50 1.00 1.00 r p2
651.54 157.50 1.00 1.00 r p2
652.31 157.50 1.00 1.00 r p2
653.08 157.50 1.00 1.00 r p2
653.85 157.50 1.00 1.00 r p2
654.62 157.50 1.00 1.00 r p2
655.39 157.50 1.00 1.00 r p2
656.16 157.50 1.00 1.00 r p2
656.92 157.50 1.00 1.00 r p2
657.69 157.50 1.00 1.00 r p2
658.46 157.50 1.00 1.00 r p2
659.23 157.50 1.00 1.00 r p2
660.00 157.50 1.00 1.00 r p2
660.77 157.50 1.00 1.00 r p2
661.54 157.50 1.00 1.00 r p2
662.30 157.50 1.00 1.00 r p2
663.07 157.50 1.00 1.00 r p2
663.84 157.50 1.00 1.00 r p2
664.61 157.50 1.00 1.00 r p2
665.38 157.50 1.00 1.00 r p2
666.15 157.50 1.00 1.00 r p2
666.92 157.50 1.00 1.00 r p2
668.18 155.98 (>) .5 0 t
668.95 155.98 (>) .5 0 t
669.72 155.98 (>) .5 0 t
670.49 155.98 (>) .5 0 t
671.26 155.98 (>) .5 0 t
672.03 155.98 (>) .5 0 t
672.80 155.98 (>) .5 0 t
673.56 155.98 (>) .5 0 t
674.33 155.98 (>) .5 0 t
674.60 157.50 1.00 1.00 r p2
675.37 157.50 1.00 1.00 r p2
676.14 157.50 1.00 1.00 r p2
676.91 157.50 1.00 1.00 r p2
677.68 157.50 1.00 1.00 r p2
678.44 157.50 1.00 1.00 r p2
679.21 157.50 1.00 1.00 r p2
679.98 157.50 1.00 1.00 r p2
681.25 155.90 (\)) .5 0 t
682.02 155.90 (\)) .5 0 t
682.79 155.90 (\)) .5 0 t
683.56 155.90 (\)) .5 0 t
684.32 155.90 (\)) .5 0 t
685.09 155.90 (\)) .5 0 t
685.36 157.50 1.00 1.00 r p2
686.13 157.50 1.00 1.00 r p2
686.90 157.50 1.00 1.00 r p2
687.67 157.50 1.00 1.00 r p2
688.43 157.50 1.00 1.00 r p2
689.20 157.50 1.00 1.00 r p2
690.47 155.98 (<) .5 0 t
691.24 155.98 (<) .5 0 t
692.01 155.98 (<) .5 0 t
692.78 155.98 (<) .5 0 t
693.55 155.98 (<) .5 0 t
693.81 157.50 1.00 1.00 r p2
694.58 157.50 1.00 1.00 r p2
695.35 157.50 1.00 1.00 r p2
696.12 157.50 1.00 1.00 r p2
697.39 155.98 (>) .5 0 t
698.16 155.98 (>) .5 0 t
698.93 155.98 (>) .5 0 t
699.69 155.98 (>) .5 0 t
700.46 155.98 (>) .5 0 t
700.73 157.50 1.00 1.00 r p2
701.50 157.50 1.00 1.00 r p2
17.50 149.17 1.00 1.00 r p2
18.27 149.17 1.00 1.00 r p2
19.04 149.17 1.00 1.00 r p2
19.81 149.17 1.00 1.00 r p2
21.07 146.85 (1) .5 0 t
21.84 146.85 (1) .5 0 t
22.61 146.85 (1) .5 0 t
23.38 146.85 (1) .5 0 t
24.15 146.85 (1) .5 0 t
24.92 146.85 (1) .5 0 t
25.69 146.85 (1) .5 0 t
26.45 146.85 (1) .5 0 t
27.22 146.85 (1) .5 0 t
27.49 149.17 1.00 1.00 r p2
28.26 149.17 1.00 1.00 r p2
29.03 149.17 1.00 1.00 r p2
29.80 149.17 1.00 1.00 r p2
30.57 149.17 1.00 1.00 r p2
31.33 149.17 1.00 1.00 r p2
32.10 149.17 1.00 1.00 r p2
32.87 149.17 1.00 1.00 r p2
33.64 149.17 1.00 1.00 r p2
34.41 149.17 1.00 1.00 r p2
35.18 149.17 1.00 1.00 r p2
35.94 149.17 1.00 1.00 r p2
36.71 149.17 1.00 1.00 r p2
37.48 149.17 1.00 1.00 r p2
38.25 149.17 1.00 1.00 r p2
39.02 149.17 1.00 1.00 r p2
39.79 149.17 1.00 1.00 r p2
40.56 149.17 1.00 1.00 r p2
41.32 149.17 1.00 1.00 r p2
42.09 149.17 1.00 1.00 r p2
42.86 149.17 1.00 1.00 r p2
43.63 149.17 1.00 1.00 r p2
44.40 149.17 1.00 1.00 r p2
45.17 149.17 1.00 1.00 r p2
45.94 149.17 1.00 1.00 r p2
46.70 149.17 1.00 1.00 r p2
47.47 149.17 1.00 1.00 r p2
48.24 149.17 1.00 1.00 r p2
49.01 149.17 1.00 1.00 r p2
49.78 149.17 1.00 1.00 r p2
50.55 149.17 1.00 1.00 r p2
51.82 146.85 (1) .5 0 t
52.58 146.85 (1) .5 0 t
53.35 146.85 (1) .5 0 t
54.12 146.85 (1) .5 0 t
54.89 146.85 (1) .5 0 t
55.66 146.85 (1) .5 0 t
56.43 146.85 (1) .5 0 t
57.20 146.85 (1) .5 0 t
57.96 146.85 (1) .5 0 t
58.23 149.17 1.00 1.00 r p2
59.00 149.17 1.00 1.00 r p2
59.77 149.17 1.00 1.00 r p2
61.04 146.85 (2) .5 0 t
61.81 146.85 (2) .5 0 t
62.58 146.85 (2) .5 0 t
62.84 149.17 1.00 1.00 r p2
63.61 149.17 1.00 1.00 r p2
64.38 149.17 1.00 1.00 r p2
65.15 149.17 1.00 1.00 r p2
65.92 149.17 1.00 1.00 r p2
66.69 149.17 1.00 1.00 r p2
67.46 149.17 1.00 1.00 r p2
68.22 149.17 1.00 1.00 r p2
68.99 149.17 1.00 1.00 r p2
69.76 149.17 1.00 1.00 r p2
70.53 149.17 1.00 1.00 r p2
71.30 149.17 1.00 1.00 r p2
72.07 149.17 1.00 1.00 r p2
72.83 149.17 1.00 1.00 r p2
73.60 149.17 1.00 1.00 r p2
74.37 149.17 1.00 1.00 r p2
75.14 149.17 1.00 1.00 r p2
75.91 149.17 1.00 1.00 r p2
76.68 149.17 1.00 1.00 r p2
77.45 149.17 1.00 1.00 r p2
78.21 149.17 1.00 1.00 r p2
78.98 149.17 1.00 1.00 r p2
79.75 149.17 1.00 1.00 r p2
80.52 149.17 1.00 1.00 r p2
81.29 149.17 1.00 1.00 r p2
82.06 149.17 1.00 1.00 r p2
82.83 149.17 1.00 1.00 r p2
83.59 149.17 1.00 1.00 r p2
84.36 149.17 1.00 1.00 r p2
85.13 149.17 1.00 1.00 r p2
85.90 149.17 1.00 1.00 r p2
86.67 149.17 1.00 1.00 r p2
87.44 149.17 1.00 1.00 r p2
88.21 149.17 1.00 1.00 r p2
88.97 149.17 1.00 1.00 r p2
89.74 149.17 1.00 1.00 r p2
90.51 149.17 1.00 1.00 r p2
91.28 149.17 1.00 1.00 r p2
92.05 149.17 1.00 1.00 r p2
92.82 149.17 1.00 1.00 r p2
93.59 149.17 1.00 1.00 r p2
94.35 149.17 1.00 1.00 r p2
95.12 149.17 1.00 1.00 r p2
95.89 149.17 1.00 1.00 r p2
96.66 149.17 1.00 1.00 r p2
97.43 149.17 1.00 1.00 r p2
98.20 149.17 1.00 1.00 r p2
98.97 149.17 1.00 1.00 r p2
99.73 149.17 1.00 1.00 r p2
100.50 149.17 1.00 1.00 r p2
101.27 149.17 1.00 1.00 r p2
102.04 149.17 1.00 1.00 r p2
102.81 149.17 1.00 1.00 r p2
103.58 149.17 1.00 1.00 r p2
104.84 146.85 (2) .5 0 t
105.61 146.85 (2) .5 0 t
106.38 146.85 (2) .5 0 t
106.65 149.17 1.00 1.00 r p2
107.42 149.17 1.00 1.00 r p2
108.19 149.17 1.00 1.00 r p2
108.96 149.17 1.00 1.00 r p2
109.72 149.17 1.00 1.00 r p2
110.49 149.17 1.00 1.00 r p2
111.26 149.17 1.00 1.00 r p2
112.03 149.17 1.00 1.00 r p2
112.80 149.17 1.00 1.00 r p2
113.57 149.17 1.00 1.00 r p2
114.34 149.17 1.00 1.00 r p2
115.10 149.17 1.00 1.00 r p2
115.87 149.17 1.00 1.00 r p2
116.64 149.17 1.00 1.00 r p2
117.41 149.17 1.00 1.00 r p2
118.18 149.17 1.00 1.00 r p2
118.95 149.17 1.00 1.00 r p2
119.72 149.17 1.00 1.00 r p2
120.48 149.17 1.00 1.00 r p2
121.25 149.17 1.00 1.00 r p2
122.02 149.17 1.00 1.00 r p2
122.79 149.17 1.00 1.00 r p2
123.56 149.17 1.00 1.00 r p2
124.33 149.17 1.00 1.00 r p2
125.10 149.17 1.00 1.00 r p2
125.86 149.17 1.00 1.00 r p2
126.63 149.17 1.00 1.00 r p2
127.40 149.17 1.00 1.00 r p2
128.17 149.17 1.00 1.00 r p2
128.94 149.17 1.00 1.00 r p2
129.71 149.17 1.00 1.00 r p2
130.48 149.17 1.00 1.00 r p2
131.24 149.17 1.00 1.00 r p2
132.01 149.17 1.00 1.00 r p2
132.78 149.17 1.00 1.00 r p2
133.55 149.17 1.00 1.00 r p2
134.32 149.17 1.00 1.00 r p2
135.09 149.17 1.00 1.00 r p2
135.86 149.17 1.00 1.00 r p2
136.62 149.17 1.00 1.00 r p2
137.39 149.17 1.00 1.00 r p2
138.16 149.17 1.00 1.00 r p2
138.93 149.17 1.00 1.00 r p2
139.70 149.17 1.00 1.00 r p2
140.47 149.17 1.00 1.00 r p2
141.23 149.17 1.00 1.00 r p2
142.00 149.17 1.00 1.00 r p2
142.77 149.17 1.00 1.00 r p2
143.54 149.17 1.00 1.00 r p2
144.31 149.17 1.00 1.00 r p2
145.08 149.17 1.00 1.00 r p2
145.85 149.17 1.00 1.00 r p2
146.61 149.17 1.00 1.00 r p2
147.38 149.17 1.00 1.00 r p2
148.15 149.17 1.00 1.00 r p2
148.92 149.17 1.00 1.00 r p2
149.69 149.17 1.00 1.00 r p2
150.46 149.17 1.00 1.00 r p2
151.23 149.17 1.00 1.00 r p2
151.99 149.17 1.00 1.00 r p2
152.76 149.17 1.00 1.00 r p2
153.53 149.17 1.00 1.00 r p2
154.30 149.17 1.00 1.00 r p2
155.07 149.17 1.00 1.00 r p2
155.84 149.17 1.00 1.00 r p2
156.61 149.17 1.00 1.00 r p2
157.37 149.17 1.00 1.00 r p2
158.14 149.17 1.00 1.00 r p2
158.91 149.17 1.00 1.00 r p2
159.68 149.17 1.00 1.00 r p2
160.45 149.17 1.00 1.00 r p2
161.22 149.17 1.00 1.00 r p2
161.99 149.17 1.00 1.00 r p2
162.75 149.17 1.00 1.00 r p2
163.52 149.17 1.00 1.00 r p2
164.29 149.17 1.00 1.00 r p2
165.06 149.17 1.00 1.00 r p2
165.83 149.17 1.00 1.00 r p2
166.60 149.17 1.00 1.00 r p2
167.37 149.17 1.00 1.00 r p2
168.13 149.17 1.00 1.00 r p2
168.90 149.17 1.00 1.00 r p2
169.67 149.17 1.00 1.00 r p2
170.44 149.17 1.00 1.00 r p2
171.21 149.17 1.00 1.00 r p2
171.98 149.17 1.00 1.00 r p2
172.74 149.17 1.00 1.00 r p2
173.51 149.17 1.00 1.00 r p2
174.28 149.17 1.00 1.00 r p2
175.05 149.17 1.00 1.00 r p2
175.82 149.17 1.00 1.00 r p2
176.59 149.17 1.00 1.00 r p2
177.36 149.17 1.00 1.00 r p2
178.12 149.17 1.00 1.00 r p2
178.89 149.17 1.00 1.00 r p2
179.66 149.17 1.00 1.00 r p2
180.43 149.17 1.00 1.00 r p2
181.20 149.17 1.00 1.00 r p2
181.97 149.17 1.00 1.00 r p2
182.74 149.17 1.00 1.00 r p2
183.50 149.17 1.00 1.00 r p2
184.27 149.17 1.00 1.00 r p2
185.04 149.17 1.00 1.00 r p2
185.81 149.17 1.00 1.00 r p2
186.58 149.17 1.00 1.00 r p2
187.35 149.17 1.00 1.00 r p2
188.12 149.17 1.00 1.00 r p2
188.88 149.17 1.00 1.00 r p2
189.65 149.17 1.00 1.00 r p2
190.42 149.17 1.00 1.00 r p2
191.69 146.93 (3) .5 0 t
192.46 146.93 (3) .5 0 t
193.23 146.93 (3) .5 0 t
194.00 146.93 (3) .5 0 t
194.76 146.93 (3) .5 0 t
195.03 149.17 1.00 1.00 r p2
196.30 146.93 (3) .5 0 t
197.07 146.93 (3) .5 0 t
197.34 149.17 1.00 1.00 r p2
198.11 149.17 1.00 1.00 r p2
198.88 149.17 1.00 1.00 r p2
200.14 146.85 (4) .5 0 t
200.91 146.85 (4) .5 0 t
201.18 149.17 1.00 1.00 r p2
202.45 146.85 (4) .5 0 t
203.22 146.85 (4) .5 0 t
203.99 146.85 (4) .5 0 t
204.76 146.85 (4) .5 0 t
205.02 149.17 1.00 1.00 r p2
205.79 149.17 1.00 1.00 r p2
206.56 149.17 1.00 1.00 r p2
207.83 146.85 (4) .5 0 t
208.60 146.85 (4) .5 0 t
209.37 146.85 (4) .5 0 t
210.13 146.85 (4) .5 0 t
210.90 146.85 (4) .5 0 t
211.67 146.85 (4) .5 0 t
211.94 149.17 1.00 1.00 r p2
212.71 149.17 1.00 1.00 r p2
213.48 149.17 1.00 1.00 r p2
214.25 149.17 1.00 1.00 r p2
215.01 149.17 1.00 1.00 r p2
215.78 149.17 1.00 1.00 r p2
216.55 149.17 1.00 1.00 r p2
217.32 149.17 1.00 1.00 r p2
218.09 149.17 1.00 1.00 r p2
218.86 149.17 1.00 1.00 r p2
219.63 149.17 1.00 1.00 r p2
220.39 149.17 1.00 1.00 r p2
221.16 149.17 1.00 1.00 r p2
221.93 149.17 1.00 1.00 r p2
222.70 149.17 1.00 1.00 r p2
223.47 149.17 1.00 1.00 r p2
224.24 149.17 1.00 1.00 r p2
225.01 149.17 1.00 1.00 r p2
225.77 149.17 1.00 1.00 r p2
226.54 149.17 1.00 1.00 r p2
227.31 149.17 1.00 1.00 r p2
228.08 149.17 1.00 1.00 r p2
228.85 149.17 1.00 1.00 r p2
229.62 149.17 1.00 1.00 r p2
230.39 149.17 1.00 1.00 r p2
231.15 149.17 1.00 1.00 r p2
231.92 149.17 1.00 1.00 r p2
232.69 149.17 1.00 1.00 r p2
233.46 149.17 1.00 1.00 r p2
234.23 149.17 1.00 1.00 r p2
235.00 149.17 1.00 1.00 r p2
235.77 149.17 1.00 1.00 r p2
236.53 149.17 1.00 1.00 r p2
237.30 149.17 1.00 1.00 r p2
238.07 149.17 1.00 1.00 r p2
238.84 149.17 1.00 1.00 r p2
239.61 149.17 1.00 1.00 r p2
240.38 149.17 1.00 1.00 r p2
241.14 149.17 1.00 1.00 r p2
241.91 149.17 1.00 1.00 r p2
242.68 149.17 1.00 1.00 r p2
243.45 149.17 1.00 1.00 r p2
244.22 149.17 1.00 1.00 r p2
244.99 149.17 1.00 1.00 r p2
245.76 149.17 1.00 1.00 r p2
246.52 149.17 1.00 1.00 r p2
247.29 149.17 1.00 1.00 r p2
248.06 149.17 1.00 1.00 r p2
248.83 149.17 1.00 1.00 r p2
249.60 149.17 1.00 1.00 r p2
250.37 149.17 1.00 1.00 r p2
251.14 149.17 1.00 1.00 r p2
251.90 149.17 1.00 1.00 r p2
252.67 149.17 1.00 1.00 r p2
253.44 149.17 1.00 1.00 r p2
254.21 149.17 1.00 1.00 r p2
254.98 149.17 1.00 1.00 r p2
255.75 149.17 1.00 1.00 r p2
256.52 149.17 1.00 1.00 r p2
257.28 149.17 1.00 1.00 r p2
258.05 149.17 1.00 1.00 r p2
258.82 149.17 1.00 1.00 r p2
259.59 149.17 1.00 1.00 r p2
260.36 149.17 1.00 1.00 r p2
261.13 149.17 1.00 1.00 r p2
261.90 149.17 1.00 1.00 r p2
262.66 149.17 1.00 1.00 r p2
263.43 149.17 1.00 1.00 r p2
264.20 149.17 1.00 1.00 r p2
264.97 149.17 1.00 1.00 r p2
265.74 149.17 1.00 1.00 r p2
266.51 149.17 1.00 1.00 r p2
267.28 149.17 1.00 1.00 r p2
268.04 149.17 1.00 1.00 r p2
268.81 149.17 1.00 1.00 r p2
269.58 149.17 1.00 1.00 r p2
270.35 149.17 1.00 1.00 r p2
271.12 149.17 1.00 1.00 r p2
271.89 149.17 1.00 1.00 r p2
272.66 149.17 1.00 1.00 r p2
273.42 149.17 1.00 1.00 r p2
274.19 149.17 1.00 1.00 r p2
274.96 149.17 1.00 1.00 r p2
275.73 149.17 1.00 1.00 r p2
276.50 149.17 1.00 1.00 r p2
277.27 149.17 1.00 1.00 r p2
278.03 149.17 1.00 1.00 r p2
278.80 149.17 1.00 1.00 r p2
279.57 149.17 1.00 1.00 r p2
280.34 149.17 1.00 1.00 r p2
281.11 149.17 1.00 1.00 r p2
281.88 149.17 1.00 1.00 r p2
282.65 149.17 1.00 1.00 r p2
283.41 149.17 1.00 1.00 r p2
284.18 149.17 1.00 1.00 r p2
284.95 149.17 1.00 1.00 r p2
285.72 149.17 1.00 1.00 r p2
286.49 149.17 1.00 1.00 r p2
287.26 149.17 1.00 1.00 r p2
288.03 149.17 1.00 1.00 r p2
288.79 149.17 1.00 1.00 r p2
289.56 149.17 1.00 1.00 r p2
290.33 149.17 1.00 1.00 r p2
291.10 149.17 1.00 1.00 r p2
291.87 149.17 1.00 1.00 r p2
292.64 149.17 1.00 1.00 r p2
293.41 149.17 1.00 1.00 r p2
294.17 149.17 1.00 1.00 r p2
294.94 149.17 1.00 1.00 r p2
295.71 149.17 1.00 1.00 r p2
296.48 149.17 1.00 1.00 r p2
297.25 149.17 1.00 1.00 r p2
298.02 149.17 1.00 1.00 r p2
298.79 149.17 1.00 1.00 r p2
299.55 149.17 1.00 1.00 r p2
300.32 149.17 1.00 1.00 r p2
301.09 149.17 1.00 1.00 r p2
301.86 149.17 1.00 1.00 r p2
302.63 149.17 1.00 1.00 r p2
303.40 149.17 1.00 1.00 r p2
304.17 149.17 1.00 1.00 r p2
304.93 149.17 1.00 1.00 r p2
305.70 149.17 1.00 1.00 r p2
306.47 149.17 1.00 1.00 r p2
307.24 149.17 1.00 1.00 r p2
308.01 149.17 1.00 1.00 r p2
308.78 149.17 1.00 1.00 r p2
309.54 149.17 1.00 1.00 r p2
310.31 149.17 1.00 1.00 r p2
311.08 149.17 1.00 1.00 r p2
311.85 149.17 1.00 1.00 r p2
312.62 149.17 1.00 1.00 r p2
313.39 149.17 1.00 1.00 r p2
314.16 149.17 1.00 1.00 r p2
314.92 149.17 1.00 1.00 r p2
315.69 149.17 1.00 1.00 r p2
316.46 149.17 1.00 1.00 r p2
317.23 149.17 1.00 1.00 r p2
318.00 149.17 1.00 1.00 r p2
318.77 149.17 1.00 1.00 r p2
319.54 149.17 1.00 1.00 r p2
320.30 149.17 1.00 1.00 r p2
321.07 149.17 1.00 1.00 r p2
321.84 149.17 1.00 1.00 r p2
322.61 149.17 1.00 1.00 r p2
323.38 149.17 1.00 1.00 r p2
324.15 149.17 1.00 1.00 r p2
324.92 149.17 1.00 1.00 r p2
325.68 149.17 1.00 1.00 r p2
326.45 149.17 1.00 1.00 r p2
327.22 149.17 1.00 1.00 r p2
327.99 149.17 1.00 1.00 r p2
328.76 149.17 1.00 1.00 r p2
329.53 149.17 1.00 1.00 r p2
330.30 149.17 1.00 1.00 r p2
331.06 149.17 1.00 1.00 r p2
331.83 149.17 1.00 1.00 r p2
332.60 149.17 1.00 1.00 r p2
333.37 149.17 1.00 1.00 r p2
334.14 149.17 1.00 1.00 r p2
334.91 149.17 1.00 1.00 r p2
335.68 149.17 1.00 1.00 r p2
336.44 149.17 1.00 1.00 r p2
337.71 146.85 (4) .5 0 t
338.48 146.85 (4) .5 0 t
339.25 146.85 (4) .5 0 t
340.02 146.85 (4) .5 0 t
340.79 146.85 (4) .5 0 t
341.56 146.85 (4) .5 0 t
341.82 149.17 1.00 1.00 r p2
342.59 149.17 1.00 1.00 r p2
343.86 146.85 (4) .5 0 t
344.63 146.85 (4) .5 0 t
344.90 149.17 1.00 1.00 r p2
346.17 146.85 (4) .5 0 t
346.93 146.85 (4) .5 0 t
347.70 146.85 (4) .5 0 t
348.47 146.85 (4) .5 0 t
349.24 146.99 (5) .5 0 t
350.01 146.99 (5) .5 0 t
350.28 149.17 1.00 1.00 r p2
351.05 149.17 1.00 1.00 r p2
351.81 149.17 1.00 1.00 r p2
353.08 146.99 (5) .5 0 t
353.85 146.99 (5) .5 0 t
354.62 146.99 (5) .5 0 t
355.39 146.99 (5) .5 0 t
355.66 149.17 1.00 1.00 r p2
356.43 149.17 1.00 1.00 r p2
357.19 149.17 1.00 1.00 r p2
357.96 149.17 1.00 1.00 r p2
359.23 146.99 (5) .5 0 t
360.00 146.99 (5) .5 0 t
360.77 146.99 (5) .5 0 t
361.54 146.99 (5) .5 0 t
362.31 146.99 (5) .5 0 t
363.07 146.99 (5) .5 0 t
363.84 146.99 (5) .5 0 t
364.11 149.17 1.00 1.00 r p2
364.88 149.17 1.00 1.00 r p2
365.65 149.17 1.00 1.00 r p2
366.42 149.17 1.00 1.00 r p2
367.19 149.17 1.00 1.00 r p2
367.95 149.17 1.00 1.00 r p2
368.72 149.17 1.00 1.00 r p2
369.49 149.17 1.00 1.00 r p2
370.26 149.17 1.00 1.00 r p2
371.03 149.17 1.00 1.00 r p2
371.80 149.17 1.00 1.00 r p2
372.57 149.17 1.00 1.00 r p2
373.33 149.17 1.00 1.00 r p2
374.10 149.17 1.00 1.00 r p2
374.87 149.17 1.00 1.00 r p2
375.64 149.17 1.00 1.00 r p2
376.41 149.17 1.00 1.00 r p2
377.18 149.17 1.00 1.00 r p2
377.94 149.17 1.00 1.00 r p2
378.71 149.17 1.00 1.00 r p2
379.48 149.17 1.00 1.00 r p2
380.25 149.17 1.00 1.00 r p2
381.02 149.17 1.00 1.00 r p2
381.79 149.17 1.00 1.00 r p2
382.56 149.17 1.00 1.00 r p2
383.32 149.17 1.00 1.00 r p2
384.09 149.17 1.00 1.00 r p2
385.36 146.99 (5) .5 0 t
386.13 146.99 (5) .5 0 t
386.90 146.99 (5) .5 0 t
387.67 146.99 (5) .5 0 t
388.44 146.99 (5) .5 0 t
389.20 146.99 (5) .5 0 t
389.97 146.99 (5) .5 0 t
390.24 149.17 1.00 1.00 r p2
391.01 149.17 1.00 1.00 r p2
391.78 149.17 1.00 1.00 r p2
393.05 146.99 (5) .5 0 t
393.82 146.99 (5) .5 0 t
394.58 146.99 (5) .5 0 t
395.35 146.99 (5) .5 0 t
395.62 149.17 1.00 1.00 r p2
396.39 149.17 1.00 1.00 r p2
397.16 149.17 1.00 1.00 r p2
398.43 146.99 (5) .5 0 t
399.20 146.99 (5) .5 0 t
399.46 149.17 1.00 1.00 r p2
400.23 149.17 1.00 1.00 r p2
401.00 149.17 1.00 1.00 r p2
402.27 146.93 (6) .5 0 t
402.54 149.17 1.00 1.00 r p2
403.81 146.93 (6) .5 0 t
404.58 146.93 (6) .5 0 t
405.34 146.93 (6) .5 0 t
406.11 146.93 (6) .5 0 t
406.88 146.93 (6) .5 0 t
407.15 149.17 1.00 1.00 r p2
407.92 149.17 1.00 1.00 r p2
408.69 149.17 1.00 1.00 r p2
409.46 149.17 1.00 1.00 r p2
410.22 149.17 1.00 1.00 r p2
410.99 149.17 1.00 1.00 r p2
411.76 149.17 1.00 1.00 r p2
412.53 149.17 1.00 1.00 r p2
413.30 149.17 1.00 1.00 r p2
414.07 149.17 1.00 1.00 r p2
414.83 149.17 1.00 1.00 r p2
415.60 149.17 1.00 1.00 r p2
416.37 149.17 1.00 1.00 r p2
417.14 149.17 1.00 1.00 r p2
417.91 149.17 1.00 1.00 r p2
418.68 149.17 1.00 1.00 r p2
419.45 149.17 1.00 1.00 r p2
420.21 149.17 1.00 1.00 r p2
420.98 149.17 1.00 1.00 r p2
421.75 149.17 1.00 1.00 r p2
422.52 149.17 1.00 1.00 r p2
423.29 149.17 1.00 1.00 r p2
424.06 149.17 1.00 1.00 r p2
424.83 149.17 1.00 1.00 r p2
425.59 149.17 1.00 1.00 r p2
426.36 149.17 1.00 1.00 r p2
427.13 149.17 1.00 1.00 r p2
427.90 149.17 1.00 1.00 r p2
428.67 149.17 1.00 1.00 r p2
429.44 149.17 1.00 1.00 r p2
430.21 149.17 1.00 1.00 r p2
430.97 149.17 1.00 1.00 r p2
431.74 149.17 1.00 1.00 r p2
432.51 149.17 1.00 1.00 r p2
433.28 149.17 1.00 1.00 r p2
434.05 149.17 1.00 1.00 r p2
434.82 149.17 1.00 1.00 r p2
435.59 149.17 1.00 1.00 r p2
436.35 149.17 1.00 1.00 r p2
437.12 149.17 1.00 1.00 r p2
437.89 149.17 1.00 1.00 r p2
438.66 149.17 1.00 1.00 r p2
439.43 149.17 1.00 1.00 r p2
440.20 149.17 1.00 1.00 r p2
440.97 149.17 1.00 1.00 r p2
441.73 149.17 1.00 1.00 r p2
442.50 149.17 1.00 1.00 r p2
443.27 149.17 1.00 1.00 r p2
444.04 149.17 1.00 1.00 r p2
444.81 149.17 1.00 1.00 r p2
445.58 149.17 1.00 1.00 r p2
446.34 149.17 1.00 1.00 r p2
447.11 149.17 1.00 1.00 r p2
447.88 149.17 1.00 1.00 r p2
448.65 149.17 1.00 1.00 r p2
449.92 146.93 (3) .5 0 t
450.69 146.93 (3) .5 0 t
450.96 149.17 1.00 1.00 r p2
452.22 146.93 (3) .5 0 t
452.99 146.93 (3) .5 0 t
453.76 146.93 (3) .5 0 t
454.53 146.93 (3) .5 0 t
455.30 146.93 (3) .5 0 t
455.57 149.17 1.00 1.00 r p2
456.84 146.91 (7) .5 0 t
457.60 146.91 (7) .5 0 t
458.37 146.91 (7) .5 0 t
459.14 146.91 (7) .5 0 t
459.91 146.91 (7) .5 0 t
460.68 146.91 (7) .5 0 t
461.45 146.91 (7) .5 0 t
462.22 146.91 (7) .5 0 t
462.98 146.91 (7) .5 0 t
463.25 149.17 1.00 1.00 r p2
464.02 149.17 1.00 1.00 r p2
464.79 149.17 1.00 1.00 r p2
465.56 149.17 1.00 1.00 r p2
466.33 149.17 1.00 1.00 r p2
467.10 149.17 1.00 1.00 r p2
467.86 149.17 1.00 1.00 r p2
468.63 149.17 1.00 1.00 r p2
469.40 149.17 1.00 1.00 r p2
470.17 149.17 1.00 1.00 r p2
470.94 149.17 1.00 1.00 r p2
471.71 149.17 1.00 1.00 r p2
472.48 149.17 1.00 1.00 r p2
473.24 149.17 1.00 1.00 r p2
474.01 149.17 1.00 1.00 r p2
474.78 149.17 1.00 1.00 r p2
475.55 149.17 1.00 1.00 r p2
476.32 149.17 1.00 1.00 r p2
477.09 149.17 1.00 1.00 r p2
477.86 149.17 1.00 1.00 r p2
478.62 149.17 1.00 1.00 r p2
479.39 149.17 1.00 1.00 r p2
480.16 149.17 1.00 1.00 r p2
480.93 149.17 1.00 1.00 r p2
481.70 149.17 1.00 1.00 r p2
482.47 149.17 1.00 1.00 r p2
483.23 149.17 1.00 1.00 r p2
484.00 149.17 1.00 1.00 r p2
484.77 149.17 1.00 1.00 r p2
485.54 149.17 1.00 1.00 r p2
486.31 149.17 1.00 1.00 r p2
487.08 149.17 1.00 1.00 r p2
487.85 149.17 1.00 1.00 r p2
488.61 149.17 1.00 1.00 r p2
489.38 149.17 1.00 1.00 r p2
490.15 149.17 1.00 1.00 r p2
490.92 149.17 1.00 1.00 r p2
491.69 149.17 1.00 1.00 r p2
492.46 149.17 1.00 1.00 r p2
493.23 149.17 1.00 1.00 r p2
493.99 149.17 1.00 1.00 r p2
494.76 149.17 1.00 1.00 r p2
495.53 149.17 1.00 1.00 r p2
496.30 149.17 1.00 1.00 r p2
497.07 149.17 1.00 1.00 r p2
497.84 149.17 1.00 1.00 r p2
498.61 149.17 1.00 1.00 r p2
499.37 149.17 1.00 1.00 r p2
500.14 149.17 1.00 1.00 r p2
500.91 149.17 1.00 1.00 r p2
501.68 149.17 1.00 1.00 r p2
502.45 149.17 1.00 1.00 r p2
503.22 149.17 1.00 1.00 r p2
503.99 149.17 1.00 1.00 r p2
504.75 149.17 1.00 1.00 r p2
505.52 149.17 1.00 1.00 r p2
506.29 149.17 1.00 1.00 r p2
507.06 149.17 1.00 1.00 r p2
507.83 149.17 1.00 1.00 r p2
508.60 149.17 1.00 1.00 r p2
509.37 149.17 1.00 1.00 r p2
510.13 149.17 1.00 1.00 r p2
510.90 149.17 1.00 1.00 r p2
511.67 149.17 1.00 1.00 r p2
512.44 149.17 1.00 1.00 r p2
513.21 149.17 1.00 1.00 r p2
513.98 149.17 1.00 1.00 r p2
514.74 149.17 1.00 1.00 r p2
515.51 149.17 1.00 1.00 r p2
516.28 149.17 1.00 1.00 r p2
517.05 149.17 1.00 1.00 r p2
517.82 149.17 1.00 1.00 r p2
518.59 149.17 1.00 1.00 r p2
519.36 149.17 1.00 1.00 r p2
520.12 149.17 1.00 1.00 r p2
520.89 149.17 1.00 1.00 r p2
521.66 149.17 1.00 1.00 r p2
522.43 149.17 1.00 1.00 r p2
523.20 149.17 1.00 1.00 r p2
523.97 149.17 1.00 1.00 r p2
524.74 149.17 1.00 1.00 r p2
525.50 149.17 1.00 1.00 r p2
526.27 149.17 1.00 1.00 r p2
527.04 149.17 1.00 1.00 r p2
527.81 149.17 1.00 1.00 r p2
528.58 149.17 1.00 1.00 r p2
529.35 149.17 1.00 1.00 r p2
530.12 149.17 1.00 1.00 r p2
530.88 149.17 1.00 1.00 r p2
531.65 149.17 1.00 1.00 r p2
532.42 149.17 1.00 1.00 r p2
533.19 149.17 1.00 1.00 r p2
533.96 149.17 1.00 1.00 r p2
534.73 149.17 1.00 1.00 r p2
535.50 149.17 1.00 1.00 r p2
536.26 149.17 1.00 1.00 r p2
537.03 149.17 1.00 1.00 r p2
537.80 149.17 1.00 1.00 r p2
538.57 149.17 1.00 1.00 r p2
539.34 149.17 1.00 1.00 r p2
540.11 149.17 1.00 1.00 r p2
540.88 149.17 1.00 1.00 r p2
541.64 149.17 1.00 1.00 r p2
542.41 149.17 1.00 1.00 r p2
543.18 149.17 1.00 1.00 r p2
543.95 149.17 1.00 1.00 r p2
544.72 149.17 1.00 1.00 r p2
545.49 149.17 1.00 1.00 r p2
546.26 149.17 1.00 1.00 r p2
547.02 149.17 1.00 1.00 r p2
547.79 149.17 1.00 1.00 r p2
548.56 149.17 1.00 1.00 r p2
549.33 149.17 1.00 1.00 r p2
550.10 149.17 1.00 1.00 r p2
550.87 149.17 1.00 1.00 r p2
551.63 149.17 1.00 1.00 r p2
552.40 149.17 1.00 1.00 r p2
553.17 149.17 1.00 1.00 r p2
553.94 149.17 1.00 1.00 r p2
554.71 149.17 1.00 1.00 r p2
555.48 149.17 1.00 1.00 r p2
556.25 149.17 1.00 1.00 r p2
557.01 149.17 1.00 1.00 r p2
557.78 149.17 1.00 1.00 r p2
558.55 149.17 1.00 1.00 r p2
559.32 149.17 1.00 1.00 r p2
560.09 149.17 1.00 1.00 r p2
560.86 149.17 1.00 1.00 r p2
561.63 149.17 1.00 1.00 r p2
562.39 149.17 1.00 1.00 r p2
563.16 149.17 1.00 1.00 r p2
563.93 149.17 1.00 1.00 r p2
564.70 149.17 1.00 1.00 r p2
565.47 149.17 1.00 1.00 r p2
566.24 149.17 1.00 1.00 r p2
567.01 149.17 1.00 1.00 r p2
567.77 149.17 1.00 1.00 r p2
568.54 149.17 1.00 1.00 r p2
569.31 149.17 1.00 1.00 r p2
570.08 149.17 1.00 1.00 r p2
570.85 149.17 1.00 1.00 r p2
571.62 149.17 1.00 1.00 r p2
572.39 149.17 1.00 1.00 r p2
573.15 149.17 1.00 1.00 r p2
573.92 149.17 1.00 1.00 r p2
574.69 149.17 1.00 1.00 r p2
575.46 149.17 1.00 1.00 r p2
576.23 149.17 1.00 1.00 r p2
577.00 149.17 1.00 1.00 r p2
577.77 149.17 1.00 1.00 r p2
578.53 149.17 1.00 1.00 r p2
579.30 149.17 1.00 1.00 r p2
580.07 149.17 1.00 1.00 r p2
580.84 149.17 1.00 1.00 r p2
581.61 149.17 1.00 1.00 r p2
582.38 149.17 1.00 1.00 r p2
583.14 149.17 1.00 1.00 r p2
583.91 149.17 1.00 1.00 r p2
584.68 149.17 1.00 1.00 r p2
585.45 149.17 1.00 1.00 r p2
586.22 149.17 1.00 1.00 r p2
586.99 149.17 1.00 1.00 r p2
587.76 149.17 1.00 1.00 r p2
588.52 149.17 1.00 1.00 r p2
589.29 149.17 1.00 1.00 r p2
590.06 149.17 1.00 1.00 r p2
590.83 149.17 1.00 1.00 r p2
591.60 149.17 1.00 1.00 r p2
592.37 149.17 1.00 1.00 r p2
593.14 149.17 1.00 1.00 r p2
593.90 149.17 1.00 1.00 r p2
594.67 149.17 1.00 1.00 r p2
595.44 149.17 1.00 1.00 r p2
596.21 149.17 1.00 1.00 r p2
596.98 149.17 1.00 1.00 r p2
597.75 149.17 1.00 1.00 r p2
598.52 149.17 1.00 1.00 r p2
599.28 149.17 1.00 1.00 r p2
600.05 149.17 1.00 1.00 r p2
600.82 149.17 1.00 1.00 r p2
601.59 149.17 1.00 1.00 r p2
602.36 149.17 1.00 1.00 r p2
603.13 149.17 1.00 1.00 r p2
603.90 149.17 1.00 1.00 r p2
604.66 149.17 1.00 1.00 r p2
605.43 149.17 1.00 1.00 r p2
606.20 149.17 1.00 1.00 r p2
606.97 149.17 1.00 1.00 r p2
607.74 149.17 1.00 1.00 r p2
608.51 149.17 1.00 1.00 r p2
609.28 149.17 1.00 1.00 r p2
610.04 149.17 1.00 1.00 r p2
610.81 149.17 1.00 1.00 r p2
611.58 149.17 1.00 1.00 r p2
612.35 149.17 1.00 1.00 r p2
613.12 149.17 1.00 1.00 r p2
613.89 149.17 1.00 1.00 r p2
614.66 149.17 1.00 1.00 r p2
615.42 149.17 1.00 1.00 r p2
616.19 149.17 1.00 1.00 r p2
616.96 149.17 1.00 1.00 r p2
617.73 149.17 1.00 1.00 r p2
618.50 149.17 1.00 1.00 r p2
619.27 149.17 1.00 1.00 r p2
620.03 149.17 1.00 1.00 r p2
620.80 149.17 1.00 1.00 r p2
621.57 149.17 1.00 1.00 r p2
622.34 149.17 1.00 1.00 r p2
623.11 149.17 1.00 1.00 r p2
623.88 149.17 1.00 1.00 r p2
624.65 149.17 1.00 1.00 r p2
625.41 149.17 1.00 1.00 r p2
626.18 149.17 1.00 1.00 r p2
626.95 149.17 1.00 1.00 r p2
627.72 149.17 1.00 1.00 r p2
628.49 149.17 1.00 1.00 r p2
629.26 149.17 1.00 1.00 r p2
630.03 149.17 1.00 1.00 r p2
630.79 149.17 1.00 1.00 r p2
631.56 149.17 1.00 1.00 r p2
632.33 149.17 1.00 1.00 r p2
633.10 149.17 1.00 1.00 r p2
633.87 149.17 1.00 1.00 r p2
634.64 149.17 1.00 1.00 r p2
635.41 149.17 1.00 1.00 r p2
636.17 149.17 1.00 1.00 r p2
636.94 149.17 1.00 1.00 r p2
637.71 149.17 1.00 1.00 r p2
638.48 149.17 1.00 1.00 r p2
639.25 149.17 1.00 1.00 r p2
640.02 149.17 1.00 1.00 r p2
640.79 149.17 1.00 1.00 r p2
641.55 149.17 1.00 1.00 r p2
642.32 149.17 1.00 1.00 r p2
643.09 149.17 1.00 1.00 r p2
643.86 149.17 1.00 1.00 r p2
644.63 149.17 1.00 1.00 r p2
645.40 149.17 1.00 1.00 r p2
646.17 149.17 1.00 1.00 r p2
646.93 149.17 1.00 1.00 r p2
647.70 149.17 1.00 1.00 r p2
648.47 149.17 1.00 1.00 r p2
649.24 149.17 1.00 1.00 r p2
650.01 149.17 1.00 1.00 r p2
650.78 149.17 1.00 1.00 r p2
651.54 149.17 1.00 1.00 r p2
652.31 149.17 1.00 1.00 r p2
653.08 149.17 1.00 1.00 r p2
653.85 149.17 1.00 1.00 r p2
654.62 149.17 1.00 1.00 r p2
655.39 149.17 1.00 1.00 r p2
656.16 149.17 1.00 1.00 r p2
656.92 149.17 1.00 1.00 r p2
657.69 149.17 1.00 1.00 r p2
658.46 149.17 1.00 1.00 r p2
659.23 149.17 1.00 1.00 r p2
660.00 149.17 1.00 1.00 r p2
660.77 149.17 1.00 1.00 r p2
661.54 149.17 1.00 1.00 r p2
662.30 149.17 1.00 1.00 r p2
663.07 149.17 1.00 1.00 r p2
663.84 149.17 1.00 1.00 r p2
664.61 149.17 1.00 1.00 r p2
665.38 149.17 1.00 1.00 r p2
666.15 149.17 1.00 1.00 r p2
666.92 149.17 1.00 1.00 r p2
668.18 146.91 (7) .5 0 t
668.95 146.91 (7) .5 0 t
669.72 146.91 (7) .5 0 t
670.49 146.91 (7) .5 0 t
671.26 146.91 (7) .5 0 t
672.03 146.91 (7) .5 0 t
672.80 146.91 (7) .5 0 t
673.56 146.91 (7) .5 0 t
674.33 146.91 (7) .5 0 t
674.60 149.17 1.00 1.00 r p2
675.37 149.17 1.00 1.00 r p2
676.14 149.17 1.00 1.00 r p2
676.91 149.17 1.00 1.00 r p2
677.68 149.17 1.00 1.00 r p2
678.44 149.17 1.00 1.00 r p2
679.21 149.17 1.00 1.00 r p2
679.98 149.17 1.00 1.00 r p2
681.25 146.93 (6) .5 0 t
682.02 146.93 (6) .5 0 t
682.79 146.93 (6) .5 0 t
683.56 146.93 (6) .5 0 t
684.32 146.93 (6) .5 0 t
685.09 146.93 (6) .5 0 t
685.36 149.17 1.00 1.00 r p2
686.13 149.17 1.00 1.00 r p2
686.90 149.17 1.00 1.00 r p2
687.67 149.17 1.00 1.00 r p2
688.43 149.17 1.00 1.00 r p2
689.20 149.17 1.00 1.00 r p2
690.47 146.93 (8) .5 0 t
691.24 146.93 (8) .5 0 t
692.01 146.93 (8) .5 0 t
692.78 146.93 (8) .5 0 t
693.55 146.93 (8) .5 0 t
693.81 149.17 1.00 1.00 r p2
694.58 149.17 1.00 1.00 r p2
695.35 149.17 1.00 1.00 r p2
696.12 149.17 1.00 1.00 r p2
697.39 146.93 (8) .5 0 t
698.16 146.93 (8) .5 0 t
698.93 146.93 (8) .5 0 t
699.69 146.93 (8) .5 0 t
700.46 146.93 (8) .5 0 t
700.73 149.17 1.00 1.00 r p2
701.50 149.17 1.00 1.00 r p2
1 0 0 srgb
0.75 setlinewidth
[] 0 setdash
1 setlinecap
1 setlinejoin
10.00 setmiterlimit
np
18.00 144.27 m
2.55 -4.41 l
-5.10 0 l
2.55 4.41 l
o
np
21.07 144.27 m
2.55 -4.41 l
-5.09 0 l
2.54 4.41 l
o
np
51.82 144.27 m
2.54 -4.41 l
-5.09 0 l
2.55 4.41 l
o
np
61.04 144.27 m
2.54 -4.41 l
-5.09 0 l
2.55 4.41 l
o
np
104.84 144.27 m
2.55 -4.41 l
-5.09 0 l
2.54 4.41 l
o
np
104.84 144.27 m
2.55 -4.41 l
-5.09 0 l
2.54 4.41 l
o
np
191.69 144.27 m
2.55 -4.41 l
-5.10 0 l
2.55 4.41 l
o
np
191.69 144.27 m
2.55 -4.41 l
-5.10 0 l
2.55 4.41 l
o
np
191.69 144.27 m
2.55 -4.41 l
-5.10 0 l
2.55 4.41 l
o
np
200.14 144.27 m
2.55 -4.41 l
-5.09 0 l
2.54 4.41 l
o
np
200.14 144.27 m
2.55 -4.41 l
-5.09 0 l
2.54 4.41 l
o
np
337.71 144.27 m
2.55 -4.41 l
-5.09 0 l
2.54 4.41 l
o
np
337.71 144.27 m
2.55 -4.41 l
-5.09 0 l
2.54 4.41 l
o
np
349.24 144.27 m
2.55 -4.41 l
-5.09 0 l
2.54 4.41 l
o
np
385.36 144.27 m
2.55 -4.41 l
-5.09 0 l
2.54 4.41 l
o
np
385.36 144.27 m
2.55 -4.41 l
-5.09 0 l
2.54 4.41 l
o
np
402.27 144.27 m
2.55 -4.41 l
-5.10 0 l
2.55 4.41 l
o
np
402.27 144.27 m
2.55 -4.41 l
-5.10 0 l
2.55 4.41 l
o
np
402.27 144.27 m
2.55 -4.41 l
-5.10 0 l
2.55 4.41 l
o
np
456.84 144.27 m
2.54 -4.41 l
-5.09 0 l
2.55 4.41 l
o
np
456.84 144.27 m
2.54 -4.41 l
-5.09 0 l
2.55 4.41 l
o
np
668.18 144.27 m
2.55 -4.41 l
-5.09 0 l
2.54 4.41 l
o
np
668.18 144.27 m
2.55 -4.41 l
-5.09 0 l
2.54 4.41 l
o
np
681.25 144.27 m
2.54 -4.41 l
-5.09 0 l
2.55 4.41 l
o
np
690.47 144.27 m
2.55 -4.41 l
-5.09 0 l
2.54 4.41 l
o
np
57.96 144.27 m
2.55 -4.41 l
-5.09 0 l
2.54 4.41 l
o
np
62.58 144.27 m
2.54 -4.41 l
-5.09 0 l
2.55 4.41 l
o
np
106.38 144.27 m
2.55 -4.41 l
-5.09 0 l
2.54 4.41 l
o
np
197.07 144.27 m
2.55 -4.41 l
-5.10 0 l
2.55 4.41 l
o
np
455.30 144.27 m
2.54 -4.41 l
-5.09 0 l
2.55 4.41 l
o
np
211.67 144.27 m
2.55 -4.41 l
-5.09 0 l
2.54 4.41 l
o
np
455.30 144.27 m
2.54 -4.41 l
-5.09 0 l
2.55 4.41 l
o
np
211.67 144.27 m
2.55 -4.41 l
-5.09 0 l
2.54 4.41 l
o
np
406.88 144.27 m
2.55 -4.41 l
-5.09 0 l
2.54 4.41 l
o
np
455.30 144.27 m
2.54 -4.41 l
-5.09 0 l
2.55 4.41 l
o
np
363.84 144.27 m
2.55 -4.41 l
-5.09 0 l
2.54 4.41 l
o
np
399.20 144.27 m
2.54 -4.41 l
-5.09 0 l
2.55 4.41 l
o
np
462.98 144.27 m
2.55 -4.41 l
-5.09 0 l
2.54 4.41 l
o
np
406.88 144.27 m
2.55 -4.41 l
-5.09 0 l
2.54 4.41 l
o
np
685.09 144.27 m
2.55 -4.41 l
-5.09 0 l
2.54 4.41 l
o
np
462.98 144.27 m
2.55 -4.41 l
-5.09 0 l
2.54 4.41 l
o
np
685.09 144.27 m
2.55 -4.41 l
-5.09 0 l
2.54 4.41 l
o
np
693.55 144.27 m
2.54 -4.41 l
-5.09 0 l
2.55 4.41 l
o
np
455.30 144.27 m
2.54 -4.41 l
-5.09 0 l
2.55 4.41 l
o
np
685.09 144.27 m
2.55 -4.41 l
-5.09 0 l
2.54 4.41 l
o
np
693.55 144.27 m
2.54 -4.41 l
-5.09 0 l
2.55 4.41 l
o
np
700.46 144.27 m
2.55 -4.41 l
-5.09 0 l
2.54 4.41 l
o
np
685.09 144.27 m
2.55 -4.41 l
-5.09 0 l
2.54 4.41 l
o
np
700.46 144.27 m
2.55 -4.41 l
-5.09 0 l
2.54 4.41 l
o
np
702.00 144.27 m
2.55 -4.41 l
-5.10 0 l
2.55 4.41 l
o
0 0 0.8000 srgb
np
18.00 124.67 m
39.96 0 l
o
0 0 0.8235 srgb
np
21.07 121.33 m
41.51 0 l
o
0 0 0.9490 srgb
np
51.82 118.00 m
54.56 0 l
o
0 0.2510 1 srgb
np
61.04 114.67 m
136.03 0 l
o
0.1804 1 0.8196 srgb
np
104.84 111.33 m
350.46 0 l
o
0 0.5020 1 srgb
np
104.84 108.00 m
106.83 0 l
o
0.3608 1 0.6392 srgb
np
191.69 104.67 m
263.61 0 l
o
0 0.8000 1 srgb
np
191.69 101.33 m
19.98 0 l
o
0.2549 1 0.7451 srgb
np
191.69 98.00 m
215.19 0 l
o
0.3608 1 0.6392 srgb
np
200.14 94.67 m
255.16 0 l
o
0.2039 1 0.7961 srgb
np
200.14 91.33 m
163.70 0 l
o
0.5137 1 0.4863 srgb
np
337.71 88.00 m
61.49 0 l
o
0.6392 1 0.3608 srgb
np
337.71 84.67 m
125.27 0 l
o
0.5647 1 0.4353 srgb
np
349.24 81.33 m
57.64 0 l
o
1 0.6980 0 srgb
np
385.36 78.00 m
299.73 0 l
o
0.7176 1 0.2824 srgb
np
385.36 74.67 m
77.62 0 l
o
1 0.6510 0 srgb
np
402.27 71.33 m
282.82 0 l
o
np
402.27 68.00 m
291.28 0 l
o
0.7451 1 0.2549 srgb
np
402.27 64.67 m
53.03 0 l
o
1 0.4510 0 srgb
np
456.84 61.33 m
228.25 0 l
o
np
456.84 58.00 m
236.71 0 l
o
0.8235 0 0 srgb
np
668.18 54.67 m
32.28 0 l
o
0.8510 0 0 srgb
np
668.18 51.33 m
16.91 0 l
o
0.8000 0 0 srgb
np
681.25 48.00 m
19.21 0 l
o
0.7765 0 0 srgb
np
690.47 44.67 m
11.53 0 l
o
ep
%%Trailer
%%Pages: 1
%%EOF
