%!PS-Adobe-3.0
%%DocumentNeededResources: font Helvetica
%%+ font Helvetica-Bold
%%+ font Helvetica-Oblique
%%+ font Helvetica-BoldOblique
%%+ font Symbol
%%DocumentMedia: special 180 720 0 () ()
%%Title: R Graphics Output
%%Creator: R Software
%%Pages: (atend)
%%BoundingBox: 0 0 180 720
%%EndComments
%%BeginProlog
/bp  { gs sRGB 180.00 0 translate 90 rotate gs } def
% begin .ps.prolog
/gs  { gsave } bind def
/gr  { grestore } bind def
/ep  { showpage gr gr } bind def
/m   { moveto } bind def
/l  { rlineto } bind def
/np  { newpath } bind def
/cp  { closepath } bind def
/f   { fill } bind def
/o   { stroke } bind def
/c   { newpath 0 360 arc } bind def
/r   { 4 2 roll moveto 1 copy 3 -1 roll exch 0 exch rlineto 0 rlineto -1 mul 0 exch rlineto closepath } bind def
/p1  { stroke } bind def
/p2  { gsave bg fill grestore newpath } bind def
/p3  { gsave bg fill grestore stroke } bind def
/p6  { gsave bg eofill grestore newpath } bind def
/p7  { gsave bg eofill grestore stroke } bind def
/t   { 5 -2 roll moveto gsave rotate
       1 index stringwidth pop
       mul neg 0 rmoveto show grestore } bind def
/ta  { 4 -2 roll moveto gsave rotate show } bind def
/tb  { 2 -1 roll 0 rmoveto show } bind def
/cl  { grestore gsave newpath 3 index 3 index moveto 1 index
       4 -1 roll lineto  exch 1 index lineto lineto
       closepath clip newpath } bind def
/rgb { setrgbcolor } bind def
/s   { scalefont setfont } bind def
% end   .ps.prolog
/sRGB { [ /CIEBasedABC
          << /DecodeLMN
               [ { dup 0.03928 le
                        {12.92321 div}
                        {0.055 add 1.055 div 2.4 exp }
                     ifelse
                 } bind dup dup
               ]
             /MatrixLMN [0.412457 0.212673 0.019334
                         0.357576 0.715152 0.119192
                         0.180437 0.072175 0.950301]
             /WhitePoint [0.9505 1.0 1.0890]
           >>
         ] setcolorspace } bind def
/srgb { setcolor } bind def
%%IncludeResource: font Helvetica
/Helvetica findfont
dup length dict begin
  {1 index /FID ne {def} {pop pop} ifelse} forall
  /Encoding ISOLatin1Encoding def
  currentdict
  end
/Font1 exch definefont pop
%%IncludeResource: font Helvetica-Bold
/Helvetica-Bold findfont
dup length dict begin
  {1 index /FID ne {def} {pop pop} ifelse} forall
  /Encoding ISOLatin1Encoding def
  currentdict
  end
/Font2 exch definefont pop
%%IncludeResource: font Helvetica-Oblique
/Helvetica-Oblique findfont
dup length dict begin
  {1 index /FID ne {def} {pop pop} ifelse} forall
  /Encoding ISOLatin1Encoding def
  currentdict
  end
/Font3 exch definefont pop
%%IncludeResource: font Helvetica-BoldOblique
/Helvetica-BoldOblique findfont
dup length dict begin
  {1 index /FID ne {def} {pop pop} ifelse} forall
  /Encoding ISOLatin1Encoding def
  currentdict
  end
/Font4 exch definefont pop
%%IncludeResource: font Symbol
/Symbol findfont
dup length dict begin
  {1 index /FID ne {def} {pop pop} ifelse} forall
  currentdict
  end
/Font5 exch definefont pop
%%EndProlog
%%Page: 1 1
bp
18.00 36.00 702.00 180.00 cl
/bg { 0 0 0 srgb } def
49.29 166.23 1.00 1.00 r p2
49.99 166.23 1.00 1.00 r p2
50.68 166.23 1.00 1.00 r p2
51.38 166.23 1.00 1.00 r p2
/Font1 findfont 8 s
0 0 0 srgb
52.58 164.71 (<) .5 0 t
53.28 164.71 (<) .5 0 t
53.98 164.71 (<) .5 0 t
54.67 164.71 (<) .5 0 t
55.37 164.71 (<) .5 0 t
56.07 164.71 (<) .5 0 t
56.77 164.71 (<) .5 0 t
57.47 164.71 (<) .5 0 t
58.16 164.71 (<) .5 0 t
58.36 166.23 1.00 1.00 r p2
59.06 166.23 1.00 1.00 r p2
59.76 166.23 1.00 1.00 r p2
60.46 166.23 1.00 1.00 r p2
61.15 166.23 1.00 1.00 r p2
61.85 166.23 1.00 1.00 r p2
62.55 166.23 1.00 1.00 r p2
63.25 166.23 1.00 1.00 r p2
63.94 166.23 1.00 1.00 r p2
64.64 166.23 1.00 1.00 r p2
65.34 166.23 1.00 1.00 r p2
66.04 166.23 1.00 1.00 r p2
66.74 166.23 1.00 1.00 r p2
67.43 166.23 1.00 1.00 r p2
68.13 166.23 1.00 1.00 r p2
68.83 166.23 1.00 1.00 r p2
69.53 166.23 1.00 1.00 r p2
70.23 166.23 1.00 1.00 r p2
70.92 166.23 1.00 1.00 r p2
71.62 166.23 1.00 1.00 r p2
72.32 166.23 1.00 1.00 r p2
73.02 166.23 1.00 1.00 r p2
73.71 166.23 1.00 1.00 r p2
74.41 166.23 1.00 1.00 r p2
75.11 166.23 1.00 1.00 r p2
75.81 166.23 1.00 1.00 r p2
76.51 166.23 1.00 1.00 r p2
77.20 166.23 1.00 1.00 r p2
77.90 166.23 1.00 1.00 r p2
78.60 166.23 1.00 1.00 r p2
79.30 166.23 1.00 1.00 r p2
80.50 164.71 (>) .5 0 t
81.19 164.71 (>) .5 0 t
81.89 164.71 (>) .5 0 t
82.59 164.71 (>) .5 0 t
83.29 164.71 (>) .5 0 t
83.99 164.71 (>) .5 0 t
84.68 164.71 (>) .5 0 t
85.38 164.71 (>) .5 0 t
86.08 164.71 (>) .5 0 t
86.28 166.23 1.00 1.00 r p2
86.97 166.23 1.00 1.00 r p2
87.67 166.23 1.00 1.00 r p2
88.87 164.71 (<) .5 0 t
89.57 164.71 (<) .5 0 t
90.27 164.71 (<) .5 0 t
90.46 166.23 1.00 1.00 r p2
91.16 166.23 1.00 1.00 r p2
91.86 166.23 1.00 1.00 r p2
92.56 166.23 1.00 1.00 r p2
93.26 166.23 1.00 1.00 r p2
93.95 166.23 1.00 1.00 r p2
94.65 166.23 1.00 1.00 r p2
95.35 166.23 1.00 1.00 r p2
96.05 166.23 1.00 1.00 r p2
96.75 166.23 1.00 1.00 r p2
97.44 166.23 1.00 1.00 r p2
98.14 166.23 1.00 1.00 r p2
98.84 166.23 1.00 1.00 r p2
99.54 166.23 1.00 1.00 r p2
100.23 166.23 1.00 1.00 r p2
100.93 166.23 1.00 1.00 r p2
101.63 166.23 1.00 1.00 r p2
102.33 166.23 1.00 1.00 r p2
103.03 166.23 1.00 1.00 r p2
103.72 166.23 1.00 1.00 r p2
104.42 166.23 1.00 1.00 r p2
105.12 166.23 1.00 1.00 r p2
105.82 166.23 1.00 1.00 r p2
106.52 166.23 1.00 1.00 r p2
107.21 166.23 1.00 1.00 r p2
107.91 166.23 1.00 1.00 r p2
108.61 166.23 1.00 1.00 r p2
109.31 166.23 1.00 1.00 r p2
110.01 166.23 1.00 1.00 r p2
110.70 166.23 1.00 1.00 r p2
111.40 166.23 1.00 1.00 r p2
112.10 166.23 1.00 1.00 r p2
112.80 166.23 1.00 1.00 r p2
113.49 166.23 1.00 1.00 r p2
114.19 166.23 1.00 1.00 r p2
114.89 166.23 1.00 1.00 r p2
115.59 166.23 1.00 1.00 r p2
116.29 166.23 1.00 1.00 r p2
116.98 166.23 1.00 1.00 r p2
117.68 166.23 1.00 1.00 r p2
118.38 166.23 1.00 1.00 r p2
119.08 166.23 1.00 1.00 r p2
119.78 166.23 1.00 1.00 r p2
120.47 166.23 1.00 1.00 r p2
121.17 166.23 1.00 1.00 r p2
121.87 166.23 1.00 1.00 r p2
122.57 166.23 1.00 1.00 r p2
123.26 166.23 1.00 1.00 r p2
123.96 166.23 1.00 1.00 r p2
124.66 166.23 1.00 1.00 r p2
125.36 166.23 1.00 1.00 r p2
126.06 166.23 1.00 1.00 r p2
126.75 166.23 1.00 1.00 r p2
127.45 166.23 1.00 1.00 r p2
128.65 164.71 (>) .5 0 t
129.35 164.71 (>) .5 0 t
130.05 164.71 (>) .5 0 t
130.24 166.23 1.00 1.00 r p2
130.94 166.23 1.00 1.00 r p2
131.64 166.23 1.00 1.00 r p2
132.34 166.23 1.00 1.00 r p2
133.04 166.23 1.00 1.00 r p2
133.73 166.23 1.00 1.00 r p2
134.43 166.23 1.00 1.00 r p2
135.13 166.23 1.00 1.00 r p2
135.83 166.23 1.00 1.00 r p2
136.52 166.23 1.00 1.00 r p2
137.22 166.23 1.00 1.00 r p2
137.92 166.23 1.00 1.00 r p2
138.62 166.23 1.00 1.00 r p2
139.32 166.23 1.00 1.00 r p2
140.01 166.23 1.00 1.00 r p2
140.71 166.23 1.00 1.00 r p2
141.41 166.23 1.00 1.00 r p2
142.11 166.23 1.00 1.00 r p2
142.81 166.23 1.00 1.00 r p2
143.50 166.23 1.00 1.00 r p2
144.20 166.23 1.00 1.00 r p2
144.90 166.23 1.00 1.00 r p2
145.60 166.23 1.00 1.00 r p2
146.30 166.23 1.00 1.00 r p2
146.99 166.23 1.00 1.00 r p2
147.69 166.23 1.00 1.00 r p2
148.39 166.23 1.00 1.00 r p2
149.09 166.23 1.00 1.00 r p2
149.78 166.23 1.00 1.00 r p2
150.48 166.23 1.00 1.00 r p2
151.18 166.23 1.00 1.00 r p2
151.88 166.23 1.00 1.00 r p2
152.58 166.23 1.00 1.00 r p2
153.27 166.23 1.00 1.00 r p2
153.97 166.23 1.00 1.00 r p2
154.67 166.23 1.00 1.00 r p2
155.37 166.23 1.00 1.00 r p2
156.07 166.23 1.00 1.00 r p2
156.76 166.23 1.00 1.00 r p2
157.46 166.23 1.00 1.00 r p2
158.16 166.23 1.00 1.00 r p2
158.86 166.23 1.00 1.00 r p2
159.56 166.23 1.00 1.00 r p2
160.25 166.23 1.00 1.00 r p2
160.95 166.23 1.00 1.00 r p2
161.65 166.23 1.00 1.00 r p2
162.35 166.23 1.00 1.00 r p2
163.04 166.23 1.00 1.00 r p2
163.74 166.23 1.00 1.00 r p2
164.44 166.23 1.00 1.00 r p2
165.14 166.23 1.00 1.00 r p2
165.84 166.23 1.00 1.00 r p2
166.53 166.23 1.00 1.00 r p2
167.23 166.23 1.00 1.00 r p2
167.93 166.23 1.00 1.00 r p2
168.63 166.23 1.00 1.00 r p2
169.33 166.23 1.00 1.00 r p2
170.02 166.23 1.00 1.00 r p2
170.72 166.23 1.00 1.00 r p2
171.42 166.23 1.00 1.00 r p2
172.12 166.23 1.00 1.00 r p2
172.81 166.23 1.00 1.00 r p2
173.51 166.23 1.00 1.00 r p2
174.21 166.23 1.00 1.00 r p2
174.91 166.23 1.00 1.00 r p2
175.61 166.23 1.00 1.00 r p2
176.30 166.23 1.00 1.00 r p2
177.00 166.23 1.00 1.00 r p2
177.70 166.23 1.00 1.00 r p2
178.40 166.23 1.00 1.00 r p2
179.10 166.23 1.00 1.00 r p2
179.79 166.23 1.00 1.00 r p2
180.49 166.23 1.00 1.00 r p2
181.19 166.23 1.00 1.00 r p2
181.89 166.23 1.00 1.00 r p2
182.59 166.23 1.00 1.00 r p2
183.28 166.23 1.00 1.00 r p2
183.98 166.23 1.00 1.00 r p2
184.68 166.23 1.00 1.00 r p2
185.38 166.23 1.00 1.00 r p2
186.07 166.23 1.00 1.00 r p2
186.77 166.23 1.00 1.00 r p2
187.47 166.23 1.00 1.00 r p2
188.17 166.23 1.00 1.00 r p2
188.87 166.23 1.00 1.00 r p2
189.56 166.23 1.00 1.00 r p2
190.26 166.23 1.00 1.00 r p2
190.96 166.23 1.00 1.00 r p2
191.66 166.23 1.00 1.00 r p2
192.36 166.23 1.00 1.00 r p2
193.05 166.23 1.00 1.00 r p2
193.75 166.23 1.00 1.00 r p2
194.45 166.23 1.00 1.00 r p2
195.15 166.23 1.00 1.00 r p2
195.85 166.23 1.00 1.00 r p2
196.54 166.23 1.00 1.00 r p2
197.24 166.23 1.00 1.00 r p2
197.94 166.23 1.00 1.00 r p2
198.64 166.23 1.00 1.00 r p2
199.33 166.23 1.00 1.00 r p2
200.03 166.23 1.00 1.00 r p2
200.73 166.23 1.00 1.00 r p2
201.43 166.23 1.00 1.00 r p2
202.13 166.23 1.00 1.00 r p2
202.82 166.23 1.00 1.00 r p2
203.52 166.23 1.00 1.00 r p2
204.22 166.23 1.00 1.00 r p2
204.92 166.23 1.00 1.00 r p2
205.62 166.23 1.00 1.00 r p2
206.31 166.23 1.00 1.00 r p2
207.51 164.71 (<) .5 0 t
208.21 164.71 (<) .5 0 t
208.91 164.71 (<) .5 0 t
209.61 164.71 (<) .5 0 t
210.30 164.71 (<) .5 0 t
210.50 166.23 1.00 1.00 r p2
211.70 164.71 (<) .5 0 t
212.40 164.71 (<) .5 0 t
212.59 166.23 1.00 1.00 r p2
213.29 166.23 1.00 1.00 r p2
213.99 166.23 1.00 1.00 r p2
215.19 164.71 (<) .5 0 t
215.89 164.71 (<) .5 0 t
216.08 166.23 1.00 1.00 r p2
217.28 164.71 (<) .5 0 t
217.98 164.71 (<) .5 0 t
218.68 164.71 (<) .5 0 t
219.38 164.71 (<) .5 0 t
219.57 166.23 1.00 1.00 r p2
220.27 166.23 1.00 1.00 r p2
220.97 166.23 1.00 1.00 r p2
222.17 164.71 (<) .5 0 t
222.87 164.71 (<) .5 0 t
223.56 164.71 (<) .5 0 t
224.26 164.71 (<) .5 0 t
224.96 164.71 (<) .5 0 t
225.66 164.71 (<) .5 0 t
225.85 166.23 1.00 1.00 r p2
226.55 166.23 1.00 1.00 r p2
227.25 166.23 1.00 1.00 r p2
227.95 166.23 1.00 1.00 r p2
228.65 166.23 1.00 1.00 r p2
229.34 166.23 1.00 1.00 r p2
230.04 166.23 1.00 1.00 r p2
230.74 166.23 1.00 1.00 r p2
231.44 166.23 1.00 1.00 r p2
232.14 166.23 1.00 1.00 r p2
232.83 166.23 1.00 1.00 r p2
233.53 166.23 1.00 1.00 r p2
234.23 166.23 1.00 1.00 r p2
234.93 166.23 1.00 1.00 r p2
235.62 166.23 1.00 1.00 r p2
236.32 166.23 1.00 1.00 r p2
237.02 166.23 1.00 1.00 r p2
237.72 166.23 1.00 1.00 r p2
238.42 166.23 1.00 1.00 r p2
239.11 166.23 1.00 1.00 r p2
239.81 166.23 1.00 1.00 r p2
240.51 166.23 1.00 1.00 r p2
241.21 166.23 1.00 1.00 r p2
241.91 166.23 1.00 1.00 r p2
242.60 166.23 1.00 1.00 r p2
243.30 166.23 1.00 1.00 r p2
244.00 166.23 1.00 1.00 r p2
244.70 166.23 1.00 1.00 r p2
245.40 166.23 1.00 1.00 r p2
246.09 166.23 1.00 1.00 r p2
246.79 166.23 1.00 1.00 r p2
247.49 166.23 1.00 1.00 r p2
248.19 166.23 1.00 1.00 r p2
248.88 166.23 1.00 1.00 r p2
249.58 166.23 1.00 1.00 r p2
250.28 166.23 1.00 1.00 r p2
250.98 166.23 1.00 1.00 r p2
251.68 166.23 1.00 1.00 r p2
252.37 166.23 1.00 1.00 r p2
253.07 166.23 1.00 1.00 r p2
253.77 166.23 1.00 1.00 r p2
254.47 166.23 1.00 1.00 r p2
255.17 166.23 1.00 1.00 r p2
255.86 166.23 1.00 1.00 r p2
256.56 166.23 1.00 1.00 r p2
257.26 166.23 1.00 1.00 r p2
257.96 166.23 1.00 1.00 r p2
258.66 166.23 1.00 1.00 r p2
259.35 166.23 1.00 1.00 r p2
260.05 166.23 1.00 1.00 r p2
260.75 166.23 1.00 1.00 r p2
261.45 166.23 1.00 1.00 r p2
262.14 166.23 1.00 1.00 r p2
262.84 166.23 1.00 1.00 r p2
263.54 166.23 1.00 1.00 r p2
264.24 166.23 1.00 1.00 r p2
264.94 166.23 1.00 1.00 r p2
265.63 166.23 1.00 1.00 r p2
266.33 166.23 1.00 1.00 r p2
267.03 166.23 1.00 1.00 r p2
267.73 166.23 1.00 1.00 r p2
268.43 166.23 1.00 1.00 r p2
269.12 166.23 1.00 1.00 r p2
269.82 166.23 1.00 1.00 r p2
270.52 166.23 1.00 1.00 r p2
271.22 166.23 1.00 1.00 r p2
271.92 166.23 1.00 1.00 r p2
272.61 166.23 1.00 1.00 r p2
273.31 166.23 1.00 1.00 r p2
274.01 166.23 1.00 1.00 r p2
274.71 166.23 1.00 1.00 r p2
275.40 166.23 1.00 1.00 r p2
276.10 166.23 1.00 1.00 r p2
276.80 166.23 1.00 1.00 r p2
277.50 166.23 1.00 1.00 r p2
278.20 166.23 1.00 1.00 r p2
278.89 166.23 1.00 1.00 r p2
279.59 166.23 1.00 1.00 r p2
280.29 166.23 1.00 1.00 r p2
280.99 166.23 1.00 1.00 r p2
281.69 166.23 1.00 1.00 r p2
282.38 166.23 1.00 1.00 r p2
283.08 166.23 1.00 1.00 r p2
283.78 166.23 1.00 1.00 r p2
284.48 166.23 1.00 1.00 r p2
285.17 166.23 1.00 1.00 r p2
285.87 166.23 1.00 1.00 r p2
286.57 166.23 1.00 1.00 r p2
287.27 166.23 1.00 1.00 r p2
287.97 166.23 1.00 1.00 r p2
288.66 166.23 1.00 1.00 r p2
289.36 166.23 1.00 1.00 r p2
290.06 166.23 1.00 1.00 r p2
290.76 166.23 1.00 1.00 r p2
291.46 166.23 1.00 1.00 r p2
292.15 166.23 1.00 1.00 r p2
292.85 166.23 1.00 1.00 r p2
293.55 166.23 1.00 1.00 r p2
294.25 166.23 1.00 1.00 r p2
294.95 166.23 1.00 1.00 r p2
295.64 166.23 1.00 1.00 r p2
296.34 166.23 1.00 1.00 r p2
297.04 166.23 1.00 1.00 r p2
297.74 166.23 1.00 1.00 r p2
298.43 166.23 1.00 1.00 r p2
299.13 166.23 1.00 1.00 r p2
299.83 166.23 1.00 1.00 r p2
300.53 166.23 1.00 1.00 r p2
301.23 166.23 1.00 1.00 r p2
301.92 166.23 1.00 1.00 r p2
302.62 166.23 1.00 1.00 r p2
303.32 166.23 1.00 1.00 r p2
304.02 166.23 1.00 1.00 r p2
304.72 166.23 1.00 1.00 r p2
305.41 166.23 1.00 1.00 r p2
306.11 166.23 1.00 1.00 r p2
306.81 166.23 1.00 1.00 r p2
307.51 166.23 1.00 1.00 r p2
308.21 166.23 1.00 1.00 r p2
308.90 166.23 1.00 1.00 r p2
309.60 166.23 1.00 1.00 r p2
310.30 166.23 1.00 1.00 r p2
311.00 166.23 1.00 1.00 r p2
311.69 166.23 1.00 1.00 r p2
312.39 166.23 1.00 1.00 r p2
313.09 166.23 1.00 1.00 r p2
313.79 166.23 1.00 1.00 r p2
314.49 166.23 1.00 1.00 r p2
315.18 166.23 1.00 1.00 r p2
315.88 166.23 1.00 1.00 r p2
316.58 166.23 1.00 1.00 r p2
317.28 166.23 1.00 1.00 r p2
317.98 166.23 1.00 1.00 r p2
318.67 166.23 1.00 1.00 r p2
319.37 166.23 1.00 1.00 r p2
320.07 166.23 1.00 1.00 r p2
320.77 166.23 1.00 1.00 r p2
321.47 166.23 1.00 1.00 r p2
322.16 166.23 1.00 1.00 r p2
322.86 166.23 1.00 1.00 r p2
323.56 166.23 1.00 1.00 r p2
324.26 166.23 1.00 1.00 r p2
324.95 166.23 1.00 1.00 r p2
325.65 166.23 1.00 1.00 r p2
326.35 166.23 1.00 1.00 r p2
327.05 166.23 1.00 1.00 r p2
327.75 166.23 1.00 1.00 r p2
328.44 166.23 1.00 1.00 r p2
329.14 166.23 1.00 1.00 r p2
329.84 166.23 1.00 1.00 r p2
330.54 166.23 1.00 1.00 r p2
331.24 166.23 1.00 1.00 r p2
331.93 166.23 1.00 1.00 r p2
332.63 166.23 1.00 1.00 r p2
333.33 166.23 1.00 1.00 r p2
334.03 166.23 1.00 1.00 r p2
334.72 166.23 1.00 1.00 r p2
335.42 166.23 1.00 1.00 r p2
336.12 166.23 1.00 1.00 r p2
336.82 166.23 1.00 1.00 r p2
337.52 166.23 1.00 1.00 r p2
338.21 166.23 1.00 1.00 r p2
338.91 166.23 1.00 1.00 r p2
340.11 164.71 (>) .5 0 t
340.81 164.71 (>) .5 0 t
341.51 164.71 (>) .5 0 t
342.20 164.71 (>) .5 0 t
342.90 164.71 (>) .5 0 t
343.60 164.71 (>) .5 0 t
343.80 166.23 1.00 1.00 r p2
344.50 166.23 1.00 1.00 r p2
345.69 164.71 (>) .5 0 t
346.39 164.71 (>) .5 0 t
346.59 166.23 1.00 1.00 r p2
347.79 164.71 (>) .5 0 t
348.48 164.71 (>) .5 0 t
349.18 164.71 (>) .5 0 t
349.88 164.71 (>) .5 0 t
350.58 164.71 (<) .5 0 t
351.28 164.71 (<) .5 0 t
351.47 166.23 1.00 1.00 r p2
352.17 166.23 1.00 1.00 r p2
352.87 166.23 1.00 1.00 r p2
354.07 164.71 (<) .5 0 t
354.77 164.71 (<) .5 0 t
355.46 164.71 (<) .5 0 t
356.16 164.71 (<) .5 0 t
356.36 166.23 1.00 1.00 r p2
357.06 166.23 1.00 1.00 r p2
357.76 166.23 1.00 1.00 r p2
358.45 166.23 1.00 1.00 r p2
359.65 164.71 (<) .5 0 t
360.35 164.71 (<) .5 0 t
361.05 164.71 (<) .5 0 t
361.74 164.71 (<) .5 0 t
362.44 164.71 (<) .5 0 t
363.14 164.71 (<) .5 0 t
363.84 164.71 (<) .5 0 t
364.04 166.23 1.00 1.00 r p2
364.73 166.23 1.00 1.00 r p2
365.43 166.23 1.00 1.00 r p2
366.13 166.23 1.00 1.00 r p2
366.83 166.23 1.00 1.00 r p2
367.53 166.23 1.00 1.00 r p2
368.22 166.23 1.00 1.00 r p2
368.92 166.23 1.00 1.00 r p2
369.62 166.23 1.00 1.00 r p2
370.32 166.23 1.00 1.00 r p2
371.02 166.23 1.00 1.00 r p2
371.71 166.23 1.00 1.00 r p2
372.41 166.23 1.00 1.00 r p2
373.11 166.23 1.00 1.00 r p2
373.81 166.23 1.00 1.00 r p2
374.50 166.23 1.00 1.00 r p2
375.20 166.23 1.00 1.00 r p2
375.90 166.23 1.00 1.00 r p2
376.60 166.23 1.00 1.00 r p2
377.30 166.23 1.00 1.00 r p2
377.99 166.23 1.00 1.00 r p2
378.69 166.23 1.00 1.00 r p2
379.39 166.23 1.00 1.00 r p2
380.09 166.23 1.00 1.00 r p2
380.79 166.23 1.00 1.00 r p2
381.48 166.23 1.00 1.00 r p2
382.18 166.23 1.00 1.00 r p2
383.38 164.71 (>) .5 0 t
384.08 164.71 (>) .5 0 t
384.78 164.71 (>) .5 0 t
385.47 164.71 (>) .5 0 t
386.17 164.71 (>) .5 0 t
386.87 164.71 (>) .5 0 t
387.57 164.71 (>) .5 0 t
387.76 166.23 1.00 1.00 r p2
388.46 166.23 1.00 1.00 r p2
389.16 166.23 1.00 1.00 r p2
390.36 164.71 (>) .5 0 t
391.06 164.71 (>) .5 0 t
391.75 164.71 (>) .5 0 t
392.45 164.71 (>) .5 0 t
392.65 166.23 1.00 1.00 r p2
393.35 166.23 1.00 1.00 r p2
394.05 166.23 1.00 1.00 r p2
395.24 164.71 (>) .5 0 t
395.94 164.71 (>) .5 0 t
396.14 166.23 1.00 1.00 r p2
396.84 166.23 1.00 1.00 r p2
397.53 166.23 1.00 1.00 r p2
398.73 163.86 (A) .5 0 t
398.93 166.23 1.00 1.00 r p2
400.13 163.86 (A) .5 0 t
400.83 163.86 (A) .5 0 t
401.52 163.86 (A) .5 0 t
402.22 163.86 (A) .5 0 t
402.92 163.86 (A) .5 0 t
403.12 166.23 1.00 1.00 r p2
403.82 166.23 1.00 1.00 r p2
404.51 166.23 1.00 1.00 r p2
405.21 166.23 1.00 1.00 r p2
405.91 166.23 1.00 1.00 r p2
406.61 166.23 1.00 1.00 r p2
407.31 166.23 1.00 1.00 r p2
408.00 166.23 1.00 1.00 r p2
408.70 166.23 1.00 1.00 r p2
409.40 166.23 1.00 1.00 r p2
410.10 166.23 1.00 1.00 r p2
410.79 166.23 1.00 1.00 r p2
411.49 166.23 1.00 1.00 r p2
412.19 166.23 1.00 1.00 r p2
412.89 166.23 1.00 1.00 r p2
413.59 166.23 1.00 1.00 r p2
414.28 166.23 1.00 1.00 r p2
414.98 166.23 1.00 1.00 r p2
415.68 166.23 1.00 1.00 r p2
416.38 166.23 1.00 1.00 r p2
417.08 166.23 1.00 1.00 r p2
417.77 166.23 1.00 1.00 r p2
418.47 166.23 1.00 1.00 r p2
419.17 166.23 1.00 1.00 r p2
419.87 166.23 1.00 1.00 r p2
420.57 166.23 1.00 1.00 r p2
421.26 166.23 1.00 1.00 r p2
421.96 166.23 1.00 1.00 r p2
422.66 166.23 1.00 1.00 r p2
423.36 166.23 1.00 1.00 r p2
424.05 166.23 1.00 1.00 r p2
424.75 166.23 1.00 1.00 r p2
425.45 166.23 1.00 1.00 r p2
426.15 166.23 1.00 1.00 r p2
426.85 166.23 1.00 1.00 r p2
427.54 166.23 1.00 1.00 r p2
428.24 166.23 1.00 1.00 r p2
428.94 166.23 1.00 1.00 r p2
429.64 166.23 1.00 1.00 r p2
430.34 166.23 1.00 1.00 r p2
431.03 166.23 1.00 1.00 r p2
431.73 166.23 1.00 1.00 r p2
432.43 166.23 1.00 1.00 r p2
433.13 166.23 1.00 1.00 r p2
433.83 166.23 1.00 1.00 r p2
434.52 166.23 1.00 1.00 r p2
435.22 166.23 1.00 1.00 r p2
435.92 166.23 1.00 1.00 r p2
436.62 166.23 1.00 1.00 r p2
437.31 166.23 1.00 1.00 r p2
438.01 166.23 1.00 1.00 r p2
438.71 166.23 1.00 1.00 r p2
439.41 166.23 1.00 1.00 r p2
440.11 166.23 1.00 1.00 r p2
440.80 166.23 1.00 1.00 r p2
442.00 164.71 (>) .5 0 t
442.70 164.71 (>) .5 0 t
442.90 166.23 1.00 1.00 r p2
444.10 164.71 (>) .5 0 t
444.79 164.71 (>) .5 0 t
445.49 164.71 (>) .5 0 t
446.19 164.71 (>) .5 0 t
446.89 164.71 (>) .5 0 t
447.08 166.23 1.00 1.00 r p2
448.28 164.71 (<) .5 0 t
448.98 164.71 (<) .5 0 t
449.68 164.71 (<) .5 0 t
450.38 164.71 (<) .5 0 t
451.07 164.71 (<) .5 0 t
451.77 164.71 (<) .5 0 t
452.47 164.71 (<) .5 0 t
453.17 164.71 (<) .5 0 t
453.87 164.71 (<) .5 0 t
454.06 166.23 1.00 1.00 r p2
454.76 166.23 1.00 1.00 r p2
455.46 166.23 1.00 1.00 r p2
456.16 166.23 1.00 1.00 r p2
456.86 166.23 1.00 1.00 r p2
457.55 166.23 1.00 1.00 r p2
458.25 166.23 1.00 1.00 r p2
458.95 166.23 1.00 1.00 r p2
459.65 166.23 1.00 1.00 r p2
460.34 166.23 1.00 1.00 r p2
461.04 166.23 1.00 1.00 r p2
461.74 166.23 1.00 1.00 r p2
462.44 166.23 1.00 1.00 r p2
463.14 166.23 1.00 1.00 r p2
463.83 166.23 1.00 1.00 r p2
464.53 166.23 1.00 1.00 r p2
465.23 166.23 1.00 1.00 r p2
465.93 166.23 1.00 1.00 r p2
466.63 166.23 1.00 1.00 r p2
467.32 166.23 1.00 1.00 r p2
468.02 166.23 1.00 1.00 r p2
468.72 166.23 1.00 1.00 r p2
469.42 166.23 1.00 1.00 r p2
470.12 166.23 1.00 1.00 r p2
470.81 166.23 1.00 1.00 r p2
471.51 166.23 1.00 1.00 r p2
472.21 166.23 1.00 1.00 r p2
472.91 166.23 1.00 1.00 r p2
473.60 166.23 1.00 1.00 r p2
474.30 166.23 1.00 1.00 r p2
475.00 166.23 1.00 1.00 r p2
475.70 166.23 1.00 1.00 r p2
476.40 166.23 1.00 1.00 r p2
477.09 166.23 1.00 1.00 r p2
477.79 166.23 1.00 1.00 r p2
478.49 166.23 1.00 1.00 r p2
479.19 166.23 1.00 1.00 r p2
479.89 166.23 1.00 1.00 r p2
480.58 166.23 1.00 1.00 r p2
481.28 166.23 1.00 1.00 r p2
481.98 166.23 1.00 1.00 r p2
482.68 166.23 1.00 1.00 r p2
483.38 166.23 1.00 1.00 r p2
484.07 166.23 1.00 1.00 r p2
484.77 166.23 1.00 1.00 r p2
485.47 166.23 1.00 1.00 r p2
486.17 166.23 1.00 1.00 r p2
486.86 166.23 1.00 1.00 r p2
487.56 166.23 1.00 1.00 r p2
488.26 166.23 1.00 1.00 r p2
488.96 166.23 1.00 1.00 r p2
489.66 166.23 1.00 1.00 r p2
490.35 166.23 1.00 1.00 r p2
491.05 166.23 1.00 1.00 r p2
491.75 166.23 1.00 1.00 r p2
492.45 166.23 1.00 1.00 r p2
493.15 166.23 1.00 1.00 r p2
493.84 166.23 1.00 1.00 r p2
494.54 166.23 1.00 1.00 r p2
495.24 166.23 1.00 1.00 r p2
495.94 166.23 1.00 1.00 r p2
496.63 166.23 1.00 1.00 r p2
497.33 166.23 1.00 1.00 r p2
498.03 166.23 1.00 1.00 r p2
498.73 166.23 1.00 1.00 r p2
499.43 166.23 1.00 1.00 r p2
500.12 166.23 1.00 1.00 r p2
500.82 166.23 1.00 1.00 r p2
501.52 166.23 1.00 1.00 r p2
502.22 166.23 1.00 1.00 r p2
502.92 166.23 1.00 1.00 r p2
503.61 166.23 1.00 1.00 r p2
504.31 166.23 1.00 1.00 r p2
505.01 166.23 1.00 1.00 r p2
505.71 166.23 1.00 1.00 r p2
506.41 166.23 1.00 1.00 r p2
507.10 166.23 1.00 1.00 r p2
507.80 166.23 1.00 1.00 r p2
508.50 166.23 1.00 1.00 r p2
509.20 166.23 1.00 1.00 r p2
509.89 166.23 1.00 1.00 r p2
510.59 166.23 1.00 1.00 r p2
511.29 166.23 1.00 1.00 r p2
511.99 166.23 1.00 1.00 r p2
512.69 166.23 1.00 1.00 r p2
513.38 166.23 1.00 1.00 r p2
514.08 166.23 1.00 1.00 r p2
514.78 166.23 1.00 1.00 r p2
515.48 166.23 1.00 1.00 r p2
516.18 166.23 1.00 1.00 r p2
516.87 166.23 1.00 1.00 r p2
517.57 166.23 1.00 1.00 r p2
518.27 166.23 1.00 1.00 r p2
518.97 166.23 1.00 1.00 r p2
519.67 166.23 1.00 1.00 r p2
520.36 166.23 1.00 1.00 r p2
521.06 166.23 1.00 1.00 r p2
521.76 166.23 1.00 1.00 r p2
522.46 166.23 1.00 1.00 r p2
523.15 166.23 1.00 1.00 r p2
523.85 166.23 1.00 1.00 r p2
524.55 166.23 1.00 1.00 r p2
525.25 166.23 1.00 1.00 r p2
525.95 166.23 1.00 1.00 r p2
526.64 166.23 1.00 1.00 r p2
527.34 166.23 1.00 1.00 r p2
528.04 166.23 1.00 1.00 r p2
528.74 166.23 1.00 1.00 r p2
529.44 166.23 1.00 1.00 r p2
530.13 166.23 1.00 1.00 r p2
530.83 166.23 1.00 1.00 r p2
531.53 166.23 1.00 1.00 r p2
532.23 166.23 1.00 1.00 r p2
532.93 166.23 1.00 1.00 r p2
533.62 166.23 1.00 1.00 r p2
534.32 166.23 1.00 1.00 r p2
535.02 166.23 1.00 1.00 r p2
535.72 166.23 1.00 1.00 r p2
536.41 166.23 1.00 1.00 r p2
537.11 166.23 1.00 1.00 r p2
537.81 166.23 1.00 1.00 r p2
538.51 166.23 1.00 1.00 r p2
539.21 166.23 1.00 1.00 r p2
539.90 166.23 1.00 1.00 r p2
540.60 166.23 1.00 1.00 r p2
541.30 166.23 1.00 1.00 r p2
542.00 166.23 1.00 1.00 r p2
542.70 166.23 1.00 1.00 r p2
543.39 166.23 1.00 1.00 r p2
544.09 166.23 1.00 1.00 r p2
544.79 166.23 1.00 1.00 r p2
545.49 166.23 1.00 1.00 r p2
546.19 166.23 1.00 1.00 r p2
546.88 166.23 1.00 1.00 r p2
547.58 166.23 1.00 1.00 r p2
548.28 166.23 1.00 1.00 r p2
548.98 166.23 1.00 1.00 r p2
549.67 166.23 1.00 1.00 r p2
550.37 166.23 1.00 1.00 r p2
551.07 166.23 1.00 1.00 r p2
551.77 166.23 1.00 1.00 r p2
552.47 166.23 1.00 1.00 r p2
553.16 166.23 1.00 1.00 r p2
553.86 166.23 1.00 1.00 r p2
554.56 166.23 1.00 1.00 r p2
555.26 166.23 1.00 1.00 r p2
555.96 166.23 1.00 1.00 r p2
556.65 166.23 1.00 1.00 r p2
557.35 166.23 1.00 1.00 r p2
558.05 166.23 1.00 1.00 r p2
558.75 166.23 1.00 1.00 r p2
559.44 166.23 1.00 1.00 r p2
560.14 166.23 1.00 1.00 r p2
560.84 166.23 1.00 1.00 r p2
561.54 166.23 1.00 1.00 r p2
562.24 166.23 1.00 1.00 r p2
562.93 166.23 1.00 1.00 r p2
563.63 166.23 1.00 1.00 r p2
564.33 166.23 1.00 1.00 r p2
565.03 166.23 1.00 1.00 r p2
565.73 166.23 1.00 1.00 r p2
566.42 166.23 1.00 1.00 r p2
567.12 166.23 1.00 1.00 r p2
567.82 166.23 1.00 1.00 r p2
568.52 166.23 1.00 1.00 r p2
569.22 166.23 1.00 1.00 r p2
569.91 166.23 1.00 1.00 r p2
570.61 166.23 1.00 1.00 r p2
571.31 166.23 1.00 1.00 r p2
572.01 166.23 1.00 1.00 r p2
572.70 166.23 1.00 1.00 r p2
573.40 166.23 1.00 1.00 r p2
574.10 166.23 1.00 1.00 r p2
574.80 166.23 1.00 1.00 r p2
575.50 166.23 1.00 1.00 r p2
576.19 166.23 1.00 1.00 r p2
576.89 166.23 1.00 1.00 r p2
577.59 166.23 1.00 1.00 r p2
578.29 166.23 1.00 1.00 r p2
578.99 166.23 1.00 1.00 r p2
579.68 166.23 1.00 1.00 r p2
580.38 166.23 1.00 1.00 r p2
581.08 166.23 1.00 1.00 r p2
581.78 166.23 1.00 1.00 r p2
582.48 166.23 1.00 1.00 r p2
583.17 166.23 1.00 1.00 r p2
583.87 166.23 1.00 1.00 r p2
584.57 166.23 1.00 1.00 r p2
585.27 166.23 1.00 1.00 r p2
585.96 166.23 1.00 1.00 r p2
586.66 166.23 1.00 1.00 r p2
587.36 166.23 1.00 1.00 r p2
588.06 166.23 1.00 1.00 r p2
588.76 166.23 1.00 1.00 r p2
589.45 166.23 1.00 1.00 r p2
590.15 166.23 1.00 1.00 r p2
590.85 166.23 1.00 1.00 r p2
591.55 166.23 1.00 1.00 r p2
592.25 166.23 1.00 1.00 r p2
592.94 166.23 1.00 1.00 r p2
593.64 166.23 1.00 1.00 r p2
594.34 166.23 1.00 1.00 r p2
595.04 166.23 1.00 1.00 r p2
595.74 166.23 1.00 1.00 r p2
596.43 166.23 1.00 1.00 r p2
597.13 166.23 1.00 1.00 r p2
597.83 166.23 1.00 1.00 r p2
598.53 166.23 1.00 1.00 r p2
599.22 166.23 1.00 1.00 r p2
599.92 166.23 1.00 1.00 r p2
600.62 166.23 1.00 1.00 r p2
601.32 166.23 1.00 1.00 r p2
602.02 166.23 1.00 1.00 r p2
602.71 166.23 1.00 1.00 r p2
603.41 166.23 1.00 1.00 r p2
604.11 166.23 1.00 1.00 r p2
604.81 166.23 1.00 1.00 r p2
605.51 166.23 1.00 1.00 r p2
606.20 166.23 1.00 1.00 r p2
606.90 166.23 1.00 1.00 r p2
607.60 166.23 1.00 1.00 r p2
608.30 166.23 1.00 1.00 r p2
608.99 166.23 1.00 1.00 r p2
609.69 166.23 1.00 1.00 r p2
610.39 166.23 1.00 1.00 r p2
611.09 166.23 1.00 1.00 r p2
611.79 166.23 1.00 1.00 r p2
612.48 166.23 1.00 1.00 r p2
613.18 166.23 1.00 1.00 r p2
613.88 166.23 1.00 1.00 r p2
614.58 166.23 1.00 1.00 r p2
615.28 166.23 1.00 1.00 r p2
615.97 166.23 1.00 1.00 r p2
616.67 166.23 1.00 1.00 r p2
617.37 166.23 1.00 1.00 r p2
618.07 166.23 1.00 1.00 r p2
618.77 166.23 1.00 1.00 r p2
619.46 166.23 1.00 1.00 r p2
620.16 166.23 1.00 1.00 r p2
620.86 166.23 1.00 1.00 r p2
621.56 166.23 1.00 1.00 r p2
622.25 166.23 1.00 1.00 r p2
622.95 166.23 1.00 1.00 r p2
623.65 166.23 1.00 1.00 r p2
624.35 166.23 1.00 1.00 r p2
625.05 166.23 1.00 1.00 r p2
625.74 166.23 1.00 1.00 r p2
626.44 166.23 1.00 1.00 r p2
627.14 166.23 1.00 1.00 r p2
627.84 166.23 1.00 1.00 r p2
628.54 166.23 1.00 1.00 r p2
629.23 166.23 1.00 1.00 r p2
629.93 166.23 1.00 1.00 r p2
630.63 166.23 1.00 1.00 r p2
631.33 166.23 1.00 1.00 r p2
632.03 166.23 1.00 1.00 r p2
632.72 166.23 1.00 1.00 r p2
633.42 166.23 1.00 1.00 r p2
634.12 166.23 1.00 1.00 r p2
634.82 166.23 1.00 1.00 r p2
635.51 166.23 1.00 1.00 r p2
636.21 166.23 1.00 1.00 r p2
636.91 166.23 1.00 1.00 r p2
637.61 166.23 1.00 1.00 r p2
638.31 166.23 1.00 1.00 r p2
639.00 166.23 1.00 1.00 r p2
640.20 164.71 (>) .5 0 t
640.90 164.71 (>) .5 0 t
641.60 164.71 (>) .5 0 t
642.30 164.71 (>) .5 0 t
642.99 164.71 (>) .5 0 t
643.69 164.71 (>) .5 0 t
644.39 164.71 (>) .5 0 t
645.09 164.71 (>) .5 0 t
645.79 164.71 (>) .5 0 t
645.98 166.23 1.00 1.00 r p2
646.68 166.23 1.00 1.00 r p2
647.38 166.23 1.00 1.00 r p2
648.08 166.23 1.00 1.00 r p2
648.77 166.23 1.00 1.00 r p2
649.47 166.23 1.00 1.00 r p2
650.17 166.23 1.00 1.00 r p2
650.87 166.23 1.00 1.00 r p2
652.07 164.64 (a) .5 0 t
652.76 164.64 (a) .5 0 t
653.46 164.64 (a) .5 0 t
654.16 164.64 (a) .5 0 t
654.86 164.64 (a) .5 0 t
655.56 164.64 (a) .5 0 t
655.75 166.23 1.00 1.00 r p2
656.45 166.23 1.00 1.00 r p2
657.15 166.23 1.00 1.00 r p2
657.85 166.23 1.00 1.00 r p2
658.54 166.23 1.00 1.00 r p2
659.24 166.23 1.00 1.00 r p2
660.44 164.71 (<) .5 0 t
661.14 164.71 (<) .5 0 t
661.84 164.71 (<) .5 0 t
662.53 164.71 (<) .5 0 t
663.23 164.71 (<) .5 0 t
663.43 166.23 1.00 1.00 r p2
664.13 166.23 1.00 1.00 r p2
664.83 166.23 1.00 1.00 r p2
665.52 166.23 1.00 1.00 r p2
666.72 164.71 (>) .5 0 t
667.42 164.71 (>) .5 0 t
668.12 164.71 (>) .5 0 t
668.82 164.71 (>) .5 0 t
669.51 164.71 (>) .5 0 t
669.71 166.23 1.00 1.00 r p2
670.41 166.23 1.00 1.00 r p2
0.00 0.00 720.00 180.00 cl
0.00 0.00 720.00 180.00 cl
0 0 0 srgb
0.75 setlinewidth
[] 0 setdash
1 setlinecap
1 setlinejoin
10.00 setmiterlimit
np
49.09 36.00 m
621.12 0 l
o
np
49.09 36.00 m
0 -7.20 l
o
np
56.07 36.00 m
0 -7.20 l
o
np
63.05 36.00 m
0 -7.20 l
o
np
70.03 36.00 m
0 -7.20 l
o
np
77.01 36.00 m
0 -7.20 l
o
np
83.99 36.00 m
0 -7.20 l
o
np
90.96 36.00 m
0 -7.20 l
o
np
97.94 36.00 m
0 -7.20 l
o
np
104.92 36.00 m
0 -7.20 l
o
np
111.90 36.00 m
0 -7.20 l
o
np
118.88 36.00 m
0 -7.20 l
o
np
125.86 36.00 m
0 -7.20 l
o
np
132.84 36.00 m
0 -7.20 l
o
np
139.82 36.00 m
0 -7.20 l
o
np
146.80 36.00 m
0 -7.20 l
o
np
153.77 36.00 m
0 -7.20 l
o
np
160.75 36.00 m
0 -7.20 l
o
np
167.73 36.00 m
0 -7.20 l
o
np
174.71 36.00 m
0 -7.20 l
o
np
181.69 36.00 m
0 -7.20 l
o
np
188.67 36.00 m
0 -7.20 l
o
np
195.65 36.00 m
0 -7.20 l
o
np
202.63 36.00 m
0 -7.20 l
o
np
209.61 36.00 m
0 -7.20 l
o
np
216.58 36.00 m
0 -7.20 l
o
np
223.56 36.00 m
0 -7.20 l
o
np
230.54 36.00 m
0 -7.20 l
o
np
237.52 36.00 m
0 -7.20 l
o
np
244.50 36.00 m
0 -7.20 l
o
np
251.48 36.00 m
0 -7.20 l
o
np
258.46 36.00 m
0 -7.20 l
o
np
265.44 36.00 m
0 -7.20 l
o
np
272.42 36.00 m
0 -7.20 l
o
np
279.39 36.00 m
0 -7.20 l
o
np
286.37 36.00 m
0 -7.20 l
o
np
293.35 36.00 m
0 -7.20 l
o
np
300.33 36.00 m
0 -7.20 l
o
np
307.31 36.00 m
0 -7.20 l
o
np
314.29 36.00 m
0 -7.20 l
o
np
321.27 36.00 m
0 -7.20 l
o
np
328.25 36.00 m
0 -7.20 l
o
np
335.22 36.00 m
0 -7.20 l
o
np
342.20 36.00 m
0 -7.20 l
o
np
349.18 36.00 m
0 -7.20 l
o
np
356.16 36.00 m
0 -7.20 l
o
np
363.14 36.00 m
0 -7.20 l
o
np
370.12 36.00 m
0 -7.20 l
o
np
377.10 36.00 m
0 -7.20 l
o
np
384.08 36.00 m
0 -7.20 l
o
np
391.06 36.00 m
0 -7.20 l
o
np
398.03 36.00 m
0 -7.20 l
o
np
405.01 36.00 m
0 -7.20 l
o
np
411.99 36.00 m
0 -7.20 l
o
np
418.97 36.00 m
0 -7.20 l
o
np
425.95 36.00 m
0 -7.20 l
o
np
432.93 36.00 m
0 -7.20 l
o
np
439.91 36.00 m
0 -7.20 l
o
np
446.89 36.00 m
0 -7.20 l
o
np
453.87 36.00 m
0 -7.20 l
o
np
460.84 36.00 m
0 -7.20 l
o
np
467.82 36.00 m
0 -7.20 l
o
np
474.80 36.00 m
0 -7.20 l
o
np
481.78 36.00 m
0 -7.20 l
o
np
488.76 36.00 m
0 -7.20 l
o
np
495.74 36.00 m
0 -7.20 l
o
np
502.72 36.00 m
0 -7.20 l
o
np
509.70 36.00 m
0 -7.20 l
o
np
516.68 36.00 m
0 -7.20 l
o
np
523.65 36.00 m
0 -7.20 l
o
np
530.63 36.00 m
0 -7.20 l
o
np
537.61 36.00 m
0 -7.20 l
o
np
544.59 36.00 m
0 -7.20 l
o
np
551.57 36.00 m
0 -7.20 l
o
np
558.55 36.00 m
0 -7.20 l
o
np
565.53 36.00 m
0 -7.20 l
o
np
572.51 36.00 m
0 -7.20 l
o
np
579.49 36.00 m
0 -7.20 l
o
np
586.46 36.00 m
0 -7.20 l
o
np
593.44 36.00 m
0 -7.20 l
o
np
600.42 36.00 m
0 -7.20 l
o
np
607.40 36.00 m
0 -7.20 l
o
np
614.38 36.00 m
0 -7.20 l
o
np
621.36 36.00 m
0 -7.20 l
o
np
628.34 36.00 m
0 -7.20 l
o
np
635.32 36.00 m
0 -7.20 l
o
np
642.30 36.00 m
0 -7.20 l
o
np
649.27 36.00 m
0 -7.20 l
o
np
656.25 36.00 m
0 -7.20 l
o
np
663.23 36.00 m
0 -7.20 l
o
np
670.21 36.00 m
0 -7.20 l
o
/Font1 findfont 12 s
49.09 10.08 (0) .5 0 t
70.03 10.08 (30) .5 0 t
97.94 10.08 (70) .5 0 t
125.86 10.08 (110) .5 0 t
160.75 10.08 (160) .5 0 t
195.65 10.08 (210) .5 0 t
230.54 10.08 (260) .5 0 t
265.44 10.08 (310) .5 0 t
300.33 10.08 (360) .5 0 t
335.22 10.08 (410) .5 0 t
370.12 10.08 (460) .5 0 t
405.01 10.08 (510) .5 0 t
439.91 10.08 (560) .5 0 t
474.80 10.08 (610) .5 0 t
509.70 10.08 (660) .5 0 t
544.59 10.08 (710) .5 0 t
579.49 10.08 (760) .5 0 t
614.38 10.08 (810) .5 0 t
649.27 10.08 (860) .5 0 t
18.00 36.00 702.00 180.00 cl
/bg { 0 0 0 srgb } def
49.29 158.29 1.00 1.00 r p2
49.99 158.29 1.00 1.00 r p2
50.68 158.29 1.00 1.00 r p2
51.38 158.29 1.00 1.00 r p2
/Font1 findfont 8 s
0 0 0 srgb
52.58 156.77 (<) .5 0 t
53.28 156.77 (<) .5 0 t
53.98 156.77 (<) .5 0 t
54.67 156.77 (<) .5 0 t
55.37 156.77 (<) .5 0 t
56.07 156.77 (<) .5 0 t
56.77 156.77 (<) .5 0 t
57.47 156.77 (<) .5 0 t
58.16 156.77 (<) .5 0 t
58.36 158.29 1.00 1.00 r p2
59.06 158.29 1.00 1.00 r p2
59.76 158.29 1.00 1.00 r p2
60.46 158.29 1.00 1.00 r p2
61.15 158.29 1.00 1.00 r p2
61.85 158.29 1.00 1.00 r p2
62.55 158.29 1.00 1.00 r p2
63.25 158.29 1.00 1.00 r p2
63.94 158.29 1.00 1.00 r p2
64.64 158.29 1.00 1.00 r p2
65.34 158.29 1.00 1.00 r p2
66.04 158.29 1.00 1.00 r p2
66.74 158.29 1.00 1.00 r p2
67.43 158.29 1.00 1.00 r p2
68.13 158.29 1.00 1.00 r p2
68.83 158.29 1.00 1.00 r p2
69.53 158.29 1.00 1.00 r p2
70.23 158.29 1.00 1.00 r p2
70.92 158.29 1.00 1.00 r p2
71.62 158.29 1.00 1.00 r p2
72.32 158.29 1.00 1.00 r p2
73.02 158.29 1.00 1.00 r p2
73.71 158.29 1.00 1.00 r p2
74.41 158.29 1.00 1.00 r p2
75.11 158.29 1.00 1.00 r p2
75.81 158.29 1.00 1.00 r p2
76.51 158.29 1.00 1.00 r p2
77.20 158.29 1.00 1.00 r p2
77.90 158.29 1.00 1.00 r p2
78.60 158.29 1.00 1.00 r p2
79.30 158.29 1.00 1.00 r p2
80.50 156.77 (>) .5 0 t
81.19 156.77 (>) .5 0 t
81.89 156.77 (>) .5 0 t
82.59 156.77 (>) .5 0 t
83.29 156.77 (>) .5 0 t
83.99 156.77 (>) .5 0 t
84.68 156.77 (>) .5 0 t
85.38 156.77 (>) .5 0 t
86.08 156.77 (>) .5 0 t
86.28 158.29 1.00 1.00 r p2
86.97 158.29 1.00 1.00 r p2
87.67 158.29 1.00 1.00 r p2
88.87 156.77 (<) .5 0 t
89.57 156.77 (<) .5 0 t
90.27 156.77 (<) .5 0 t
90.46 158.29 1.00 1.00 r p2
91.16 158.29 1.00 1.00 r p2
91.86 158.29 1.00 1.00 r p2
92.56 158.29 1.00 1.00 r p2
93.26 158.29 1.00 1.00 r p2
93.95 158.29 1.00 1.00 r p2
94.65 158.29 1.00 1.00 r p2
95.35 158.29 1.00 1.00 r p2
96.05 158.29 1.00 1.00 r p2
96.75 158.29 1.00 1.00 r p2
97.44 158.29 1.00 1.00 r p2
98.14 158.29 1.00 1.00 r p2
98.84 158.29 1.00 1.00 r p2
99.54 158.29 1.00 1.00 r p2
100.23 158.29 1.00 1.00 r p2
100.93 158.29 1.00 1.00 r p2
101.63 158.29 1.00 1.00 r p2
102.33 158.29 1.00 1.00 r p2
103.03 158.29 1.00 1.00 r p2
103.72 158.29 1.00 1.00 r p2
104.42 158.29 1.00 1.00 r p2
105.12 158.29 1.00 1.00 r p2
105.82 158.29 1.00 1.00 r p2
106.52 158.29 1.00 1.00 r p2
107.21 158.29 1.00 1.00 r p2
107.91 158.29 1.00 1.00 r p2
108.61 158.29 1.00 1.00 r p2
109.31 158.29 1.00 1.00 r p2
110.01 158.29 1.00 1.00 r p2
110.70 158.29 1.00 1.00 r p2
111.40 158.29 1.00 1.00 r p2
112.10 158.29 1.00 1.00 r p2
112.80 158.29 1.00 1.00 r p2
113.49 158.29 1.00 1.00 r p2
114.19 158.29 1.00 1.00 r p2
114.89 158.29 1.00 1.00 r p2
115.59 158.29 1.00 1.00 r p2
116.29 158.29 1.00 1.00 r p2
116.98 158.29 1.00 1.00 r p2
117.68 158.29 1.00 1.00 r p2
118.38 158.29 1.00 1.00 r p2
119.08 158.29 1.00 1.00 r p2
119.78 158.29 1.00 1.00 r p2
120.47 158.29 1.00 1.00 r p2
121.17 158.29 1.00 1.00 r p2
121.87 158.29 1.00 1.00 r p2
122.57 158.29 1.00 1.00 r p2
123.26 158.29 1.00 1.00 r p2
123.96 158.29 1.00 1.00 r p2
124.66 158.29 1.00 1.00 r p2
125.36 158.29 1.00 1.00 r p2
126.06 158.29 1.00 1.00 r p2
126.75 158.29 1.00 1.00 r p2
127.45 158.29 1.00 1.00 r p2
128.65 156.77 (>) .5 0 t
129.35 156.77 (>) .5 0 t
130.05 156.77 (>) .5 0 t
130.24 158.29 1.00 1.00 r p2
130.94 158.29 1.00 1.00 r p2
131.64 158.29 1.00 1.00 r p2
132.34 158.29 1.00 1.00 r p2
133.04 158.29 1.00 1.00 r p2
133.73 158.29 1.00 1.00 r p2
134.43 158.29 1.00 1.00 r p2
135.13 158.29 1.00 1.00 r p2
135.83 158.29 1.00 1.00 r p2
136.52 158.29 1.00 1.00 r p2
137.22 158.29 1.00 1.00 r p2
137.92 158.29 1.00 1.00 r p2
138.62 158.29 1.00 1.00 r p2
139.32 158.29 1.00 1.00 r p2
140.01 158.29 1.00 1.00 r p2
140.71 158.29 1.00 1.00 r p2
141.41 158.29 1.00 1.00 r p2
142.11 158.29 1.00 1.00 r p2
142.81 158.29 1.00 1.00 r p2
143.50 158.29 1.00 1.00 r p2
144.20 158.29 1.00 1.00 r p2
144.90 158.29 1.00 1.00 r p2
145.60 158.29 1.00 1.00 r p2
146.30 158.29 1.00 1.00 r p2
146.99 158.29 1.00 1.00 r p2
147.69 158.29 1.00 1.00 r p2
148.39 158.29 1.00 1.00 r p2
149.09 158.29 1.00 1.00 r p2
149.78 158.29 1.00 1.00 r p2
150.48 158.29 1.00 1.00 r p2
151.18 158.29 1.00 1.00 r p2
151.88 158.29 1.00 1.00 r p2
152.58 158.29 1.00 1.00 r p2
153.27 158.29 1.00 1.00 r p2
153.97 158.29 1.00 1.00 r p2
154.67 158.29 1.00 1.00 r p2
155.37 158.29 1.00 1.00 r p2
156.07 158.29 1.00 1.00 r p2
156.76 158.29 1.00 1.00 r p2
157.46 158.29 1.00 1.00 r p2
158.16 158.29 1.00 1.00 r p2
158.86 158.29 1.00 1.00 r p2
159.56 158.29 1.00 1.00 r p2
160.25 158.29 1.00 1.00 r p2
160.95 158.29 1.00 1.00 r p2
161.65 158.29 1.00 1.00 r p2
162.35 158.29 1.00 1.00 r p2
163.04 158.29 1.00 1.00 r p2
163.74 158.29 1.00 1.00 r p2
164.44 158.29 1.00 1.00 r p2
165.14 158.29 1.00 1.00 r p2
165.84 158.29 1.00 1.00 r p2
166.53 158.29 1.00 1.00 r p2
167.23 158.29 1.00 1.00 r p2
167.93 158.29 1.00 1.00 r p2
168.63 158.29 1.00 1.00 r p2
169.33 158.29 1.00 1.00 r p2
170.02 158.29 1.00 1.00 r p2
170.72 158.29 1.00 1.00 r p2
171.42 158.29 1.00 1.00 r p2
172.12 158.29 1.00 1.00 r p2
172.81 158.29 1.00 1.00 r p2
173.51 158.29 1.00 1.00 r p2
174.21 158.29 1.00 1.00 r p2
174.91 158.29 1.00 1.00 r p2
175.61 158.29 1.00 1.00 r p2
176.30 158.29 1.00 1.00 r p2
177.00 158.29 1.00 1.00 r p2
177.70 158.29 1.00 1.00 r p2
178.40 158.29 1.00 1.00 r p2
179.10 158.29 1.00 1.00 r p2
179.79 158.29 1.00 1.00 r p2
180.49 158.29 1.00 1.00 r p2
181.19 158.29 1.00 1.00 r p2
181.89 158.29 1.00 1.00 r p2
182.59 158.29 1.00 1.00 r p2
183.28 158.29 1.00 1.00 r p2
183.98 158.29 1.00 1.00 r p2
184.68 158.29 1.00 1.00 r p2
185.38 158.29 1.00 1.00 r p2
186.07 158.29 1.00 1.00 r p2
186.77 158.29 1.00 1.00 r p2
187.47 158.29 1.00 1.00 r p2
188.17 158.29 1.00 1.00 r p2
188.87 158.29 1.00 1.00 r p2
189.56 158.29 1.00 1.00 r p2
190.26 158.29 1.00 1.00 r p2
190.96 158.29 1.00 1.00 r p2
191.66 158.29 1.00 1.00 r p2
192.36 158.29 1.00 1.00 r p2
193.05 158.29 1.00 1.00 r p2
193.75 158.29 1.00 1.00 r p2
194.45 158.29 1.00 1.00 r p2
195.15 158.29 1.00 1.00 r p2
195.85 158.29 1.00 1.00 r p2
196.54 158.29 1.00 1.00 r p2
197.24 158.29 1.00 1.00 r p2
197.94 158.29 1.00 1.00 r p2
198.64 158.29 1.00 1.00 r p2
199.33 158.29 1.00 1.00 r p2
200.03 158.29 1.00 1.00 r p2
200.73 158.29 1.00 1.00 r p2
201.43 158.29 1.00 1.00 r p2
202.13 158.29 1.00 1.00 r p2
202.82 158.29 1.00 1.00 r p2
203.52 158.29 1.00 1.00 r p2
204.22 158.29 1.00 1.00 r p2
204.92 158.29 1.00 1.00 r p2
205.62 158.29 1.00 1.00 r p2
206.31 158.29 1.00 1.00 r p2
207.51 155.92 (A) .5 0 t
208.21 155.92 (A) .5 0 t
208.91 155.92 (A) .5 0 t
209.61 155.92 (A) .5 0 t
210.30 155.92 (A) .5 0 t
210.50 158.29 1.00 1.00 r p2
211.70 155.92 (A) .5 0 t
212.40 155.92 (A) .5 0 t
212.59 158.29 1.00 1.00 r p2
213.29 158.29 1.00 1.00 r p2
213.99 158.29 1.00 1.00 r p2
215.19 156.77 (<) .5 0 t
215.89 156.77 (<) .5 0 t
216.08 158.29 1.00 1.00 r p2
217.28 156.77 (<) .5 0 t
217.98 156.77 (<) .5 0 t
218.68 156.77 (<) .5 0 t
219.38 156.77 (<) .5 0 t
219.57 158.29 1.00 1.00 r p2
220.27 158.29 1.00 1.00 r p2
220.97 158.29 1.00 1.00 r p2
222.17 156.77 (<) .5 0 t
222.87 156.77 (<) .5 0 t
223.56 156.77 (<) .5 0 t
224.26 156.77 (<) .5 0 t
224.96 156.77 (<) .5 0 t
225.66 156.77 (<) .5 0 t
225.85 158.29 1.00 1.00 r p2
226.55 158.29 1.00 1.00 r p2
227.25 158.29 1.00 1.00 r p2
227.95 158.29 1.00 1.00 r p2
228.65 158.29 1.00 1.00 r p2
229.34 158.29 1.00 1.00 r p2
230.04 158.29 1.00 1.00 r p2
230.74 158.29 1.00 1.00 r p2
231.44 158.29 1.00 1.00 r p2
232.14 158.29 1.00 1.00 r p2
232.83 158.29 1.00 1.00 r p2
233.53 158.29 1.00 1.00 r p2
234.23 158.29 1.00 1.00 r p2
234.93 158.29 1.00 1.00 r p2
235.62 158.29 1.00 1.00 r p2
236.32 158.29 1.00 1.00 r p2
237.02 158.29 1.00 1.00 r p2
237.72 158.29 1.00 1.00 r p2
238.42 158.29 1.00 1.00 r p2
239.11 158.29 1.00 1.00 r p2
239.81 158.29 1.00 1.00 r p2
240.51 158.29 1.00 1.00 r p2
241.21 158.29 1.00 1.00 r p2
241.91 158.29 1.00 1.00 r p2
242.60 158.29 1.00 1.00 r p2
243.30 158.29 1.00 1.00 r p2
244.00 158.29 1.00 1.00 r p2
244.70 158.29 1.00 1.00 r p2
245.40 158.29 1.00 1.00 r p2
246.09 158.29 1.00 1.00 r p2
246.79 158.29 1.00 1.00 r p2
247.49 158.29 1.00 1.00 r p2
248.19 158.29 1.00 1.00 r p2
248.88 158.29 1.00 1.00 r p2
249.58 158.29 1.00 1.00 r p2
250.28 158.29 1.00 1.00 r p2
250.98 158.29 1.00 1.00 r p2
251.68 158.29 1.00 1.00 r p2
252.37 158.29 1.00 1.00 r p2
253.07 158.29 1.00 1.00 r p2
253.77 158.29 1.00 1.00 r p2
254.47 158.29 1.00 1.00 r p2
255.17 158.29 1.00 1.00 r p2
255.86 158.29 1.00 1.00 r p2
256.56 158.29 1.00 1.00 r p2
257.26 158.29 1.00 1.00 r p2
257.96 158.29 1.00 1.00 r p2
258.66 158.29 1.00 1.00 r p2
259.35 158.29 1.00 1.00 r p2
260.05 158.29 1.00 1.00 r p2
260.75 158.29 1.00 1.00 r p2
261.45 158.29 1.00 1.00 r p2
262.14 158.29 1.00 1.00 r p2
262.84 158.29 1.00 1.00 r p2
263.54 158.29 1.00 1.00 r p2
264.24 158.29 1.00 1.00 r p2
264.94 158.29 1.00 1.00 r p2
265.63 158.29 1.00 1.00 r p2
266.33 158.29 1.00 1.00 r p2
267.03 158.29 1.00 1.00 r p2
267.73 158.29 1.00 1.00 r p2
268.43 158.29 1.00 1.00 r p2
269.12 158.29 1.00 1.00 r p2
269.82 158.29 1.00 1.00 r p2
270.52 158.29 1.00 1.00 r p2
271.22 158.29 1.00 1.00 r p2
271.92 158.29 1.00 1.00 r p2
272.61 158.29 1.00 1.00 r p2
273.31 158.29 1.00 1.00 r p2
274.01 158.29 1.00 1.00 r p2
274.71 158.29 1.00 1.00 r p2
275.40 158.29 1.00 1.00 r p2
276.10 158.29 1.00 1.00 r p2
276.80 158.29 1.00 1.00 r p2
277.50 158.29 1.00 1.00 r p2
278.20 158.29 1.00 1.00 r p2
278.89 158.29 1.00 1.00 r p2
279.59 158.29 1.00 1.00 r p2
280.29 158.29 1.00 1.00 r p2
280.99 158.29 1.00 1.00 r p2
281.69 158.29 1.00 1.00 r p2
282.38 158.29 1.00 1.00 r p2
283.08 158.29 1.00 1.00 r p2
283.78 158.29 1.00 1.00 r p2
284.48 158.29 1.00 1.00 r p2
285.17 158.29 1.00 1.00 r p2
285.87 158.29 1.00 1.00 r p2
286.57 158.29 1.00 1.00 r p2
287.27 158.29 1.00 1.00 r p2
287.97 158.29 1.00 1.00 r p2
288.66 158.29 1.00 1.00 r p2
289.36 158.29 1.00 1.00 r p2
290.06 158.29 1.00 1.00 r p2
290.76 158.29 1.00 1.00 r p2
291.46 158.29 1.00 1.00 r p2
292.15 158.29 1.00 1.00 r p2
292.85 158.29 1.00 1.00 r p2
293.55 158.29 1.00 1.00 r p2
294.25 158.29 1.00 1.00 r p2
294.95 158.29 1.00 1.00 r p2
295.64 158.29 1.00 1.00 r p2
296.34 158.29 1.00 1.00 r p2
297.04 158.29 1.00 1.00 r p2
297.74 158.29 1.00 1.00 r p2
298.43 158.29 1.00 1.00 r p2
299.13 158.29 1.00 1.00 r p2
299.83 158.29 1.00 1.00 r p2
300.53 158.29 1.00 1.00 r p2
301.23 158.29 1.00 1.00 r p2
301.92 158.29 1.00 1.00 r p2
302.62 158.29 1.00 1.00 r p2
303.32 158.29 1.00 1.00 r p2
304.02 158.29 1.00 1.00 r p2
304.72 158.29 1.00 1.00 r p2
305.41 158.29 1.00 1.00 r p2
306.11 158.29 1.00 1.00 r p2
306.81 158.29 1.00 1.00 r p2
307.51 158.29 1.00 1.00 r p2
308.21 158.29 1.00 1.00 r p2
308.90 158.29 1.00 1.00 r p2
309.60 158.29 1.00 1.00 r p2
310.30 158.29 1.00 1.00 r p2
311.00 158.29 1.00 1.00 r p2
311.69 158.29 1.00 1.00 r p2
312.39 158.29 1.00 1.00 r p2
313.09 158.29 1.00 1.00 r p2
313.79 158.29 1.00 1.00 r p2
314.49 158.29 1.00 1.00 r p2
315.18 158.29 1.00 1.00 r p2
315.88 158.29 1.00 1.00 r p2
316.58 158.29 1.00 1.00 r p2
317.28 158.29 1.00 1.00 r p2
317.98 158.29 1.00 1.00 r p2
318.67 158.29 1.00 1.00 r p2
319.37 158.29 1.00 1.00 r p2
320.07 158.29 1.00 1.00 r p2
320.77 158.29 1.00 1.00 r p2
321.47 158.29 1.00 1.00 r p2
322.16 158.29 1.00 1.00 r p2
322.86 158.29 1.00 1.00 r p2
323.56 158.29 1.00 1.00 r p2
324.26 158.29 1.00 1.00 r p2
324.95 158.29 1.00 1.00 r p2
325.65 158.29 1.00 1.00 r p2
326.35 158.29 1.00 1.00 r p2
327.05 158.29 1.00 1.00 r p2
327.75 158.29 1.00 1.00 r p2
328.44 158.29 1.00 1.00 r p2
329.14 158.29 1.00 1.00 r p2
329.84 158.29 1.00 1.00 r p2
330.54 158.29 1.00 1.00 r p2
331.24 158.29 1.00 1.00 r p2
331.93 158.29 1.00 1.00 r p2
332.63 158.29 1.00 1.00 r p2
333.33 158.29 1.00 1.00 r p2
334.03 158.29 1.00 1.00 r p2
334.72 158.29 1.00 1.00 r p2
335.42 158.29 1.00 1.00 r p2
336.12 158.29 1.00 1.00 r p2
336.82 158.29 1.00 1.00 r p2
337.52 158.29 1.00 1.00 r p2
338.21 158.29 1.00 1.00 r p2
338.91 158.29 1.00 1.00 r p2
340.11 156.77 (>) .5 0 t
340.81 156.77 (>) .5 0 t
341.51 156.77 (>) .5 0 t
342.20 156.77 (>) .5 0 t
342.90 156.77 (>) .5 0 t
343.60 156.77 (>) .5 0 t
343.80 158.29 1.00 1.00 r p2
344.50 158.29 1.00 1.00 r p2
345.69 156.77 (>) .5 0 t
346.39 156.77 (>) .5 0 t
346.59 158.29 1.00 1.00 r p2
347.79 156.77 (>) .5 0 t
348.48 156.77 (>) .5 0 t
349.18 156.77 (>) .5 0 t
349.88 156.77 (>) .5 0 t
350.58 156.77 (<) .5 0 t
351.28 156.77 (<) .5 0 t
351.47 158.29 1.00 1.00 r p2
352.17 158.29 1.00 1.00 r p2
352.87 158.29 1.00 1.00 r p2
354.07 156.77 (<) .5 0 t
354.77 156.77 (<) .5 0 t
355.46 156.77 (<) .5 0 t
356.16 156.77 (<) .5 0 t
356.36 158.29 1.00 1.00 r p2
357.06 158.29 1.00 1.00 r p2
357.76 158.29 1.00 1.00 r p2
358.45 158.29 1.00 1.00 r p2
359.65 156.77 (<) .5 0 t
360.35 156.77 (<) .5 0 t
361.05 156.77 (<) .5 0 t
361.74 156.77 (<) .5 0 t
362.44 156.77 (<) .5 0 t
363.14 156.77 (<) .5 0 t
363.84 156.77 (<) .5 0 t
364.04 158.29 1.00 1.00 r p2
364.73 158.29 1.00 1.00 r p2
365.43 158.29 1.00 1.00 r p2
366.13 158.29 1.00 1.00 r p2
366.83 158.29 1.00 1.00 r p2
367.53 158.29 1.00 1.00 r p2
368.22 158.29 1.00 1.00 r p2
368.92 158.29 1.00 1.00 r p2
369.62 158.29 1.00 1.00 r p2
370.32 158.29 1.00 1.00 r p2
371.02 158.29 1.00 1.00 r p2
371.71 158.29 1.00 1.00 r p2
372.41 158.29 1.00 1.00 r p2
373.11 158.29 1.00 1.00 r p2
373.81 158.29 1.00 1.00 r p2
374.50 158.29 1.00 1.00 r p2
375.20 158.29 1.00 1.00 r p2
375.90 158.29 1.00 1.00 r p2
376.60 158.29 1.00 1.00 r p2
377.30 158.29 1.00 1.00 r p2
377.99 158.29 1.00 1.00 r p2
378.69 158.29 1.00 1.00 r p2
379.39 158.29 1.00 1.00 r p2
380.09 158.29 1.00 1.00 r p2
380.79 158.29 1.00 1.00 r p2
381.48 158.29 1.00 1.00 r p2
382.18 158.29 1.00 1.00 r p2
383.38 156.77 (>) .5 0 t
384.08 156.77 (>) .5 0 t
384.78 156.77 (>) .5 0 t
385.47 156.77 (>) .5 0 t
386.17 156.77 (>) .5 0 t
386.87 156.77 (>) .5 0 t
387.57 156.77 (>) .5 0 t
387.76 158.29 1.00 1.00 r p2
388.46 158.29 1.00 1.00 r p2
389.16 158.29 1.00 1.00 r p2
390.36 156.77 (>) .5 0 t
391.06 156.77 (>) .5 0 t
391.75 156.77 (>) .5 0 t
392.45 156.77 (>) .5 0 t
392.65 158.29 1.00 1.00 r p2
393.35 158.29 1.00 1.00 r p2
394.05 158.29 1.00 1.00 r p2
395.24 156.77 (>) .5 0 t
395.94 156.77 (>) .5 0 t
396.14 158.29 1.00 1.00 r p2
396.84 158.29 1.00 1.00 r p2
397.53 158.29 1.00 1.00 r p2
398.73 156.69 (\() .5 0 t
398.93 158.29 1.00 1.00 r p2
400.13 156.69 (\() .5 0 t
400.83 156.69 (\() .5 0 t
401.52 156.69 (\() .5 0 t
402.22 156.69 (\() .5 0 t
402.92 156.69 (\() .5 0 t
403.12 158.29 1.00 1.00 r p2
403.82 158.29 1.00 1.00 r p2
404.51 158.29 1.00 1.00 r p2
405.21 158.29 1.00 1.00 r p2
405.91 158.29 1.00 1.00 r p2
406.61 158.29 1.00 1.00 r p2
407.31 158.29 1.00 1.00 r p2
408.00 158.29 1.00 1.00 r p2
408.70 158.29 1.00 1.00 r p2
409.40 158.29 1.00 1.00 r p2
410.10 158.29 1.00 1.00 r p2
410.79 158.29 1.00 1.00 r p2
411.49 158.29 1.00 1.00 r p2
412.19 158.29 1.00 1.00 r p2
412.89 158.29 1.00 1.00 r p2
413.59 158.29 1.00 1.00 r p2
414.28 158.29 1.00 1.00 r p2
414.98 158.29 1.00 1.00 r p2
415.68 158.29 1.00 1.00 r p2
416.38 158.29 1.00 1.00 r p2
417.08 158.29 1.00 1.00 r p2
417.77 158.29 1.00 1.00 r p2
418.47 158.29 1.00 1.00 r p2
419.17 158.29 1.00 1.00 r p2
419.87 158.29 1.00 1.00 r p2
420.57 158.29 1.00 1.00 r p2
421.26 158.29 1.00 1.00 r p2
421.96 158.29 1.00 1.00 r p2
422.66 158.29 1.00 1.00 r p2
423.36 158.29 1.00 1.00 r p2
424.05 158.29 1.00 1.00 r p2
424.75 158.29 1.00 1.00 r p2
425.45 158.29 1.00 1.00 r p2
426.15 158.29 1.00 1.00 r p2
426.85 158.29 1.00 1.00 r p2
427.54 158.29 1.00 1.00 r p2
428.24 158.29 1.00 1.00 r p2
428.94 158.29 1.00 1.00 r p2
429.64 158.29 1.00 1.00 r p2
430.34 158.29 1.00 1.00 r p2
431.03 158.29 1.00 1.00 r p2
431.73 158.29 1.00 1.00 r p2
432.43 158.29 1.00 1.00 r p2
433.13 158.29 1.00 1.00 r p2
433.83 158.29 1.00 1.00 r p2
434.52 158.29 1.00 1.00 r p2
435.22 158.29 1.00 1.00 r p2
435.92 158.29 1.00 1.00 r p2
436.62 158.29 1.00 1.00 r p2
437.31 158.29 1.00 1.00 r p2
438.01 158.29 1.00 1.00 r p2
438.71 158.29 1.00 1.00 r p2
439.41 158.29 1.00 1.00 r p2
440.11 158.29 1.00 1.00 r p2
440.80 158.29 1.00 1.00 r p2
442.00 156.70 (a) .5 0 t
442.70 156.70 (a) .5 0 t
442.90 158.29 1.00 1.00 r p2
444.10 156.70 (a) .5 0 t
444.79 156.70 (a) .5 0 t
445.49 156.70 (a) .5 0 t
446.19 156.70 (a) .5 0 t
446.89 156.70 (a) .5 0 t
447.08 158.29 1.00 1.00 r p2
448.28 156.77 (<) .5 0 t
448.98 156.77 (<) .5 0 t
449.68 156.77 (<) .5 0 t
450.38 156.77 (<) .5 0 t
451.07 156.77 (<) .5 0 t
451.77 156.77 (<) .5 0 t
452.47 156.77 (<) .5 0 t
453.17 156.77 (<) .5 0 t
453.87 156.77 (<) .5 0 t
454.06 158.29 1.00 1.00 r p2
454.76 158.29 1.00 1.00 r p2
455.46 158.29 1.00 1.00 r p2
456.16 158.29 1.00 1.00 r p2
456.86 158.29 1.00 1.00 r p2
457.55 158.29 1.00 1.00 r p2
458.25 158.29 1.00 1.00 r p2
458.95 158.29 1.00 1.00 r p2
459.65 158.29 1.00 1.00 r p2
460.34 158.29 1.00 1.00 r p2
461.04 158.29 1.00 1.00 r p2
461.74 158.29 1.00 1.00 r p2
462.44 158.29 1.00 1.00 r p2
463.14 158.29 1.00 1.00 r p2
463.83 158.29 1.00 1.00 r p2
464.53 158.29 1.00 1.00 r p2
465.23 158.29 1.00 1.00 r p2
465.93 158.29 1.00 1.00 r p2
466.63 158.29 1.00 1.00 r p2
467.32 158.29 1.00 1.00 r p2
468.02 158.29 1.00 1.00 r p2
468.72 158.29 1.00 1.00 r p2
469.42 158.29 1.00 1.00 r p2
470.12 158.29 1.00 1.00 r p2
470.81 158.29 1.00 1.00 r p2
471.51 158.29 1.00 1.00 r p2
472.21 158.29 1.00 1.00 r p2
472.91 158.29 1.00 1.00 r p2
473.60 158.29 1.00 1.00 r p2
474.30 158.29 1.00 1.00 r p2
475.00 158.29 1.00 1.00 r p2
475.70 158.29 1.00 1.00 r p2
476.40 158.29 1.00 1.00 r p2
477.09 158.29 1.00 1.00 r p2
477.79 158.29 1.00 1.00 r p2
478.49 158.29 1.00 1.00 r p2
479.19 158.29 1.00 1.00 r p2
479.89 158.29 1.00 1.00 r p2
480.58 158.29 1.00 1.00 r p2
481.28 158.29 1.00 1.00 r p2
481.98 158.29 1.00 1.00 r p2
482.68 158.29 1.00 1.00 r p2
483.38 158.29 1.00 1.00 r p2
484.07 158.29 1.00 1.00 r p2
484.77 158.29 1.00 1.00 r p2
485.47 158.29 1.00 1.00 r p2
486.17 158.29 1.00 1.00 r p2
486.86 158.29 1.00 1.00 r p2
487.56 158.29 1.00 1.00 r p2
488.26 158.29 1.00 1.00 r p2
488.96 158.29 1.00 1.00 r p2
489.66 158.29 1.00 1.00 r p2
490.35 158.29 1.00 1.00 r p2
491.05 158.29 1.00 1.00 r p2
491.75 158.29 1.00 1.00 r p2
492.45 158.29 1.00 1.00 r p2
493.15 158.29 1.00 1.00 r p2
493.84 158.29 1.00 1.00 r p2
494.54 158.29 1.00 1.00 r p2
495.24 158.29 1.00 1.00 r p2
495.94 158.29 1.00 1.00 r p2
496.63 158.29 1.00 1.00 r p2
497.33 158.29 1.00 1.00 r p2
498.03 158.29 1.00 1.00 r p2
498.73 158.29 1.00 1.00 r p2
499.43 158.29 1.00 1.00 r p2
500.12 158.29 1.00 1.00 r p2
500.82 158.29 1.00 1.00 r p2
501.52 158.29 1.00 1.00 r p2
502.22 158.29 1.00 1.00 r p2
502.92 158.29 1.00 1.00 r p2
503.61 158.29 1.00 1.00 r p2
504.31 158.29 1.00 1.00 r p2
505.01 158.29 1.00 1.00 r p2
505.71 158.29 1.00 1.00 r p2
506.41 158.29 1.00 1.00 r p2
507.10 158.29 1.00 1.00 r p2
507.80 158.29 1.00 1.00 r p2
508.50 158.29 1.00 1.00 r p2
509.20 158.29 1.00 1.00 r p2
509.89 158.29 1.00 1.00 r p2
510.59 158.29 1.00 1.00 r p2
511.29 158.29 1.00 1.00 r p2
511.99 158.29 1.00 1.00 r p2
512.69 158.29 1.00 1.00 r p2
513.38 158.29 1.00 1.00 r p2
514.08 158.29 1.00 1.00 r p2
514.78 158.29 1.00 1.00 r p2
515.48 158.29 1.00 1.00 r p2
516.18 158.29 1.00 1.00 r p2
516.87 158.29 1.00 1.00 r p2
517.57 158.29 1.00 1.00 r p2
518.27 158.29 1.00 1.00 r p2
518.97 158.29 1.00 1.00 r p2
519.67 158.29 1.00 1.00 r p2
520.36 158.29 1.00 1.00 r p2
521.06 158.29 1.00 1.00 r p2
521.76 158.29 1.00 1.00 r p2
522.46 158.29 1.00 1.00 r p2
523.15 158.29 1.00 1.00 r p2
523.85 158.29 1.00 1.00 r p2
524.55 158.29 1.00 1.00 r p2
525.25 158.29 1.00 1.00 r p2
525.95 158.29 1.00 1.00 r p2
526.64 158.29 1.00 1.00 r p2
527.34 158.29 1.00 1.00 r p2
528.04 158.29 1.00 1.00 r p2
528.74 158.29 1.00 1.00 r p2
529.44 158.29 1.00 1.00 r p2
530.13 158.29 1.00 1.00 r p2
530.83 158.29 1.00 1.00 r p2
531.53 158.29 1.00 1.00 r p2
532.23 158.29 1.00 1.00 r p2
532.93 158.29 1.00 1.00 r p2
533.62 158.29 1.00 1.00 r p2
534.32 158.29 1.00 1.00 r p2
535.02 158.29 1.00 1.00 r p2
535.72 158.29 1.00 1.00 r p2
536.41 158.29 1.00 1.00 r p2
537.11 158.29 1.00 1.00 r p2
537.81 158.29 1.00 1.00 r p2
538.51 158.29 1.00 1.00 r p2
539.21 158.29 1.00 1.00 r p2
539.90 158.29 1.00 1.00 r p2
540.60 158.29 1.00 1.00 r p2
541.30 158.29 1.00 1.00 r p2
542.00 158.29 1.00 1.00 r p2
542.70 158.29 1.00 1.00 r p2
543.39 158.29 1.00 1.00 r p2
544.09 158.29 1.00 1.00 r p2
544.79 158.29 1.00 1.00 r p2
545.49 158.29 1.00 1.00 r p2
546.19 158.29 1.00 1.00 r p2
546.88 158.29 1.00 1.00 r p2
547.58 158.29 1.00 1.00 r p2
548.28 158.29 1.00 1.00 r p2
548.98 158.29 1.00 1.00 r p2
549.67 158.29 1.00 1.00 r p2
550.37 158.29 1.00 1.00 r p2
551.07 158.29 1.00 1.00 r p2
551.77 158.29 1.00 1.00 r p2
552.47 158.29 1.00 1.00 r p2
553.16 158.29 1.00 1.00 r p2
553.86 158.29 1.00 1.00 r p2
554.56 158.29 1.00 1.00 r p2
555.26 158.29 1.00 1.00 r p2
555.96 158.29 1.00 1.00 r p2
556.65 158.29 1.00 1.00 r p2
557.35 158.29 1.00 1.00 r p2
558.05 158.29 1.00 1.00 r p2
558.75 158.29 1.00 1.00 r p2
559.44 158.29 1.00 1.00 r p2
560.14 158.29 1.00 1.00 r p2
560.84 158.29 1.00 1.00 r p2
561.54 158.29 1.00 1.00 r p2
562.24 158.29 1.00 1.00 r p2
562.93 158.29 1.00 1.00 r p2
563.63 158.29 1.00 1.00 r p2
564.33 158.29 1.00 1.00 r p2
565.03 158.29 1.00 1.00 r p2
565.73 158.29 1.00 1.00 r p2
566.42 158.29 1.00 1.00 r p2
567.12 158.29 1.00 1.00 r p2
567.82 158.29 1.00 1.00 r p2
568.52 158.29 1.00 1.00 r p2
569.22 158.29 1.00 1.00 r p2
569.91 158.29 1.00 1.00 r p2
570.61 158.29 1.00 1.00 r p2
571.31 158.29 1.00 1.00 r p2
572.01 158.29 1.00 1.00 r p2
572.70 158.29 1.00 1.00 r p2
573.40 158.29 1.00 1.00 r p2
574.10 158.29 1.00 1.00 r p2
574.80 158.29 1.00 1.00 r p2
575.50 158.29 1.00 1.00 r p2
576.19 158.29 1.00 1.00 r p2
576.89 158.29 1.00 1.00 r p2
577.59 158.29 1.00 1.00 r p2
578.29 158.29 1.00 1.00 r p2
578.99 158.29 1.00 1.00 r p2
579.68 158.29 1.00 1.00 r p2
580.38 158.29 1.00 1.00 r p2
581.08 158.29 1.00 1.00 r p2
581.78 158.29 1.00 1.00 r p2
582.48 158.29 1.00 1.00 r p2
583.17 158.29 1.00 1.00 r p2
583.87 158.29 1.00 1.00 r p2
584.57 158.29 1.00 1.00 r p2
585.27 158.29 1.00 1.00 r p2
585.96 158.29 1.00 1.00 r p2
586.66 158.29 1.00 1.00 r p2
587.36 158.29 1.00 1.00 r p2
588.06 158.29 1.00 1.00 r p2
588.76 158.29 1.00 1.00 r p2
589.45 158.29 1.00 1.00 r p2
590.15 158.29 1.00 1.00 r p2
590.85 158.29 1.00 1.00 r p2
591.55 158.29 1.00 1.00 r p2
592.25 158.29 1.00 1.00 r p2
592.94 158.29 1.00 1.00 r p2
593.64 158.29 1.00 1.00 r p2
594.34 158.29 1.00 1.00 r p2
595.04 158.29 1.00 1.00 r p2
595.74 158.29 1.00 1.00 r p2
596.43 158.29 1.00 1.00 r p2
597.13 158.29 1.00 1.00 r p2
597.83 158.29 1.00 1.00 r p2
598.53 158.29 1.00 1.00 r p2
599.22 158.29 1.00 1.00 r p2
599.92 158.29 1.00 1.00 r p2
600.62 158.29 1.00 1.00 r p2
601.32 158.29 1.00 1.00 r p2
602.02 158.29 1.00 1.00 r p2
602.71 158.29 1.00 1.00 r p2
603.41 158.29 1.00 1.00 r p2
604.11 158.29 1.00 1.00 r p2
604.81 158.29 1.00 1.00 r p2
605.51 158.29 1.00 1.00 r p2
606.20 158.29 1.00 1.00 r p2
606.90 158.29 1.00 1.00 r p2
607.60 158.29 1.00 1.00 r p2
608.30 158.29 1.00 1.00 r p2
608.99 158.29 1.00 1.00 r p2
609.69 158.29 1.00 1.00 r p2
610.39 158.29 1.00 1.00 r p2
611.09 158.29 1.00 1.00 r p2
611.79 158.29 1.00 1.00 r p2
612.48 158.29 1.00 1.00 r p2
613.18 158.29 1.00 1.00 r p2
613.88 158.29 1.00 1.00 r p2
614.58 158.29 1.00 1.00 r p2
615.28 158.29 1.00 1.00 r p2
615.97 158.29 1.00 1.00 r p2
616.67 158.29 1.00 1.00 r p2
617.37 158.29 1.00 1.00 r p2
618.07 158.29 1.00 1.00 r p2
618.77 158.29 1.00 1.00 r p2
619.46 158.29 1.00 1.00 r p2
620.16 158.29 1.00 1.00 r p2
620.86 158.29 1.00 1.00 r p2
621.56 158.29 1.00 1.00 r p2
622.25 158.29 1.00 1.00 r p2
622.95 158.29 1.00 1.00 r p2
623.65 158.29 1.00 1.00 r p2
624.35 158.29 1.00 1.00 r p2
625.05 158.29 1.00 1.00 r p2
625.74 158.29 1.00 1.00 r p2
626.44 158.29 1.00 1.00 r p2
627.14 158.29 1.00 1.00 r p2
627.84 158.29 1.00 1.00 r p2
628.54 158.29 1.00 1.00 r p2
629.23 158.29 1.00 1.00 r p2
629.93 158.29 1.00 1.00 r p2
630.63 158.29 1.00 1.00 r p2
631.33 158.29 1.00 1.00 r p2
632.03 158.29 1.00 1.00 r p2
632.72 158.29 1.00 1.00 r p2
633.42 158.29 1.00 1.00 r p2
634.12 158.29 1.00 1.00 r p2
634.82 158.29 1.00 1.00 r p2
635.51 158.29 1.00 1.00 r p2
636.21 158.29 1.00 1.00 r p2
636.91 158.29 1.00 1.00 r p2
637.61 158.29 1.00 1.00 r p2
638.31 158.29 1.00 1.00 r p2
639.00 158.29 1.00 1.00 r p2
640.20 156.77 (>) .5 0 t
640.90 156.77 (>) .5 0 t
641.60 156.77 (>) .5 0 t
642.30 156.77 (>) .5 0 t
642.99 156.77 (>) .5 0 t
643.69 156.77 (>) .5 0 t
644.39 156.77 (>) .5 0 t
645.09 156.77 (>) .5 0 t
645.79 156.77 (>) .5 0 t
645.98 158.29 1.00 1.00 r p2
646.68 158.29 1.00 1.00 r p2
647.38 158.29 1.00 1.00 r p2
648.08 158.29 1.00 1.00 r p2
648.77 158.29 1.00 1.00 r p2
649.47 158.29 1.00 1.00 r p2
650.17 158.29 1.00 1.00 r p2
650.87 158.29 1.00 1.00 r p2
652.07 156.69 (\)) .5 0 t
652.76 156.69 (\)) .5 0 t
653.46 156.69 (\)) .5 0 t
654.16 156.69 (\)) .5 0 t
654.86 156.69 (\)) .5 0 t
655.56 156.69 (\)) .5 0 t
655.75 158.29 1.00 1.00 r p2
656.45 158.29 1.00 1.00 r p2
657.15 158.29 1.00 1.00 r p2
657.85 158.29 1.00 1.00 r p2
658.54 158.29 1.00 1.00 r p2
659.24 158.29 1.00 1.00 r p2
660.44 156.77 (<) .5 0 t
661.14 156.77 (<) .5 0 t
661.84 156.77 (<) .5 0 t
662.53 156.77 (<) .5 0 t
663.23 156.77 (<) .5 0 t
663.43 158.29 1.00 1.00 r p2
664.13 158.29 1.00 1.00 r p2
664.83 158.29 1.00 1.00 r p2
665.52 158.29 1.00 1.00 r p2
666.72 156.77 (>) .5 0 t
667.42 156.77 (>) .5 0 t
668.12 156.77 (>) .5 0 t
668.82 156.77 (>) .5 0 t
669.51 156.77 (>) .5 0 t
669.71 158.29 1.00 1.00 r p2
670.41 158.29 1.00 1.00 r p2
49.29 150.36 1.00 1.00 r p2
49.99 150.36 1.00 1.00 r p2
50.68 150.36 1.00 1.00 r p2
51.38 150.36 1.00 1.00 r p2
52.58 148.05 (1) .5 0 t
53.28 148.05 (1) .5 0 t
53.98 148.05 (1) .5 0 t
54.67 148.05 (1) .5 0 t
55.37 148.05 (1) .5 0 t
56.07 148.05 (1) .5 0 t
56.77 148.05 (1) .5 0 t
57.47 148.05 (1) .5 0 t
58.16 148.05 (1) .5 0 t
58.36 150.36 1.00 1.00 r p2
59.06 150.36 1.00 1.00 r p2
59.76 150.36 1.00 1.00 r p2
60.46 150.36 1.00 1.00 r p2
61.15 150.36 1.00 1.00 r p2
61.85 150.36 1.00 1.00 r p2
62.55 150.36 1.00 1.00 r p2
63.25 150.36 1.00 1.00 r p2
63.94 150.36 1.00 1.00 r p2
64.64 150.36 1.00 1.00 r p2
65.34 150.36 1.00 1.00 r p2
66.04 150.36 1.00 1.00 r p2
66.74 150.36 1.00 1.00 r p2
67.43 150.36 1.00 1.00 r p2
68.13 150.36 1.00 1.00 r p2
68.83 150.36 1.00 1.00 r p2
69.53 150.36 1.00 1.00 r p2
70.23 150.36 1.00 1.00 r p2
70.92 150.36 1.00 1.00 r p2
71.62 150.36 1.00 1.00 r p2
72.32 150.36 1.00 1.00 r p2
73.02 150.36 1.00 1.00 r p2
73.71 150.36 1.00 1.00 r p2
74.41 150.36 1.00 1.00 r p2
75.11 150.36 1.00 1.00 r p2
75.81 150.36 1.00 1.00 r p2
76.51 150.36 1.00 1.00 r p2
77.20 150.36 1.00 1.00 r p2
77.90 150.36 1.00 1.00 r p2
78.60 150.36 1.00 1.00 r p2
79.30 150.36 1.00 1.00 r p2
80.50 148.05 (1) .5 0 t
81.19 148.05 (1) .5 0 t
81.89 148.05 (1) .5 0 t
82.59 148.05 (1) .5 0 t
83.29 148.05 (1) .5 0 t
83.99 148.05 (1) .5 0 t
84.68 148.05 (1) .5 0 t
85.38 148.05 (1) .5 0 t
86.08 148.05 (1) .5 0 t
86.28 150.36 1.00 1.00 r p2
86.97 150.36 1.00 1.00 r p2
87.67 150.36 1.00 1.00 r p2
88.87 148.05 (2) .5 0 t
89.57 148.05 (2) .5 0 t
90.27 148.05 (2) .5 0 t
90.46 150.36 1.00 1.00 r p2
91.16 150.36 1.00 1.00 r p2
91.86 150.36 1.00 1.00 r p2
92.56 150.36 1.00 1.00 r p2
93.26 150.36 1.00 1.00 r p2
93.95 150.36 1.00 1.00 r p2
94.65 150.36 1.00 1.00 r p2
95.35 150.36 1.00 1.00 r p2
96.05 150.36 1.00 1.00 r p2
96.75 150.36 1.00 1.00 r p2
97.44 150.36 1.00 1.00 r p2
98.14 150.36 1.00 1.00 r p2
98.84 150.36 1.00 1.00 r p2
99.54 150.36 1.00 1.00 r p2
100.23 150.36 1.00 1.00 r p2
100.93 150.36 1.00 1.00 r p2
101.63 150.36 1.00 1.00 r p2
102.33 150.36 1.00 1.00 r p2
103.03 150.36 1.00 1.00 r p2
103.72 150.36 1.00 1.00 r p2
104.42 150.36 1.00 1.00 r p2
105.12 150.36 1.00 1.00 r p2
105.82 150.36 1.00 1.00 r p2
106.52 150.36 1.00 1.00 r p2
107.21 150.36 1.00 1.00 r p2
107.91 150.36 1.00 1.00 r p2
108.61 150.36 1.00 1.00 r p2
109.31 150.36 1.00 1.00 r p2
110.01 150.36 1.00 1.00 r p2
110.70 150.36 1.00 1.00 r p2
111.40 150.36 1.00 1.00 r p2
112.10 150.36 1.00 1.00 r p2
112.80 150.36 1.00 1.00 r p2
113.49 150.36 1.00 1.00 r p2
114.19 150.36 1.00 1.00 r p2
114.89 150.36 1.00 1.00 r p2
115.59 150.36 1.00 1.00 r p2
116.29 150.36 1.00 1.00 r p2
116.98 150.36 1.00 1.00 r p2
117.68 150.36 1.00 1.00 r p2
118.38 150.36 1.00 1.00 r p2
119.08 150.36 1.00 1.00 r p2
119.78 150.36 1.00 1.00 r p2
120.47 150.36 1.00 1.00 r p2
121.17 150.36 1.00 1.00 r p2
121.87 150.36 1.00 1.00 r p2
122.57 150.36 1.00 1.00 r p2
123.26 150.36 1.00 1.00 r p2
123.96 150.36 1.00 1.00 r p2
124.66 150.36 1.00 1.00 r p2
125.36 150.36 1.00 1.00 r p2
126.06 150.36 1.00 1.00 r p2
126.75 150.36 1.00 1.00 r p2
127.45 150.36 1.00 1.00 r p2
128.65 148.05 (2) .5 0 t
129.35 148.05 (2) .5 0 t
130.05 148.05 (2) .5 0 t
130.24 150.36 1.00 1.00 r p2
130.94 150.36 1.00 1.00 r p2
131.64 150.36 1.00 1.00 r p2
132.34 150.36 1.00 1.00 r p2
133.04 150.36 1.00 1.00 r p2
133.73 150.36 1.00 1.00 r p2
134.43 150.36 1.00 1.00 r p2
135.13 150.36 1.00 1.00 r p2
135.83 150.36 1.00 1.00 r p2
136.52 150.36 1.00 1.00 r p2
137.22 150.36 1.00 1.00 r p2
137.92 150.36 1.00 1.00 r p2
138.62 150.36 1.00 1.00 r p2
139.32 150.36 1.00 1.00 r p2
140.01 150.36 1.00 1.00 r p2
140.71 150.36 1.00 1.00 r p2
141.41 150.36 1.00 1.00 r p2
142.11 150.36 1.00 1.00 r p2
142.81 150.36 1.00 1.00 r p2
143.50 150.36 1.00 1.00 r p2
144.20 150.36 1.00 1.00 r p2
144.90 150.36 1.00 1.00 r p2
145.60 150.36 1.00 1.00 r p2
146.30 150.36 1.00 1.00 r p2
146.99 150.36 1.00 1.00 r p2
147.69 150.36 1.00 1.00 r p2
148.39 150.36 1.00 1.00 r p2
149.09 150.36 1.00 1.00 r p2
149.78 150.36 1.00 1.00 r p2
150.48 150.36 1.00 1.00 r p2
151.18 150.36 1.00 1.00 r p2
151.88 150.36 1.00 1.00 r p2
152.58 150.36 1.00 1.00 r p2
153.27 150.36 1.00 1.00 r p2
153.97 150.36 1.00 1.00 r p2
154.67 150.36 1.00 1.00 r p2
155.37 150.36 1.00 1.00 r p2
156.07 150.36 1.00 1.00 r p2
156.76 150.36 1.00 1.00 r p2
157.46 150.36 1.00 1.00 r p2
158.16 150.36 1.00 1.00 r p2
158.86 150.36 1.00 1.00 r p2
159.56 150.36 1.00 1.00 r p2
160.25 150.36 1.00 1.00 r p2
160.95 150.36 1.00 1.00 r p2
161.65 150.36 1.00 1.00 r p2
162.35 150.36 1.00 1.00 r p2
163.04 150.36 1.00 1.00 r p2
163.74 150.36 1.00 1.00 r p2
164.44 150.36 1.00 1.00 r p2
165.14 150.36 1.00 1.00 r p2
165.84 150.36 1.00 1.00 r p2
166.53 150.36 1.00 1.00 r p2
167.23 150.36 1.00 1.00 r p2
167.93 150.36 1.00 1.00 r p2
168.63 150.36 1.00 1.00 r p2
169.33 150.36 1.00 1.00 r p2
170.02 150.36 1.00 1.00 r p2
170.72 150.36 1.00 1.00 r p2
171.42 150.36 1.00 1.00 r p2
172.12 150.36 1.00 1.00 r p2
172.81 150.36 1.00 1.00 r p2
173.51 150.36 1.00 1.00 r p2
174.21 150.36 1.00 1.00 r p2
174.91 150.36 1.00 1.00 r p2
175.61 150.36 1.00 1.00 r p2
176.30 150.36 1.00 1.00 r p2
177.00 150.36 1.00 1.00 r p2
177.70 150.36 1.00 1.00 r p2
178.40 150.36 1.00 1.00 r p2
179.10 150.36 1.00 1.00 r p2
179.79 150.36 1.00 1.00 r p2
180.49 150.36 1.00 1.00 r p2
181.19 150.36 1.00 1.00 r p2
181.89 150.36 1.00 1.00 r p2
182.59 150.36 1.00 1.00 r p2
183.28 150.36 1.00 1.00 r p2
183.98 150.36 1.00 1.00 r p2
184.68 150.36 1.00 1.00 r p2
185.38 150.36 1.00 1.00 r p2
186.07 150.36 1.00 1.00 r p2
186.77 150.36 1.00 1.00 r p2
187.47 150.36 1.00 1.00 r p2
188.17 150.36 1.00 1.00 r p2
188.87 150.36 1.00 1.00 r p2
189.56 150.36 1.00 1.00 r p2
190.26 150.36 1.00 1.00 r p2
190.96 150.36 1.00 1.00 r p2
191.66 150.36 1.00 1.00 r p2
192.36 150.36 1.00 1.00 r p2
193.05 150.36 1.00 1.00 r p2
193.75 150.36 1.00 1.00 r p2
194.45 150.36 1.00 1.00 r p2
195.15 150.36 1.00 1.00 r p2
195.85 150.36 1.00 1.00 r p2
196.54 150.36 1.00 1.00 r p2
197.24 150.36 1.00 1.00 r p2
197.94 150.36 1.00 1.00 r p2
198.64 150.36 1.00 1.00 r p2
199.33 150.36 1.00 1.00 r p2
200.03 150.36 1.00 1.00 r p2
200.73 150.36 1.00 1.00 r p2
201.43 150.36 1.00 1.00 r p2
202.13 150.36 1.00 1.00 r p2
202.82 150.36 1.00 1.00 r p2
203.52 150.36 1.00 1.00 r p2
204.22 150.36 1.00 1.00 r p2
204.92 150.36 1.00 1.00 r p2
205.62 150.36 1.00 1.00 r p2
206.31 150.36 1.00 1.00 r p2
207.51 148.12 (3) .5 0 t
208.21 148.12 (3) .5 0 t
208.91 148.12 (3) .5 0 t
209.61 148.12 (3) .5 0 t
210.30 148.12 (3) .5 0 t
210.50 150.36 1.00 1.00 r p2
211.70 148.12 (3) .5 0 t
212.40 148.12 (3) .5 0 t
212.59 150.36 1.00 1.00 r p2
213.29 150.36 1.00 1.00 r p2
213.99 150.36 1.00 1.00 r p2
215.19 148.05 (4) .5 0 t
215.89 148.05 (4) .5 0 t
216.08 150.36 1.00 1.00 r p2
217.28 148.05 (4) .5 0 t
217.98 148.05 (4) .5 0 t
218.68 148.05 (4) .5 0 t
219.38 148.05 (4) .5 0 t
219.57 150.36 1.00 1.00 r p2
220.27 150.36 1.00 1.00 r p2
220.97 150.36 1.00 1.00 r p2
222.17 148.05 (4) .5 0 t
222.87 148.05 (4) .5 0 t
223.56 148.05 (4) .5 0 t
224.26 148.05 (4) .5 0 t
224.96 148.05 (4) .5 0 t
225.66 148.05 (4) .5 0 t
225.85 150.36 1.00 1.00 r p2
226.55 150.36 1.00 1.00 r p2
227.25 150.36 1.00 1.00 r p2
227.95 150.36 1.00 1.00 r p2
228.65 150.36 1.00 1.00 r p2
229.34 150.36 1.00 1.00 r p2
230.04 150.36 1.00 1.00 r p2
230.74 150.36 1.00 1.00 r p2
231.44 150.36 1.00 1.00 r p2
232.14 150.36 1.00 1.00 r p2
232.83 150.36 1.00 1.00 r p2
233.53 150.36 1.00 1.00 r p2
234.23 150.36 1.00 1.00 r p2
234.93 150.36 1.00 1.00 r p2
235.62 150.36 1.00 1.00 r p2
236.32 150.36 1.00 1.00 r p2
237.02 150.36 1.00 1.00 r p2
237.72 150.36 1.00 1.00 r p2
238.42 150.36 1.00 1.00 r p2
239.11 150.36 1.00 1.00 r p2
239.81 150.36 1.00 1.00 r p2
240.51 150.36 1.00 1.00 r p2
241.21 150.36 1.00 1.00 r p2
241.91 150.36 1.00 1.00 r p2
242.60 150.36 1.00 1.00 r p2
243.30 150.36 1.00 1.00 r p2
244.00 150.36 1.00 1.00 r p2
244.70 150.36 1.00 1.00 r p2
245.40 150.36 1.00 1.00 r p2
246.09 150.36 1.00 1.00 r p2
246.79 150.36 1.00 1.00 r p2
247.49 150.36 1.00 1.00 r p2
248.19 150.36 1.00 1.00 r p2
248.88 150.36 1.00 1.00 r p2
249.58 150.36 1.00 1.00 r p2
250.28 150.36 1.00 1.00 r p2
250.98 150.36 1.00 1.00 r p2
251.68 150.36 1.00 1.00 r p2
252.37 150.36 1.00 1.00 r p2
253.07 150.36 1.00 1.00 r p2
253.77 150.36 1.00 1.00 r p2
254.47 150.36 1.00 1.00 r p2
255.17 150.36 1.00 1.00 r p2
255.86 150.36 1.00 1.00 r p2
256.56 150.36 1.00 1.00 r p2
257.26 150.36 1.00 1.00 r p2
257.96 150.36 1.00 1.00 r p2
258.66 150.36 1.00 1.00 r p2
259.35 150.36 1.00 1.00 r p2
260.05 150.36 1.00 1.00 r p2
260.75 150.36 1.00 1.00 r p2
261.45 150.36 1.00 1.00 r p2
262.14 150.36 1.00 1.00 r p2
262.84 150.36 1.00 1.00 r p2
263.54 150.36 1.00 1.00 r p2
264.24 150.36 1.00 1.00 r p2
264.94 150.36 1.00 1.00 r p2
265.63 150.36 1.00 1.00 r p2
266.33 150.36 1.00 1.00 r p2
267.03 150.36 1.00 1.00 r p2
267.73 150.36 1.00 1.00 r p2
268.43 150.36 1.00 1.00 r p2
269.12 150.36 1.00 1.00 r p2
269.82 150.36 1.00 1.00 r p2
270.52 150.36 1.00 1.00 r p2
271.22 150.36 1.00 1.00 r p2
271.92 150.36 1.00 1.00 r p2
272.61 150.36 1.00 1.00 r p2
273.31 150.36 1.00 1.00 r p2
274.01 150.36 1.00 1.00 r p2
274.71 150.36 1.00 1.00 r p2
275.40 150.36 1.00 1.00 r p2
276.10 150.36 1.00 1.00 r p2
276.80 150.36 1.00 1.00 r p2
277.50 150.36 1.00 1.00 r p2
278.20 150.36 1.00 1.00 r p2
278.89 150.36 1.00 1.00 r p2
279.59 150.36 1.00 1.00 r p2
280.29 150.36 1.00 1.00 r p2
280.99 150.36 1.00 1.00 r p2
281.69 150.36 1.00 1.00 r p2
282.38 150.36 1.00 1.00 r p2
283.08 150.36 1.00 1.00 r p2
283.78 150.36 1.00 1.00 r p2
284.48 150.36 1.00 1.00 r p2
285.17 150.36 1.00 1.00 r p2
285.87 150.36 1.00 1.00 r p2
286.57 150.36 1.00 1.00 r p2
287.27 150.36 1.00 1.00 r p2
287.97 150.36 1.00 1.00 r p2
288.66 150.36 1.00 1.00 r p2
289.36 150.36 1.00 1.00 r p2
290.06 150.36 1.00 1.00 r p2
290.76 150.36 1.00 1.00 r p2
291.46 150.36 1.00 1.00 r p2
292.15 150.36 1.00 1.00 r p2
292.85 150.36 1.00 1.00 r p2
293.55 150.36 1.00 1.00 r p2
294.25 150.36 1.00 1.00 r p2
294.95 150.36 1.00 1.00 r p2
295.64 150.36 1.00 1.00 r p2
296.34 150.36 1.00 1.00 r p2
297.04 150.36 1.00 1.00 r p2
297.74 150.36 1.00 1.00 r p2
298.43 150.36 1.00 1.00 r p2
299.13 150.36 1.00 1.00 r p2
299.83 150.36 1.00 1.00 r p2
300.53 150.36 1.00 1.00 r p2
301.23 150.36 1.00 1.00 r p2
301.92 150.36 1.00 1.00 r p2
302.62 150.36 1.00 1.00 r p2
303.32 150.36 1.00 1.00 r p2
304.02 150.36 1.00 1.00 r p2
304.72 150.36 1.00 1.00 r p2
305.41 150.36 1.00 1.00 r p2
306.11 150.36 1.00 1.00 r p2
306.81 150.36 1.00 1.00 r p2
307.51 150.36 1.00 1.00 r p2
308.21 150.36 1.00 1.00 r p2
308.90 150.36 1.00 1.00 r p2
309.60 150.36 1.00 1.00 r p2
310.30 150.36 1.00 1.00 r p2
311.00 150.36 1.00 1.00 r p2
311.69 150.36 1.00 1.00 r p2
312.39 150.36 1.00 1.00 r p2
313.09 150.36 1.00 1.00 r p2
313.79 150.36 1.00 1.00 r p2
314.49 150.36 1.00 1.00 r p2
315.18 150.36 1.00 1.00 r p2
315.88 150.36 1.00 1.00 r p2
316.58 150.36 1.00 1.00 r p2
317.28 150.36 1.00 1.00 r p2
317.98 150.36 1.00 1.00 r p2
318.67 150.36 1.00 1.00 r p2
319.37 150.36 1.00 1.00 r p2
320.07 150.36 1.00 1.00 r p2
320.77 150.36 1.00 1.00 r p2
321.47 150.36 1.00 1.00 r p2
322.16 150.36 1.00 1.00 r p2
322.86 150.36 1.00 1.00 r p2
323.56 150.36 1.00 1.00 r p2
324.26 150.36 1.00 1.00 r p2
324.95 150.36 1.00 1.00 r p2
325.65 150.36 1.00 1.00 r p2
326.35 150.36 1.00 1.00 r p2
327.05 150.36 1.00 1.00 r p2
327.75 150.36 1.00 1.00 r p2
328.44 150.36 1.00 1.00 r p2
329.14 150.36 1.00 1.00 r p2
329.84 150.36 1.00 1.00 r p2
330.54 150.36 1.00 1.00 r p2
331.24 150.36 1.00 1.00 r p2
331.93 150.36 1.00 1.00 r p2
332.63 150.36 1.00 1.00 r p2
333.33 150.36 1.00 1.00 r p2
334.03 150.36 1.00 1.00 r p2
334.72 150.36 1.00 1.00 r p2
335.42 150.36 1.00 1.00 r p2
336.12 150.36 1.00 1.00 r p2
336.82 150.36 1.00 1.00 r p2
337.52 150.36 1.00 1.00 r p2
338.21 150.36 1.00 1.00 r p2
338.91 150.36 1.00 1.00 r p2
340.11 148.05 (4) .5 0 t
340.81 148.05 (4) .5 0 t
341.51 148.05 (4) .5 0 t
342.20 148.05 (4) .5 0 t
342.90 148.05 (4) .5 0 t
343.60 148.05 (4) .5 0 t
343.80 150.36 1.00 1.00 r p2
344.50 150.36 1.00 1.00 r p2
345.69 148.05 (4) .5 0 t
346.39 148.05 (4) .5 0 t
346.59 150.36 1.00 1.00 r p2
347.79 148.05 (4) .5 0 t
348.48 148.05 (4) .5 0 t
349.18 148.05 (4) .5 0 t
349.88 148.05 (4) .5 0 t
350.58 148.18 (5) .5 0 t
351.28 148.18 (5) .5 0 t
351.47 150.36 1.00 1.00 r p2
352.17 150.36 1.00 1.00 r p2
352.87 150.36 1.00 1.00 r p2
354.07 148.18 (5) .5 0 t
354.77 148.18 (5) .5 0 t
355.46 148.18 (5) .5 0 t
356.16 148.18 (5) .5 0 t
356.36 150.36 1.00 1.00 r p2
357.06 150.36 1.00 1.00 r p2
357.76 150.36 1.00 1.00 r p2
358.45 150.36 1.00 1.00 r p2
359.65 148.18 (5) .5 0 t
360.35 148.18 (5) .5 0 t
361.05 148.18 (5) .5 0 t
361.74 148.18 (5) .5 0 t
362.44 148.18 (5) .5 0 t
363.14 148.18 (5) .5 0 t
363.84 148.18 (5) .5 0 t
364.04 150.36 1.00 1.00 r p2
364.73 150.36 1.00 1.00 r p2
365.43 150.36 1.00 1.00 r p2
366.13 150.36 1.00 1.00 r p2
366.83 150.36 1.00 1.00 r p2
367.53 150.36 1.00 1.00 r p2
368.22 150.36 1.00 1.00 r p2
368.92 150.36 1.00 1.00 r p2
369.62 150.36 1.00 1.00 r p2
370.32 150.36 1.00 1.00 r p2
371.02 150.36 1.00 1.00 r p2
371.71 150.36 1.00 1.00 r p2
372.41 150.36 1.00 1.00 r p2
373.11 150.36 1.00 1.00 r p2
373.81 150.36 1.00 1.00 r p2
374.50 150.36 1.00 1.00 r p2
375.20 150.36 1.00 1.00 r p2
375.90 150.36 1.00 1.00 r p2
376.60 150.36 1.00 1.00 r p2
377.30 150.36 1.00 1.00 r p2
377.99 150.36 1.00 1.00 r p2
378.69 150.36 1.00 1.00 r p2
379.39 150.36 1.00 1.00 r p2
380.09 150.36 1.00 1.00 r p2
380.79 150.36 1.00 1.00 r p2
381.48 150.36 1.00 1.00 r p2
382.18 150.36 1.00 1.00 r p2
383.38 148.18 (5) .5 0 t
384.08 148.18 (5) .5 0 t
384.78 148.18 (5) .5 0 t
385.47 148.18 (5) .5 0 t
386.17 148.18 (5) .5 0 t
386.87 148.18 (5) .5 0 t
387.57 148.18 (5) .5 0 t
387.76 150.36 1.00 1.00 r p2
388.46 150.36 1.00 1.00 r p2
389.16 150.36 1.00 1.00 r p2
390.36 148.18 (5) .5 0 t
391.06 148.18 (5) .5 0 t
391.75 148.18 (5) .5 0 t
392.45 148.18 (5) .5 0 t
392.65 150.36 1.00 1.00 r p2
393.35 150.36 1.00 1.00 r p2
394.05 150.36 1.00 1.00 r p2
395.24 148.18 (5) .5 0 t
395.94 148.18 (5) .5 0 t
396.14 150.36 1.00 1.00 r p2
396.84 150.36 1.00 1.00 r p2
397.53 150.36 1.00 1.00 r p2
398.73 148.12 (6) .5 0 t
398.93 150.36 1.00 1.00 r p2
400.13 148.12 (6) .5 0 t
400.83 148.12 (6) .5 0 t
401.52 148.12 (6) .5 0 t
402.22 148.12 (6) .5 0 t
402.92 148.12 (6) .5 0 t
403.12 150.36 1.00 1.00 r p2
403.82 150.36 1.00 1.00 r p2
404.51 150.36 1.00 1.00 r p2
405.21 150.36 1.00 1.00 r p2
405.91 150.36 1.00 1.00 r p2
406.61 150.36 1.00 1.00 r p2
407.31 150.36 1.00 1.00 r p2
408.00 150.36 1.00 1.00 r p2
408.70 150.36 1.00 1.00 r p2
409.40 150.36 1.00 1.00 r p2
410.10 150.36 1.00 1.00 r p2
410.79 150.36 1.00 1.00 r p2
411.49 150.36 1.00 1.00 r p2
412.19 150.36 1.00 1.00 r p2
412.89 150.36 1.00 1.00 r p2
413.59 150.36 1.00 1.00 r p2
414.28 150.36 1.00 1.00 r p2
414.98 150.36 1.00 1.00 r p2
415.68 150.36 1.00 1.00 r p2
416.38 150.36 1.00 1.00 r p2
417.08 150.36 1.00 1.00 r p2
417.77 150.36 1.00 1.00 r p2
418.47 150.36 1.00 1.00 r p2
419.17 150.36 1.00 1.00 r p2
419.87 150.36 1.00 1.00 r p2
420.57 150.36 1.00 1.00 r p2
421.26 150.36 1.00 1.00 r p2
421.96 150.36 1.00 1.00 r p2
422.66 150.36 1.00 1.00 r p2
423.36 150.36 1.00 1.00 r p2
424.05 150.36 1.00 1.00 r p2
424.75 150.36 1.00 1.00 r p2
425.45 150.36 1.00 1.00 r p2
426.15 150.36 1.00 1.00 r p2
426.85 150.36 1.00 1.00 r p2
427.54 150.36 1.00 1.00 r p2
428.24 150.36 1.00 1.00 r p2
428.94 150.36 1.00 1.00 r p2
429.64 150.36 1.00 1.00 r p2
430.34 150.36 1.00 1.00 r p2
431.03 150.36 1.00 1.00 r p2
431.73 150.36 1.00 1.00 r p2
432.43 150.36 1.00 1.00 r p2
433.13 150.36 1.00 1.00 r p2
433.83 150.36 1.00 1.00 r p2
434.52 150.36 1.00 1.00 r p2
435.22 150.36 1.00 1.00 r p2
435.92 150.36 1.00 1.00 r p2
436.62 150.36 1.00 1.00 r p2
437.31 150.36 1.00 1.00 r p2
438.01 150.36 1.00 1.00 r p2
438.71 150.36 1.00 1.00 r p2
439.41 150.36 1.00 1.00 r p2
440.11 150.36 1.00 1.00 r p2
440.80 150.36 1.00 1.00 r p2
442.00 148.12 (3) .5 0 t
442.70 148.12 (3) .5 0 t
442.90 150.36 1.00 1.00 r p2
444.10 148.12 (3) .5 0 t
444.79 148.12 (3) .5 0 t
445.49 148.12 (3) .5 0 t
446.19 148.12 (3) .5 0 t
446.89 148.12 (3) .5 0 t
447.08 150.36 1.00 1.00 r p2
448.28 148.11 (7) .5 0 t
448.98 148.11 (7) .5 0 t
449.68 148.11 (7) .5 0 t
450.38 148.11 (7) .5 0 t
451.07 148.11 (7) .5 0 t
451.77 148.11 (7) .5 0 t
452.47 148.11 (7) .5 0 t
453.17 148.11 (7) .5 0 t
453.87 148.11 (7) .5 0 t
454.06 150.36 1.00 1.00 r p2
454.76 150.36 1.00 1.00 r p2
455.46 150.36 1.00 1.00 r p2
456.16 150.36 1.00 1.00 r p2
456.86 150.36 1.00 1.00 r p2
457.55 150.36 1.00 1.00 r p2
458.25 150.36 1.00 1.00 r p2
458.95 150.36 1.00 1.00 r p2
459.65 150.36 1.00 1.00 r p2
460.34 150.36 1.00 1.00 r p2
461.04 150.36 1.00 1.00 r p2
461.74 150.36 1.00 1.00 r p2
462.44 150.36 1.00 1.00 r p2
463.14 150.36 1.00 1.00 r p2
463.83 150.36 1.00 1.00 r p2
464.53 150.36 1.00 1.00 r p2
465.23 150.36 1.00 1.00 r p2
465.93 150.36 1.00 1.00 r p2
466.63 150.36 1.00 1.00 r p2
467.32 150.36 1.00 1.00 r p2
468.02 150.36 1.00 1.00 r p2
468.72 150.36 1.00 1.00 r p2
469.42 150.36 1.00 1.00 r p2
470.12 150.36 1.00 1.00 r p2
470.81 150.36 1.00 1.00 r p2
471.51 150.36 1.00 1.00 r p2
472.21 150.36 1.00 1.00 r p2
472.91 150.36 1.00 1.00 r p2
473.60 150.36 1.00 1.00 r p2
474.30 150.36 1.00 1.00 r p2
475.00 150.36 1.00 1.00 r p2
475.70 150.36 1.00 1.00 r p2
476.40 150.36 1.00 1.00 r p2
477.09 150.36 1.00 1.00 r p2
477.79 150.36 1.00 1.00 r p2
478.49 150.36 1.00 1.00 r p2
479.19 150.36 1.00 1.00 r p2
479.89 150.36 1.00 1.00 r p2
480.58 150.36 1.00 1.00 r p2
481.28 150.36 1.00 1.00 r p2
481.98 150.36 1.00 1.00 r p2
482.68 150.36 1.00 1.00 r p2
483.38 150.36 1.00 1.00 r p2
484.07 150.36 1.00 1.00 r p2
484.77 150.36 1.00 1.00 r p2
485.47 150.36 1.00 1.00 r p2
486.17 150.36 1.00 1.00 r p2
486.86 150.36 1.00 1.00 r p2
487.56 150.36 1.00 1.00 r p2
488.26 150.36 1.00 1.00 r p2
488.96 150.36 1.00 1.00 r p2
489.66 150.36 1.00 1.00 r p2
490.35 150.36 1.00 1.00 r p2
491.05 150.36 1.00 1.00 r p2
491.75 150.36 1.00 1.00 r p2
492.45 150.36 1.00 1.00 r p2
493.15 150.36 1.00 1.00 r p2
493.84 150.36 1.00 1.00 r p2
494.54 150.36 1.00 1.00 r p2
495.24 150.36 1.00 1.00 r p2
495.94 150.36 1.00 1.00 r p2
496.63 150.36 1.00 1.00 r p2
497.33 150.36 1.00 1.00 r p2
498.03 150.36 1.00 1.00 r p2
498.73 150.36 1.00 1.00 r p2
499.43 150.36 1.00 1.00 r p2
500.12 150.36 1.00 1.00 r p2
500.82 150.36 1.00 1.00 r p2
501.52 150.36 1.00 1.00 r p2
502.22 150.36 1.00 1.00 r p2
502.92 150.36 1.00 1.00 r p2
503.61 150.36 1.00 1.00 r p2
504.31 150.36 1.00 1.00 r p2
505.01 150.36 1.00 1.00 r p2
505.71 150.36 1.00 1.00 r p2
506.41 150.36 1.00 1.00 r p2
507.10 150.36 1.00 1.00 r p2
507.80 150.36 1.00 1.00 r p2
508.50 150.36 1.00 1.00 r p2
509.20 150.36 1.00 1.00 r p2
509.89 150.36 1.00 1.00 r p2
510.59 150.36 1.00 1.00 r p2
511.29 150.36 1.00 1.00 r p2
511.99 150.36 1.00 1.00 r p2
512.69 150.36 1.00 1.00 r p2
513.38 150.36 1.00 1.00 r p2
514.08 150.36 1.00 1.00 r p2
514.78 150.36 1.00 1.00 r p2
515.48 150.36 1.00 1.00 r p2
516.18 150.36 1.00 1.00 r p2
516.87 150.36 1.00 1.00 r p2
517.57 150.36 1.00 1.00 r p2
518.27 150.36 1.00 1.00 r p2
518.97 150.36 1.00 1.00 r p2
519.67 150.36 1.00 1.00 r p2
520.36 150.36 1.00 1.00 r p2
521.06 150.36 1.00 1.00 r p2
521.76 150.36 1.00 1.00 r p2
522.46 150.36 1.00 1.00 r p2
523.15 150.36 1.00 1.00 r p2
523.85 150.36 1.00 1.00 r p2
524.55 150.36 1.00 1.00 r p2
525.25 150.36 1.00 1.00 r p2
525.95 150.36 1.00 1.00 r p2
526.64 150.36 1.00 1.00 r p2
527.34 150.36 1.00 1.00 r p2
528.04 150.36 1.00 1.00 r p2
528.74 150.36 1.00 1.00 r p2
529.44 150.36 1.00 1.00 r p2
530.13 150.36 1.00 1.00 r p2
530.83 150.36 1.00 1.00 r p2
531.53 150.36 1.00 1.00 r p2
532.23 150.36 1.00 1.00 r p2
532.93 150.36 1.00 1.00 r p2
533.62 150.36 1.00 1.00 r p2
534.32 150.36 1.00 1.00 r p2
535.02 150.36 1.00 1.00 r p2
535.72 150.36 1.00 1.00 r p2
536.41 150.36 1.00 1.00 r p2
537.11 150.36 1.00 1.00 r p2
537.81 150.36 1.00 1.00 r p2
538.51 150.36 1.00 1.00 r p2
539.21 150.36 1.00 1.00 r p2
539.90 150.36 1.00 1.00 r p2
540.60 150.36 1.00 1.00 r p2
541.30 150.36 1.00 1.00 r p2
542.00 150.36 1.00 1.00 r p2
542.70 150.36 1.00 1.00 r p2
543.39 150.36 1.00 1.00 r p2
544.09 150.36 1.00 1.00 r p2
544.79 150.36 1.00 1.00 r p2
545.49 150.36 1.00 1.00 r p2
546.19 150.36 1.00 1.00 r p2
546.88 150.36 1.00 1.00 r p2
547.58 150.36 1.00 1.00 r p2
548.28 150.36 1.00 1.00 r p2
548.98 150.36 1.00 1.00 r p2
549.67 150.36 1.00 1.00 r p2
550.37 150.36 1.00 1.00 r p2
551.07 150.36 1.00 1.00 r p2
551.77 150.36 1.00 1.00 r p2
552.47 150.36 1.00 1.00 r p2
553.16 150.36 1.00 1.00 r p2
553.86 150.36 1.00 1.00 r p2
554.56 150.36 1.00 1.00 r p2
555.26 150.36 1.00 1.00 r p2
555.96 150.36 1.00 1.00 r p2
556.65 150.36 1.00 1.00 r p2
557.35 150.36 1.00 1.00 r p2
558.05 150.36 1.00 1.00 r p2
558.75 150.36 1.00 1.00 r p2
559.44 150.36 1.00 1.00 r p2
560.14 150.36 1.00 1.00 r p2
560.84 150.36 1.00 1.00 r p2
561.54 150.36 1.00 1.00 r p2
562.24 150.36 1.00 1.00 r p2
562.93 150.36 1.00 1.00 r p2
563.63 150.36 1.00 1.00 r p2
564.33 150.36 1.00 1.00 r p2
565.03 150.36 1.00 1.00 r p2
565.73 150.36 1.00 1.00 r p2
566.42 150.36 1.00 1.00 r p2
567.12 150.36 1.00 1.00 r p2
567.82 150.36 1.00 1.00 r p2
568.52 150.36 1.00 1.00 r p2
569.22 150.36 1.00 1.00 r p2
569.91 150.36 1.00 1.00 r p2
570.61 150.36 1.00 1.00 r p2
571.31 150.36 1.00 1.00 r p2
572.01 150.36 1.00 1.00 r p2
572.70 150.36 1.00 1.00 r p2
573.40 150.36 1.00 1.00 r p2
574.10 150.36 1.00 1.00 r p2
574.80 150.36 1.00 1.00 r p2
575.50 150.36 1.00 1.00 r p2
576.19 150.36 1.00 1.00 r p2
576.89 150.36 1.00 1.00 r p2
577.59 150.36 1.00 1.00 r p2
578.29 150.36 1.00 1.00 r p2
578.99 150.36 1.00 1.00 r p2
579.68 150.36 1.00 1.00 r p2
580.38 150.36 1.00 1.00 r p2
581.08 150.36 1.00 1.00 r p2
581.78 150.36 1.00 1.00 r p2
582.48 150.36 1.00 1.00 r p2
583.17 150.36 1.00 1.00 r p2
583.87 150.36 1.00 1.00 r p2
584.57 150.36 1.00 1.00 r p2
585.27 150.36 1.00 1.00 r p2
585.96 150.36 1.00 1.00 r p2
586.66 150.36 1.00 1.00 r p2
587.36 150.36 1.00 1.00 r p2
588.06 150.36 1.00 1.00 r p2
588.76 150.36 1.00 1.00 r p2
589.45 150.36 1.00 1.00 r p2
590.15 150.36 1.00 1.00 r p2
590.85 150.36 1.00 1.00 r p2
591.55 150.36 1.00 1.00 r p2
592.25 150.36 1.00 1.00 r p2
592.94 150.36 1.00 1.00 r p2
593.64 150.36 1.00 1.00 r p2
594.34 150.36 1.00 1.00 r p2
595.04 150.36 1.00 1.00 r p2
595.74 150.36 1.00 1.00 r p2
596.43 150.36 1.00 1.00 r p2
597.13 150.36 1.00 1.00 r p2
597.83 150.36 1.00 1.00 r p2
598.53 150.36 1.00 1.00 r p2
599.22 150.36 1.00 1.00 r p2
599.92 150.36 1.00 1.00 r p2
600.62 150.36 1.00 1.00 r p2
601.32 150.36 1.00 1.00 r p2
602.02 150.36 1.00 1.00 r p2
602.71 150.36 1.00 1.00 r p2
603.41 150.36 1.00 1.00 r p2
604.11 150.36 1.00 1.00 r p2
604.81 150.36 1.00 1.00 r p2
605.51 150.36 1.00 1.00 r p2
606.20 150.36 1.00 1.00 r p2
606.90 150.36 1.00 1.00 r p2
607.60 150.36 1.00 1.00 r p2
608.30 150.36 1.00 1.00 r p2
608.99 150.36 1.00 1.00 r p2
609.69 150.36 1.00 1.00 r p2
610.39 150.36 1.00 1.00 r p2
611.09 150.36 1.00 1.00 r p2
611.79 150.36 1.00 1.00 r p2
612.48 150.36 1.00 1.00 r p2
613.18 150.36 1.00 1.00 r p2
613.88 150.36 1.00 1.00 r p2
614.58 150.36 1.00 1.00 r p2
615.28 150.36 1.00 1.00 r p2
615.97 150.36 1.00 1.00 r p2
616.67 150.36 1.00 1.00 r p2
617.37 150.36 1.00 1.00 r p2
618.07 150.36 1.00 1.00 r p2
618.77 150.36 1.00 1.00 r p2
619.46 150.36 1.00 1.00 r p2
620.16 150.36 1.00 1.00 r p2
620.86 150.36 1.00 1.00 r p2
621.56 150.36 1.00 1.00 r p2
622.25 150.36 1.00 1.00 r p2
622.95 150.36 1.00 1.00 r p2
623.65 150.36 1.00 1.00 r p2
624.35 150.36 1.00 1.00 r p2
625.05 150.36 1.00 1.00 r p2
625.74 150.36 1.00 1.00 r p2
626.44 150.36 1.00 1.00 r p2
627.14 150.36 1.00 1.00 r p2
627.84 150.36 1.00 1.00 r p2
628.54 150.36 1.00 1.00 r p2
629.23 150.36 1.00 1.00 r p2
629.93 150.36 1.00 1.00 r p2
630.63 150.36 1.00 1.00 r p2
631.33 150.36 1.00 1.00 r p2
632.03 150.36 1.00 1.00 r p2
632.72 150.36 1.00 1.00 r p2
633.42 150.36 1.00 1.00 r p2
634.12 150.36 1.00 1.00 r p2
634.82 150.36 1.00 1.00 r p2
635.51 150.36 1.00 1.00 r p2
636.21 150.36 1.00 1.00 r p2
636.91 150.36 1.00 1.00 r p2
637.61 150.36 1.00 1.00 r p2
638.31 150.36 1.00 1.00 r p2
639.00 150.36 1.00 1.00 r p2
640.20 148.11 (7) .5 0 t
640.90 148.11 (7) .5 0 t
641.60 148.11 (7) .5 0 t
642.30 148.11 (7) .5 0 t
642.99 148.11 (7) .5 0 t
643.69 148.11 (7) .5 0 t
644.39 148.11 (7) .5 0 t
645.09 148.11 (7) .5 0 t
645.79 148.11 (7) .5 0 t
645.98 150.36 1.00 1.00 r p2
646.68 150.36 1.00 1.00 r p2
647.38 150.36 1.00 1.00 r p2
648.08 150.36 1.00 1.00 r p2
648.77 150.36 1.00 1.00 r p2
649.47 150.36 1.00 1.00 r p2
650.17 150.36 1.00 1.00 r p2
650.87 150.36 1.00 1.00 r p2
652.07 148.12 (6) .5 0 t
652.76 148.12 (6) .5 0 t
653.46 148.12 (6) .5 0 t
654.16 148.12 (6) .5 0 t
654.86 148.12 (6) .5 0 t
655.56 148.12 (6) .5 0 t
655.75 150.36 1.00 1.00 r p2
656.45 150.36 1.00 1.00 r p2
657.15 150.36 1.00 1.00 r p2
657.85 150.36 1.00 1.00 r p2
658.54 150.36 1.00 1.00 r p2
659.24 150.36 1.00 1.00 r p2
660.44 148.12 (8) .5 0 t
661.14 148.12 (8) .5 0 t
661.84 148.12 (8) .5 0 t
662.53 148.12 (8) .5 0 t
663.23 148.12 (8) .5 0 t
663.43 150.36 1.00 1.00 r p2
664.13 150.36 1.00 1.00 r p2
664.83 150.36 1.00 1.00 r p2
665.52 150.36 1.00 1.00 r p2
666.72 148.12 (8) .5 0 t
667.42 148.12 (8) .5 0 t
668.12 148.12 (8) .5 0 t
668.82 148.12 (8) .5 0 t
669.51 148.12 (8) .5 0 t
669.71 150.36 1.00 1.00 r p2
670.41 150.36 1.00 1.00 r p2
1 0 0 srgb
0.75 setlinewidth
[] 0 setdash
1 setlinecap
1 setlinejoin
10.00 setmiterlimit
np
49.79 145.86 m
2.54 -4.41 l
-5.09 0 l
2.55 4.41 l
o
np
52.58 145.86 m
2.55 -4.41 l
-5.10 0 l
2.55 4.41 l
o
np
52.58 145.86 m
2.55 -4.41 l
-5.10 0 l
2.55 4.41 l
o
np
80.50 145.86 m
2.54 -4.41 l
-5.09 0 l
2.55 4.41 l
o
np
88.87 145.86 m
2.55 -4.41 l
-5.09 0 l
2.54 4.41 l
o
np
128.65 145.86 m
2.55 -4.41 l
-5.10 0 l
2.55 4.41 l
o
np
207.51 145.86 m
2.55 -4.41 l
-5.09 0 l
2.54 4.41 l
o
np
128.65 145.86 m
2.55 -4.41 l
-5.10 0 l
2.55 4.41 l
o
np
215.19 145.86 m
2.54 -4.41 l
-5.09 0 l
2.55 4.41 l
o
np
207.51 145.86 m
2.55 -4.41 l
-5.09 0 l
2.54 4.41 l
o
np
207.51 145.86 m
2.55 -4.41 l
-5.09 0 l
2.54 4.41 l
o
np
215.19 145.86 m
2.54 -4.41 l
-5.09 0 l
2.55 4.41 l
o
np
340.11 145.86 m
2.55 -4.41 l
-5.10 0 l
2.55 4.41 l
o
np
350.58 145.86 m
2.54 -4.41 l
-5.09 0 l
2.55 4.41 l
o
np
340.11 145.86 m
2.55 -4.41 l
-5.10 0 l
2.55 4.41 l
o
np
383.38 145.86 m
2.54 -4.41 l
-5.09 0 l
2.55 4.41 l
o
np
398.73 145.86 m
2.55 -4.41 l
-5.09 0 l
2.54 4.41 l
o
np
383.38 145.86 m
2.54 -4.41 l
-5.09 0 l
2.55 4.41 l
o
np
398.73 145.86 m
2.55 -4.41 l
-5.09 0 l
2.54 4.41 l
o
np
398.73 145.86 m
2.55 -4.41 l
-5.09 0 l
2.54 4.41 l
o
np
448.28 145.86 m
2.55 -4.41 l
-5.09 0 l
2.54 4.41 l
o
np
448.28 145.86 m
2.55 -4.41 l
-5.09 0 l
2.54 4.41 l
o
np
448.28 145.86 m
2.55 -4.41 l
-5.09 0 l
2.54 4.41 l
o
np
640.20 145.86 m
2.55 -4.41 l
-5.09 0 l
2.54 4.41 l
o
np
640.20 145.86 m
2.55 -4.41 l
-5.09 0 l
2.54 4.41 l
o
np
652.07 145.86 m
2.54 -4.41 l
-5.09 0 l
2.55 4.41 l
o
np
660.44 145.86 m
2.55 -4.41 l
-5.09 0 l
2.54 4.41 l
o
np
86.08 145.86 m
2.54 -4.41 l
-5.09 0 l
2.55 4.41 l
o
np
90.27 145.86 m
2.54 -4.41 l
-5.09 0 l
2.55 4.41 l
o
np
130.05 145.86 m
2.54 -4.41 l
-5.09 0 l
2.55 4.41 l
o
np
130.05 145.86 m
2.54 -4.41 l
-5.09 0 l
2.55 4.41 l
o
np
212.40 145.86 m
2.54 -4.41 l
-5.09 0 l
2.55 4.41 l
o
np
225.66 145.86 m
2.54 -4.41 l
-5.09 0 l
2.55 4.41 l
o
np
225.66 145.86 m
2.54 -4.41 l
-5.09 0 l
2.55 4.41 l
o
np
446.89 145.86 m
2.54 -4.41 l
-5.09 0 l
2.55 4.41 l
o
np
363.84 145.86 m
2.54 -4.41 l
-5.09 0 l
2.55 4.41 l
o
np
402.92 145.86 m
2.55 -4.41 l
-5.10 0 l
2.55 4.41 l
o
np
446.89 145.86 m
2.54 -4.41 l
-5.09 0 l
2.55 4.41 l
o
np
446.89 145.86 m
2.54 -4.41 l
-5.09 0 l
2.55 4.41 l
o
np
395.94 145.86 m
2.55 -4.41 l
-5.09 0 l
2.54 4.41 l
o
np
402.92 145.86 m
2.55 -4.41 l
-5.10 0 l
2.55 4.41 l
o
np
453.87 145.86 m
2.54 -4.41 l
-5.09 0 l
2.55 4.41 l
o
np
453.87 145.86 m
2.54 -4.41 l
-5.09 0 l
2.55 4.41 l
o
np
446.89 145.86 m
2.54 -4.41 l
-5.09 0 l
2.55 4.41 l
o
np
655.56 145.86 m
2.54 -4.41 l
-5.09 0 l
2.55 4.41 l
o
np
655.56 145.86 m
2.54 -4.41 l
-5.09 0 l
2.55 4.41 l
o
np
663.23 145.86 m
2.55 -4.41 l
-5.09 0 l
2.54 4.41 l
o
np
655.56 145.86 m
2.54 -4.41 l
-5.09 0 l
2.55 4.41 l
o
np
663.23 145.86 m
2.55 -4.41 l
-5.09 0 l
2.54 4.41 l
o
np
669.51 145.86 m
2.55 -4.41 l
-5.09 0 l
2.54 4.41 l
o
np
655.56 145.86 m
2.54 -4.41 l
-5.09 0 l
2.55 4.41 l
o
np
669.51 145.86 m
2.55 -4.41 l
-5.09 0 l
2.54 4.41 l
o
np
669.51 145.86 m
2.55 -4.41 l
-5.09 0 l
2.54 4.41 l
o
np
670.91 145.86 m
2.54 -4.41 l
-5.09 0 l
2.55 4.41 l
o
0 0 0.8000 srgb
np
49.79 127.05 m
36.29 0 l
o
/Font1 findfont 7 s
67.93 129.93 (left-P1) .5 0 t
0 0 0.8235 srgb
np
52.58 123.87 m
37.69 0 l
o
71.42 116.80 (P1-L2) .5 0 t
0 0 0.9020 srgb
np
52.58 120.70 m
77.47 0 l
o
91.31 123.58 (P1-P2) .5 0 t
0 0 0.9490 srgb
np
80.50 117.52 m
49.55 0 l
o
105.27 110.46 (R1-P2) .5 0 t
0 0.2510 1 srgb
np
88.87 114.35 m
123.53 0 l
o
150.63 117.23 (P2-L3) .5 0 t
0 0.5020 1 srgb
np
128.65 111.17 m
97.01 0 l
o
177.15 104.11 (R2-L4) .5 0 t
0 0.8000 1 srgb
np
207.51 108.00 m
18.15 0 l
o
216.58 110.88 (L3-L4) .5 0 t
0.1804 1 0.8196 srgb
np
128.65 104.83 m
318.24 0 l
o
287.77 97.76 (R2-P3) .5 0 t
0.2039 1 0.7961 srgb
np
215.19 101.65 m
148.65 0 l
o
289.51 104.53 (P4-L5) .5 0 t
0.2549 1 0.7451 srgb
np
207.51 98.48 m
195.41 0 l
o
305.22 91.41 (L3-L6) .5 0 t
0.3608 1 0.6392 srgb
np
207.51 95.30 m
239.38 0 l
o
327.20 98.18 (P3-L4) .5 0 t
np
215.19 92.13 m
231.70 0 l
o
331.04 85.06 (R3-P4) .5 0 t
0.5137 1 0.4863 srgb
np
340.11 88.95 m
55.83 0 l
o
368.03 91.83 (R4-P5) .5 0 t
0.5647 1 0.4353 srgb
np
350.58 85.78 m
52.34 0 l
o
376.75 78.71 (P5-L6) .5 0 t
0.6392 1 0.3608 srgb
np
340.11 82.60 m
113.76 0 l
o
396.99 85.48 (R4-L7) .5 0 t
0.7176 1 0.2824 srgb
np
383.38 79.43 m
70.49 0 l
o
418.62 72.36 (R5-L7) .5 0 t
0.7451 1 0.2549 srgb
np
398.73 76.25 m
48.16 0 l
o
422.81 79.13 (L6-R3) .5 0 t
1 0.6980 0 srgb
np
383.38 73.08 m
272.18 0 l
o
519.47 66.01 (R5-P6) .5 0 t
1 0.6510 0 srgb
np
398.73 69.90 m
256.83 0 l
o
527.14 72.78 (P6-L7) .5 0 t
np
398.73 66.73 m
264.50 0 l
o
530.98 59.66 (L6-L8) .5 0 t
1 0.4510 0 srgb
np
448.28 63.56 m
207.28 0 l
o
551.92 66.44 (R6-P7) .5 0 t
np
448.28 60.38 m
214.95 0 l
o
555.76 53.31 (P7-L8) .5 0 t
1 0.4000 0 srgb
np
448.28 57.21 m
221.23 0 l
o
558.90 60.09 (P7-P8) .5 0 t
0.8510 0 0 srgb
np
640.20 54.03 m
15.36 0 l
o
647.88 46.96 (R7-R6) .5 0 t
0.8235 0 0 srgb
np
640.20 50.86 m
29.31 0 l
o
654.86 53.74 (R7-P8) .5 0 t
0.8000 0 0 srgb
np
652.07 47.68 m
17.44 0 l
o
660.79 40.61 (R6-P8) .5 0 t
0.7765 0 0 srgb
np
660.44 44.51 m
10.47 0 l
o
652.54 47.39 (P8-r) 0 ta
0.105 (ight) tb gr
ep
%%Trailer
%%Pages: 1
%%EOF
